<?xml version="1.0" encoding="utf-8"?>
<!-- Generator: Adobe Illustrator 24.3.0, SVG Export Plug-In . SVG Version: 6.00 Build 0)  -->
<svg version="1.1" id="Layer_1" xmlns="http://www.w3.org/2000/svg" xmlns:xlink="http://www.w3.org/1999/xlink" x="0px" y="0px"
	 viewBox="0 0 700 600" style="enable-background:new 0 0 700 600;" xml:space="preserve">
<style type="text/css">
	.st0{opacity:0.2;fill:#92B4D1;}
	.st1{fill:#2672AB;}
	.st2{fill:#D1EBFF;}
	.st3{opacity:0.5;fill:#3F92D1;}
	.st4{fill:#3F92D1;}
	.st5{fill:#FFFFFF;}
	.st6{opacity:0.3;fill:#FFFFFF;}
	.st7{fill:#A8CFF0;}
	.st8{fill:#72B5E8;}
	.st9{fill:#03336E;}
	.st10{fill:#022652;}
	.st11{opacity:0.7;fill:#FFFFFF;}
	.st12{opacity:0.1;fill:#F1F2F2;}
	.st13{opacity:0.1429;fill:#ECEFF0;}
	.st14{opacity:0.1857;fill:#E7EBEE;}
	.st15{opacity:0.2286;fill:#E2E8EC;}
	.st16{opacity:0.2714;fill:#DEE5EA;}
	.st17{opacity:0.3143;fill:#D9E1E8;}
	.st18{opacity:0.3571;fill:#D4DEE6;}
	.st19{opacity:0.4;fill:#CFDBE4;}
	.st20{opacity:0.4429;fill:#CAD7E2;}
	.st21{opacity:0.4857;fill:#C5D4E0;}
	.st22{opacity:0.5286;fill:#C0D1DE;}
	.st23{opacity:0.5714;fill:#BCCDDB;}
	.st24{opacity:0.6143;fill:#B7CAD9;}
	.st25{opacity:0.6571;fill:#B2C7D7;}
	.st26{opacity:0.7;fill:#ADC3D5;}
	.st27{opacity:0.7429;fill:#A8C0D3;}
	.st28{opacity:0.7857;fill:#A3BDD1;}
	.st29{opacity:0.8286;fill:#9EB9CF;}
	.st30{opacity:0.8714;fill:#9AB6CD;}
	.st31{opacity:0.9143;fill:#95B3CB;}
	.st32{opacity:0.9571;fill:#90AFC9;}
	.st33{fill:#8BACC7;}
	.st34{fill:#EB4680;}
	.st35{fill:#FFD70F;}
	.st36{opacity:0.5;fill:#FFFFFF;}
	.st37{fill:#0BA19F;}
	.st38{fill:#3ECFCD;}
	.st39{fill:#0FBAB8;}
	.st40{fill:url(#SVGID_1_);}
	.st41{fill:url(#SVGID_2_);}
	.st42{fill:url(#SVGID_3_);}
	.st43{fill:#FFDE17;}
	.st44{fill:#FFCC00;}
	.st45{fill:#E6EDFC;}
	.st46{fill:#D7E2F4;}
	.st47{fill:#444A7C;}
	.st48{fill:#262A41;}
	.st49{fill:none;stroke:#FFFFFF;stroke-width:0.6671;stroke-miterlimit:10;}
	.st50{fill:#85D2F9;}
	.st51{fill:none;stroke:#FFFFFF;stroke-width:0.3254;stroke-miterlimit:10;}
	.st52{fill:none;stroke:#FFFFFF;stroke-width:0.3254;stroke-miterlimit:10;stroke-dasharray:1.2826,1.2826;}
	.st53{fill:none;stroke:#FFFFFF;stroke-width:0.3254;stroke-miterlimit:10;stroke-dasharray:1.2776,1.2776;}
	.st54{fill:#8391FC;stroke:#FFFFFF;stroke-width:0.3254;stroke-miterlimit:10;}
	.st55{opacity:0.8;fill:#444A7C;}
	.st56{opacity:0.8;fill:#8391FC;}
	.st57{fill:#8391FC;}
	.st58{fill:none;stroke:#FFFFFF;stroke-width:1.0422;stroke-miterlimit:10;}
	.st59{fill:none;stroke:#C8D0FC;stroke-width:0.2605;stroke-miterlimit:10;}
	.st60{fill:none;stroke:#FFFFFF;stroke-width:0.2605;stroke-linecap:round;stroke-miterlimit:10;}
	.st61{fill:none;stroke:#FFFFFF;stroke-width:0.5211;stroke-miterlimit:10;}
	.st62{fill:#E5E1F9;}
	.st63{fill:#7683E1;}
	.st64{fill:#E8A398;}
	.st65{fill:#C3D3EA;}
	.st66{fill:none;stroke:#E8B1C3;stroke-width:1.9735;stroke-miterlimit:10;}
	.st67{fill:#7481B2;}
	.st68{fill:#545C8C;}
	.st69{fill:#ECECEC;}
	.st70{fill:#F0F0F0;}
	.st71{fill:#F5F5F5;}
	.st72{fill:#E7E7E7;}
	.st73{fill:#FAFAFA;}
	.st74{opacity:0.4;fill:#E7E7E7;}
	.st75{fill:#E1E1E1;}
	.st76{fill:#007CFF;}
	.st77{opacity:0.2;fill:#FFFFFF;}
	.st78{opacity:0.2;}
	.st79{opacity:0.6;fill:#FFFFFF;}
	.st80{opacity:0.3;}
	.st81{fill:#1A2E35;}
	.st82{opacity:0.4;fill:#FFFFFF;}
	.st83{fill:#CD5B51;}
	.st84{fill:#BA221F;}
	.st85{opacity:0.4;}
	.st86{fill:#1A4175;}
	.st87{fill:#1674BA;}
	.st88{fill-rule:evenodd;clip-rule:evenodd;fill:#389CCF;}
	.st89{fill:url(#XMLID_584_);}
	.st90{fill-rule:evenodd;clip-rule:evenodd;fill:#1674BA;}
	.st91{fill:#1B75BB;}
	.st92{clip-path:url(#SVGID_6_);}
	.st93{clip-path:url(#SVGID_7_);}
	.st94{filter:url(#Adobe_OpacityMaskFilter);}
	.st95{filter:url(#Adobe_OpacityMaskFilter_1_);}
	.st96{mask:url(#SVGID_8_);fill:url(#SVGID_9_);}
	.st97{opacity:0.3;fill:#ADBCFF;}
	.st98{filter:url(#Adobe_OpacityMaskFilter_2_);}
	.st99{filter:url(#Adobe_OpacityMaskFilter_3_);}
	.st100{mask:url(#SVGID_10_);fill:url(#SVGID_11_);}
	.st101{opacity:0.7;fill:#E6EDFC;}
	.st102{fill:none;stroke:#1A2E35;stroke-width:2;stroke-miterlimit:10;}
	.st103{fill:none;stroke:#1A2E35;stroke-linecap:round;stroke-linejoin:round;stroke-miterlimit:10;}
	.st104{opacity:0.44;fill:#FFFFFF;}
	.st105{fill:none;stroke:#FFFFFF;stroke-miterlimit:10;}
	.st106{fill:none;stroke:#1A2E35;stroke-width:0.5;stroke-miterlimit:10;}
	.st107{fill:#FFFFFF;stroke:#1A2E35;stroke-width:0.5;stroke-miterlimit:10;}
	.st108{fill:#1A2E35;stroke:#1A2E35;stroke-linecap:round;stroke-linejoin:round;stroke-miterlimit:10;}
	.st109{fill:#FFFFFF;stroke:#1A2E35;stroke-linecap:round;stroke-linejoin:round;stroke-miterlimit:10;}
	.st110{fill:#808080;stroke:#1A2E35;stroke-linecap:round;stroke-linejoin:round;stroke-miterlimit:10;}
	.st111{fill:#B0B0D9;}
	.st112{fill:#B0B0D9;stroke:#1A2E35;stroke-linecap:round;stroke-linejoin:round;stroke-miterlimit:10;}
	.st113{opacity:0.2;clip-path:url(#XMLID_585_);fill:#404773;}
	.st114{fill:#AAFF00;}
	.st115{opacity:0.2;clip-path:url(#XMLID_586_);fill:#8383C9;}
	.st116{opacity:0.2;clip-path:url(#XMLID_587_);}
	.st117{clip-path:url(#XMLID_589_);fill:none;stroke:#1A2E35;stroke-linecap:round;stroke-linejoin:round;stroke-miterlimit:10;}
	.st118{clip-path:url(#XMLID_591_);}
	.st119{fill:#575757;}
	.st120{fill:none;stroke:#575757;stroke-miterlimit:10;}
	.st121{filter:url(#Adobe_OpacityMaskFilter_4_);}
	.st122{filter:url(#Adobe_OpacityMaskFilter_5_);}
	.st123{mask:url(#SVGID_12_);fill:url(#SVGID_13_);}
	.st124{fill:#939AA3;}
	.st125{fill:#404773;}
	.st126{fill:#EEA886;}
	.st127{fill:#C5CDDB;}
	.st128{fill:#E55353;}
	.st129{fill:#434343;}
	.st130{fill:#282C47;}
	.st131{fill:#525252;}
	.st132{fill:#EDDAD3;}
	.st133{fill:#A77860;}
	.st134{fill:url(#SVGID_14_);}
	.st135{fill:#7A7AB5;}
	.st136{fill:url(#SVGID_15_);}
	.st137{fill:url(#SVGID_16_);}
	.st138{fill:#2A2E4A;}
	.st139{fill:url(#SVGID_17_);}
	.st140{fill:#626EB0;}
	.st141{opacity:0.72;fill:#D9D9D9;}
	.st142{fill:#8383C9;}
	.st143{enable-background:new    ;}
	.st144{fill:url(#SVGID_18_);}
	.st145{fill:url(#SVGID_19_);}
	.st146{fill:url(#SVGID_20_);}
	.st147{opacity:0.8;}
	.st148{opacity:0;fill:#D7C8FF;}
	.st149{opacity:6.369427e-03;fill:#D6C7FE;}
	.st150{opacity:0.0127;fill:#D5C6FE;}
	.st151{opacity:0.0191;fill:#D4C6FD;}
	.st152{opacity:0.0255;fill:#D3C5FC;}
	.st153{opacity:0.0318;fill:#D2C4FB;}
	.st154{opacity:0.0382;fill:#D1C3FB;}
	.st155{opacity:0.0446;fill:#D0C3FA;}
	.st156{opacity:0.051;fill:#CFC2F9;}
	.st157{opacity:0.0573;fill:#CEC1F9;}
	.st158{opacity:0.0637;fill:#CDC0F8;}
	.st159{opacity:0.0701;fill:#CCC0F7;}
	.st160{opacity:0.0764;fill:#CBBFF6;}
	.st161{opacity:0.0828;fill:#CABEF6;}
	.st162{opacity:0.0892;fill:#C9BDF5;}
	.st163{opacity:0.0955;fill:#C8BDF4;}
	.st164{opacity:0.1019;fill:#C7BCF3;}
	.st165{opacity:0.1083;fill:#C6BBF3;}
	.st166{opacity:0.1146;fill:#C5BAF2;}
	.st167{opacity:0.121;fill:#C4B9F1;}
	.st168{opacity:0.1274;fill:#C3B9F1;}
	.st169{opacity:0.1338;fill:#C2B8F0;}
	.st170{opacity:0.1401;fill:#C1B7EF;}
	.st171{opacity:0.1465;fill:#C0B6EE;}
	.st172{opacity:0.1529;fill:#BFB6EE;}
	.st173{opacity:0.1592;fill:#BEB5ED;}
	.st174{opacity:0.1656;fill:#BDB4EC;}
	.st175{opacity:0.172;fill:#BCB3EC;}
	.st176{opacity:0.1783;fill:#BBB3EB;}
	.st177{opacity:0.1847;fill:#BAB2EA;}
	.st178{opacity:0.1911;fill:#B9B1E9;}
	.st179{opacity:0.1975;fill:#B8B0E9;}
	.st180{opacity:0.2038;fill:#B7B0E8;}
	.st181{opacity:0.2102;fill:#B6AFE7;}
	.st182{opacity:0.2166;fill:#B5AEE7;}
	.st183{opacity:0.2229;fill:#B4ADE6;}
	.st184{opacity:0.2293;fill:#B3ACE5;}
	.st185{opacity:0.2357;fill:#B2ACE4;}
	.st186{opacity:0.242;fill:#B1ABE4;}
	.st187{opacity:0.2484;fill:#B0AAE3;}
	.st188{opacity:0.2548;fill:#AFA9E2;}
	.st189{opacity:0.2611;fill:#AEA9E1;}
	.st190{opacity:0.2675;fill:#ADA8E1;}
	.st191{opacity:0.2739;fill:#ACA7E0;}
	.st192{opacity:0.2803;fill:#ABA6DF;}
	.st193{opacity:0.2866;fill:#AAA6DF;}
	.st194{opacity:0.293;fill:#A9A5DE;}
	.st195{opacity:0.2994;fill:#A8A4DD;}
	.st196{opacity:0.3057;fill:#A7A3DC;}
	.st197{opacity:0.3121;fill:#A6A3DC;}
	.st198{opacity:0.3185;fill:#A5A2DB;}
	.st199{opacity:0.3248;fill:#A4A1DA;}
	.st200{opacity:0.3312;fill:#A3A0DA;}
	.st201{opacity:0.3376;fill:#A29FD9;}
	.st202{opacity:0.3439;fill:#A19FD8;}
	.st203{opacity:0.3503;fill:#A09ED7;}
	.st204{opacity:0.3567;fill:#9F9DD7;}
	.st205{opacity:0.3631;fill:#9E9CD6;}
	.st206{opacity:0.3694;fill:#9D9CD5;}
	.st207{opacity:0.3758;fill:#9C9BD5;}
	.st208{opacity:0.3822;fill:#9B9AD4;}
	.st209{opacity:0.3885;fill:#9A99D3;}
	.st210{opacity:0.3949;fill:#9999D2;}
	.st211{opacity:0.4013;fill:#9898D2;}
	.st212{opacity:0.4076;fill:#9797D1;}
	.st213{opacity:0.414;fill:#9696D0;}
	.st214{opacity:0.4204;fill:#9596CF;}
	.st215{opacity:0.4268;fill:#9495CF;}
	.st216{opacity:0.4331;fill:#9394CE;}
	.st217{opacity:0.4395;fill:#9293CD;}
	.st218{opacity:0.4459;fill:#9192CD;}
	.st219{opacity:0.4522;fill:#9092CC;}
	.st220{opacity:0.4586;fill:#8F91CB;}
	.st221{opacity:0.465;fill:#8E90CA;}
	.st222{opacity:0.4713;fill:#8D8FCA;}
	.st223{opacity:0.4777;fill:#8C8FC9;}
	.st224{opacity:0.4841;fill:#8B8EC8;}
	.st225{opacity:0.4904;fill:#8A8DC8;}
	.st226{opacity:0.4968;fill:#898CC7;}
	.st227{opacity:0.5032;fill:#888CC6;}
	.st228{opacity:0.5096;fill:#878BC5;}
	.st229{opacity:0.5159;fill:#868AC5;}
	.st230{opacity:0.5223;fill:#8589C4;}
	.st231{opacity:0.5287;fill:#8489C3;}
	.st232{opacity:0.535;fill:#8388C3;}
	.st233{opacity:0.5414;fill:#8287C2;}
	.st234{opacity:0.5478;fill:#8186C1;}
	.st235{opacity:0.5541;fill:#8086C0;}
	.st236{opacity:0.5605;fill:#7F85C0;}
	.st237{opacity:0.5669;fill:#7E84BF;}
	.st238{opacity:0.5732;fill:#7D83BE;}
	.st239{opacity:0.5796;fill:#7C82BE;}
	.st240{opacity:0.586;fill:#7B82BD;}
	.st241{opacity:0.5924;fill:#7A81BC;}
	.st242{opacity:0.5987;fill:#7980BB;}
	.st243{opacity:0.6051;fill:#787FBB;}
	.st244{opacity:0.6115;fill:#777FBA;}
	.st245{opacity:0.6178;fill:#767EB9;}
	.st246{opacity:0.6242;fill:#757DB8;}
	.st247{opacity:0.6306;fill:#747CB8;}
	.st248{opacity:0.6369;fill:#737CB7;}
	.st249{opacity:0.6433;fill:#727BB6;}
	.st250{opacity:0.6497;fill:#717AB6;}
	.st251{opacity:0.6561;fill:#7079B5;}
	.st252{opacity:0.6624;fill:#6F79B4;}
	.st253{opacity:0.6688;fill:#6E78B3;}
	.st254{opacity:0.6752;fill:#6D77B3;}
	.st255{opacity:0.6815;fill:#6C76B2;}
	.st256{opacity:0.6879;fill:#6B75B1;}
	.st257{opacity:0.6943;fill:#6A75B1;}
	.st258{opacity:0.7006;fill:#6974B0;}
	.st259{opacity:0.707;fill:#6873AF;}
	.st260{opacity:0.7134;fill:#6772AE;}
	.st261{opacity:0.7197;fill:#6672AE;}
	.st262{opacity:0.7261;fill:#6571AD;}
	.st263{opacity:0.7325;fill:#6470AC;}
	.st264{opacity:0.7389;fill:#636FAC;}
	.st265{opacity:0.7452;fill:#626FAB;}
	.st266{opacity:0.7516;fill:#616EAA;}
	.st267{opacity:0.758;fill:#606DA9;}
	.st268{opacity:0.7643;fill:#5F6CA9;}
	.st269{opacity:0.7707;fill:#5E6CA8;}
	.st270{opacity:0.7771;fill:#5D6BA7;}
	.st271{opacity:0.7834;fill:#5C6AA6;}
	.st272{opacity:0.7898;fill:#5B69A6;}
	.st273{opacity:0.7962;fill:#5A68A5;}
	.st274{opacity:0.8025;fill:#5968A4;}
	.st275{opacity:0.8089;fill:#5867A4;}
	.st276{opacity:0.8153;fill:#5766A3;}
	.st277{opacity:0.8217;fill:#5665A2;}
	.st278{opacity:0.828;fill:#5565A1;}
	.st279{opacity:0.8344;fill:#5464A1;}
	.st280{opacity:0.8408;fill:#5363A0;}
	.st281{opacity:0.8471;fill:#52629F;}
	.st282{opacity:0.8535;fill:#51629F;}
	.st283{opacity:0.8599;fill:#50619E;}
	.st284{opacity:0.8662;fill:#4F609D;}
	.st285{opacity:0.8726;fill:#4E5F9C;}
	.st286{opacity:0.879;fill:#4D5F9C;}
	.st287{opacity:0.8854;fill:#4C5E9B;}
	.st288{opacity:0.8917;fill:#4B5D9A;}
	.st289{opacity:0.8981;fill:#4A5C9A;}
	.st290{opacity:0.9045;fill:#495B99;}
	.st291{opacity:0.9108;fill:#485B98;}
	.st292{opacity:0.9172;fill:#475A97;}
	.st293{opacity:0.9236;fill:#465997;}
	.st294{opacity:0.9299;fill:#455896;}
	.st295{opacity:0.9363;fill:#445895;}
	.st296{opacity:0.9427;fill:#435794;}
	.st297{opacity:0.949;fill:#425694;}
	.st298{opacity:0.9554;fill:#415593;}
	.st299{opacity:0.9618;fill:#405592;}
	.st300{opacity:0.9682;fill:#3F5492;}
	.st301{opacity:0.9745;fill:#3E5391;}
	.st302{opacity:0.9809;fill:#3D5290;}
	.st303{opacity:0.9873;fill:#3C528F;}
	.st304{opacity:0.9936;fill:#3B518F;}
	.st305{fill:#3A508E;}
	.st306{clip-path:url(#SVGID_22_);enable-background:new    ;}
	.st307{fill:#70166B;}
	.st308{fill:#74176F;}
	.st309{fill:#781873;}
	.st310{fill:#7D1977;}
	.st311{fill:#811A7B;}
	.st312{fill:#851B7F;}
	.st313{fill:#8A1C83;}
	.st314{fill:#8E1C87;}
	.st315{fill:#921D8B;}
	.st316{clip-path:url(#SVGID_24_);enable-background:new    ;}
	.st317{fill:#616B85;}
	.st318{fill:#656F8A;}
	.st319{fill:#69738F;}
	.st320{fill:#6C7794;}
	.st321{fill:#707B99;}
	.st322{fill:#747F9E;}
	.st323{fill:#7883A3;}
	.st324{fill:#7B87A8;}
	.st325{fill:#7F8BAD;}
	.st326{clip-path:url(#SVGID_26_);enable-background:new    ;}
	.st327{fill:#9D1F95;}
	.st328{clip-path:url(#SVGID_28_);enable-background:new    ;}
	.st329{clip-path:url(#SVGID_30_);enable-background:new    ;}
	.st330{fill:#767385;}
	.st331{fill:#6C1667;}
	.st332{clip-path:url(#SVGID_32_);enable-background:new    ;}
	.st333{fill:#7C798C;}
	.st334{clip-path:url(#SVGID_34_);enable-background:new    ;}
	.st335{fill:#918DA3;}
	.st336{fill:#9592A8;}
	.st337{fill:#9A96AD;}
	.st338{fill:#8C899E;}
	.st339{fill:#888599;}
	.st340{fill:#838094;}
	.st341{fill:#7F7C8F;}
	.st342{fill:#7A778A;}
	.st343{fill:url(#SVGID_35_);}
	.st344{fill:url(#SVGID_36_);}
	.st345{fill:url(#SVGID_37_);}
	.st346{fill:url(#SVGID_38_);}
	.st347{fill:url(#SVGID_39_);}
	.st348{opacity:0;fill:#012B7E;}
	.st349{opacity:0.0278;fill:#012B7E;}
	.st350{opacity:0.0556;fill:#012B7E;}
	.st351{opacity:0.0833;fill:#012B7E;}
	.st352{opacity:0.1111;fill:#012B7E;}
	.st353{opacity:0.1389;fill:#012B7E;}
	.st354{opacity:0.1667;fill:#012B7E;}
	.st355{opacity:0.1944;fill:#012B7E;}
	.st356{opacity:0.2222;fill:#012B7E;}
	.st357{opacity:0.25;fill:#012B7E;}
	.st358{opacity:0.2778;fill:#012B7E;}
	.st359{opacity:0.3056;fill:#012B7E;}
	.st360{opacity:0.3333;fill:#012B7E;}
	.st361{opacity:0.3611;fill:#012B7E;}
	.st362{opacity:0.3889;fill:#012B7E;}
	.st363{opacity:0.4167;fill:#012B7E;}
	.st364{opacity:0.4444;fill:#012B7E;}
	.st365{opacity:0.4722;fill:#012B7E;}
	.st366{opacity:0.5;fill:#012B7E;}
	.st367{opacity:0.5278;fill:#012B7E;}
	.st368{opacity:0.5556;fill:#012B7E;}
	.st369{opacity:0.5833;fill:#012B7E;}
	.st370{opacity:0.6111;fill:#012B7E;}
	.st371{opacity:0.6389;fill:#012B7E;}
	.st372{opacity:0.6667;fill:#012B7E;}
	.st373{opacity:0.6944;fill:#012B7E;}
	.st374{opacity:0.7222;fill:#012B7E;}
	.st375{opacity:0.75;fill:#012B7E;}
	.st376{opacity:0.7778;fill:#012B7E;}
	.st377{opacity:0.8056;fill:#012B7E;}
	.st378{opacity:0.8333;fill:#012B7E;}
	.st379{opacity:0.8611;fill:#012B7E;}
	.st380{opacity:0.8889;fill:#012B7E;}
	.st381{opacity:0.9167;fill:#012B7E;}
	.st382{opacity:0.9444;fill:#012B7E;}
	.st383{opacity:0.9722;fill:#012B7E;}
	.st384{fill:#012B7E;}
	.st385{fill:url(#SVGID_40_);}
	.st386{fill:url(#SVGID_41_);}
	.st387{fill:url(#SVGID_42_);}
	.st388{fill:url(#SVGID_43_);}
	.st389{fill:url(#SVGID_44_);}
	.st390{fill:url(#SVGID_45_);}
	.st391{fill:url(#SVGID_46_);}
	.st392{fill:url(#SVGID_47_);}
	.st393{clip-path:url(#SVGID_49_);}
	.st394{fill:#412121;}
	.st395{fill:#87A8DC;}
	.st396{opacity:0.8;clip-path:url(#SVGID_49_);}
	.st397{opacity:0.7;}
	.st398{fill:url(#SVGID_50_);}
	.st399{fill:url(#SVGID_51_);}
	.st400{fill:url(#SVGID_52_);}
	.st401{fill:url(#SVGID_53_);}
	.st402{fill:url(#SVGID_54_);}
	.st403{fill:url(#SVGID_55_);}
	.st404{opacity:0;fill:#BECBF7;}
	.st405{opacity:0.0108;fill:#BDCAF6;}
	.st406{opacity:0.0215;fill:#BBC8F5;}
	.st407{opacity:0.0323;fill:#BAC7F4;}
	.st408{opacity:0.043;fill:#B8C6F2;}
	.st409{opacity:0.0538;fill:#B7C4F1;}
	.st410{opacity:0.0645;fill:#B5C3F0;}
	.st411{opacity:0.0753;fill:#B4C2EF;}
	.st412{opacity:0.086;fill:#B3C0EE;}
	.st413{opacity:0.0968;fill:#B1BFED;}
	.st414{opacity:0.1075;fill:#B0BEEC;}
	.st415{opacity:0.1183;fill:#AEBCEB;}
	.st416{opacity:0.129;fill:#ADBBE9;}
	.st417{opacity:0.1398;fill:#ACBAE8;}
	.st418{opacity:0.1505;fill:#AAB8E7;}
	.st419{opacity:0.1613;fill:#A9B7E6;}
	.st420{opacity:0.172;fill:#A7B6E5;}
	.st421{opacity:0.1828;fill:#A6B5E4;}
	.st422{opacity:0.1935;fill:#A4B3E3;}
	.st423{opacity:0.2043;fill:#A3B2E2;}
	.st424{opacity:0.2151;fill:#A2B1E0;}
	.st425{opacity:0.2258;fill:#A0AFDF;}
	.st426{opacity:0.2366;fill:#9FAEDE;}
	.st427{opacity:0.2473;fill:#9DADDD;}
	.st428{opacity:0.2581;fill:#9CABDC;}
	.st429{opacity:0.2688;fill:#9BAADB;}
	.st430{opacity:0.2796;fill:#99A9DA;}
	.st431{opacity:0.2903;fill:#98A7D9;}
	.st432{opacity:0.3011;fill:#96A6D7;}
	.st433{opacity:0.3118;fill:#95A5D6;}
	.st434{opacity:0.3226;fill:#93A3D5;}
	.st435{opacity:0.3333;fill:#92A2D4;}
	.st436{opacity:0.3441;fill:#91A1D3;}
	.st437{opacity:0.3548;fill:#8F9FD2;}
	.st438{opacity:0.3656;fill:#8E9ED1;}
	.st439{opacity:0.3763;fill:#8C9DCF;}
	.st440{opacity:0.3871;fill:#8B9BCE;}
	.st441{opacity:0.3978;fill:#899ACD;}
	.st442{opacity:0.4086;fill:#8899CC;}
	.st443{opacity:0.4194;fill:#8797CB;}
	.st444{opacity:0.4301;fill:#8596CA;}
	.st445{opacity:0.4409;fill:#8495C9;}
	.st446{opacity:0.4516;fill:#8293C8;}
	.st447{opacity:0.4624;fill:#8192C6;}
	.st448{opacity:0.4731;fill:#8091C5;}
	.st449{opacity:0.4839;fill:#7E8FC4;}
	.st450{opacity:0.4946;fill:#7D8EC3;}
	.st451{opacity:0.5054;fill:#7B8DC2;}
	.st452{opacity:0.5161;fill:#7A8CC1;}
	.st453{opacity:0.5269;fill:#788AC0;}
	.st454{opacity:0.5376;fill:#7789BF;}
	.st455{opacity:0.5484;fill:#7688BD;}
	.st456{opacity:0.5591;fill:#7486BC;}
	.st457{opacity:0.5699;fill:#7385BB;}
	.st458{opacity:0.5806;fill:#7184BA;}
	.st459{opacity:0.5914;fill:#7082B9;}
	.st460{opacity:0.6022;fill:#6F81B8;}
	.st461{opacity:0.6129;fill:#6D80B7;}
	.st462{opacity:0.6237;fill:#6C7EB6;}
	.st463{opacity:0.6344;fill:#6A7DB4;}
	.st464{opacity:0.6452;fill:#697CB3;}
	.st465{opacity:0.6559;fill:#677AB2;}
	.st466{opacity:0.6667;fill:#6679B1;}
	.st467{opacity:0.6774;fill:#6578B0;}
	.st468{opacity:0.6882;fill:#6376AF;}
	.st469{opacity:0.6989;fill:#6275AE;}
	.st470{opacity:0.7097;fill:#6074AC;}
	.st471{opacity:0.7204;fill:#5F72AB;}
	.st472{opacity:0.7312;fill:#5D71AA;}
	.st473{opacity:0.7419;fill:#5C70A9;}
	.st474{opacity:0.7527;fill:#5B6EA8;}
	.st475{opacity:0.7634;fill:#596DA7;}
	.st476{opacity:0.7742;fill:#586CA6;}
	.st477{opacity:0.7849;fill:#566AA5;}
	.st478{opacity:0.7957;fill:#5569A3;}
	.st479{opacity:0.8065;fill:#5468A2;}
	.st480{opacity:0.8172;fill:#5266A1;}
	.st481{opacity:0.828;fill:#5165A0;}
	.st482{opacity:0.8387;fill:#4F649F;}
	.st483{opacity:0.8495;fill:#4E639E;}
	.st484{opacity:0.8602;fill:#4C619D;}
	.st485{opacity:0.871;fill:#4B609C;}
	.st486{opacity:0.8817;fill:#4A5F9A;}
	.st487{opacity:0.8925;fill:#485D99;}
	.st488{opacity:0.9032;fill:#475C98;}
	.st489{opacity:0.914;fill:#455B97;}
	.st490{opacity:0.9247;fill:#445996;}
	.st491{opacity:0.9355;fill:#435895;}
	.st492{opacity:0.9462;fill:#415794;}
	.st493{opacity:0.957;fill:#405593;}
	.st494{opacity:0.9677;fill:#3E5491;}
	.st495{opacity:0.9785;fill:#3D5390;}
	.st496{opacity:0.9892;fill:#3B518F;}
	.st497{fill:url(#SVGID_56_);}
	.st498{fill:url(#SVGID_57_);}
	.st499{fill:url(#SVGID_58_);}
	.st500{fill:url(#SVGID_59_);}
	.st501{fill:url(#SVGID_60_);}
	.st502{clip-path:url(#SVGID_62_);}
	.st503{fill:#FA4542;}
	.st504{opacity:0.8;clip-path:url(#SVGID_62_);}
	.st505{fill:url(#SVGID_63_);}
	.st506{fill:url(#SVGID_64_);}
	.st507{opacity:0.7;fill:url(#SVGID_65_);}
	.st508{fill:url(#SVGID_66_);}
	.st509{fill:url(#SVGID_67_);}
	.st510{clip-path:url(#SVGID_69_);}
	.st511{fill:#1479DA;}
	.st512{opacity:0.8;clip-path:url(#SVGID_69_);}
	.st513{fill:url(#SVGID_70_);}
	.st514{clip-path:url(#SVGID_72_);}
	.st515{fill:#1278DA;}
	.st516{opacity:0.8;clip-path:url(#SVGID_72_);}
	.st517{fill:url(#SVGID_73_);}
	.st518{clip-path:url(#SVGID_75_);}
	.st519{fill:#127ADB;}
	.st520{opacity:0.8;clip-path:url(#SVGID_75_);}
	.st521{fill:url(#SVGID_76_);}
	.st522{clip-path:url(#SVGID_78_);}
	.st523{opacity:0.8;clip-path:url(#SVGID_78_);}
	.st524{fill:url(#SVGID_79_);}
	.st525{clip-path:url(#SVGID_81_);}
	.st526{fill:url(#SVGID_82_);}
	.st527{fill:url(#SVGID_83_);}
	.st528{opacity:0.8;clip-path:url(#SVGID_81_);}
	.st529{fill:url(#SVGID_84_);}
	.st530{clip-path:url(#SVGID_86_);}
	.st531{fill:#187FDF;}
	.st532{opacity:0.8;clip-path:url(#SVGID_86_);}
	.st533{fill:url(#SVGID_87_);}
	.st534{clip-path:url(#SVGID_89_);}
	.st535{fill:#0E70D3;}
	.st536{opacity:0.8;clip-path:url(#SVGID_89_);}
	.st537{fill:url(#SVGID_90_);}
	.st538{clip-path:url(#SVGID_92_);fill:#FFFFFF;}
	.st539{clip-path:url(#SVGID_92_);fill:#0071C1;}
	.st540{opacity:0.8;clip-path:url(#SVGID_92_);}
	.st541{clip-path:url(#SVGID_92_);}
	.st542{opacity:0.7;fill:#8B7BC8;}
	.st543{fill:url(#SVGID_93_);}
	.st544{fill:url(#SVGID_94_);}
	.st545{fill:#003B64;}
	.st546{fill:#003D68;}
	.st547{fill:url(#SVGID_95_);}
	.st548{opacity:0.7;fill:url(#SVGID_96_);}
	.st549{fill:url(#SVGID_97_);}
	.st550{fill:url(#SVGID_98_);}
	.st551{clip-path:url(#SVGID_100_);}
	.st552{opacity:0.8;clip-path:url(#SVGID_100_);}
	.st553{fill:url(#SVGID_101_);}
	.st554{fill:url(#SVGID_102_);}
	.st555{fill:url(#SVGID_103_);}
	.st556{fill:url(#SVGID_104_);}
	.st557{fill:url(#SVGID_105_);}
	.st558{opacity:0.7;fill:url(#SVGID_106_);}
	.st559{fill:url(#SVGID_107_);}
	.st560{fill:url(#SVGID_108_);}
	.st561{fill:url(#SVGID_109_);}
	.st562{fill:url(#SVGID_110_);}
	.st563{fill:url(#SVGID_111_);}
	.st564{fill:url(#SVGID_112_);}
	.st565{opacity:0.7;fill:url(#SVGID_113_);}
	.st566{fill:url(#SVGID_114_);}
	.st567{clip-path:url(#SVGID_116_);fill:#FF3B62;}
	.st568{clip-path:url(#SVGID_116_);fill:#412121;}
	.st569{clip-path:url(#SVGID_116_);fill:#FFFFFF;}
	.st570{opacity:0.8;clip-path:url(#SVGID_116_);}
	.st571{clip-path:url(#SVGID_116_);}
	.st572{fill:url(#SVGID_117_);}
	.st573{fill:url(#SVGID_118_);}
	.st574{opacity:0;fill:#3A508E;}
	.st575{opacity:0.02;fill:#3A508E;}
	.st576{opacity:0.04;fill:#3A508E;}
	.st577{opacity:0.06;fill:#3A508E;}
	.st578{opacity:0.08;fill:#3A508E;}
	.st579{opacity:0.1;fill:#3A508E;}
	.st580{opacity:0.12;fill:#3A508E;}
	.st581{opacity:0.14;fill:#3A508E;}
	.st582{opacity:0.16;fill:#3A508E;}
	.st583{opacity:0.18;fill:#3A508E;}
	.st584{opacity:0.2;fill:#3A508E;}
	.st585{opacity:0.22;fill:#3A508E;}
	.st586{opacity:0.24;fill:#3A508E;}
	.st587{opacity:0.26;fill:#3A508E;}
	.st588{opacity:0.28;fill:#3A508E;}
	.st589{opacity:0.3;fill:#3A508E;}
	.st590{opacity:0.32;fill:#3A508E;}
	.st591{opacity:0.34;fill:#3A508E;}
	.st592{opacity:0.36;fill:#3A508E;}
	.st593{opacity:0.38;fill:#3A508E;}
	.st594{opacity:0.4;fill:#3A508E;}
	.st595{opacity:0.42;fill:#3A508E;}
	.st596{opacity:0.44;fill:#3A508E;}
	.st597{opacity:0.46;fill:#3A508E;}
	.st598{opacity:0.48;fill:#3A508E;}
	.st599{opacity:0.5;fill:#3A508E;}
	.st600{opacity:0.52;fill:#3A508E;}
	.st601{opacity:0.54;fill:#3A508E;}
	.st602{opacity:0.56;fill:#3A508E;}
	.st603{opacity:0.58;fill:#3A508E;}
	.st604{opacity:0.6;fill:#3A508E;}
	.st605{opacity:0.62;fill:#3A508E;}
	.st606{opacity:0.64;fill:#3A508E;}
	.st607{opacity:0.66;fill:#3A508E;}
	.st608{opacity:0.68;fill:#3A508E;}
	.st609{opacity:0.7;fill:#3A508E;}
	.st610{opacity:0.72;fill:#3A508E;}
	.st611{opacity:0.74;fill:#3A508E;}
	.st612{opacity:0.76;fill:#3A508E;}
	.st613{opacity:0.78;fill:#3A508E;}
	.st614{opacity:0.8;fill:#3A508E;}
	.st615{opacity:0.82;fill:#3A508E;}
	.st616{opacity:0.84;fill:#3A508E;}
	.st617{opacity:0.86;fill:#3A508E;}
	.st618{opacity:0.88;fill:#3A508E;}
	.st619{opacity:0.9;fill:#3A508E;}
	.st620{opacity:0.92;fill:#3A508E;}
	.st621{opacity:0.94;fill:#3A508E;}
	.st622{opacity:0.96;fill:#3A508E;}
	.st623{opacity:0.98;fill:#3A508E;}
	.st624{fill:url(#SVGID_119_);}
	.st625{fill:url(#SVGID_120_);}
	.st626{clip-path:url(#SVGID_122_);}
	.st627{fill:url(#SVGID_123_);}
	.st628{fill:url(#SVGID_124_);}
	.st629{clip-path:url(#SVGID_126_);}
	.st630{fill:url(#SVGID_127_);}
	.st631{fill:url(#SVGID_128_);}
	.st632{fill:url(#SVGID_129_);}
	.st633{opacity:0.3;fill:#327AB4;}
	.st634{fill:#DCE7F1;}
	.st635{fill:#327AB4;}
	.st636{fill:#FF79B5;}
	.st637{fill:#D9538F;}
	.st638{fill:#77BFFF;}
	.st639{fill:#5EA6E6;}
	.st640{opacity:0.5;fill:#DCE7F1;}
	.st641{clip-path:url(#SVGID_131_);fill:#F57EEA;}
	.st642{clip-path:url(#SVGID_131_);fill:#EC5DE7;}
	.st643{clip-path:url(#SVGID_131_);fill:#E33CE3;}
	.st644{fill:#D9A782;}
	.st645{fill:#FDE4BE;}
	.st646{fill:#62696D;}
	.st647{fill:#C2CDD7;}
	.st648{fill:#FFCDA8;}
	.st649{opacity:0.7;fill:#CBD5DF;}
	.st650{fill:#FFF81A;}
	.st651{fill:#E6DF01;}
	.st652{fill:#52F894;}
	.st653{fill:#39DF7B;}
	.st654{fill:#EBF2FF;}
	.st655{fill:#61BA76;}
	.st656{fill:#7CD194;}
	.st657{fill:#963633;}
	.st658{fill:#AA4944;}
	.st659{fill:#FE4C40;}
	.st660{fill:#FEC9AC;}
	.st661{fill:#EF9B84;}
	.st662{fill:#38297A;}
	.st663{fill:#F2C3B3;}
	.st664{fill:#20154F;}
	.st665{fill:#EE984F;}
	.st666{fill:#F4A998;}
	.st667{fill:#5CB8FC;}
	.st668{fill:#46A6FC;}
	.st669{opacity:0.5;}
	.st670{fill:#D1DCF8;}
	.st671{fill:#00DFBF;}
	.st672{opacity:0.6;}
	.st673{opacity:0.1;}
	.st674{opacity:0.5;fill:#375A64;}
	.st675{fill:none;stroke:#E1E1E1;stroke-width:0.75;stroke-miterlimit:10;}
	.st676{fill:#375A64;}
	.st677{fill:#FFAAA8;}
	.st678{fill:#FF9090;}
	.st679{fill:#C76668;}
	.st680{fill:#2B454E;}
	.st681{fill:#B0494C;}
	.st682{opacity:0.15;}
	.st683{fill:#E5F1FF;}
	.st684{fill:#D0D3DD;}
	.st685{fill:url(#SVGID_132_);}
	.st686{fill:#E3E6ED;}
	.st687{fill:#CDD7E1;}
	.st688{fill:#C2C4CF;}
	.st689{fill:#E0E4EA;}
	.st690{fill:#FF5348;}
	.st691{fill:#72DEBC;}
	.st692{fill:#FFB73A;}
	.st693{fill:#F8A120;}
	.st694{fill:#FFC25F;}
	.st695{fill:#454559;}
	.st696{fill:#575974;}
	.st697{fill:#FF4645;}
	.st698{fill:#3E3E57;}
	.st699{fill:#565672;}
	.st700{opacity:0.5;fill:#C2D4FA;}
	.st701{fill:#E9E9E9;}
	.st702{fill:#F3F3F3;}
	.st703{fill:#E8505B;}
	.st704{fill:#FFBE9D;}
	.st705{fill:#EB996E;}
	.st706{fill:#B2CBD8;}
	.st707{fill-rule:evenodd;clip-rule:evenodd;fill:#F4C74A;}
	.st708{fill:#FBECE7;}
	.st709{fill:#F4C74A;}
	.st710{fill-rule:evenodd;clip-rule:evenodd;fill:#FFFFFF;}
	.st711{fill:#F33746;}
	.st712{fill:#012D5A;}
	.st713{fill:#3B88BC;}
	.st714{fill-rule:evenodd;clip-rule:evenodd;}
	.st715{fill:#FEC922;}
	.st716{opacity:0.38;fill:#BBE6DD;}
	.st717{fill:#1E1E56;}
	.st718{fill:#4195D0;}
	.st719{fill:#F79E97;}
	.st720{fill-rule:evenodd;clip-rule:evenodd;fill:#F79E97;}
	.st721{fill:#010E39;}
	.st722{fill:#EDEDED;}
	.st723{fill:#BBD070;}
	.st724{fill:#97A43C;}
	.st725{fill:#48753A;}
	.st726{fill:url(#SVGID_133_);}
	.st727{fill:url(#SVGID_134_);}
	.st728{fill:url(#SVGID_135_);}
	.st729{fill:#F08533;}
	.st730{fill:#FAE6DE;}
	.st731{fill:url(#SVGID_136_);}
	.st732{fill:#495DA1;}
	.st733{fill:#DECCC5;}
	.st734{fill:#E8E8E8;}
	.st735{fill:#C1DBD1;}
	.st736{fill:#152B3D;}
	.st737{fill:#323657;}
	.st738{fill:#254380;}
	.st739{fill:#353A3D;}
	.st740{fill:#FFBB55;}
	.st741{fill:#4373CF;}
	.st742{fill:#213A70;}
	.st743{fill:#FFCA55;}
	.st744{fill:#3A3F47;}
	.st745{fill:#C9A043;}
	.st746{fill:#444C94;}
	.st747{fill:#303669;}
	.st748{fill:#518AFA;}
	.st749{fill:#DE9673;}
	.st750{fill:#2F4563;}
	.st751{fill:#1E2D40;}
	.st752{fill:#EEA987;}
	.st753{fill:#23344A;}
	.st754{fill:#464240;}
	.st755{fill:#6E6760;}
	.st756{fill:#292929;}
	.st757{fill:#434975;}
	.st758{fill:#FFC955;}
	.st759{fill:#1D3B54;}
	.st760{fill:#CFA345;}
	.st761{fill:#DBDFF1;}
	.st762{fill:#433F2C;}
	.st763{fill:#FBFBFC;}
	.st764{fill:#E6E5E5;}
	.st765{fill:#CCCACB;}
	.st766{fill:#465FA8;}
	.st767{fill:#2F3C7B;}
	.st768{fill:#DBECF7;}
	.st769{fill:#848BC4;}
	.st770{fill:#45388D;}
	.st771{fill:#FFFDF9;}
	.st772{fill:#425B67;}
	.st773{fill:#E4A428;}
	.st774{fill:#EE7EAC;}
	.st775{fill:#9BB6DE;}
	.st776{fill:#B4CBE9;}
	.st777{fill:#FFFCFD;}
	.st778{fill:#DDEBF6;}
	.st779{fill:#ECEBEC;}
	.st780{fill:#878482;}
	.st781{fill:#BDBAB9;}
	.st782{fill:#4B6C6E;}
	.st783{fill:#FDD85E;}
	.st784{fill:#F3AE7C;}
	.st785{fill:#83593B;}
	.st786{fill:#DEDDDB;}
	.st787{fill:#EAEAEA;}
	.st788{fill:#F7B683;}
	.st789{fill:#F4AE80;}
	.st790{fill:#F7F7F8;}
	.st791{fill:#094A72;}
	.st792{fill:#4C3D34;}
	.st793{fill:#44403E;}
	.st794{fill:#9CC2DF;}
	.st795{fill:#F4AC7B;}
	.st796{fill:#054C75;}
	.st797{fill:#DF3A71;}
	.st798{fill:#674840;}
	.st799{fill:#503728;}
	.st800{fill:#DFA2C9;}
	.st801{fill:#CC2A57;}
	.st802{fill:#D2366A;}
	.st803{fill:#D391BD;}
	.st804{fill:#D2DFEB;}
	.st805{fill:#E4E3DF;}
	.st806{fill:#D268CC;}
	.st807{opacity:0.8;fill:#FFFFFF;}
	.st808{opacity:0.25;}
	.st809{opacity:0.35;fill:#FFFFFF;}
	.st810{opacity:0.25;fill:#FFFFFF;}
	.st811{opacity:0.45;fill:#FFFFFF;}
	.st812{fill:#FFBEA7;}
	.st813{fill:#AF494C;}
	.st814{fill:#FF9A79;}
	.st815{fill:url(#SVGID_137_);}
	.st816{fill:none;stroke:#0096FF;stroke-width:0.1981;}
	.st817{fill:none;stroke:#0096FF;stroke-width:0.2689;}
	.st818{fill:none;stroke:#0096FF;stroke-width:0.3113;}
	.st819{fill:none;stroke:#0096FF;stroke-width:0.3679;}
	.st820{fill:none;stroke:#0096FF;stroke-width:0.4245;}
	.st821{fill:none;stroke:#0096FF;stroke-width:0.5519;}
	.st822{fill:none;stroke:#0096FF;stroke-width:0.6792;}
	.st823{fill:none;stroke:#0096FF;stroke-width:0.849;}
	.st824{fill:none;stroke:#0096FF;stroke-width:0.9339;}
	.st825{fill:none;stroke:#0096FF;stroke-width:1.132;}
	.st826{fill:none;stroke:#0096FF;stroke-width:1.2594;}
	.st827{fill:none;stroke:#0096FF;stroke-width:1.4009;}
	.st828{fill:none;stroke:#0096FF;stroke-width:1.6556;}
	.st829{fill:none;stroke:#0096FF;stroke-width:1.7971;}
	.st830{fill:none;stroke:#0096FF;stroke-width:1.9528;}
	.st831{fill:none;stroke:#0096FF;stroke-width:2.4056;}
	.st832{fill:none;stroke:#0096FF;stroke-width:2.6037;}
	.st833{fill:none;stroke:#0096FF;stroke-width:2.816;}
	.st834{fill:none;stroke:#0096FF;stroke-width:3.0848;}
	.st835{fill:none;stroke:#0096FF;stroke-width:3.6084;}
	.st836{fill:none;stroke:#0096FF;stroke-width:4.1461;}
	.st837{fill:none;stroke:#0096FF;stroke-width:5.6744;}
	.st838{fill:none;stroke:#0096FF;stroke-width:6.014;}
	.st839{fill:none;stroke:#0096FF;stroke-width:5.2216;}
	.st840{fill:none;stroke:#0096FF;stroke-width:4.9385;}
	.st841{fill:none;stroke:#0096FF;stroke-width:4.6131;}
	.st842{fill:none;stroke:#0096FF;stroke-width:3.6508;}
	.st843{fill:none;stroke:#0096FF;stroke-width:3.4244;}
	.st844{fill:none;stroke:#0096FF;stroke-width:2.4339;}
	.st845{fill:none;stroke:#0096FF;stroke-width:1.6839;}
	.st846{fill:none;stroke:#0096FF;stroke-width:1.4151;}
	.st847{fill:none;stroke:#0096FF;stroke-width:1.2736;}
	.st848{fill:none;stroke:#0096FF;stroke-width:1.033;}
	.st849{fill:none;stroke:#0096FF;stroke-width:0.9481;}
	.st850{fill:none;stroke:#0096FF;stroke-width:0.7641;}
	.st851{fill:none;stroke:#0096FF;stroke-width:0.4953;}
	.st852{fill:none;stroke:#0096FF;stroke-width:0.4387;}
	.st853{fill:none;stroke:#0096FF;stroke-width:0.2264;}
	.st854{fill:none;stroke:#0096FF;stroke-width:0.1698;}
	.st855{fill:none;stroke:#0096FF;stroke-width:0.4811;}
	.st856{fill:none;stroke:#0096FF;stroke-width:0.6085;}
	.st857{fill:none;stroke:#0096FF;stroke-width:2.165;}
	.st858{fill:none;stroke:#0096FF;stroke-width:3.3395;}
	.st859{fill:none;stroke:#0096FF;stroke-width:3.8631;}
	.st860{fill:none;stroke:#0096FF;stroke-width:4.2735;}
	.st861{fill:none;stroke:#0096FF;stroke-width:2.9009;}
	.st862{fill:none;stroke:#0096FF;stroke-width:2.6462;}
	.st863{fill:none;stroke:#0096FF;stroke-width:1.5424;}
	.st864{fill:none;stroke:#0096FF;stroke-width:1.1462;}
	.st865{fill:none;stroke:#0096FF;stroke-width:0.3255;}
	.st866{fill:none;stroke:#0096FF;stroke-width:0.1415;}
	.st867{fill:none;stroke:#0096FF;stroke-width:1.5141;}
	.st868{fill:none;stroke:#0096FF;stroke-width:4.8536;}
	.st869{fill:none;stroke:#0096FF;stroke-width:3.9197;}
	.st870{fill:none;stroke:#0096FF;stroke-width:3.1697;}
	.st871{fill:none;stroke:#0096FF;stroke-width:1.8396;}
	.st872{fill:none;stroke:#0096FF;stroke-width:0.8632;}
	.st873{fill:none;stroke:#0096FF;stroke-width:0.3821;}
	.st874{fill:none;stroke:#0096FF;stroke-width:2.0094;}
	.st875{fill:none;stroke:#0096FF;stroke-width:2.2216;}
	.st876{fill:none;stroke:#0096FF;stroke-width:4.4574;}
	.st877{fill:url(#SVGID_138_);}
	.st878{fill:url(#SVGID_139_);}
	.st879{fill:url(#SVGID_140_);}
	.st880{fill:url(#SVGID_141_);}
	.st881{fill:url(#line_1_);}
	.st882{fill:url(#color_2_);}
	.st883{opacity:0.3;fill:url(#light_1_);}
	.st884{fill:#103FBD;}
	.st885{fill:url(#dark_frame_1_);}
	.st886{fill:url(#line_2_);}
	.st887{fill:url(#color_frame_1_);}
	.st888{opacity:0.3;fill:url(#light_2_);}
	.st889{fill:url(#SVGID_142_);}
	.st890{fill:url(#SVGID_143_);}
	.st891{fill:url(#line_3_);}
	.st892{fill:url(#color_frame_2_);}
	.st893{opacity:0.3;fill:url(#light_3_);}
	.st894{fill:url(#SVGID_144_);}
	.st895{fill:url(#SVGID_145_);}
	.st896{fill:url(#line_4_);}
	.st897{fill:url(#color_frame_3_);}
	.st898{opacity:0.3;fill:url(#light_4_);}
	.st899{fill:url(#SVGID_146_);}
	.st900{fill:url(#SVGID_147_);}
	.st901{fill:url(#line_10_);}
	.st902{fill:url(#color_frame_4_);}
	.st903{opacity:0.3;fill:url(#light_10_);}
	.st904{fill:#77B4C7;}
	.st905{fill:#1A3857;}
	.st906{fill:#808285;}
	.st907{fill:#D1D3D4;}
	.st908{fill:#D4F5FF;}
	.st909{fill:#E3B781;}
	.st910{fill:#FFC794;}
	.st911{fill:#666666;}
	.st912{fill:#313A61;}
	.st913{fill:#04124F;}
	.st914{fill:#E0312E;}
	.st915{fill:#F2F5FF;}
	.st916{fill:#B5B9BA;}
	.st917{fill:#5496D0;}
	.st918{fill:#FBB03B;}
	.st919{fill:#BEFB3B;}
	.st920{fill:#98BCCC;}
	.st921{fill:#C1C2CA;}
	.st922{fill:#999AA1;}
	.st923{fill:#ECC19C;}
	.st924{fill:#F5E0CD;}
	.st925{fill:#A7A9AC;}
	.st926{fill:#CFAE8F;}
	.st927{fill:#EFCAA6;}
	.st928{fill:#EBEBEB;}
	.st929{fill:#124A63;}
	.st930{fill:#2A5A8B;}
	.st931{fill:#545456;}
	.st932{fill:#553900;}
	.st933{fill:#FFF231;}
	.st934{fill:#E9CE89;}
	.st935{fill:#EBD395;}
	.st936{fill:#B89163;}
	.st937{fill:#FCDA86;}
	.st938{fill:#0D3547;}
	.st939{fill:#FBB470;}
	.st940{fill:#723E32;}
	.st941{fill:#F9E8D8;}
	.st942{fill:#C0C3C4;}
	.st943{fill:#F1F2F2;}
	.st944{fill:#E6E6E6;}
	.st945{fill:#C1C1C1;}
	.st946{fill:#DBDBDB;}
	.st947{fill:#626466;}
	.st948{fill:#00ADFF;}
	.st949{fill:#262626;}
	.st950{fill:#008ADC;}
	.st951{fill:#030303;}
	.st952{fill:#FEFDF9;}
	.st953{fill:#5E6B69;}
	.st954{fill:#208AD6;}
	.st955{fill:#FA696E;}
	.st956{fill:#ACFFA1;}
	.st957{fill:#FFF761;}
	.st958{fill:#E0DBD5;}
	.st959{fill:#FCF6EF;}
	.st960{fill:#E6DFCD;}
	.st961{fill:#222222;}
	.st962{fill:#3D3D3D;}
	.st963{fill:#A57823;}
	.st964{fill:#C4C6C9;}
	.st965{fill:#2B5E91;}
	.st966{fill:#E8DE52;}
	.st967{fill:#BCBEC0;}
	.st968{fill:#F9EE58;}
	.st969{fill:#BD3A00;}
	.st970{fill:#003275;}
	.st971{fill:#91003F;}
	.st972{fill-rule:evenodd;clip-rule:evenodd;fill:#D9DADA;}
	.st973{fill-rule:evenodd;clip-rule:evenodd;fill:url(#SVGID_148_);}
	.st974{fill:none;}
	.st975{fill:#F4F7FA;}
	.st976{opacity:0.8;clip-path:url(#SVGID_151_);}
	.st977{opacity:0.8;clip-path:url(#SVGID_154_);}
	.st978{fill:url(#SVGID_155_);}
	.st979{fill:#D8DEE8;}
	.st980{opacity:0.3;fill:url(#SVGID_156_);}
	.st981{opacity:0.3;fill:#97A6B7;}
	.st982{fill:url(#SVGID_157_);}
	.st983{fill:#97A6B7;}
	.st984{clip-path:url(#SVGID_159_);}
	.st985{fill:url(#SVGID_160_);}
	.st986{fill:url(#SVGID_161_);}
	.st987{fill:url(#SVGID_162_);}
	.st988{fill:url(#SVGID_163_);}
	.st989{fill:url(#SVGID_164_);}
	.st990{fill:url(#SVGID_165_);}
	.st991{fill:url(#SVGID_166_);}
	.st992{fill:url(#SVGID_167_);}
	.st993{fill:url(#SVGID_168_);}
	.st994{fill:url(#SVGID_169_);}
	.st995{fill:url(#SVGID_170_);}
	.st996{fill:url(#SVGID_171_);}
	.st997{fill:url(#SVGID_172_);}
	.st998{fill:#26264F;}
	.st999{fill:url(#SVGID_173_);}
	.st1000{fill:url(#SVGID_174_);}
	.st1001{opacity:0.3;fill:url(#SVGID_175_);}
	.st1002{fill:url(#SVGID_176_);}
	.st1003{fill:url(#SVGID_177_);}
	.st1004{fill:url(#SVGID_178_);}
	.st1005{fill:url(#SVGID_179_);}
	.st1006{fill:url(#SVGID_180_);}
	.st1007{opacity:0.3;fill:url(#SVGID_181_);}
	.st1008{fill:url(#SVGID_182_);}
	.st1009{fill:url(#SVGID_183_);}
	.st1010{fill:url(#SVGID_184_);}
	.st1011{fill:url(#SVGID_185_);}
	.st1012{fill:url(#SVGID_186_);}
	.st1013{opacity:0.4;fill:url(#SVGID_187_);}
	.st1014{fill:url(#SVGID_188_);}
	.st1015{opacity:0.4;fill:url(#SVGID_189_);}
	.st1016{fill:url(#SVGID_190_);}
	.st1017{fill:url(#SVGID_191_);}
	.st1018{opacity:0.6;fill:#D8DEE8;}
	.st1019{fill:url(#SVGID_192_);}
	.st1020{fill:url(#SVGID_193_);}
	.st1021{fill:url(#SVGID_194_);}
	.st1022{fill:url(#SVGID_195_);}
	.st1023{fill:url(#SVGID_196_);}
	.st1024{fill:url(#SVGID_197_);}
	.st1025{fill:url(#SVGID_198_);}
	.st1026{fill:url(#SVGID_199_);}
	.st1027{fill:url(#SVGID_200_);}
	.st1028{fill:#DE8BDF;}
	.st1029{opacity:0.4;fill:#D8DEE8;}
	.st1030{fill:url(#SVGID_201_);}
	.st1031{fill:url(#SVGID_202_);}
	.st1032{fill:url(#SVGID_203_);}
	.st1033{fill:url(#SVGID_204_);}
	.st1034{fill:url(#SVGID_205_);}
	.st1035{fill:url(#SVGID_206_);}
	.st1036{fill:url(#SVGID_207_);}
	.st1037{fill:url(#SVGID_208_);}
	.st1038{fill:url(#SVGID_209_);}
	.st1039{fill:url(#SVGID_210_);}
	.st1040{fill:url(#SVGID_211_);}
	.st1041{fill:url(#SVGID_212_);}
	.st1042{opacity:0.4;fill:#97A6B7;}
	.st1043{fill:url(#SVGID_213_);}
	.st1044{fill:url(#SVGID_214_);}
	.st1045{fill:url(#SVGID_215_);}
	.st1046{fill:url(#SVGID_216_);}
	.st1047{fill:url(#SVGID_217_);}
	.st1048{opacity:0.2;fill:url(#SVGID_218_);}
	.st1049{fill:url(#SVGID_219_);}
	.st1050{fill:url(#SVGID_220_);}
	.st1051{fill:url(#SVGID_221_);}
	.st1052{fill:url(#SVGID_222_);}
	.st1053{fill:url(#SVGID_223_);}
	.st1054{fill:url(#SVGID_224_);}
	.st1055{fill:url(#SVGID_225_);}
	.st1056{fill:url(#SVGID_226_);}
	.st1057{opacity:0.6;fill:url(#SVGID_227_);}
	.st1058{fill:url(#SVGID_228_);}
	.st1059{fill:url(#SVGID_229_);}
	.st1060{fill:url(#SVGID_230_);}
	.st1061{fill:url(#SVGID_231_);}
	.st1062{fill:url(#SVGID_232_);}
	.st1063{fill:url(#SVGID_233_);}
	.st1064{opacity:0.3;fill:url(#SVGID_234_);}
	.st1065{fill:url(#SVGID_235_);}
	.st1066{fill:url(#SVGID_236_);}
	.st1067{fill:url(#SVGID_237_);}
	.st1068{fill:url(#SVGID_238_);}
	.st1069{fill:url(#SVGID_239_);}
	.st1070{fill:url(#SVGID_240_);}
	.st1071{opacity:0.3;fill:url(#SVGID_241_);}
	.st1072{fill:url(#SVGID_242_);}
	.st1073{fill:url(#SVGID_243_);}
	.st1074{fill:#878BFF;}
	.st1075{fill:#6165EB;}
	.st1076{fill:#303030;}
	.st1077{fill:#404040;}
	.st1078{fill:#737373;}
	.st1079{fill:#E1E8FF;}
	.st1080{fill:#F0F3FF;}
	.st1081{fill:#8497F5;}
	.st1082{fill:#C3CCFA;}
	.st1083{fill:#B8D0FF;}
	.st1084{fill:#FFC293;}
	.st1085{fill:#FFE3A1;}
	.st1086{fill:#FFB9B8;}
	.st1087{fill:#566278;}
	.st1088{fill:#B2BFEB;}
	.st1089{fill:#FF8762;}
	.st1090{fill:#2B1710;}
	.st1091{fill:#693E2F;}
	.st1092{fill:#463FCC;}
	.st1093{fill:#5952DC;}
	.st1094{fill:#BFBFBF;}
	.st1095{fill:#A1A4FF;}
	.st1096{fill:#7F83FA;}
	.st1097{fill:#E0B3A8;}
	.st1098{fill:#874833;}
	.st1099{fill:#FF7557;}
	.st1100{fill:#FF7A52;}
	.st1101{fill:#7D2727;}
	.st1102{fill:#D9D9D9;}
	.st1103{fill:#EBF3FA;}
	.st1104{fill:#D2E0FF;}
	.st1105{fill:#AEC3FF;}
	.st1106{fill:#BBD0FF;}
	.st1107{fill:#F99746;}
	.st1108{fill:#C0CCFF;}
	.st1109{fill:#B6C4FF;}
	.st1110{fill:#8D9EFF;}
	.st1111{fill:#F3F5FF;}
	.st1112{fill:#8C9DF4;}
	.st1113{fill:#060633;}
	.st1114{fill:#6980E2;}
	.st1115{fill:#5067C9;}
	.st1116{fill:#233862;}
	.st1117{fill:#F9DDBF;}
	.st1118{fill:#182B49;}
	.st1119{fill:#2B478B;}
	.st1120{fill:#FFB27D;}
	.st1121{fill:#E2915A;}
	.st1122{fill:#EF873A;}
	.st1123{fill:#F3F8FF;}
	.st1124{fill:#9FB1FF;}
	.st1125{fill:#182D4C;}
	.st1126{fill:#2E3552;}
	.st1127{fill:url(#SVGID_244_);}
	.st1128{fill:url(#SVGID_245_);}
	.st1129{opacity:0.3;fill:url(#SVGID_246_);}
	.st1130{fill:#B7C0CE;}
	.st1131{fill:url(#SVGID_247_);}
	.st1132{fill:url(#SVGID_248_);}
	.st1133{fill:url(#SVGID_249_);}
	.st1134{fill:url(#SVGID_250_);}
	.st1135{fill:url(#SVGID_251_);}
	.st1136{fill:url(#SVGID_252_);}
	.st1137{fill:url(#SVGID_253_);}
	.st1138{fill:url(#SVGID_254_);}
	.st1139{fill:url(#SVGID_255_);}
	.st1140{fill:url(#SVGID_256_);}
	.st1141{fill:url(#SVGID_257_);}
	.st1142{opacity:0.3;fill:url(#SVGID_258_);}
	.st1143{fill:url(#SVGID_259_);}
	.st1144{opacity:0.3;fill:url(#SVGID_260_);}
	.st1145{fill:url(#SVGID_261_);}
	.st1146{fill:url(#SVGID_262_);}
	.st1147{fill:url(#SVGID_263_);}
	.st1148{opacity:0.3;fill:url(#SVGID_264_);}
	.st1149{fill:url(#SVGID_265_);}
	.st1150{fill:url(#SVGID_266_);}
	.st1151{fill:url(#SVGID_267_);}
	.st1152{fill:url(#SVGID_268_);}
	.st1153{fill:url(#SVGID_269_);}
	.st1154{fill:url(#SVGID_270_);}
	.st1155{fill:url(#SVGID_271_);}
	.st1156{opacity:0.3;fill:url(#SVGID_272_);}
	.st1157{fill:#C47EB7;}
	.st1158{fill:url(#SVGID_273_);}
	.st1159{fill:url(#SVGID_274_);}
	.st1160{fill:url(#SVGID_275_);}
	.st1161{fill:url(#SVGID_276_);}
	.st1162{fill:url(#SVGID_277_);}
	.st1163{fill:url(#SVGID_278_);}
	.st1164{opacity:0.3;fill:url(#SVGID_279_);}
	.st1165{fill:url(#SVGID_280_);}
	.st1166{fill:url(#SVGID_281_);}
	.st1167{fill:url(#SVGID_282_);}
	.st1168{fill:url(#SVGID_283_);}
	.st1169{opacity:0.1;fill:url(#SVGID_284_);}
	.st1170{fill:url(#SVGID_285_);}
	.st1171{fill:url(#SVGID_286_);}
	.st1172{fill:url(#SVGID_287_);}
	.st1173{fill:url(#SVGID_288_);}
	.st1174{fill:url(#SVGID_289_);}
	.st1175{fill:url(#SVGID_290_);}
	.st1176{fill:url(#SVGID_291_);}
	.st1177{fill:url(#SVGID_292_);}
	.st1178{fill:url(#SVGID_293_);}
	.st1179{fill:url(#SVGID_294_);}
	.st1180{fill:url(#SVGID_295_);}
	.st1181{fill:url(#SVGID_296_);}
	.st1182{fill:url(#SVGID_297_);}
	.st1183{opacity:0.3;fill:url(#SVGID_298_);}
	.st1184{fill:url(#SVGID_299_);}
	.st1185{fill:url(#SVGID_300_);}
	.st1186{fill:url(#SVGID_301_);}
	.st1187{fill:url(#SVGID_302_);}
	.st1188{opacity:0.3;fill:url(#SVGID_303_);}
	.st1189{fill:url(#SVGID_304_);}
	.st1190{fill:url(#SVGID_305_);}
	.st1191{fill:url(#SVGID_306_);}
	.st1192{fill:url(#SVGID_307_);}
	.st1193{fill:url(#SVGID_308_);}
	.st1194{opacity:0.3;fill:url(#SVGID_309_);}
	.st1195{fill:url(#SVGID_310_);}
	.st1196{fill:url(#SVGID_311_);}
	.st1197{fill:url(#SVGID_312_);}
	.st1198{fill:url(#SVGID_313_);}
	.st1199{fill:url(#SVGID_314_);}
	.st1200{fill:url(#SVGID_315_);}
	.st1201{fill:url(#SVGID_316_);}
	.st1202{opacity:0.3;fill:url(#SVGID_317_);}
	.st1203{fill:#5AE4A7;}
	.st1204{fill:#33435A;}
	.st1205{fill:#F6F6F6;}
	.st1206{fill:#427CCC;}
	.st1207{fill:#9BA7AE;}
	.st1208{fill:#D0E8F4;}
	.st1209{fill:#06529C;}
	.st1210{fill:#5BB5DC;}
	.st1211{opacity:0.07;fill:#184462;}
	.st1212{fill:#F6C5B0;}
	.st1213{opacity:0.03;fill:#232020;}
	.st1214{opacity:0.2;fill:#BBBCC0;}
	.st1215{opacity:0.5;fill:#D0E8F4;}
	.st1216{opacity:0.22;}
	.st1217{opacity:0.31;fill:#FFFFFF;}
</style>
<g>
	<ellipse id="Floor_1_" class="st70" cx="359.04" cy="421.59" rx="297.04" ry="171.5"/>
	<path id="Shadow_8_" class="st75" d="M133.46,482.66l-51.24-29.58c-2.89-1.67-2.89-4.37,0-6.04l298.03-172.07
		c2.89-1.67,7.57-1.67,10.46,0l51.24,29.58c2.89,1.67,2.89,4.37,0,6.04L143.92,482.66C141.03,484.33,136.35,484.33,133.46,482.66z"
		/>
	<polygon id="Shadow_7_" class="st75" points="353.7,494.9 230.64,423.86 384.43,335.24 507.33,406.2 	"/>
	<ellipse id="Shadow_6_" class="st75" cx="523.6" cy="492.99" rx="58.17" ry="33.59"/>
	<path id="Shadow_3_" class="st75" d="M601.65,452.55c6.31,3.64,6.31,9.54,0,13.18c-6.31,3.64-16.53,3.64-22.84,0
		c-6.31-3.64-6.31-9.54,0-13.18C585.12,448.91,595.34,448.91,601.65,452.55z"/>
	<g id="Device_2_">
		<g id="XMLID_313_">
			<g id="XMLID_322_">
				<path id="XMLID_323_" class="st671" d="M317.63,429.94l44.05-25.47c4.54-2.62,6.81-6.06,6.81-9.49c0-3.44,0.02-6.13,0.02-6.13
					l-45.7-25.77c-2.42-1.4-4.38-4.8-4.38-7.59v-54.31l-76.93,44.46l0,54.31c0,2.8,1.96,6.2,4.38,7.59l38.88,22.4
					C293.83,435.18,308.55,435.18,317.63,429.94z"/>
			</g>
			<g id="XMLID_320_" class="st672">
				<path id="XMLID_321_" d="M317.63,429.94l44.05-25.47c4.54-2.62,6.81-6.06,6.81-9.49c0-3.44,0.02-6.13,0.02-6.13l-45.7-25.77
					c-2.42-1.4-4.38-4.8-4.38-7.59v-54.31l-76.93,44.46l0,54.31c0,2.8,1.96,6.2,4.38,7.59l38.88,22.4
					C293.83,435.18,308.55,435.18,317.63,429.94z"/>
			</g>
			<path id="XMLID_319_" class="st80" d="M259.96,409.56v6.1l-14.1-8.13c-2.4-1.39-4.38-4.78-4.38-7.59v-54.3l14.66-8.46
				c0.3,3.72,0.63,7.57,0.94,11.32l-10.28,5.95v42.43c0,2.81,1.95,6.2,4.38,7.59L259.96,409.56z"/>
			<path id="XMLID_318_" class="st671" d="M246.79,396.89c0,2.8,1.96,6.2,4.38,7.59l33.56,19.33c9.08,5.24,23.81,5.24,32.89,0
				l44.07-25.47c9.08-5.24,9.08-13.74,0-18.98l-33.58-19.35c-2.42-1.4-4.38-4.8-4.38-7.59l0-42.43l-76.94,44.46V396.89z"/>
			<path id="XMLID_317_" class="st80" d="M246.79,396.89c0,2.8,1.96,6.2,4.38,7.59l33.56,19.33c9.08,5.24,23.81,5.24,32.89,0
				l44.07-25.47c9.08-5.24,9.08-13.74,0-18.98l-33.58-19.35c-2.42-1.4-4.38-4.8-4.38-7.59l0-42.43l-76.94,44.46V396.89z"/>
			<path id="XMLID_316_" class="st669" d="M337.04,365.19L337.04,365.19l-8.93-5.16c-2.42-1.4-4.38-4.8-4.38-7.59l0-42.43
				l-76.94,44.46v42.43c0,2.8,1.96,6.2,4.38,7.59l8.78,5.07L337.04,365.19z"/>
			<path id="XMLID_315_" class="st671" d="M368.5,388.86c0,0,0,2.68,0,6.13c0,3.44-2.28,6.86-6.81,9.49l-44.05,25.45
				c-4.35,2.53-10,3.8-15.7,3.9v-6.1c5.7-0.08,11.34-1.39,15.7-3.9l44.05-25.48C366.22,395.74,368.5,392.3,368.5,388.86z"/>
			<path id="XMLID_314_" class="st669" d="M368.5,388.86c0,0,0,2.68,0,6.13c0,3.44-2.28,6.86-6.81,9.49l-44.05,25.45
				c-4.35,2.53-10,3.8-15.7,3.9v-6.1c5.7-0.08,11.34-1.39,15.7-3.9l44.05-25.48C366.22,395.74,368.5,392.3,368.5,388.86z"/>
		</g>
		<path id="XMLID_312_" class="st671" d="M123.26,449.63c2.84,1.64,7.6,1.55,10.62-0.2c37.82-21.84,259.71-149.94,297.53-171.78
			c3.03-1.75,5.48-6,5.48-9.49V27.47c0-3.5-2.3-7.66-5.14-9.3c-2.84-1.64-7.6-1.55-10.62,0.2L123.6,190.15
			c-3.03,1.75-5.48,6-5.48,9.49l0,240.69C118.12,443.83,120.42,447.99,123.26,449.63z"/>
		<path id="XMLID_311_" class="st671" d="M133.88,449.43l297.53-171.78c3.03-1.75,5.48-6,5.48-9.49V27.47c0-3.5-2.45-4.91-5.48-3.16
			L133.89,196.08c-3.03,1.75-5.48,6-5.48,9.49l0,240.69C128.4,449.76,130.86,451.18,133.88,449.43z"/>
		<path id="XMLID_310_" class="st669" d="M133.88,449.43l297.53-171.78c3.03-1.75,5.48-6,5.48-9.49V27.47c0-3.5-2.45-4.91-5.48-3.16
			L133.89,196.08c-3.03,1.75-5.48,6-5.48,9.49l0,240.69C128.4,449.76,130.86,451.18,133.88,449.43z"/>
		<path id="XMLID_309_" class="st671" d="M133.08,455.68c-3.04,1.34-7.24,1.29-9.82-0.2c-2.84-1.65-5.14-5.8-5.14-9.32v-21.92
			l10.28,5.95v21.92C128.4,455.3,130.42,456.75,133.08,455.68z"/>
		<path id="XMLID_308_" class="st669" d="M133.08,455.68c-3.04,1.34-7.24,1.29-9.82-0.2c-2.84-1.65-5.14-5.8-5.14-9.32v-21.92
			l10.28,5.95v21.92C128.4,455.3,130.42,456.75,133.08,455.68z"/>
		<path id="XMLID_307_" class="st671" d="M128.4,430.2l0.01,21.91c0,3.49,2.45,4.91,5.48,3.16L431.42,283.5
			c3.03-1.75,5.48-6,5.48-9.49v-21.96L128.4,430.2z"/>
		<path id="XMLID_306_" class="st80" d="M128.4,430.15l0,21.95c0,3.49,2.45,4.91,5.48,3.16L431.42,283.5c3.03-1.75,5.48-6,5.48-9.49
			v-21.96L128.4,430.15z"/>
		<path id="XMLID_305_" class="st671" d="M138.68,402.7l0-193.72c0-2.1,1.47-4.65,3.29-5.7L423.32,40.85
			c1.82-1.05,3.29-0.2,3.29,1.9l0.01,193.72c0,2.1-1.47,4.65-3.29,5.7L141.97,404.6C140.16,405.65,138.68,404.8,138.68,402.7z"/>
		<path id="XMLID_304_" class="st81" d="M138.68,402.7l0-193.72c0-2.1,1.47-4.65,3.29-5.7L423.32,40.85c1.82-1.05,3.29-0.2,3.29,1.9
			l0.01,193.72c0,2.1-1.47,4.65-3.29,5.7L141.97,404.6C140.16,405.65,138.68,404.8,138.68,402.7z"/>
		<path id="XMLID_303_" class="st397" d="M130.02,200.15c-0.99,1.72-1.59,3.67-1.62,5.42V430.2l-10.28-5.95l0.01-224.61
			c0-1.75,0.63-3.7,1.61-5.42L130.02,200.15z"/>
		<path id="XMLID_302_" class="st80" d="M436.84,26.56c-0.39-2.83-2.67-3.85-5.43-2.27L133.89,196.08c-1.5,0.87-2.86,2.35-3.88,4.07
			l-10.28-5.94c1-1.7,2.36-3.2,3.88-4.07L421.13,18.37c3.03-1.75,7.78-1.84,10.63-0.19C434.35,19.67,436.49,23.29,436.84,26.56z"/>
	</g>
	<g id="Window_1_">
		<path id="XMLID_301_" class="st671" d="M161.66,246.07c-1.41-0.82-2.56-2.89-2.56-4.63l0-21.31c0-1.74,1.23-3.86,2.73-4.73
			L441.87,53.7c1.51-0.87,3.88-0.91,5.29-0.1s2.56,2.89,2.56,4.63l0,21.31c0.01,1.74-1.22,3.86-2.73,4.73l-280.05,161.7
			C165.44,246.84,163.07,246.88,161.66,246.07z"/>
		<path id="XMLID_300_" class="st82" d="M449.69,57.79c-0.19-1.41-1.34-1.93-2.7-1.13l-280.05,161.7c-0.74,0.44-1.42,1.19-1.93,2.04
			l-5.12-2.96c0.5-0.86,1.17-1.59,1.93-2.03L441.88,53.7c1.5-0.87,3.87-0.92,5.28-0.1C448.46,54.36,449.53,56.15,449.69,57.79z"/>
		<path id="XMLID_299_" class="st70" d="M166.95,419.41c-0.04,0.01-0.69,0.51-2.14,0.65c-1.12,0.11-2.29-0.06-3.14-0.55
			c-1.42-0.82-2.56-2.89-2.56-4.63l-0.01-162.43l5.13,2.96v162.42c0,1.24,0.62,1.95,1.52,1.95
			C165.86,419.79,166.35,419.75,166.95,419.41z"/>
		<path id="XMLID_298_" class="st673" d="M165.02,220.4c-0.49,0.84-0.79,1.82-0.79,2.69v32.34l-5.13-2.96l0-32.33
			c0-0.11,0-0.22,0.01-0.33c0.02-0.26,0.05-0.45,0.11-0.68c0.14-0.57,0.37-1.17,0.68-1.69L165.02,220.4z"/>
		<path id="XMLID_297_" class="st671" d="M449.72,58.23l0,14.59L248.88,188.79c-1.5,0.87-2.72,0.16-2.72-1.58v-5.52
			c0-1.74-1.22-2.45-2.74-1.58l-66.23,38.24c-1.51,0.87-2.74,2.99-2.74,4.73v5.52c0,1.74-1.22,3.86-2.72,4.73l-7.51,4.34v-14.59
			c0-1.74,1.22-3.86,2.72-4.73L447,56.65C448.5,55.78,449.72,56.49,449.72,58.23z"/>
		<g id="XMLID_294_">
			<g id="XMLID_295_">
				<path class="st73" d="M165.73,419.29c-0.94,0-1.01-1.11-1.01-1.45V237.96l7.26-4.19c0.83-0.48,1.57-2.85,2.95-7.76
					c0.76-2.72,1.91-6.83,2.51-7.22l65.12-37.6c0.47,0.09,1.81,2.44,2.61,3.84c1.57,2.76,2.5,4.31,3.5,4.31
					c0.16,0,0.31-0.04,0.45-0.12L449.22,73.68v179.3c0,1.56-1.13,3.53-2.47,4.3L166.7,418.98
					C166.35,419.18,166.02,419.29,165.73,419.29z"/>
				<path class="st75" d="M448.72,74.55v16.02v162.42c0,1.4-1.02,3.17-2.23,3.86l-280.05,161.7c-0.26,0.15-0.52,0.24-0.71,0.24
					c-0.44,0-0.51-0.59-0.51-0.95V238.24l7.02-4.05c1.01-0.58,1.67-2.67,3.18-8.06c0.71-2.52,1.77-6.31,2.33-6.95l64.76-37.39
					c0.56,0.55,1.59,2.35,2.23,3.48c1.71,3,2.66,4.57,3.94,4.57c0.25,0,0.49-0.07,0.7-0.19L448.72,74.55 M242.81,181.62
					L242.81,181.62L242.81,181.62 M177.77,219.17L177.77,219.17L177.77,219.17 M449.72,72.81L248.88,188.79
					c-0.06,0.04-0.13,0.05-0.2,0.05c-1.53,0-4.62-8.14-6.16-8.14c-0.07,0-0.14,0.02-0.2,0.05l-65.12,37.6
					c-1.51,0.87-3.96,14.11-5.46,14.98l-7.51,4.34v180.17c0,1.23,0.62,1.95,1.51,1.95c0.37,0,0.78-0.12,1.21-0.37L447,257.71
					c1.51-0.87,2.73-2.99,2.73-4.73V90.56V72.81L449.72,72.81z"/>
			</g>
		</g>
		<g id="XMLID_276_">
			<path id="XMLID_293_" class="st70" d="M212.13,316.44l37.32-21.55c1-0.58,1.82-0.11,1.82,1.05v62.84c0,1.16-0.81,2.57-1.82,3.15
				l-37.32,21.55c-1,0.58-1.82,0.11-1.82-1.05l0-62.84C210.31,318.43,211.12,317.02,212.13,316.44z"/>
			<g id="XMLID_282_">
				<path id="XMLID_292_" class="st75" d="M218.95,320.38l23.67-13.67c1-0.58,1.82-0.17,1.82,0.92c0,1.09-0.81,2.44-1.82,3.02
					l-23.67,13.67c-1,0.58-1.82,0.17-1.82-0.92C217.13,322.31,217.95,320.96,218.95,320.38z"/>
				<g id="XMLID_283_">
					<path id="XMLID_291_" class="st671" d="M217.13,330.58V332c0,0.7,0.49,0.98,1.09,0.63l1.23-0.71c0.6-0.35,1.09-1.19,1.09-1.89
						l0-1.42c0-0.7-0.49-0.98-1.09-0.63l-1.23,0.71C217.62,329.03,217.13,329.88,217.13,330.58z"/>
					<path id="XMLID_290_" class="st75" d="M223.96,327.34c0,1.09,0.81,1.5,1.82,0.92l16.84-9.72c1-0.58,1.82-1.93,1.82-3.02
						c0-1.09-0.81-1.5-1.82-0.92l-16.84,9.72C224.78,324.9,223.96,326.26,223.96,327.34z"/>
					<path id="XMLID_289_" class="st671" d="M217.13,338.47v1.42c0,0.7,0.49,0.98,1.09,0.63l1.23-0.71c0.6-0.35,1.09-1.19,1.09-1.89
						l0-1.42c0-0.7-0.49-0.98-1.09-0.63l-1.23,0.71C217.62,336.92,217.13,337.77,217.13,338.47z"/>
					<path id="XMLID_288_" class="st75" d="M223.96,335.24c0,1.09,0.81,1.5,1.82,0.92l16.84-9.72c1-0.58,1.82-1.93,1.82-3.02
						c0-1.09-0.81-1.5-1.82-0.92l-16.84,9.72C224.78,332.79,223.96,334.15,223.96,335.24z"/>
					<path id="XMLID_287_" class="st671" d="M217.13,346.35v1.42c0,0.7,0.49,0.98,1.09,0.63l1.23-0.71c0.6-0.35,1.09-1.19,1.09-1.89
						l0-1.42c0-0.7-0.49-0.98-1.09-0.63l-1.23,0.71C217.62,344.8,217.13,345.65,217.13,346.35z"/>
					<path id="XMLID_286_" class="st75" d="M223.96,343.11c0,1.09,0.81,1.5,1.82,0.92l16.84-9.72c1-0.58,1.82-1.93,1.82-3.02
						c0-1.09-0.81-1.5-1.82-0.92l-16.84,9.72C224.78,340.67,223.96,342.03,223.96,343.11z"/>
					<path id="XMLID_285_" class="st671" d="M217.13,354.22v1.42c0,0.7,0.49,0.98,1.09,0.63l1.23-0.71c0.6-0.35,1.09-1.19,1.09-1.89
						l0-1.42c0-0.7-0.49-0.98-1.09-0.63l-1.23,0.71C217.62,352.68,217.13,353.52,217.13,354.22z"/>
					<path id="XMLID_284_" class="st75" d="M223.96,350.99c0,1.09,0.81,1.5,1.82,0.92l16.84-9.72c1-0.58,1.82-1.93,1.82-3.02
						c0-1.09-0.81-1.5-1.82-0.92l-16.84,9.72C224.78,348.55,223.96,349.9,223.96,350.99z"/>
				</g>
			</g>
			<g id="XMLID_277_">
				<path id="XMLID_281_" class="st75" d="M218.81,363.82l23.67-13.67c1-0.58,1.82-0.17,1.82,0.92c0,1.09-0.81,2.44-1.82,3.02
					l-23.67,13.67c-1,0.58-1.82,0.17-1.82-0.92C216.99,365.75,217.8,364.4,218.81,363.82z"/>
				<g id="XMLID_278_">
					<path id="XMLID_280_" class="st671" d="M216.99,374.01v1.42c0,0.7,0.49,0.98,1.09,0.63l1.23-0.71c0.6-0.35,1.09-1.19,1.09-1.89
						l0-1.42c0-0.7-0.49-0.98-1.09-0.63l-1.23,0.71C217.48,372.47,216.99,373.32,216.99,374.01z"/>
					<path id="XMLID_279_" class="st75" d="M223.82,370.78c0,1.09,0.81,1.5,1.82,0.92l16.84-9.72c1-0.58,1.82-1.93,1.82-3.02
						c0-1.09-0.81-1.5-1.82-0.92l-16.84,9.72C224.63,368.34,223.82,369.69,223.82,370.78z"/>
				</g>
			</g>
		</g>
		<g id="XMLID_272_">
			<path id="XMLID_275_" class="st5" d="M436.92,67.37c1.9-1.1,3.43-0.21,3.43,1.98c0,2.19-1.54,4.85-3.43,5.95
				c-1.9,1.1-3.43,0.21-3.43-1.98C433.49,71.13,435.03,68.47,436.92,67.37z"/>
			<path id="XMLID_274_" class="st5" d="M424.56,74.5c1.9-1.1,3.43-0.21,3.43,1.98s-1.54,4.85-3.43,5.95
				c-1.9,1.1-3.43,0.21-3.43-1.98S422.66,75.6,424.56,74.5z"/>
			
				<ellipse id="XMLID_273_" transform="matrix(0.5 -0.866 0.866 0.5 131.9663 399.77)" class="st5" cx="412.19" cy="85.6" rx="4.86" ry="2.8"/>
		</g>
		<g>
			<path id="XMLID_271_" class="st72" d="M449.72,72.81v17.75l-285.5,164.85v-17.75l5.61-3.25c1.5-0.87,2-2.19,2.72-4.73l1.9-6.61
				c0.6-2.29,1.22-3.86,2.74-4.73l65.12-37.6c1.51-0.87,2.69-0.97,3.84,0.94l2.33,4.24c0.86,1.48,1.28,2.35,2.79,1.48L449.72,72.81z
				"/>
			<polygon id="XMLID_270_" class="st75" points="164.22,237.67 164.22,255.42 159.09,252.46 159.09,234.72 			"/>
		</g>
		<g>
			<path id="XMLID_269_" class="st674" d="M176.74,238.95l-4.29,2.47l1.63-3.14c0.14-0.28,0.16-0.62,0.03-0.77
				c-0.13-0.15-0.34-0.04-0.49,0.23l-2.32,4.47c0,0.01,0,0.01-0.01,0.02c-0.03,0.05-0.04,0.11-0.06,0.17
				c-0.01,0.02-0.01,0.04-0.02,0.05c-0.02,0.08-0.03,0.15-0.03,0.23c0,0.08,0.01,0.14,0.03,0.2c0,0.01,0.01,0.02,0.02,0.03
				c0.02,0.04,0.04,0.07,0.06,0.09c0,0,0,0.01,0.01,0.01l2.32,1.79c0.07,0.05,0.15,0.05,0.23,0c0.1-0.06,0.19-0.17,0.26-0.33
				c0.13-0.29,0.11-0.62-0.03-0.73l-1.63-1.26l4.29-2.47c0.19-0.11,0.34-0.44,0.34-0.73S176.93,238.84,176.74,238.95z"/>
			<path id="XMLID_268_" class="st674" d="M180.32,236.88l4.29-2.47l-1.63-1.26c-0.14-0.11-0.16-0.44-0.03-0.73
				c0.13-0.29,0.34-0.44,0.49-0.33l2.32,1.79c0,0,0,0.01,0.01,0.01c0.03,0.02,0.04,0.06,0.06,0.09c0.01,0.01,0.01,0.02,0.02,0.03
				c0.02,0.05,0.03,0.12,0.03,0.2s-0.01,0.15-0.03,0.23c0,0.02-0.01,0.04-0.02,0.05c-0.02,0.06-0.04,0.11-0.06,0.17
				c0,0.01,0,0.01-0.01,0.02l-2.32,4.47c-0.07,0.13-0.15,0.22-0.23,0.26c-0.1,0.06-0.19,0.05-0.26-0.03
				c-0.13-0.15-0.11-0.49,0.03-0.77l1.63-3.14l-4.29,2.47c-0.19,0.11-0.34-0.04-0.34-0.33
				C179.98,237.32,180.13,236.99,180.32,236.88z"/>
			<path id="XMLID_267_" class="st674" d="M194.38,224.54c-0.03-0.26-0.25-0.23-0.37,0.05l-0.59,1.44c-1-0.11-2.21,0.87-3.03,2.6
				c-1.06,2.25-1.06,4.91,0,5.93c0.53,0.51,1.23,0.52,1.92,0.11c0.7-0.4,1.39-1.21,1.92-2.34c0.13-0.29,0.13-0.62,0-0.75
				c-0.13-0.13-0.35,0-0.49,0.28c-0.79,1.68-2.08,2.42-2.87,1.66c-0.79-0.76-0.79-2.75,0-4.43c0.56-1.19,1.37-1.9,2.08-1.94
				l-0.44,1.08c-0.11,0.28-0.01,0.54,0.17,0.42l1.75-1.14c0.12-0.08,0.21-0.3,0.2-0.48L194.38,224.54z"/>
			<path id="XMLID_266_" class="st674" d="M240.44,188.86l1.56-3.31c0.18-0.39,0.18-0.85,0-1.03c-0.18-0.18-0.48,0-0.67,0.39
				l-1.56,3.31l-1.56-1.5c-0.18-0.18-0.48,0-0.67,0.39c-0.18,0.39-0.18,0.85,0,1.03l1.56,1.5l-1.56,3.31
				c-0.18,0.39-0.18,0.85,0,1.03c0.09,0.09,0.21,0.09,0.33,0.02c0.12-0.07,0.24-0.21,0.33-0.41l1.56-3.31l1.56,1.5
				c0.09,0.09,0.21,0.09,0.33,0.02c0.12-0.07,0.24-0.21,0.33-0.41c0.18-0.39,0.18-0.85,0-1.03L240.44,188.86z"/>
			<path id="XMLID_265_" class="st73" d="M200.07,228.61v-5.52c0-1.74,1.22-3.86,2.73-4.73L431.63,86.28
				c1.51-0.87,2.73-0.16,2.73,1.58l0,5.52c0,1.74-1.22,3.86-2.73,4.73L202.8,230.18C201.29,231.05,200.07,230.35,200.07,228.61z"/>
			<path id="XMLID_264_" class="st675" d="M430.04,89.2l0.72,1.52c0.05,0.1,0.13,0.13,0.23,0.09l1.6-0.61
				c0.25-0.1,0.36,0.26,0.17,0.61l-1.16,2.18c-0.07,0.14-0.11,0.29-0.09,0.42l0.27,1.97c0.04,0.31-0.22,0.72-0.45,0.7l-1.43-0.18
				c-0.09-0.01-0.2,0.05-0.29,0.17l-1.43,1.83c-0.23,0.29-0.49,0.19-0.45-0.18l0.27-2.29c0.02-0.14-0.02-0.26-0.09-0.31l-1.16-0.84
				c-0.18-0.13-0.08-0.61,0.17-0.81l1.6-1.24c0.1-0.08,0.19-0.21,0.23-0.36l0.72-2.35C429.6,89.15,429.93,88.96,430.04,89.2z"/>
			<g id="XMLID_257_" class="st669">
				<g id="XMLID_262_">
					<path id="XMLID_263_" class="st676" d="M437.58,85.61c-0.33,0-0.65-0.17-0.82-0.47c-0.26-0.45-0.11-1.03,0.35-1.29l7.68-4.44
						c0.45-0.26,1.03-0.11,1.29,0.35c0.26,0.45,0.11,1.03-0.35,1.29l-7.68,4.44C437.9,85.57,437.74,85.61,437.58,85.61z"/>
				</g>
				<g id="XMLID_260_">
					<path id="XMLID_261_" class="st676" d="M437.58,90.05c-0.33,0-0.65-0.17-0.82-0.47c-0.26-0.45-0.11-1.03,0.35-1.29l7.68-4.44
						c0.45-0.26,1.03-0.11,1.29,0.35c0.26,0.45,0.11,1.03-0.35,1.29l-7.68,4.44C437.9,90.01,437.74,90.05,437.58,90.05z"/>
				</g>
				<g id="XMLID_258_">
					<path id="XMLID_259_" class="st676" d="M437.58,94.48c-0.33,0-0.65-0.17-0.82-0.47c-0.26-0.45-0.11-1.03,0.35-1.29l7.68-4.44
						c0.45-0.26,1.03-0.11,1.29,0.35c0.26,0.45,0.11,1.03-0.35,1.29l-7.68,4.44C437.9,94.44,437.74,94.48,437.58,94.48z"/>
				</g>
			</g>
		</g>
		<g>
			<polygon class="st676" points="164.22,255.42 164.21,273.15 449.69,108.33 449.72,90.56 			"/>
			<g>
				<g id="XMLID_250_">
					<g id="XMLID_251_">
						<path id="XMLID_256_" class="st73" d="M196.2,244.11l0,3.43c0,0.7,0.5,0.99,1.1,0.64l42.89-24.78l0-5.98l-42.89,24.78
							C196.7,242.55,196.2,243.41,196.2,244.11z"/>
						<path id="XMLID_255_" class="st671" d="M246,214.07c0.61-0.35,1.1-0.07,1.1,0.64v3.43c0,0.7-0.49,1.56-1.1,1.91l-5.8,3.35
							l0-5.98L246,214.07z"/>
						<path id="XMLID_252_" class="st73" d="M245.57,218.77l-0.65-0.2c0.07-0.27,0.1-0.56,0.1-0.83c0-0.66-0.21-1.16-0.59-1.38
							c-0.28-0.16-0.61-0.14-0.94,0.05c-0.72,0.42-1.29,1.6-1.29,2.69c0,0.66,0.21,1.16,0.59,1.38c0.13,0.07,0.27,0.11,0.41,0.11
							c0.17,0,0.35-0.05,0.53-0.16c0.44-0.25,0.81-0.78,1.04-1.4l0.65,0.2c0.02,0.01,0.05,0.01,0.07,0.01c0.1,0,0.2-0.07,0.23-0.17
							C245.77,218.95,245.69,218.81,245.57,218.77z M243.49,220.01c-0.18,0.1-0.33,0.12-0.46,0.05c-0.22-0.12-0.35-0.49-0.35-0.97
							c0-0.9,0.48-1.94,1.05-2.27c0.11-0.06,0.2-0.09,0.29-0.09c0.06,0,0.12,0.02,0.17,0.05c0.22,0.12,0.35,0.49,0.35,0.97
							C244.55,218.64,244.06,219.68,243.49,220.01z"/>
					</g>
				</g>
				<path class="st73" d="M188.72,247.18l-2.93,1.69c-0.6,0.35-1.09,1.19-1.09,1.89v3.39c0,0.7,0.49,0.98,1.09,0.63l2.93-1.69
					c0.6-0.35,1.09-1.19,1.09-1.89l0-3.39C189.81,247.11,189.32,246.83,188.72,247.18z"/>
				<g>
					<g id="XMLID_241_">
						<path id="XMLID_249_" class="st671" d="M290.37,187.04c-2.16,1.25-3.91,4.28-3.91,6.78c0,2.5,1.75,3.51,3.91,2.26
							c2.16-1.25,3.91-4.28,3.91-6.78C294.28,186.81,292.53,185.8,290.37,187.04z"/>
						<g id="XMLID_242_">
							<g id="XMLID_246_">
								<path id="XMLID_247_" class="st5" d="M289.91,191.02c-0.13,0-0.24-0.03-0.35-0.09c-0.24-0.14-0.38-0.42-0.38-0.78
									c0-0.67,0.45-1.45,1.03-1.78v0c0.31-0.18,0.62-0.2,0.87-0.06c0.24,0.14,0.38,0.42,0.38,0.78c0,0.67-0.45,1.45-1.03,1.78
									C290.25,190.97,290.08,191.02,289.91,191.02z"/>
							</g>
							<g id="XMLID_243_">
								<path id="XMLID_244_" class="st5" d="M291.92,191.28c-0.38-0.22-0.87-0.19-1.38,0.11l-0.57,0.33
									c-0.99,0.57-1.76,1.91-1.76,3.05v0.4c0.56,0.31,1.32,0.26,2.16-0.23c0.84-0.48,1.6-1.31,2.16-2.26v-0.1
									C292.53,191.98,292.31,191.51,291.92,191.28z"/>
							</g>
						</g>
					</g>
					<path class="st75" d="M299.32,184.01l26.8-15.47c1.09-0.63,1.97-0.15,1.97,1.06c0,1.21-0.88,2.7-1.96,3.33l-26.8,15.47
						c-1.09,0.63-1.97,0.15-1.97-1.06C297.36,186.13,298.24,184.64,299.32,184.01z"/>
					<path class="st75" d="M340.22,160.43l16.62-9.69c1.09-0.63,1.97-0.15,1.97,1.06c0,1.21-0.88,2.7-1.96,3.33l-16.62,9.69
						c-1.09,0.63-1.97,0.15-1.97-1.06S339.14,161.06,340.22,160.43z"/>
					<path class="st75" d="M370.99,142.75l11.47-6.66c1.09-0.63,1.97-0.15,1.97,1.06c0,1.21-0.88,2.7-1.96,3.33l-11.47,6.66
						c-1.09,0.63-1.97,0.15-1.97-1.06C369.02,144.87,369.9,143.38,370.99,142.75z"/>
					<g>
						<path class="st81" d="M333.21,170.15c-0.26,0-0.47-0.21-0.47-0.47v-5.91c0-0.26,0.21-0.47,0.47-0.47
							c0.26,0,0.47,0.21,0.47,0.47v5.91C333.68,169.93,333.47,170.15,333.21,170.15z"/>
					</g>
					<g>
						<path class="st81" d="M363.93,152.41c-0.26,0-0.47-0.21-0.47-0.47v-5.91c0-0.26,0.21-0.47,0.47-0.47
							c0.26,0,0.47,0.21,0.47,0.47v5.91C364.41,152.19,364.19,152.41,363.93,152.41z"/>
						<path class="st81" d="M389.54,137.62c-0.26,0-0.47-0.21-0.47-0.47v-5.91c0-0.26,0.21-0.47,0.47-0.47
							c0.26,0,0.47,0.21,0.47,0.47v5.91C390.01,137.41,389.8,137.62,389.54,137.62z"/>
					</g>
				</g>
				<g>
					<g id="XMLID_238_">
						<path id="XMLID_240_" class="st671" d="M399.39,128.5v-1.09c0-1.24-0.75-1.81-1.68-1.27l0,0c-0.93,0.54-1.68,1.98-1.68,3.22
							v0.97c0,0.61-0.21,1.31-0.57,1.9c0,0,0,0,0,0c-0.08,0.15-0.14,0.33-0.14,0.5l0,0c0,0.31,0.19,0.46,0.42,0.32l3.94-2.27
							c0.23-0.14,0.42-0.5,0.42-0.81l0,0c0-0.16-0.05-0.27-0.12-0.33c0,0,0,0-0.01,0C399.62,129.48,399.39,129.09,399.39,128.5z"/>
						<path id="XMLID_239_" class="st671" d="M398.51,131.78c0,0.6-0.36,1.29-0.81,1.55c-0.45,0.26-0.81-0.02-0.81-0.61
							L398.51,131.78z"/>
					</g>
					<g>
						<g id="XMLID_231_">
							<g id="XMLID_235_">
								<path id="XMLID_236_" class="st671" d="M406.59,123.74c-0.14,0-0.27-0.03-0.39-0.1c-0.27-0.16-0.43-0.47-0.43-0.88
									c0-0.75,0.51-1.64,1.16-2.01v0c0.35-0.21,0.7-0.23,0.98-0.07c0.27,0.16,0.43,0.47,0.43,0.88c0,0.75-0.51,1.64-1.16,2.01
									C406.97,123.68,406.77,123.74,406.59,123.74z"/>
							</g>
							<g id="XMLID_232_">
								<path id="XMLID_233_" class="st671" d="M408.85,124.03c-0.43-0.25-0.99-0.21-1.55,0.12l-0.64,0.37
									c-1.11,0.64-1.99,2.16-1.99,3.44v0.45c0.63,0.35,1.49,0.29,2.44-0.26c0.95-0.55,1.81-1.48,2.44-2.55v-0.11
									C409.54,124.82,409.29,124.29,408.85,124.03z"/>
							</g>
						</g>
						<g id="XMLID_225_">
							<g id="XMLID_228_">
								<path id="XMLID_229_" class="st671" d="M409.71,120.82c-0.14,0-0.27-0.03-0.39-0.1c-0.27-0.16-0.43-0.47-0.43-0.88
									c0-0.75,0.51-1.64,1.16-2.01v0c0.35-0.21,0.7-0.23,0.98-0.07c0.27,0.16,0.43,0.47,0.43,0.88c0,0.75-0.51,1.64-1.16,2.01
									C410.09,120.76,409.89,120.82,409.71,120.82z"/>
							</g>
							<g id="XMLID_226_">
								<path id="XMLID_227_" class="st671" d="M411.97,121.11c-0.44-0.25-0.98-0.21-1.56,0.11l-0.63,0.38
									c-0.69,0.39-1.29,1.12-1.63,1.92c0.5-0.24,1-0.25,1.37-0.03c0.44,0.25,0.69,0.78,0.69,1.46v0.1v0.18
									c0.96-0.54,1.82-1.48,2.45-2.55v-0.11C412.67,121.89,412.41,121.37,411.97,121.11z"/>
							</g>
						</g>
					</g>
					<path class="st671" d="M419.76,113.04c-1.77,1.02-3.21,3.52-3.21,5.57c0,0.88,0.28,1.52,0.72,1.91l-0.4,1.9
						c-0.05,0.24,0.11,0.34,0.26,0.16l1.44-1.69c0.37-0.04,0.76-0.17,1.18-0.41c1.77-1.02,3.21-3.52,3.21-5.57
						C422.96,112.86,421.53,112.02,419.76,113.04z"/>
					<g>
						<path class="st671" d="M435.18,104.07c0.28-0.16,0.55-0.26,0.79-0.28c0.25-0.02,0.47,0.02,0.65,0.12
							c0.18,0.11,0.33,0.27,0.43,0.5c0.11,0.23,0.16,0.52,0.16,0.87c0,0.28-0.03,0.54-0.09,0.78c-0.06,0.24-0.14,0.48-0.23,0.7
							c-0.09,0.22-0.19,0.44-0.31,0.63c-0.11,0.2-0.22,0.39-0.32,0.59c-0.1,0.19-0.2,0.38-0.28,0.57c-0.08,0.19-0.14,0.38-0.17,0.57
							c-0.01,0.09-0.04,0.18-0.07,0.26s-0.08,0.14-0.13,0.17l-0.92,0.53c-0.06,0.03-0.1,0.03-0.14-0.01
							c-0.04-0.04-0.06-0.1-0.06-0.19c0-0.26,0.03-0.5,0.1-0.74c0.07-0.24,0.15-0.47,0.25-0.7c0.1-0.22,0.21-0.44,0.33-0.65
							c0.12-0.21,0.23-0.4,0.33-0.59c0.1-0.19,0.18-0.36,0.25-0.53c0.07-0.17,0.1-0.33,0.1-0.49c0-0.22-0.06-0.37-0.17-0.43
							c-0.11-0.06-0.28-0.03-0.51,0.1c-0.23,0.13-0.39,0.28-0.49,0.44c-0.1,0.16-0.17,0.32-0.21,0.47
							c-0.05,0.15-0.08,0.29-0.12,0.41c-0.03,0.12-0.1,0.21-0.19,0.27l-0.92,0.53c-0.04,0.03-0.08,0.03-0.12,0
							c-0.03-0.03-0.05-0.08-0.05-0.16c0-0.27,0.06-0.59,0.15-0.94c0.1-0.35,0.23-0.71,0.41-1.06c0.18-0.35,0.4-0.69,0.65-1
							C434.55,104.51,434.84,104.26,435.18,104.07z M435.83,111.61c0,0.08-0.02,0.17-0.06,0.25c-0.04,0.08-0.09,0.14-0.14,0.18
							l-0.95,0.55c-0.06,0.03-0.1,0.03-0.14-0.01c-0.04-0.04-0.06-0.1-0.06-0.19v-1.17c0-0.08,0.02-0.17,0.06-0.26
							c0.04-0.08,0.09-0.14,0.14-0.17l0.95-0.55c0.05-0.03,0.1-0.03,0.14,0.01c0.04,0.04,0.06,0.1,0.06,0.19V111.61z"/>
					</g>
				</g>
			</g>
		</g>
		<g>
			<g id="XMLID_222_">
				<path id="XMLID_224_" class="st671" d="M210.3,255.62v52.82c0,1.74,1.22,2.45,2.73,1.58l187.88-108.5
					c1.51-0.87,2.73-2.99,2.73-4.73l0-52.82c0-1.74-1.22-2.45-2.73-1.58l-187.88,108.5C211.53,251.76,210.3,253.88,210.3,255.62z"/>
				<path id="XMLID_223_" class="st11" d="M210.3,255.62v52.82c0,1.74,1.22,2.45,2.73,1.58l187.88-108.5
					c1.51-0.87,2.73-2.99,2.73-4.73l0-52.82c0-1.74-1.22-2.45-2.73-1.58l-187.88,108.5C211.53,251.76,210.3,253.88,210.3,255.62z"/>
			</g>
			<g id="XMLID_213_">
				<path id="XMLID_221_" class="st671" d="M225.67,263.31c-5.66,3.27-10.24,11.21-10.24,17.74c0,6.53,4.59,9.18,10.24,5.91
					c5.66-3.27,10.25-11.21,10.24-17.74C235.9,262.69,231.32,260.04,225.67,263.31z"/>
				<g id="XMLID_214_">
					<g id="XMLID_218_">
						<path id="XMLID_219_" class="st5" d="M224.47,273.73c-0.33,0-0.63-0.08-0.91-0.24c-0.64-0.37-0.99-1.1-0.99-2.05
							c0-1.75,1.18-3.8,2.7-4.67v0c0.82-0.48,1.63-0.54,2.27-0.17c0.64,0.37,0.99,1.1,0.99,2.05c0,1.75-1.18,3.8-2.7,4.67
							C225.36,273.59,224.9,273.73,224.47,273.73z"/>
					</g>
					<g id="XMLID_215_">
						<path id="XMLID_216_" class="st5" d="M229.71,274.41c-1.01-0.58-2.29-0.48-3.61,0.28l-1.49,0.86c-2.58,1.5-4.61,5-4.61,7.99
							v1.05c1.46,0.81,3.45,0.67,5.66-0.6c2.2-1.27,4.2-3.43,5.66-5.92v-0.25C231.32,276.23,230.74,275,229.71,274.41z"/>
					</g>
				</g>
			</g>
			<g>
				<path class="st676" d="M243,261.15l21.69-12.53c1.09-0.63,1.97-0.23,1.97,0.88c0,1.11-0.88,2.52-1.97,3.15l-21.7,12.53
					c-1.09,0.63-1.97,0.23-1.96-0.88C241.03,263.19,241.91,261.78,243,261.15z"/>
				<path class="st676" d="M242.19,269.54l12.76-7.36c0.64-0.37,1.16-0.14,1.16,0.52c0,0.65-0.52,1.48-1.16,1.85l-12.76,7.37
					c-0.64,0.37-1.16,0.14-1.16-0.52C241.03,270.74,241.55,269.91,242.19,269.54z"/>
			</g>
			<path class="st71" d="M213.03,310.08l187.88-108.5c1.51-0.87,2.73-2.99,2.73-4.73v-8.65L210.3,299.83v8.68
				C210.3,310.25,211.53,310.95,213.03,310.08z"/>
			<g>
				<path class="st69" d="M261.51,279.53c-0.26,0-0.47-0.21-0.47-0.47v-5.91c0-0.26,0.21-0.47,0.47-0.47c0.26,0,0.47,0.21,0.47,0.47
					v5.91C261.99,279.32,261.78,279.53,261.51,279.53z"/>
				<path class="st75" d="M238.6,287.32l16.62-9.69c1.09-0.63,1.97-0.15,1.97,1.06c0,1.21-0.88,2.7-1.96,3.33l-16.62,9.69
					c-1.09,0.63-1.97,0.15-1.97-1.06C236.64,289.44,237.52,287.95,238.6,287.32z"/>
				<path class="st69" d="M291.53,262.09c-0.26,0-0.47-0.21-0.47-0.47v-5.91c0-0.26,0.21-0.47,0.47-0.47c0.26,0,0.47,0.21,0.47,0.47
					v5.91C292,261.88,291.79,262.09,291.53,262.09z"/>
				<path class="st75" d="M268.62,269.88l16.62-9.69c1.09-0.63,1.97-0.15,1.97,1.06c0,1.21-0.88,2.7-1.96,3.33l-16.62,9.69
					c-1.09,0.63-1.97,0.15-1.97-1.06C266.66,272,267.53,270.5,268.62,269.88z"/>
				<path class="st69" d="M321.55,244.65c-0.26,0-0.47-0.21-0.47-0.47v-5.91c0-0.26,0.21-0.47,0.47-0.47c0.26,0,0.47,0.21,0.47,0.47
					v5.91C322.02,244.43,321.81,244.65,321.55,244.65z"/>
				<path class="st75" d="M298.64,252.43l16.62-9.69c1.09-0.63,1.97-0.15,1.97,1.06c0,1.21-0.88,2.7-1.96,3.33l-16.62,9.69
					c-1.09,0.63-1.97,0.15-1.97-1.06C296.67,254.55,297.55,253.06,298.64,252.43z"/>
				<path class="st69" d="M351.57,227.2c-0.26,0-0.47-0.21-0.47-0.47v-5.91c0-0.26,0.21-0.47,0.47-0.47c0.26,0,0.47,0.21,0.47,0.47
					v5.91C352.04,226.99,351.83,227.2,351.57,227.2z"/>
				<path class="st75" d="M328.65,234.99l16.62-9.69c1.09-0.63,1.97-0.15,1.97,1.06c0,1.21-0.88,2.7-1.96,3.33l-16.62,9.69
					c-1.09,0.63-1.97,0.15-1.97-1.06C326.69,237.11,327.57,235.62,328.65,234.99z"/>
				<path class="st75" d="M358.67,217.55l16.62-9.69c1.09-0.63,1.97-0.15,1.97,1.06c0,1.21-0.88,2.7-1.96,3.33l-16.62,9.69
					c-1.09,0.63-1.97,0.15-1.97-1.06C356.71,219.67,357.59,218.18,358.67,217.55z"/>
			</g>
		</g>
	</g>
	<g id="Plants_1_">
		<path id="XMLID_212_" class="st671" d="M203.7,487.05l16.76-9.66c0,0,10.4-30.61,7.77-58.8c-3.27-35.03-19.81-47.35-29.54-43.44
			c-9.72,3.91-7.71,17.87,2.59,36.58C209.45,426.58,209.47,460.78,203.7,487.05z"/>
		<path id="XMLID_211_" class="st673" d="M203.7,487.05l16.76-9.66c0,0,10.4-30.61,7.77-58.8c-3.27-35.03-19.81-47.35-29.54-43.44
			c-9.72,3.91-7.71,17.87,2.59,36.58C209.45,426.58,209.47,460.78,203.7,487.05z"/>
		<g id="XMLID_208_">
			<g id="XMLID_209_">
				<path id="XMLID_210_" class="st5" d="M211.76,483.21c0.32,0,0.62-0.2,0.72-0.52c10.79-33.04,11.24-79.45-9.18-100.37
					c-0.29-0.3-0.77-0.31-1.07-0.01c-0.3,0.29-0.31,0.77-0.01,1.07c19.28,19.75,19.62,65.76,8.82,98.84
					c-0.13,0.4,0.09,0.83,0.49,0.96C211.6,483.2,211.68,483.21,211.76,483.21z"/>
			</g>
		</g>
		<g id="XMLID_200_">
			<path id="XMLID_207_" class="st671" d="M173.6,504.43c-1.73,1-5.31-1.18-6.68-2.1c-2.35-1.57-4.25-3.8-5.51-6.32
				c-1.47-2.93-1.84-6.08-1.38-9.32c0.24-1.68,0.71-3.32,1.18-4.96c0.46-1.6,0.92-3.21,1.38-4.81c0.45-1.58,0.91-3.22,0.71-4.85
				c-0.42-3.29-3.34-5.6-6-7.58c-2.94-2.2-5.99-5.1-5.98-9.06c0.01-3.06,1.6-5.9,3.49-8.29c1.89-2.4,4.14-4.52,5.85-7.05
				c1.23-1.82,2.19-3.96,1.99-6.16c-0.12-1.36-0.69-2.64-1.34-3.85c-1.4-2.58-3.24-4.94-4.21-7.71c-0.96-2.77-0.83-6.22,1.34-8.2
				c1.78-1.63,4.41-1.85,6.82-1.7c2.22,0.15,4.39,1.15,6.34,2.23c6.29,3.5,9.88,10.94,16.55,13.64c2.57,1.04,5.39,1.27,8.08,1.97
				c2.68,0.71,5.42,2.08,6.66,4.56c2.45,4.89-2.1,10.92-0.37,16.12c1.52,4.6,5.99,6.36,8.5,10.5c1.1,1.81,1.35,3.91,1.17,6.02
				c-0.3,3.57-0.82,6.19-2.54,10.17c-1.42,3.28-5.58,9.16-5.58,9.16C203.97,486.93,173.86,504.28,173.6,504.43z"/>
			<g id="XMLID_205_">
				<path id="XMLID_206_" class="st5" d="M191.57,494.72c0.34,0,0.63-0.25,0.67-0.59c3.24-25.67-9.01-60.3-27.32-77.19
					c-0.28-0.25-0.7-0.24-0.96,0.04c-0.25,0.28-0.24,0.7,0.04,0.96c18.02,16.63,30.08,50.74,26.89,76.03
					c-0.05,0.37,0.22,0.71,0.59,0.76C191.52,494.72,191.55,494.72,191.57,494.72z"/>
			</g>
			<g id="XMLID_203_">
				<path id="XMLID_204_" class="st5" d="M188.44,461.87c0.21,0,0.41-0.09,0.54-0.27c0.23-0.3,0.16-0.72-0.14-0.95
					c-10.1-7.58-25.53-6.26-26.19-6.2c-0.37,0.03-0.65,0.36-0.61,0.74c0.03,0.37,0.37,0.64,0.74,0.61
					c0.15-0.02,15.57-1.33,25.25,5.93C188.16,461.82,188.3,461.87,188.44,461.87z"/>
			</g>
			<g id="XMLID_201_">
				<path id="XMLID_202_" class="st5" d="M186.92,455.57c0.36,0,0.66-0.29,0.68-0.65c0.46-11.76,9.34-18.87,9.43-18.94
					c0.29-0.23,0.35-0.66,0.12-0.95c-0.23-0.29-0.66-0.35-0.95-0.12c-0.39,0.3-9.47,7.55-9.95,19.95c-0.01,0.37,0.28,0.69,0.65,0.7
					C186.9,455.57,186.91,455.57,186.92,455.57z"/>
			</g>
		</g>
	</g>
	<g id="Post_1_">
		<g>
			<path class="st69" d="M353.7,483.07c-22.65-13.08-38.12-35.76-42.01-61.63l-8.94-59.34c-3.44-22.86-15.95-43.36-34.69-56.89
				l-11.66-8.42l0,6.65l6.32,4.56c18.7,13.49,31.2,33.94,34.68,56.74l9.11,59.75c3.93,25.8,19.38,48.42,41.99,61.47l5.2,3
				L353.7,483.07L353.7,483.07z"/>
			<g>
				<path class="st73" d="M353.7,482.5c-22.51-13.1-37.64-35.36-41.52-61.12l-8.94-59.34c-3.44-22.84-16.16-43.7-34.89-57.22
					l-11.04-7.96l142.44-82.24l11.4,8.23c18.52,13.36,31.09,33.98,34.49,56.56l8.94,59.34c3.9,25.88,19.01,48.27,41.51,61.55
					L353.7,482.5z"/>
				<path class="st75" d="M399.73,215.2l11.14,8.04c18.41,13.29,30.91,33.78,34.29,56.23l8.94,59.34
					c3.88,25.75,18.79,48.06,41.02,61.47L353.7,481.92c-22.24-13.04-37.18-35.1-41.03-60.62l-8.94-59.34
					c-3.46-22.98-16.25-43.95-35.09-57.55l-10.41-7.51L399.73,215.2 M399.79,214.01L256.39,296.8l11.66,8.42
					c18.74,13.53,31.25,34.03,34.69,56.89l8.94,59.34c3.9,25.87,19.36,48.55,42.01,61.63h0l143.39-82.79
					c-22.65-13.08-38.12-35.76-42.01-61.63l-8.94-59.34c-3.44-22.86-15.95-43.36-34.69-56.89L399.79,214.01L399.79,214.01z"/>
			</g>
			<polygon class="st71" points="353.7,483.07 497.09,400.29 497.09,406.2 353.7,488.99 			"/>
		</g>
		<g id="XMLID_191_">
			<path id="XMLID_199_" class="st671" d="M283.19,292.35c-5,2.13-5.53,6.5-1.19,9.77c4.34,3.27,11.92,4.19,16.92,2.07
				c5-2.13,5.54-6.5,1.19-9.77C295.76,291.15,288.19,290.22,283.19,292.35z"/>
			<g id="XMLID_192_">
				<g id="XMLID_196_">
					<path id="XMLID_197_" class="st5" d="M288.6,297.66c-0.41,0.03-0.85,0.02-1.31-0.04c-1.05-0.13-1.98-0.46-2.61-0.94
						c-1.16-0.87-1.02-2,0.31-2.57l0,0c0.73-0.31,1.71-0.41,2.76-0.28c1.05,0.13,1.98,0.46,2.61,0.94c1.16,0.87,1.02,2-0.31,2.57
						C289.64,297.52,289.15,297.63,288.6,297.66z"/>
				</g>
				<g id="XMLID_193_">
					<path id="XMLID_194_" class="st5" d="M295.7,297.55c-1.66-0.2-3.22-0.04-4.39,0.45l-1.32,0.56c-2.28,0.97-2.52,2.9-0.53,4.4
						l0.7,0.53c2.39,0.28,5.16,0.2,7.13-0.57c2.16-0.84,3.49-1.8,3.68-3.17L300,299.1C298.96,298.32,297.4,297.75,295.7,297.55z"/>
				</g>
			</g>
		</g>
		<g>
			<path class="st676" d="M306.47,283.04l42.11-24.31c1.51-0.87,3.91-0.8,5.28,0.27c0.13,0.1,0.26,0.2,0.39,0.3
				c1.36,1.08,1.21,2.71-0.3,3.59l-42.07,24.37c-1.51,0.87-3.78,0.64-5.14-0.45c-0.15-0.12-0.3-0.23-0.44-0.35
				C304.92,285.4,304.96,283.91,306.47,283.04z"/>
			<path class="st676" d="M315.73,292.85l21.08-12.17c0.75-0.44,0.85-1.28,0.22-1.88l-0.38-0.37c-0.63-0.6-1.75-0.73-2.5-0.29
				l-20.96,12.26c-0.75,0.44-0.85,1.28-0.22,1.89l0.27,0.25C313.85,293.15,314.97,293.29,315.73,292.85z"/>
		</g>
		<g>
			<path class="st78" d="M301.95,315.96l113.65-65.62c1.51-0.87,3.57-0.44,4.56,0.99c0.08,0.11,0.15,0.23,0.23,0.34
				c0.98,1.44,0.5,3.35-1.01,4.22L305.7,321.56c-1.51,0.87-3.46,0.37-4.43-1.08c-0.08-0.12-0.16-0.24-0.24-0.37
				C300.05,318.67,300.44,316.83,301.95,315.96z"/>
			<path class="st78" d="M308.84,327.16l113.75-65.67c1.51-0.87,3.39-0.33,4.14,1.24c0.06,0.12,0.12,0.25,0.18,0.37
				c0.74,1.58,0.07,3.58-1.43,4.45l-113.77,65.73c-1.51,0.87-3.27,0.27-4-1.31c-0.06-0.14-0.13-0.27-0.19-0.41
				C306.76,329.99,307.33,328.03,308.84,327.16z"/>
			<path class="st78" d="M313.96,339.32l113.84-65.72c1.51-0.87,3.2-0.24,3.69,1.43c0.05,0.18,0.11,0.37,0.16,0.56
				c0.48,1.67-0.38,3.74-1.89,4.61L315.9,345.98c-1.51,0.87-3.06,0.21-3.54-1.47c-0.06-0.2-0.12-0.4-0.17-0.6
				C311.69,342.23,312.45,340.19,313.96,339.32z"/>
			<path class="st78" d="M317.25,352.59l66.17-38.21c1.51-0.87,2.94-0.18,3.21,1.54l0.14,0.88c0.26,1.72-0.74,3.82-2.25,4.69
				l-66.18,38.25c-1.51,0.87-2.94,0.18-3.2-1.54c-0.05-0.31-0.09-0.62-0.14-0.93C314.74,355.56,315.75,353.46,317.25,352.59z"/>
		</g>
		<g>
			<path class="st671" d="M454.07,388.55l-108.29,62.53c-3.01,1.74-7.24,0.95-9.14-1.96c-6.85-10.49-11.42-23.56-13.72-39.2
				l-4.33-28.74c-0.52-3.44,1.5-7.64,4.52-9.39l108.47-62.63c3.01-1.74,5.88-0.36,6.4,3.08l4.33,28.75
				c1.73,14.84,6.25,27.93,13.58,39.25C457.8,383.16,457.09,386.81,454.07,388.55z"/>
			<path class="st11" d="M454.07,388.55l-108.29,62.53c-3.01,1.74-7.24,0.95-9.14-1.96c-6.85-10.49-11.42-23.56-13.72-39.2
				l-4.33-28.74c-0.52-3.44,1.5-7.64,4.52-9.39l108.47-62.63c3.01-1.74,5.88-0.36,6.4,3.08l4.33,28.75
				c1.73,14.84,6.25,27.93,13.58,39.25C457.8,383.16,457.09,386.81,454.07,388.55z"/>
			<path class="st671" d="M345.79,451.08l108.29-62.53c3.01-1.74,3.73-5.39,1.83-8.31c-3.52-5.44-6.37-11.29-8.6-17.54l-33.59-9.48
				l-14.92,33.09l16.2,13.03l-56.53-29.75l-28.92,65.72c2.01,5.01,4.36,9.62,7.09,13.81C338.55,452.03,342.77,452.82,345.79,451.08z
				"/>
			<path class="st671" d="M391.19,346.2c3.98-2.3,7.78-0.39,8.48,4.26c0.7,4.65-1.96,10.29-5.94,12.59
				c-3.98,2.3-7.78,0.39-8.48-4.26C384.55,354.13,387.21,348.5,391.19,346.2z"/>
		</g>
		<g>
			<g>
				<g id="XMLID_184_">
					<g id="XMLID_188_">
						<path id="XMLID_189_" class="st671" d="M424.08,425.6c-0.35,0.02-0.71,0.01-1.09-0.03c-0.88-0.11-1.65-0.39-2.18-0.78
							c-0.97-0.73-0.85-1.67,0.26-2.15l0,0c0.61-0.26,1.43-0.34,2.31-0.24c0.88,0.11,1.65,0.39,2.18,0.78
							c0.97,0.73,0.85,1.67-0.26,2.15C424.95,425.48,424.53,425.57,424.08,425.6z"/>
					</g>
					<g id="XMLID_185_">
						<path id="XMLID_186_" class="st671" d="M430.01,425.5c-1.39-0.17-2.69-0.04-3.67,0.38l-1.1,0.47
							c-1.91,0.81-2.1,2.43-0.45,3.67l0.58,0.44c2,0.23,4.31,0.17,5.96-0.47c1.8-0.7,2.92-1.5,3.08-2.65l-0.82-0.54
							C432.73,426.15,431.43,425.68,430.01,425.5z"/>
					</g>
				</g>
				<path class="st671" d="M432.09,420.76l-4.05,0.2l-1.1,0.95c-0.19,0.16-0.18,0.45,0.01,0.6l1.1,0.87l4.12-0.16L432.09,420.76z
					 M427.76,422.47c-0.16,0-0.3-0.13-0.3-0.3s0.13-0.3,0.3-0.3c0.16,0,0.3,0.13,0.3,0.3S427.92,422.47,427.76,422.47z"/>
			</g>
			<g>
				<path class="st671" d="M453.11,413.57c-0.05,0.61-0.79,1.13-1.23,1.39c-0.78,0.45-1.78,0.77-2.85,0.92
					C448.04,414.76,449.88,412.74,453.11,413.57z"/>
				<path class="st671" d="M453.27,409.6c-2.98-2.45-7.64-3.37-10.93-1.49c-3.29,1.88-3.92,5.85-0.91,8.31
					c3.01,2.47,8.4,2.5,11.65,0.61C456.34,415.14,456.24,412.05,453.27,409.6z M448.28,409.07c0.52-0.29,1.26-0.16,1.69,0.26
					c0.43,0.42,0.37,0.97-0.15,1.28c-0.52,0.3-1.33,0.23-1.75-0.19C447.63,409.99,447.75,409.37,448.28,409.07z M442.3,413.66
					c-0.43-0.43-0.31-1.05,0.22-1.34s1.26-0.16,1.69,0.26c0.43,0.42,0.37,0.97-0.15,1.28C443.53,414.15,442.73,414.09,442.3,413.66z
					 M452.19,415.5c-1.2,0.7-2.85,1.1-4.55,1.1c-1.48,0-2.87-0.3-3.98-0.84l8.46-4.79c1.08,0.89,1.66,1.86,1.59,2.66
					C453.66,414.48,452.86,415.11,452.19,415.5z"/>
			</g>
			<path class="st671" d="M471.04,398.52c-0.26-0.43-0.63-0.86-1.12-1.26c-2.08-1.72-5.34-2.35-7.64-1.04s-2.74,4.09-0.63,5.81
				c0.25,0.2,0.54,0.38,0.84,0.56c0.01,0.01,0.02,0.01,0.03,0.02c3.76,2.15,10.66,2.42,10.66,2.42S473.22,401.47,471.04,398.52z
				 M467.76,400.9c-1.09,0.63-2.89,0.62-3.9-0.2s-0.8-2.15,0.3-2.78c1.1-0.63,2.66-0.32,3.65,0.5
				C468.82,399.23,468.85,400.27,467.76,400.9z"/>
		</g>
	</g>
	<g id="Character_1_">
		<g>
			<g id="XMLID_174_">
				<g id="XMLID_176_">
					<g id="XMLID_177_">
						<path id="XMLID_183_" class="st677" d="M608.02,411.83l-16.22,47.31c-0.47,1.38-2.42,1.37-2.88-0.01l-16.01-47.69
							L608.02,411.83z"/>
						<path id="XMLID_182_" class="st81" d="M588.92,459.13c0.46,1.38,2.41,1.38,2.88,0.01l3.17-9.24l0,0
							c-2.78,1.49-6.17,1.3-8.77-0.49l-0.71-0.49L588.92,459.13z"/>
						<path id="XMLID_181_" class="st671" d="M573.53,200.46l-0.01,4.63l-0.04,5.59l-0.57,200.76c3.71,4.24,9.21,6.39,14.78,6.96
							c8.49,0.88,17.19-1.9,20.3-6.57l0.57-200.64l0.03-10.68C608.19,207.42,573.22,207.4,573.53,200.46z"/>
						<path id="XMLID_180_" class="st69" d="M573.42,218.08l-0.01,10.34c-0.1,3,6.28,4.93,13.65,5.61
							c9.79,0.93,21.31-1.72,21.45-5.7l0.02-7.62l-0.04-2.72c-0.14,3.97-11.67,6.63-21.45,5.7c-7.06-0.66-13.24-2.49-13.59-5.29
							l0-0.03C573.41,218.29,573.41,218.19,573.42,218.08z"/>
						<path id="XMLID_179_" class="st671" d="M573.44,220.66c-0.25,6.96,34.83,6.87,35.08-0.09l0.04-10.35
							c-0.25,6.96-35.33,7.05-35.07,0.09L573.44,220.66z"/>
						<path id="XMLID_178_" class="st69" d="M573.53,200.46l-0.05,10.22c-0.3,6.83,33.55,7.03,35.08,0.51
							c0.04-0.11,0.05-0.25,0.06-0.39l-0.03-10.29C608.19,207.42,573.22,207.4,573.53,200.46z"/>
					</g>
				</g>
				<path class="st678" d="M608.75,156.69c0-0.07,0-0.36,0-0.43c0-4.98-7.85-9.03-17.54-9.03c-9.68,0-17.54,4.04-17.54,9.03v4.7
					l-0.15,39.51c-0.13,2.97,6.17,4.92,13.48,5.63c9.79,0.96,21.36-1.63,21.58-5.58c0.01-0.02,0.01-0.02,0.01-0.05l0.15-43.49
					C608.76,156.91,608.75,156.72,608.75,156.69z"/>
				<ellipse class="st77" cx="591.22" cy="156.25" rx="17.54" ry="9.03"/>
				<path id="XMLID_175_" class="st673" d="M608.56,211.19l0.19-54.5c-0.24,4.27-7.51,8.31-15.45,8.59l-0.57,253.28l-0.94,40.58
					l16.22-47.31l-0.02,0c0,0,0,0,0,0L608.56,211.19z"/>
			</g>
			<g>
				<path class="st679" d="M551.84,253.39c6.66-0.97,14.89,4.05,20.61,12.09c5.72,8.04,25.67,27.62,27.85,33.85
					c1.59,4.54,0.66,13.07-8.73,9.07c-9.1-3.87-38.07-32.31-38.07-32.31L551.84,253.39z"/>
				<path class="st680" d="M548.65,253.39c0,0,4.23-0.88,6.53-0.73c2.3,0.15,7.49,1.52,12.82,6.72
					c5.33,5.19,19.18,21.98,19.18,21.98s0.62,4.71-4.02,9.96c-4.64,5.26-8.97,5.26-8.97,5.26l-20.57-17.03L548.65,253.39z"/>
				<path class="st679" d="M593.83,290.1l14.57-21.23l0.04-15.6c0,0,3.23,1.08,4.51,6.11c1.28,5.03,2.89,10.88,2.24,15.17
					c-0.64,4.29-10.77,30.19-16.22,33.86C593.52,312.09,593.83,290.1,593.83,290.1z"/>
			</g>
		</g>
		<g>
			<g id="XMLID_171_">
				<g id="XMLID_172_">
					<polygon id="XMLID_173_" class="st679" points="528.02,246.35 530.86,264.29 548.65,263.34 546.1,242.49 					"/>
				</g>
			</g>
			<g id="XMLID_166_">
				<g id="XMLID_169_">
					<path id="XMLID_170_" class="st681" d="M516.05,224.33c0,0-4.24,6.43-3.76,7.07c0.48,0.63,3.6,1.2,3.6,1.2L516.05,224.33z"/>
				</g>
				<g id="XMLID_167_">
					<path id="XMLID_168_" class="st679" d="M527.83,206.53c-8.58,1.81-11.06,5.58-11.87,19.21c-0.84,14.24,0.61,18.72,2.48,20.64
						c1.26,1.29,8.28,1.53,11.82,0.55c4.43-1.22,14.45-4.77,19.14-11.94c5.52-8.43,6.97-19.85,1.06-24.54
						C542.15,203.86,531.32,205.8,527.83,206.53z"/>
				</g>
				<path class="st681" d="M528.17,247.33c0,0,2.4-0.42,4.52-1.14c0,0-1.24,1.68-4.31,2.48L528.17,247.33z"/>
			</g>
			<g id="XMLID_159_">
				<g id="XMLID_163_">
					<g id="XMLID_164_">
						<path id="XMLID_165_" class="st81" d="M515.41,210.85c1.12,0.66,2.39,1.14,3.73,1.53c2.09,0.61,1.78,1.39,2.07,3.31
							c0.26,1.7,1.08,3.36,2.36,4.53c0.81,0.74,1.42,0.81,1.69,1.94c0.27,1.14,0.04,2.41,0.05,3.57c0.03,2.36,1.54,4.16,2.27,0.99
							c0,0,1.36-5.27,5.79-4.6c4.47,0.67,4.83,5.66,2.71,9.59c-1.29,2.39-4.73,1.76-4.73,1.76s-0.78,6.56,4.63,11.94
							c0,0,4.42,3.27,11.29-0.12c4.01-5.23,5.59-7.99,7.89-11.99c3.08-5.35,5.73-11.93,4.69-18.23c-0.38-2.32-1.34-4.55-2.98-6.25
							c-1.19-1.24-1.1-1.47-1.43-3.15c-0.27-1.4-1.03-2.72-2.14-3.62c-1.72-1.39-4.23-1.73-6.26-0.85c0-2.2-1.86-4.09-3.98-4.66
							c-2.12-0.57-4.4-0.04-6.39,0.88c-1.14-2.06-3.37-3.46-5.72-3.61c-2.35-0.15-4.74,0.97-6.13,2.87
							c-0.59-1.03-1.79-1.61-2.97-1.72c-1.18-0.11-2.37,0.19-3.5,0.56c-0.94,0.3-1.87,0.65-2.72,1.15c-3.13,1.85-4.79,5.88-3.87,9.4
							C512.35,208.36,513.69,209.83,515.41,210.85z"/>
					</g>
				</g>
				<g id="XMLID_160_">
					<g id="XMLID_161_">
						<path id="XMLID_162_" class="st81" d="M555.59,209.43l5.14-3.03c-0.84-1.42-2.66-1.89-4.08-1.05
							C555.23,206.19,554.76,208.02,555.59,209.43z"/>
					</g>
				</g>
			</g>
		</g>
		<g id="XMLID_31_">
			<path id="XMLID_158_" class="st81" d="M560.38,475.94c0.04,0.38,0.08,0.77,0.11,1.15c0.15,1.52,0.3,3.06,0.12,4.57
				c-0.13,1.05-0.43,2.48-1.41,3.06c-1,0.59-2.22,1.04-3.35,1.31c-2.57,0.62-5.38,0.4-7.77-0.76c-2.02-0.98-3.59-2.51-5.78-3.12
				c-2.24-0.63-4.56-0.87-6.86-1.13c-1.02-0.12-2.05-0.24-3.03-0.56c-0.76-0.25-1.48-0.61-2.18-0.98c-2.38-1.25-4.73-2.69-6.48-4.73
				c-1.13-1.32-1.98-2.91-2.32-4.62c-0.2-1.01-0.61-3.93,1.08-3.85c8.25,0.37,16.43,2.14,24.69,2.04c0.54-0.01,1.08-0.02,1.6,0.07
				c1.03,0.17,1.94,0.7,2.77,1.3c0.97,0.7,1.33,0.72,2.53,0.62c1.44-0.12,2.86-0.31,4.28,0.06c0.6,0.16,1.24,0.43,1.48,1
				c0.08,0.2,0.1,0.41,0.12,0.63C560.13,473.31,560.25,474.63,560.38,475.94z"/>
			<g id="XMLID_39_">
				<path id="XMLID_152_" class="st679" d="M559.54,466.05l-0.43,6.22c-0.4,2.37-8.48,3.82-10.14-0.37l-0.79-7.06L559.54,466.05z"/>
			</g>
			<g>
				<path id="XMLID_38_" class="st81" d="M528.82,490.66c0,0,0.99,3.24,1.5,6.06c0.4,2.24,0.97,5.99,0.15,7.66
					c-0.82,1.66-3.9,2.68-8.63,2.54c-3.06-0.09-7.89,1.88-11.2,3.63c-3.42,1.81-10.46,2.4-14.02,1.9c-4.2-0.59-8.5-3.13-9.15-4.89
					c-0.64-1.76,0.3-3.55,10.32-7.55c0.09-0.04,13.89-4.18,18.81-9.37L528.82,490.66z"/>
				<path id="XMLID_36_" class="st679" d="M528.91,486.67c0,0-0.08,2.74-0.1,4.31c-0.02,1.57-1.93,3.86-6.71,3.58
					c-3.36-0.2-5.69-1.15-5.5-3.92l0.09-3.99L528.91,486.67z"/>
			</g>
			<g id="XMLID_32_">
				<path id="XMLID_35_" class="st671" d="M562.79,418.27c-1.42-12.11-2.48-19.05-2.48-19.05s0.24-16.87,1.23-32.59
					c1.07-16.99,0.83-38.38,1.25-42.62c0,0-54.58-11.66-55.02,8.02c-0.51,22.87,1.01,70.19,1.33,76.35
					c0.45,8.65,0.47,17.65,1.94,31.68c1.45,13.85,5.65,46.59,5.65,46.59c6.19,3.53,12.21,0.03,12.21,0.03s4.75-39.22,4.57-49.19
					c-0.22-12.18-2.07-21.56-2.07-21.56l4.3-44.39c0,0,1.69,13.73,2.14,22.38c0.45,8.65,1.64,13.93,3.78,30.03
					c1.85,13.96,6.56,43.44,6.56,43.44c6.19,3.53,11.61-0.46,11.61-0.46S564.21,430.38,562.79,418.27z"/>
				<path id="XMLID_34_" class="st80" d="M562.79,418.27c-1.42-12.11-2.48-19.05-2.48-19.05s0.24-16.87,1.23-32.59
					c1.07-16.99,0.83-38.38,1.25-42.62c0,0-54.58-11.66-55.02,8.02c-0.51,22.87,1.01,70.19,1.33,76.35
					c0.45,8.65,0.47,17.65,1.94,31.68c1.45,13.85,5.65,46.59,5.65,46.59c6.19,3.53,12.21,0.03,12.21,0.03s4.75-39.22,4.57-49.19
					c-0.22-12.18-2.07-21.56-2.07-21.56l4.3-44.39c0,0,1.69,13.73,2.14,22.38c0.45,8.65,1.64,13.93,3.78,30.03
					c1.85,13.96,6.56,43.44,6.56,43.44c6.19,3.53,11.61-0.46,11.61-0.46S564.21,430.38,562.79,418.27z"/>
				<path id="XMLID_33_" class="st682" d="M556.46,350.87c0,0-3.78,6.24-15.26,10.81l-3.19,10.72l-0.35,18.83
					c-0.44-6.07-1.11-12.7-1.96-19.72l1.29-11.04C537,360.47,549.67,356.64,556.46,350.87z"/>
			</g>
		</g>
		<g id="XMLID_27_">
			<g id="XMLID_29_">
				<path id="XMLID_30_" class="st676" d="M564.89,265c-2.19-7.8-7.34-11.25-13.05-11.61c-1.45-0.09-4.4,0.03-4.4,0.03
					c0.4,3.3-9.78,5.64-17.7,3.77c-2.39,0.63-6.34,1.52-8.33,2.18c-5.69,1.89-12.52,9.01-13.41,27.58c0,0-0.9,39.91-0.62,51.5
					c14.06,5.93,27.62,6.67,35.82,5.07c17.05-3.33,19.86-10.63,19.86-10.63s-0.16-10.14-0.8-26.31
					C565.15,283.58,565.84,268.39,564.89,265z"/>
			</g>
		</g>
		<g>
			<path class="st679" d="M498.4,331.14c3.28,2.33,4.72,4.83,4.98,8.88c0.23,3.62,0.23,7.56,1.93,10.85
				c0.28,0.54,1.76,1.76,2.35,1.59l0.01-4.64c0.94-1.2,3.52-3.44,4.19-4.81c1.12-2.29-0.19-5.09,0.49-7.55
				c0.29-1.07,0.84-1.91,0.85-3.05c0.03-2.7-0.73-5.26-2.84-6.99c-2.47-2.03-4.74-4.55-7-6.81c-2.92-2.94-6.98-7.26-9.91-10.21
				l19.63-18.83c2.26-2.17,4.16-4.67,5.6-7.45c3.21-6.17,7.61-17,2.71-22.75c-7,0-10.98,1.07-18.12,9.41
				c-6.16,7.19-25.85,30.77-28.38,34.77c-2.53,4-3.98,6.73,0.87,11.17c3.38,3.09,8.17,6.43,12.38,9.46
				C491.46,326.55,495.08,328.79,498.4,331.14z"/>
			<path class="st681" d="M493.47,308.41c0,0-2.69,2.69-6.02,4.12c0,0,4.57-0.58,7.38-2.74L493.47,308.41z"/>
			<path class="st680" d="M523.6,258.74c0,0-4.23-0.29-8.47,0.63c-4.25,0.92-7.1,3.08-14.47,11.41
				c-7.37,8.32-12.53,15.15-12.53,15.15s-2.12,4.7,3.79,10.01c5.92,5.31,11.23,4.4,11.23,4.4l16.54-16.08
				C519.67,284.27,531.46,271.9,523.6,258.74z"/>
		</g>
	</g>
</g>
</svg>
