<?xml version="1.0" encoding="utf-8"?>
<!-- Generator: Adobe Illustrator 24.3.0, SVG Export Plug-In . SVG Version: 6.00 Build 0)  -->
<svg version="1.1" id="Layer_1" xmlns="http://www.w3.org/2000/svg" xmlns:xlink="http://www.w3.org/1999/xlink" x="0px" y="0px"
	 viewBox="0 0 700 600" style="enable-background:new 0 0 700 600;" xml:space="preserve">
<style type="text/css">
	.st0{fill-rule:evenodd;clip-rule:evenodd;fill:#E6E6E6;}
	.st1{fill-rule:evenodd;clip-rule:evenodd;}
	.st2{fill-rule:evenodd;clip-rule:evenodd;fill:#333333;}
	.st3{fill-rule:evenodd;clip-rule:evenodd;fill:#464646;}
	.st4{fill-rule:evenodd;clip-rule:evenodd;fill:#151515;}
	.st5{fill-rule:evenodd;clip-rule:evenodd;fill:url(#SVGID_1_);}
	.st6{filter:url(#Adobe_OpacityMaskFilter);}
	.st7{fill-rule:evenodd;clip-rule:evenodd;fill:#FAFAFA;}
	.st8{mask:url(#SVGID_2_);}
	.st9{fill-rule:evenodd;clip-rule:evenodd;fill:#FFFFFF;}
	.st10{fill-rule:evenodd;clip-rule:evenodd;fill:#FDC00F;}
	.st11{fill-rule:evenodd;clip-rule:evenodd;fill:#131313;}
	.st12{fill-rule:evenodd;clip-rule:evenodd;fill:#C40000;}
	.st13{fill-rule:evenodd;clip-rule:evenodd;fill:url(#SVGID_3_);}
	.st14{fill-rule:evenodd;clip-rule:evenodd;fill:url(#SVGID_4_);}
	.st15{fill-rule:evenodd;clip-rule:evenodd;fill:url(#SVGID_5_);}
	.st16{fill-rule:evenodd;clip-rule:evenodd;fill:url(#SVGID_6_);}
	.st17{fill-rule:evenodd;clip-rule:evenodd;fill:#CACACA;}
	.st18{fill-rule:evenodd;clip-rule:evenodd;fill:url(#SVGID_7_);}
	
		.st19{fill-rule:evenodd;clip-rule:evenodd;fill:#131313;stroke:#000000;stroke-width:2.4001;stroke-linecap:round;stroke-linejoin:round;stroke-miterlimit:22.9256;}
	
		.st20{fill-rule:evenodd;clip-rule:evenodd;fill:#464646;stroke:#000000;stroke-width:2.4001;stroke-linecap:round;stroke-linejoin:round;stroke-miterlimit:22.9256;}
	.st21{fill-rule:evenodd;clip-rule:evenodd;fill:url(#SVGID_8_);}
	.st22{fill-rule:evenodd;clip-rule:evenodd;fill:url(#SVGID_9_);}
	.st23{fill-rule:evenodd;clip-rule:evenodd;fill:url(#SVGID_10_);}
	.st24{fill-rule:evenodd;clip-rule:evenodd;fill:url(#SVGID_11_);}
	.st25{fill-rule:evenodd;clip-rule:evenodd;fill:url(#SVGID_12_);}
	.st26{fill-rule:evenodd;clip-rule:evenodd;fill:url(#SVGID_13_);}
	.st27{fill-rule:evenodd;clip-rule:evenodd;fill:url(#SVGID_14_);}
	.st28{fill-rule:evenodd;clip-rule:evenodd;fill:url(#SVGID_15_);}
	.st29{fill-rule:evenodd;clip-rule:evenodd;fill:url(#SVGID_16_);}
	.st30{fill-rule:evenodd;clip-rule:evenodd;fill:url(#SVGID_17_);}
	.st31{filter:url(#Adobe_OpacityMaskFilter_1_);}
	.st32{fill-rule:evenodd;clip-rule:evenodd;fill:url(#SVGID_19_);}
	.st33{opacity:0.3;mask:url(#SVGID_18_);fill-rule:evenodd;clip-rule:evenodd;}
	.st34{filter:url(#Adobe_OpacityMaskFilter_2_);}
	.st35{fill-rule:evenodd;clip-rule:evenodd;fill:url(#SVGID_21_);}
	.st36{opacity:0.3;mask:url(#SVGID_20_);fill-rule:evenodd;clip-rule:evenodd;}
	.st37{filter:url(#Adobe_OpacityMaskFilter_3_);}
	.st38{fill-rule:evenodd;clip-rule:evenodd;fill:url(#SVGID_23_);}
	.st39{mask:url(#SVGID_22_);fill-rule:evenodd;clip-rule:evenodd;fill:#FFFFFF;}
	.st40{filter:url(#Adobe_OpacityMaskFilter_4_);}
	.st41{fill-rule:evenodd;clip-rule:evenodd;fill:url(#SVGID_25_);}
	.st42{opacity:0.6;mask:url(#SVGID_24_);fill-rule:evenodd;clip-rule:evenodd;fill:#FFFFFF;}
	.st43{filter:url(#Adobe_OpacityMaskFilter_5_);}
	.st44{fill-rule:evenodd;clip-rule:evenodd;fill:url(#SVGID_27_);}
	.st45{opacity:0.6;mask:url(#SVGID_26_);fill-rule:evenodd;clip-rule:evenodd;fill:#FFFFFF;}
	.st46{filter:url(#Adobe_OpacityMaskFilter_6_);}
	.st47{fill-rule:evenodd;clip-rule:evenodd;fill:url(#SVGID_29_);}
	.st48{mask:url(#SVGID_28_);fill-rule:evenodd;clip-rule:evenodd;fill:#FFFFFF;}
	.st49{filter:url(#Adobe_OpacityMaskFilter_7_);}
	.st50{fill-rule:evenodd;clip-rule:evenodd;fill:url(#SVGID_31_);}
	.st51{mask:url(#SVGID_30_);fill-rule:evenodd;clip-rule:evenodd;fill:#FFFFFF;}
	.st52{filter:url(#Adobe_OpacityMaskFilter_8_);}
	.st53{fill-rule:evenodd;clip-rule:evenodd;fill:url(#SVGID_33_);}
	.st54{mask:url(#SVGID_32_);fill-rule:evenodd;clip-rule:evenodd;fill:#FFFFFF;}
	.st55{filter:url(#Adobe_OpacityMaskFilter_9_);}
	.st56{fill-rule:evenodd;clip-rule:evenodd;fill:url(#SVGID_35_);}
	.st57{opacity:0.9;mask:url(#SVGID_34_);fill-rule:evenodd;clip-rule:evenodd;fill:#FFFFFF;}
	.st58{filter:url(#Adobe_OpacityMaskFilter_10_);}
	.st59{fill-rule:evenodd;clip-rule:evenodd;fill:url(#SVGID_37_);}
	.st60{opacity:0.8;mask:url(#SVGID_36_);fill-rule:evenodd;clip-rule:evenodd;fill:#FFFFFF;}
	.st61{fill:#E1E1E1;}
	.st62{fill:#ECECEC;}
	.st63{fill:#FFFFFF;}
	.st64{fill:#FFBF9D;}
	.st65{fill:#FF9A6C;}
	.st66{fill:#1A2E35;}
	.st67{fill:#375A64;}
	.st68{fill:none;stroke:#44555B;stroke-width:0.05;stroke-miterlimit:10;}
	.st69{fill:#FF735D;}
	.st70{opacity:0.3;}
	.st71{fill:#FAFAFA;}
	.st72{opacity:0.4;}
	.st73{opacity:0.81;fill:#E1E2FE;}
	.st74{opacity:0.14;fill:#3E479B;}
	.st75{fill:#F7A9B4;}
	.st76{opacity:0.39;fill:#F7A9B4;}
	.st77{fill:#599AF2;}
	.st78{opacity:0.07;fill:#ECF1F7;}
	.st79{fill:#3E479B;}
	.st80{opacity:0.39;fill:#6D6CD4;}
	.st81{opacity:0.39;fill:#3E479B;}
	.st82{fill:#6161B5;}
	.st83{opacity:0.28;}
	.st84{opacity:0.21;fill:#FFFFFF;}
	.st85{opacity:0.76;fill:#FFFFFF;}
	.st86{opacity:0.58;fill:#3E479B;}
	.st87{fill:none;}
	.st88{fill:#4C65BA;}
	.st89{opacity:0.43;fill:#3E479B;}
	.st90{fill:#F28393;}
	.st91{opacity:0.12;fill:#FFFFFF;}
	.st92{fill:url(#SVGID_38_);}
	.st93{fill:#91B3FA;}
	.st94{fill:#DCE5FE;}
	.st95{fill:#BDD0FB;}
	.st96{fill:url(#SVGID_39_);}
	.st97{opacity:0.73;fill:#FFFFFF;}
	.st98{fill:url(#SVGID_40_);}
	.st99{fill:url(#SVGID_41_);}
	.st100{opacity:0.51;fill:#FFFFFF;}
	.st101{fill:url(#SVGID_42_);}
	.st102{fill:url(#SVGID_43_);}
	.st103{fill:url(#SVGID_44_);}
	.st104{fill:url(#SVGID_45_);}
	.st105{fill:url(#SVGID_46_);}
	.st106{fill:url(#SVGID_47_);}
	.st107{fill:url(#SVGID_48_);}
	.st108{fill:url(#SVGID_49_);}
	.st109{fill:url(#SVGID_50_);}
	.st110{fill:url(#SVGID_51_);}
	.st111{fill:url(#SVGID_52_);}
	.st112{fill:url(#SVGID_53_);}
	.st113{fill:url(#SVGID_54_);}
	.st114{fill:url(#SVGID_55_);}
	.st115{fill:url(#SVGID_56_);}
	.st116{fill:url(#SVGID_57_);}
	.st117{fill:url(#SVGID_58_);}
	.st118{fill:url(#SVGID_59_);}
	.st119{fill:url(#SVGID_60_);}
	.st120{fill:url(#SVGID_61_);}
	.st121{fill:url(#SVGID_62_);}
	.st122{fill:url(#SVGID_63_);}
	.st123{fill:url(#SVGID_64_);}
	.st124{fill:url(#SVGID_65_);}
	.st125{fill:url(#SVGID_66_);}
	.st126{fill:url(#SVGID_67_);}
	.st127{fill:url(#SVGID_68_);}
	.st128{fill:url(#SVGID_69_);}
	.st129{fill:url(#SVGID_70_);}
	.st130{fill:url(#SVGID_71_);}
	.st131{fill:url(#SVGID_72_);}
	.st132{fill:url(#SVGID_73_);}
	.st133{fill:url(#SVGID_74_);}
	.st134{fill:url(#SVGID_75_);}
	.st135{fill:url(#SVGID_76_);}
	.st136{fill:url(#SVGID_77_);}
	.st137{fill:url(#SVGID_78_);}
	.st138{fill:url(#SVGID_79_);}
	.st139{fill:url(#SVGID_80_);}
	.st140{fill:url(#SVGID_81_);}
	.st141{fill:url(#SVGID_82_);}
	.st142{fill:url(#SVGID_83_);}
	.st143{fill:url(#SVGID_84_);}
	.st144{fill:url(#SVGID_85_);}
	.st145{fill:url(#SVGID_86_);}
	.st146{fill:url(#SVGID_87_);}
	.st147{fill:url(#SVGID_88_);}
	.st148{fill:url(#SVGID_89_);}
	.st149{fill:url(#SVGID_90_);}
	.st150{fill:url(#SVGID_91_);}
	.st151{fill:url(#SVGID_92_);}
	.st152{fill:url(#SVGID_93_);}
	.st153{fill:url(#SVGID_94_);}
	.st154{fill:url(#SVGID_95_);}
	.st155{fill:url(#SVGID_96_);}
	.st156{fill:url(#SVGID_97_);}
	.st157{fill:url(#SVGID_98_);}
	.st158{fill:url(#SVGID_99_);}
	.st159{fill:url(#SVGID_100_);}
	.st160{fill:url(#SVGID_101_);}
	.st161{fill:url(#SVGID_102_);}
	.st162{fill:url(#SVGID_103_);}
	.st163{fill:url(#SVGID_104_);}
	.st164{fill:url(#SVGID_105_);}
	.st165{fill:url(#SVGID_106_);}
	.st166{fill:url(#SVGID_107_);}
	.st167{fill:url(#SVGID_108_);}
	.st168{fill:url(#SVGID_109_);}
	.st169{fill:url(#SVGID_110_);}
	.st170{fill:url(#SVGID_111_);}
	.st171{fill:url(#SVGID_112_);}
	.st172{fill:url(#SVGID_113_);}
	.st173{fill:url(#SVGID_114_);}
	.st174{fill:url(#SVGID_115_);}
	.st175{fill:url(#SVGID_116_);}
	.st176{fill:url(#SVGID_117_);}
	.st177{fill:url(#SVGID_118_);}
	.st178{fill:url(#SVGID_119_);}
	.st179{fill:url(#SVGID_120_);}
	.st180{fill:url(#SVGID_121_);}
	.st181{fill:url(#SVGID_122_);}
	.st182{fill:url(#SVGID_123_);}
	.st183{fill:url(#SVGID_124_);}
	.st184{fill:url(#SVGID_125_);}
	.st185{fill:url(#SVGID_126_);}
	.st186{fill:url(#SVGID_127_);}
	.st187{fill:url(#SVGID_128_);}
	.st188{fill:url(#SVGID_129_);}
	.st189{fill:url(#SVGID_130_);}
	.st190{fill:url(#SVGID_131_);}
	.st191{fill:url(#SVGID_132_);}
	.st192{fill:url(#SVGID_133_);}
	.st193{fill:url(#SVGID_134_);}
	.st194{fill:url(#SVGID_135_);}
	.st195{fill:url(#SVGID_136_);}
	.st196{fill:url(#SVGID_137_);}
	.st197{fill:url(#SVGID_138_);}
	.st198{fill:url(#SVGID_139_);}
	.st199{fill:url(#SVGID_140_);}
	.st200{fill:url(#SVGID_141_);}
	.st201{fill:url(#SVGID_142_);}
	.st202{fill:url(#SVGID_143_);}
	.st203{fill:url(#SVGID_144_);}
	.st204{fill:url(#SVGID_145_);}
	.st205{fill:url(#SVGID_146_);}
	.st206{fill:url(#SVGID_147_);}
	.st207{fill:url(#SVGID_148_);}
	.st208{fill:url(#SVGID_149_);}
	.st209{fill:url(#SVGID_150_);}
	.st210{fill:url(#SVGID_151_);}
	.st211{fill:url(#SVGID_152_);}
	.st212{fill:url(#SVGID_153_);}
	.st213{fill:url(#SVGID_154_);}
	.st214{fill:url(#SVGID_155_);}
	.st215{fill:url(#SVGID_156_);}
	.st216{fill:url(#SVGID_157_);}
	.st217{fill:url(#SVGID_158_);}
	.st218{fill:url(#SVGID_159_);}
	.st219{fill:url(#SVGID_160_);}
	.st220{fill:url(#SVGID_161_);}
	.st221{fill:url(#SVGID_162_);}
	.st222{fill:url(#SVGID_163_);}
	.st223{fill:url(#SVGID_164_);}
	.st224{fill:url(#SVGID_165_);}
	.st225{fill:url(#SVGID_166_);}
	.st226{fill:url(#SVGID_167_);}
	.st227{fill:url(#SVGID_168_);}
	.st228{fill:url(#SVGID_169_);}
	.st229{fill:url(#SVGID_170_);}
	.st230{fill:url(#SVGID_171_);}
	.st231{fill:url(#SVGID_172_);}
	.st232{fill:url(#SVGID_173_);}
	.st233{fill:url(#SVGID_174_);}
	.st234{fill:url(#SVGID_175_);}
	.st235{fill:url(#SVGID_176_);}
	.st236{fill:url(#SVGID_177_);}
	.st237{fill:url(#SVGID_178_);}
	.st238{fill:url(#SVGID_179_);}
	.st239{fill:url(#SVGID_180_);}
	.st240{fill:url(#SVGID_181_);}
	.st241{fill:url(#SVGID_182_);}
	.st242{fill:url(#SVGID_183_);}
	.st243{fill:url(#SVGID_184_);}
	.st244{fill:url(#SVGID_185_);}
	.st245{fill:url(#SVGID_186_);}
	.st246{fill:url(#SVGID_187_);}
	.st247{fill:url(#SVGID_188_);}
	.st248{fill:url(#SVGID_189_);}
	.st249{fill:url(#SVGID_190_);}
	.st250{fill:url(#SVGID_191_);}
	.st251{fill:url(#SVGID_192_);}
	.st252{fill:url(#SVGID_193_);}
	.st253{fill:url(#SVGID_194_);}
	.st254{fill:url(#SVGID_195_);}
	.st255{fill:url(#SVGID_196_);}
	.st256{fill:url(#SVGID_197_);}
	.st257{fill:url(#SVGID_198_);}
	.st258{fill:url(#SVGID_199_);}
	.st259{fill:url(#SVGID_200_);}
	.st260{fill:url(#SVGID_201_);}
	.st261{fill:url(#SVGID_202_);}
	.st262{fill:url(#SVGID_203_);}
	.st263{fill:url(#SVGID_204_);}
	.st264{fill:url(#SVGID_205_);}
	.st265{fill:url(#SVGID_206_);}
	.st266{fill:url(#SVGID_207_);}
	.st267{fill:url(#SVGID_208_);}
	.st268{fill:url(#SVGID_209_);}
	.st269{fill:url(#SVGID_210_);}
	.st270{fill:url(#SVGID_211_);}
	.st271{fill:url(#SVGID_212_);}
	.st272{fill:url(#SVGID_213_);}
	.st273{fill:url(#SVGID_214_);}
	.st274{fill:url(#SVGID_215_);}
	.st275{fill:url(#SVGID_216_);}
	.st276{fill:url(#SVGID_217_);}
	.st277{fill:url(#SVGID_218_);}
	.st278{fill:url(#SVGID_219_);}
	.st279{fill:url(#SVGID_220_);}
	.st280{fill:url(#SVGID_221_);}
	.st281{fill:url(#SVGID_222_);}
	.st282{fill:url(#SVGID_223_);}
	.st283{fill:url(#SVGID_224_);}
	.st284{fill:url(#SVGID_225_);}
	.st285{fill:url(#SVGID_226_);}
	.st286{fill:url(#SVGID_227_);}
	.st287{fill:url(#SVGID_228_);}
	.st288{fill:url(#SVGID_229_);}
	.st289{fill:url(#SVGID_230_);}
	.st290{fill:url(#SVGID_231_);}
	.st291{fill:url(#SVGID_232_);}
	.st292{fill:url(#SVGID_233_);}
	.st293{fill:url(#SVGID_234_);}
	.st294{fill:url(#SVGID_235_);}
	.st295{fill:url(#SVGID_236_);}
	.st296{fill:url(#SVGID_237_);}
	.st297{fill:url(#SVGID_238_);}
	.st298{fill:url(#SVGID_239_);}
	.st299{fill:url(#SVGID_240_);}
	.st300{fill:url(#SVGID_241_);}
	.st301{fill:url(#SVGID_242_);}
	.st302{fill:url(#SVGID_243_);}
	.st303{fill:url(#SVGID_244_);}
	.st304{fill:url(#SVGID_245_);}
	.st305{fill:url(#SVGID_246_);}
	.st306{fill:url(#SVGID_247_);}
	.st307{fill:url(#SVGID_248_);}
	.st308{fill:url(#SVGID_249_);}
	.st309{fill:url(#SVGID_250_);}
	.st310{fill:url(#SVGID_251_);}
	.st311{fill:url(#SVGID_252_);}
	.st312{fill:url(#SVGID_253_);}
	.st313{fill:url(#SVGID_254_);}
	.st314{fill:url(#SVGID_255_);}
	.st315{fill:url(#SVGID_256_);}
	.st316{fill:url(#SVGID_257_);}
	.st317{fill:url(#SVGID_258_);}
	.st318{fill:url(#SVGID_259_);}
	.st319{fill:url(#SVGID_260_);}
	.st320{fill:url(#SVGID_261_);}
	.st321{fill:url(#SVGID_262_);}
	.st322{fill:url(#SVGID_263_);}
	.st323{fill:url(#SVGID_264_);}
	.st324{fill:#E8F2FC;stroke:#000000;stroke-width:3;stroke-linecap:round;stroke-linejoin:round;}
	.st325{fill:#FFFFFF;stroke:#000000;stroke-width:3;stroke-linecap:round;stroke-linejoin:round;}
	.st326{fill:#3B94EC;}
	.st327{fill:#D8DBD7;stroke:#010200;stroke-width:3;}
	.st328{opacity:0.17;fill:#010200;}
	.st329{fill:#FFFFFF;stroke:#020500;stroke-width:3;stroke-linecap:round;stroke-linejoin:round;}
	.st330{fill:#F5F5F5;}
	.st331{fill:#D5E3EF;}
	.st332{fill:none;stroke:#000000;stroke-width:3;stroke-linecap:round;stroke-linejoin:round;}
	.st333{fill:#3B94EC;stroke:#000000;stroke-width:3;stroke-linecap:round;stroke-linejoin:round;}
	.st334{fill:#FFFFFF;stroke:#000000;stroke-width:3;}
	.st335{fill:#E8F2FC;}
	.st336{fill:#3381E0;stroke:#000000;stroke-width:3;stroke-linecap:round;stroke-linejoin:round;}
	.st337{fill:#3B94EC;stroke:#010200;stroke-width:3;}
	.st338{fill:#DDDDDD;stroke:#000000;stroke-width:3;stroke-linecap:round;stroke-linejoin:round;}
	.st339{fill:#DDDDDD;}
	.st340{fill:#231F20;}
	.st341{fill:#FFFFFF;stroke:#000000;stroke-width:3;stroke-miterlimit:10;}
	.st342{fill:#FCFCFC;}
	.st343{opacity:0.46;fill:#707070;}
	.st344{fill:#010200;}
	.st345{fill:#3381E0;}
	.st346{fill:none;stroke:#FFFFFF;stroke-width:3;stroke-linecap:round;stroke-miterlimit:10;}
	.st347{fill:#F5F6F6;}
	.st348{fill:#F0F1F1;}
	.st349{fill:#EBECED;}
	.st350{fill:#E6E7E8;}
	.st351{fill:#E1E3E4;}
	.st352{fill:#DCDEDF;}
	.st353{fill:#D8D9DB;}
	.st354{fill:#D3D5D6;}
	.st355{fill:#CED0D2;}
	.st356{fill:#C9CBCD;}
	.st357{fill:#C4C6C9;}
	.st358{fill:#BFC2C4;}
	.st359{fill:#BABDC0;}
	.st360{fill:#B5B8BB;}
	.st361{fill:#B0B4B7;}
	.st362{fill:#ABAFB2;}
	.st363{fill:#A6AAAE;}
	.st364{fill:#A1A6A9;}
	.st365{fill:#9CA1A5;}
	.st366{fill:#979CA0;}
	.st367{fill:#92979C;}
	.st368{fill:#8D9397;}
	.st369{fill:#898E93;}
	.st370{fill:#84898E;}
	.st371{fill:#7F858A;}
	.st372{fill:#7A8085;}
	.st373{fill:#757B81;}
	.st374{fill:#70767C;}
	.st375{fill:#6B7278;}
	.st376{fill:#666D73;}
	.st377{fill:#556570;}
	.st378{fill:#445059;}
	.st379{fill:#A2D1F5;}
	.st380{fill:#EEF2F5;}
	.st381{fill:#404B54;}
	.st382{fill:#93A4B3;}
	.st383{fill:#BAE1FF;}
	.st384{fill:#41AB27;}
	.st385{fill:#D9F7FC;}
	.st386{fill:#005869;}
	.st387{fill:#1EABB0;}
	.st388{fill:#58D7DB;}
	.st389{fill:#004378;}
	.st390{fill:#147275;}
	.st391{fill:#C4EBF5;}
	.st392{fill:#00414D;}
	.st393{filter:url(#Adobe_OpacityMaskFilter_11_);}
	.st394{mask:url(#SVGID_265_);}
	.st395{fill:#DEA676;}
	.st396{fill:#E8B588;}
	.st397{fill:#06263B;}
	.st398{fill:#1A487E;}
	.st399{fill:#00959B;}
	.st400{fill:#091D38;}
	.st401{fill:#0E426F;}
	.st402{fill:#0E4B6F;}
	.st403{opacity:0.3;fill:#0E4B6F;}
	.st404{fill:#6ED5D8;}
	.st405{fill:#AFC4D7;}
	.st406{fill:#003257;}
	.st407{fill:#ABEBED;}
	.st408{fill:#EEA674;}
	.st409{opacity:0.3;fill:#003257;}
	.st410{fill:#008C91;}
	.st411{fill:#00284B;}
	.st412{opacity:0.5;fill:#AFC4D7;}
	.st413{opacity:0.75;fill:#0A3C5F;}
	.st414{fill:#FD9828;}
	.st415{fill:#00AEB5;}
	.st416{fill:#DFF1FC;}
	.st417{fill:#EDF6FC;}
	.st418{fill:#006E76;}
	.st419{fill:#0A3C5F;}
	.st420{fill:#002F54;}
	.st421{fill:#008188;}
	.st422{fill:#00B2B8;}
	.st423{fill:#024851;}
	.st424{fill:#036F76;}
	.st425{fill:#0CAAB0;}
	.st426{fill:#56C9CC;}
	.st427{fill:#CE5B00;}
	.st428{fill:#E57200;}
	.st429{fill:#FD8A00;}
	.st430{fill:#FFAF2F;}
	.st431{fill:#DD8400;}
	.st432{fill:#F9AF00;}
	.st433{fill:#FFD03C;}
	.st434{fill:#20C2C6;}
	.st435{fill:#0C9197;}
	.st436{fill:#7AD9DB;}
	.st437{fill:#006870;}
	.st438{fill:#003741;}
	.st439{fill:#D26900;}
	.st440{fill:#000F1A;}
	.st441{fill:#002040;}
	.st442{fill:#00365A;}
	.st443{fill:#0B5587;}
	.st444{fill:#006C73;}
	.st445{fill:#47C5C9;}
	.st446{fill:#E9FFFF;}
	.st447{fill:#FD8C10;}
	.st448{fill:#D38400;}
	.st449{fill:#F5AF15;}
	.st450{fill:#F4A600;}
	.st451{fill:#FFD633;}
	.st452{fill:#FEC22E;}
	.st453{fill:#3A3F48;}
	.st454{fill:#08848A;}
	.st455{fill:#4D4D47;}
	.st456{fill:#3C4148;}
	.st457{fill:#6A6D73;}
	.st458{fill:#3F4349;}
	.st459{fill:#009DA4;}
	.st460{fill:#3D4148;}
	.st461{fill:#FD7900;}
	.st462{fill:#10979D;}
	.st463{fill:#F48E00;}
	.st464{fill:#1EC0C4;}
	.st465{fill:#1D1D1B;}
	.st466{fill:#FD9A00;}
	.st467{fill:#3B4048;}
	.st468{fill:url(#SVGID_266_);}
	.st469{fill:url(#SVGID_267_);}
	.st470{fill:url(#SVGID_268_);}
	.st471{fill:url(#SVGID_269_);}
	.st472{fill:url(#SVGID_270_);}
	.st473{fill:url(#SVGID_271_);}
	.st474{fill:url(#SVGID_272_);}
	.st475{fill:url(#SVGID_273_);}
	.st476{fill:url(#SVGID_274_);}
	.st477{fill:url(#SVGID_275_);}
	.st478{fill:url(#SVGID_276_);}
	.st479{fill:url(#SVGID_277_);}
	.st480{fill:url(#SVGID_278_);}
	.st481{fill:url(#SVGID_279_);}
	.st482{fill:url(#SVGID_280_);}
	.st483{fill:url(#SVGID_281_);}
	.st484{fill:url(#SVGID_282_);}
	.st485{fill:url(#SVGID_283_);}
	.st486{fill:url(#SVGID_284_);}
	.st487{fill:url(#SVGID_285_);}
	.st488{fill:url(#SVGID_286_);}
	.st489{fill:url(#SVGID_287_);}
	.st490{fill:url(#SVGID_288_);}
	.st491{fill:url(#SVGID_289_);}
	.st492{fill:url(#SVGID_290_);}
	.st493{fill:url(#SVGID_291_);}
	.st494{fill:url(#SVGID_292_);}
	.st495{fill:url(#SVGID_293_);}
	.st496{fill:url(#SVGID_294_);}
	.st497{fill:url(#SVGID_295_);}
	.st498{fill:url(#SVGID_296_);}
	.st499{fill:url(#SVGID_297_);}
	.st500{fill:url(#SVGID_298_);}
	.st501{fill:url(#SVGID_299_);}
	.st502{fill:url(#SVGID_300_);}
	.st503{fill:#7D97F4;}
	.st504{fill:url(#SVGID_301_);}
	.st505{fill:url(#SVGID_302_);}
	.st506{fill:url(#SVGID_303_);}
	.st507{fill:url(#SVGID_304_);}
	.st508{fill:url(#SVGID_305_);}
	.st509{fill:url(#SVGID_306_);}
	.st510{fill:url(#SVGID_307_);}
	.st511{fill:url(#SVGID_308_);}
	.st512{fill:url(#SVGID_309_);}
	.st513{fill:url(#SVGID_310_);}
	.st514{fill:url(#SVGID_311_);}
	.st515{fill:url(#SVGID_312_);}
	.st516{fill:url(#SVGID_313_);}
	.st517{fill:url(#SVGID_314_);}
	.st518{fill:url(#SVGID_315_);}
	.st519{fill:url(#SVGID_316_);}
	.st520{fill:url(#SVGID_317_);}
	.st521{fill:url(#SVGID_318_);}
	.st522{fill:url(#SVGID_319_);}
	.st523{fill:url(#SVGID_320_);}
	.st524{fill:url(#SVGID_321_);}
	.st525{fill:url(#SVGID_322_);}
	.st526{fill:url(#SVGID_323_);}
	.st527{fill:url(#SVGID_324_);}
	.st528{fill:url(#SVGID_325_);}
	.st529{fill:url(#SVGID_326_);}
	.st530{fill:url(#SVGID_327_);}
	.st531{fill:url(#SVGID_328_);}
	.st532{fill:url(#SVGID_329_);}
	.st533{fill:url(#SVGID_330_);}
	.st534{fill:url(#SVGID_331_);}
	.st535{fill:url(#SVGID_332_);}
	.st536{fill:url(#SVGID_333_);}
	.st537{fill:url(#SVGID_334_);}
	.st538{fill:url(#SVGID_335_);}
	.st539{fill:url(#SVGID_336_);}
	.st540{fill:url(#SVGID_337_);}
	.st541{fill:url(#SVGID_338_);}
	.st542{fill:url(#SVGID_339_);}
	.st543{fill:url(#SVGID_340_);}
	.st544{fill:url(#SVGID_341_);}
	.st545{fill:url(#SVGID_342_);}
	.st546{fill:url(#SVGID_343_);}
	.st547{fill:url(#SVGID_344_);}
	.st548{fill:url(#SVGID_345_);}
	.st549{fill:url(#SVGID_346_);}
	.st550{fill:url(#SVGID_347_);}
	.st551{fill:url(#SVGID_348_);}
	.st552{fill:url(#SVGID_349_);}
	.st553{fill:url(#SVGID_350_);}
	.st554{fill:url(#SVGID_351_);}
	.st555{fill:url(#SVGID_352_);}
	.st556{fill:url(#SVGID_353_);}
	.st557{fill:url(#SVGID_354_);}
	.st558{fill:url(#SVGID_355_);}
	.st559{fill:url(#SVGID_356_);}
	.st560{fill:url(#SVGID_357_);}
	.st561{fill:url(#SVGID_358_);}
	.st562{fill:url(#SVGID_359_);}
	.st563{fill:url(#SVGID_360_);}
	.st564{fill:url(#SVGID_361_);}
	.st565{fill:url(#SVGID_362_);}
	.st566{fill:url(#SVGID_363_);}
	.st567{fill:url(#SVGID_364_);}
	.st568{fill:url(#SVGID_365_);}
	.st569{fill:url(#SVGID_366_);}
	.st570{fill:url(#SVGID_367_);}
	.st571{fill:url(#SVGID_368_);}
	.st572{fill:url(#SVGID_369_);}
	.st573{fill:url(#SVGID_370_);}
	.st574{fill:url(#SVGID_371_);}
	.st575{fill:url(#SVGID_372_);}
	.st576{fill:url(#SVGID_373_);}
	.st577{fill:url(#SVGID_374_);}
	.st578{fill:url(#SVGID_375_);}
	.st579{fill:url(#SVGID_376_);}
	.st580{fill:url(#SVGID_377_);}
	.st581{fill:url(#SVGID_378_);}
	.st582{fill:url(#SVGID_379_);}
	.st583{fill:url(#SVGID_380_);}
	.st584{fill:url(#SVGID_381_);}
	.st585{fill:url(#SVGID_382_);}
	.st586{fill:url(#SVGID_383_);}
	.st587{clip-path:url(#SVGID_385_);fill:url(#SVGID_386_);}
	.st588{fill:url(#SVGID_387_);}
	.st589{opacity:0.62;fill:#FFFFFF;}
	.st590{fill:url(#SVGID_388_);}
	.st591{fill:url(#SVGID_389_);}
	.st592{fill:url(#SVGID_390_);}
	.st593{fill:url(#SVGID_391_);}
	.st594{fill:url(#SVGID_392_);}
	.st595{fill:url(#SVGID_393_);}
	.st596{fill:url(#SVGID_394_);}
	.st597{fill:url(#SVGID_395_);}
	.st598{fill:url(#SVGID_396_);}
	.st599{opacity:0.71;fill:#FFFFFF;}
	.st600{opacity:0.75;fill:#FFFFFF;}
	.st601{fill:url(#SVGID_397_);}
	.st602{fill:url(#SVGID_398_);}
	.st603{fill:url(#SVGID_399_);}
	.st604{fill:url(#SVGID_400_);}
	.st605{fill:url(#SVGID_401_);}
	.st606{fill:url(#SVGID_402_);}
	.st607{fill:url(#SVGID_403_);}
	.st608{fill:url(#SVGID_404_);}
	.st609{fill:url(#SVGID_405_);}
	.st610{fill:url(#SVGID_406_);}
	.st611{fill:#5AE4A7;}
	.st612{opacity:0.7;fill:#FFFFFF;}
	.st613{fill:none;stroke:#1A2E35;stroke-linecap:round;stroke-linejoin:round;stroke-miterlimit:10;}
	.st614{fill:none;stroke:#1A2E35;stroke-width:2;stroke-linecap:round;stroke-linejoin:round;stroke-miterlimit:10;}
	.st615{fill:#FFFFFF;stroke:#1A2E35;stroke-linecap:round;stroke-linejoin:round;stroke-miterlimit:10;}
	.st616{fill:#5AE4A7;stroke:#1A2E35;stroke-linecap:round;stroke-linejoin:round;stroke-miterlimit:10;}
	.st617{opacity:0.5;fill:#5AE4A7;}
	.st618{opacity:0.5;}
	.st619{fill:#999999;stroke:#1A2E35;stroke-linecap:round;stroke-linejoin:round;stroke-miterlimit:10;}
	.st620{fill:#BFBFBF;stroke:#1A2E35;stroke-linecap:round;stroke-linejoin:round;stroke-miterlimit:10;}
	.st621{opacity:0.4;clip-path:url(#XMLID_11_);fill:#FFFFFF;}
	.st622{opacity:0.5;clip-path:url(#XMLID_11_);fill-opacity:0.7;}
	.st623{opacity:0.3;clip-path:url(#XMLID_12_);fill-opacity:0.7;}
	.st624{opacity:0.3;clip-path:url(#XMLID_13_);fill-opacity:0.7;}
	.st625{opacity:0.4;clip-path:url(#XMLID_14_);fill:#FFFFFF;}
	.st626{fill:#1A2E35;stroke:#1A2E35;stroke-linecap:round;stroke-linejoin:round;stroke-miterlimit:10;}
	.st627{fill:#757575;stroke:#1A2E35;stroke-linecap:round;stroke-linejoin:round;stroke-miterlimit:10;}
	.st628{opacity:0.5;clip-path:url(#XMLID_15_);fill-opacity:0.7;}
	.st629{opacity:0.3;clip-path:url(#XMLID_15_);fill-opacity:0.7;}
	.st630{opacity:0.4;clip-path:url(#XMLID_16_);fill:#FFFFFF;}
	.st631{opacity:0.4;fill:#FFFFFF;}
	.st632{opacity:0.2;fill:#FFFFFF;}
	.st633{fill:#CDD9FC;}
	.st634{fill:#27326D;}
	.st635{fill:#DDE6E9;}
	.st636{fill:#3B4AA3;}
	.st637{fill:#9BB3FA;}
	.st638{opacity:0.44;fill:#424242;}
	.st639{opacity:0.44;fill:#0540F2;}
	.st640{fill:#3766F5;}
	.st641{fill:#698CF7;}
	.st642{clip-path:url(#SVGID_412_);}
	.st643{fill:#DD2C10;}
	.st644{fill:#0420BF;}
	.st645{fill:#1675F2;}
	.st646{fill:none;stroke:#082A40;stroke-width:0.7247;stroke-linecap:round;stroke-linejoin:round;stroke-miterlimit:10;}
	.st647{fill:#FDBDBE;}
	.st648{fill:#CE1F0D;}
	.st649{fill:#EA9A9E;}
	.st650{fill:#082A40;}
	.st651{fill:#FF4A26;}
	.st652{fill:#FF9226;}
	.st653{opacity:0.2;}
	.st654{fill:none;stroke:#32324C;stroke-width:2;stroke-linecap:round;stroke-linejoin:round;}
	.st655{fill:none;stroke:#32324C;stroke-width:2;stroke-linecap:round;stroke-linejoin:round;stroke-dasharray:10.1974,7.1382;}
	
		.st656{opacity:0.2;fill:none;stroke:#32324C;stroke-width:2;stroke-linecap:round;stroke-linejoin:round;stroke-miterlimit:10;stroke-dasharray:10,7;}
	.st657{opacity:0.1;fill:#32324C;}
	.st658{fill:#2C2C2C;}
	.st659{fill:#DE9D01;}
	.st660{fill:#BF8005;}
	.st661{fill:none;stroke:#FFFFFF;stroke-width:0.75;stroke-miterlimit:10;}
	.st662{fill:#009762;}
	.st663{fill:#E2E2E2;}
	.st664{fill:#FFAF82;}
	.st665{fill:#F88968;}
	.st666{fill:#FFA378;}
	.st667{fill:#32324C;}
	.st668{fill:#00784E;}
	.st669{fill:#920E08;}
	.st670{fill:#F85C66;}
	.st671{fill:url(#SVGID_413_);}
	.st672{fill:url(#SVGID_414_);}
	.st673{fill:#050705;}
	.st674{fill:url(#SVGID_415_);}
	.st675{fill:#373E72;}
	.st676{fill:#397BFF;}
	.st677{opacity:0.2;fill:#344182;}
	.st678{fill:#F9F9F9;}
	.st679{fill:#FD5520;}
	.st680{fill:#F0F0F0;}
	.st681{fill:#E7E7E7;}
	.st682{fill:#007CFF;}
	.st683{opacity:0.3;fill:#1A2E35;}
	.st684{opacity:0.5;fill:#FFFFFF;}
	.st685{fill:#903C38;}
	.st686{fill:#740606;}
	.st687{opacity:0.6;}
	.st688{opacity:0.3;fill:#FFFFFF;}
	.st689{opacity:0.1;}
	.st690{opacity:0.6;fill:#FFFFFF;}
	.st691{clip-path:url(#SVGID_417_);}
	.st692{fill:#E0DFFB;}
	.st693{fill:#C3C2F0;}
	.st694{clip-path:url(#SVGID_419_);}
	.st695{fill:#CCCFDE;}
	.st696{fill:#8C5649;}
	.st697{fill:#454582;}
	.st698{fill:#5F5FA6;}
	.st699{fill:#505096;}
	.st700{fill:#313163;}
	.st701{fill:#6B6BBA;}
	.st702{fill:#3B3B78;}
	.st703{fill:#25254A;}
	.st704{fill:#9191CC;}
	.st705{fill:#7171B3;}
	.st706{fill:#4A4A82;}
	.st707{clip-path:url(#SVGID_421_);}
	.st708{fill:#170F16;}
	.st709{fill:#382536;}
	.st710{fill:#DEDEDE;}
	.st711{fill:#482F45;}
	.st712{fill:#6B4667;}
	.st713{fill:#EBE4DC;}
	.st714{fill:#D98218;}
	.st715{fill:#0D0D36;}
	.st716{fill:#FF8762;}
	.st717{fill:#E0B3A8;}
	.st718{fill:#EC8E1A;}
	.st719{fill:#E0C8A8;}
	.st720{fill:#52483D;}
	.st721{fill:#855780;}
	.st722{fill:#592F25;}
	.st723{fill:#783F31;}
	.st724{fill:#592011;}
	.st725{fill:#632313;}
	.st726{fill:#AB3C21;}
	.st727{fill:#BF654E;}
	.st728{fill:#D6C0A5;}
	.st729{fill:#1A1A4F;}
	.st730{fill:#4D72B0;}
	.st731{opacity:0.81;}
	.st732{fill:#E1E2FE;}
	.st733{fill:#0E100E;}
	.st734{fill:#212122;}
	.st735{fill:#7CA7D9;}
	.st736{fill:#F1CC59;}
	.st737{fill:#F0822A;}
	.st738{clip-path:url(#SVGID_425_);}
	.st739{fill:#F78F8D;}
	.st740{fill:#040156;}
	.st741{fill:#5D4C9B;}
	.st742{fill:#E56868;}
	.st743{fill:#6666DB;}
	.st744{fill:#FA9A3F;}
	.st745{fill:#F9918F;}
	.st746{fill:#FC6868;}
	.st747{fill:#FD918F;}
	.st748{fill:#D4D1C2;}
	.st749{fill:#02DAFF;}
	.st750{fill:#6D4C41;}
	.st751{fill:#FFF3E0;}
	.st752{opacity:0.8;}
	.st753{fill:#F5CBA7;}
	.st754{fill:#FFD54F;}
	.st755{fill:#FFF176;}
	.st756{fill:#FF8CC8;}
	.st757{fill:#FF5722;}
	.st758{fill:#FFA726;}
	.st759{fill:#F4F7FA;}
	.st760{fill:url(#SVGID_426_);}
	.st761{fill:url(#SVGID_427_);}
	.st762{fill:#D8DEE8;}
	.st763{fill:url(#SVGID_428_);}
	.st764{fill:url(#SVGID_429_);}
	.st765{fill:url(#SVGID_430_);}
	.st766{fill:#DE8BDF;}
	.st767{opacity:0.4;fill:#D8DEE8;}
	.st768{fill:url(#SVGID_431_);}
	.st769{fill:url(#SVGID_432_);}
	.st770{fill:url(#SVGID_433_);}
	.st771{fill:url(#SVGID_434_);}
	.st772{fill:url(#SVGID_435_);}
	.st773{fill:url(#SVGID_436_);}
	.st774{fill:url(#SVGID_437_);}
	.st775{fill:url(#SVGID_438_);}
	.st776{fill:url(#SVGID_439_);}
	.st777{fill:#97A6B7;}
	.st778{fill:url(#SVGID_440_);}
	.st779{fill:url(#SVGID_441_);}
	.st780{fill:url(#SVGID_442_);}
	.st781{opacity:0.4;fill:#97A6B7;}
	.st782{fill:url(#SVGID_443_);}
	.st783{fill:url(#SVGID_444_);}
	.st784{fill:url(#SVGID_445_);}
	.st785{fill:url(#SVGID_446_);}
	.st786{fill:url(#SVGID_447_);}
	.st787{opacity:0.2;fill:url(#SVGID_448_);}
	.st788{fill:url(#SVGID_449_);}
	.st789{fill:url(#SVGID_450_);}
	.st790{fill:url(#SVGID_451_);}
	.st791{fill:url(#SVGID_452_);}
	.st792{fill:url(#SVGID_453_);}
	.st793{fill:url(#SVGID_454_);}
	.st794{fill:url(#SVGID_455_);}
	.st795{fill:url(#SVGID_456_);}
	.st796{opacity:0.6;fill:url(#SVGID_457_);}
	.st797{fill:url(#SVGID_458_);}
	.st798{fill:url(#SVGID_459_);}
	.st799{fill:url(#SVGID_460_);}
	.st800{fill:url(#SVGID_461_);}
	.st801{fill:url(#SVGID_462_);}
	.st802{fill:url(#SVGID_463_);}
	.st803{opacity:0.3;fill:url(#SVGID_464_);}
	.st804{fill:url(#SVGID_465_);}
	.st805{fill:url(#SVGID_466_);}
	.st806{fill:url(#SVGID_467_);}
	.st807{fill:url(#SVGID_468_);}
	.st808{fill:url(#SVGID_469_);}
	.st809{fill:url(#SVGID_470_);}
	.st810{opacity:0.3;fill:url(#SVGID_471_);}
	.st811{fill:url(#SVGID_472_);}
	.st812{fill:url(#SVGID_473_);}
	.st813{fill:#EAF4F5;}
	.st814{fill:#62C4BD;}
	.st815{fill:#F29D29;}
	.st816{fill:#EA932A;}
	.st817{opacity:0.05;}
	.st818{fill:#59AFB0;}
	.st819{opacity:0.24;fill:#FFFFFF;}
	.st820{fill:#509B99;}
	.st821{fill:#F8D168;}
	.st822{opacity:0.16;}
	.st823{fill:#FC612B;}
	.st824{fill:#F2F2F2;}
	.st825{opacity:0.26;fill:#FFFFFF;}
	.st826{opacity:0.67;fill:#F2F2F2;}
	.st827{fill:#A4B3FF;}
	.st828{fill:#717FE2;}
	.st829{fill:#D6E0FF;}
	.st830{fill:#230768;}
	.st831{fill:none;stroke:#D6E0FF;stroke-width:2;stroke-linecap:round;stroke-linejoin:round;stroke-miterlimit:10;}
	.st832{fill:none;stroke:#717FE2;stroke-width:2;stroke-linecap:round;stroke-linejoin:round;stroke-miterlimit:10;}
	.st833{fill:#271F53;}
	.st834{opacity:0.06;fill:#271F53;}
	.st835{fill:url(#SVGID_474_);}
	.st836{fill:url(#SVGID_475_);}
	.st837{fill:url(#SVGID_476_);}
	.st838{fill:url(#SVGID_477_);}
	.st839{fill:url(#SVGID_478_);}
	.st840{fill:url(#SVGID_479_);}
	.st841{fill:url(#SVGID_480_);}
	.st842{fill:url(#SVGID_481_);}
	.st843{fill:url(#SVGID_482_);}
	.st844{fill:url(#SVGID_483_);}
	.st845{fill:url(#SVGID_484_);}
	.st846{fill:url(#SVGID_485_);}
	.st847{fill:url(#SVGID_486_);}
	.st848{fill:url(#SVGID_487_);}
	.st849{fill:url(#SVGID_488_);}
	.st850{fill:url(#SVGID_489_);}
	.st851{fill:url(#SVGID_490_);}
	.st852{fill:url(#SVGID_491_);}
	.st853{fill:url(#SVGID_492_);}
	.st854{fill:url(#SVGID_493_);}
	.st855{fill:url(#SVGID_494_);}
	.st856{fill:url(#SVGID_495_);}
	.st857{fill:url(#SVGID_496_);}
	.st858{fill:url(#SVGID_497_);}
	.st859{fill:url(#SVGID_498_);}
	.st860{fill:url(#SVGID_499_);}
	.st861{fill:url(#SVGID_500_);}
	.st862{fill:url(#SVGID_501_);}
	.st863{fill:url(#SVGID_502_);}
	.st864{fill:url(#SVGID_503_);}
	.st865{fill:url(#SVGID_504_);}
	.st866{fill:url(#SVGID_505_);}
	.st867{fill:url(#SVGID_506_);}
	.st868{fill:url(#SVGID_507_);}
	.st869{fill:url(#SVGID_508_);}
	.st870{fill:url(#SVGID_509_);}
	.st871{fill:url(#SVGID_510_);}
	.st872{fill:url(#SVGID_511_);}
	.st873{fill:url(#SVGID_512_);}
	.st874{fill:url(#SVGID_513_);}
	.st875{fill:url(#SVGID_514_);}
	.st876{fill:url(#SVGID_515_);}
	.st877{fill:url(#SVGID_516_);}
	.st878{fill:url(#SVGID_517_);}
	.st879{fill:url(#SVGID_518_);}
	.st880{fill:url(#SVGID_519_);}
	.st881{fill:url(#SVGID_520_);}
	.st882{fill:url(#SVGID_521_);}
	.st883{fill:url(#SVGID_522_);}
	.st884{fill:url(#SVGID_523_);}
	.st885{fill:url(#SVGID_524_);}
	.st886{fill:url(#SVGID_525_);}
	.st887{fill:url(#SVGID_526_);}
	.st888{fill:url(#SVGID_527_);}
	.st889{fill:url(#SVGID_528_);}
	.st890{fill:url(#SVGID_529_);}
	.st891{fill:url(#SVGID_530_);}
	.st892{fill:url(#SVGID_531_);}
	.st893{fill:url(#SVGID_532_);}
	.st894{fill:url(#SVGID_533_);}
	.st895{fill:url(#SVGID_534_);}
	.st896{fill:url(#SVGID_535_);}
	.st897{fill:url(#SVGID_536_);}
	.st898{fill:url(#SVGID_537_);}
	.st899{fill:url(#SVGID_538_);}
	.st900{fill:url(#SVGID_539_);}
	.st901{fill:url(#SVGID_540_);}
	.st902{fill:url(#SVGID_541_);}
	.st903{fill:url(#SVGID_542_);}
	.st904{fill:url(#SVGID_543_);}
	.st905{fill:url(#SVGID_544_);}
	.st906{fill:url(#SVGID_545_);}
	.st907{fill:url(#SVGID_546_);}
	.st908{fill:url(#SVGID_547_);}
	.st909{fill:url(#SVGID_548_);}
	.st910{fill:url(#SVGID_549_);}
	.st911{fill:url(#SVGID_550_);}
	.st912{fill:url(#SVGID_551_);}
	.st913{fill:url(#SVGID_552_);}
	.st914{fill:url(#SVGID_553_);}
	.st915{fill:url(#SVGID_554_);}
	.st916{fill:url(#SVGID_555_);}
	.st917{fill:url(#SVGID_556_);}
	.st918{fill:url(#SVGID_557_);}
	.st919{fill:url(#SVGID_558_);}
	.st920{fill:url(#SVGID_559_);}
	.st921{fill:url(#SVGID_560_);}
	.st922{fill:url(#SVGID_561_);}
	.st923{fill:url(#SVGID_562_);}
	.st924{fill:url(#SVGID_563_);}
	.st925{fill:url(#SVGID_564_);}
	.st926{fill:url(#SVGID_565_);}
	.st927{fill:url(#SVGID_566_);}
	.st928{fill:url(#SVGID_567_);}
	.st929{fill:url(#SVGID_568_);}
	.st930{fill:url(#SVGID_569_);}
	.st931{fill:url(#SVGID_570_);}
	.st932{fill:url(#SVGID_571_);}
	.st933{fill:url(#SVGID_572_);}
	.st934{fill:url(#SVGID_573_);}
	.st935{fill:url(#SVGID_574_);}
	.st936{fill:url(#SVGID_575_);}
	.st937{fill:url(#SVGID_576_);}
	.st938{fill:url(#SVGID_577_);}
	.st939{fill:url(#SVGID_578_);}
	.st940{fill:url(#SVGID_579_);}
	.st941{fill:url(#SVGID_580_);}
	.st942{fill:url(#SVGID_581_);}
	.st943{fill:url(#SVGID_582_);}
	.st944{fill:url(#SVGID_583_);}
	.st945{fill:url(#SVGID_584_);}
	.st946{fill:url(#SVGID_585_);}
	.st947{fill:url(#SVGID_586_);}
	.st948{fill:url(#SVGID_587_);}
	.st949{fill:url(#SVGID_588_);}
	.st950{fill:url(#SVGID_589_);}
	.st951{fill:url(#SVGID_590_);}
	.st952{fill:url(#SVGID_591_);}
	.st953{fill:url(#SVGID_592_);}
	.st954{fill:url(#SVGID_593_);}
	.st955{fill:url(#SVGID_594_);}
	.st956{fill:url(#SVGID_595_);}
	.st957{fill:url(#SVGID_596_);}
	.st958{fill:url(#SVGID_597_);}
	.st959{fill:url(#SVGID_598_);}
	.st960{fill:url(#SVGID_599_);}
	.st961{fill:url(#SVGID_600_);}
	.st962{fill:url(#SVGID_601_);}
	.st963{fill:url(#SVGID_602_);}
	.st964{fill:url(#SVGID_603_);}
	.st965{fill:url(#SVGID_604_);}
	.st966{fill:url(#SVGID_605_);}
	.st967{fill:url(#SVGID_606_);}
	.st968{fill:url(#SVGID_607_);}
	.st969{fill:url(#SVGID_608_);}
	.st970{fill:url(#SVGID_609_);}
	.st971{fill:url(#SVGID_610_);}
	.st972{fill:url(#SVGID_611_);}
	.st973{fill:url(#SVGID_612_);}
	.st974{fill:url(#SVGID_613_);}
	.st975{fill:url(#SVGID_614_);}
	.st976{fill:url(#SVGID_615_);}
	.st977{fill:url(#SVGID_616_);}
	.st978{fill:url(#SVGID_617_);}
	.st979{fill:url(#SVGID_618_);}
	.st980{fill:url(#SVGID_619_);}
</style>
<path class="st86" d="M334.4,51.05c-0.21,0.97-1.16,1.59-2.14,1.39c-0.97-0.21-1.59-1.16-1.39-2.14c0.21-0.97,1.16-1.59,2.14-1.39
	C333.99,49.12,334.61,50.08,334.4,51.05z"/>
<rect x="-10.16" y="-12" class="st63" width="710" height="710"/>
<g>
	<path class="st813" d="M641.16,300c0,14.09-1,27.95-2.94,41.51c-19.8,138.72-137.38,245.92-280.7,249.55
		c-2.5,0.06-5.01,0.09-7.53,0.09C189.2,591.16,58.84,460.81,58.84,300S189.2,8.84,350,8.84C510.8,8.84,641.16,139.19,641.16,300z"/>
	<g>
		<g>
			<path class="st814" d="M504.5,142.26c-0.07-0.54-0.2-1.08-0.37-1.61c-0.18-0.53-0.43-1.04-0.73-1.54c0,0,0,0,0,0l-0.25-0.35
				c-0.06-0.08-0.15-0.21-0.22-0.29l-0.05-0.06c-0.09-0.12-0.19-0.22-0.29-0.33c-0.1-0.11-0.21-0.21-0.32-0.31
				c-0.22-0.2-0.46-0.39-0.7-0.56c-0.24-0.17-0.49-0.32-0.72-0.46c-0.48-0.28-0.93-0.52-1.32-0.78c-0.4-0.25-0.75-0.53-1.08-0.83
				c-0.34-0.3-0.63-0.64-0.92-0.99c-0.56-0.71-1.02-1.5-1.4-2.35c-0.38-0.84-0.68-1.74-0.93-2.65c-0.16-0.61-0.36-1.67-0.47-2.3
				c-0.05-0.3-0.31-0.52-0.62-0.52h-0.89c-0.35,0-0.63,0.28-0.63,0.63v37.36c0,0.03-0.04,0.06-0.07,0.04
				c-1.71-0.95-4.2-1.02-6.6-0.02c-3.12,1.31-5.44,5.05-4.43,7.32c1.13,2.53,6.35,3.07,9.73,1.15c0.06-0.04,0.12-0.07,0.18-0.11
				c2.02-1.22,3.22-3.43,3.22-5.78v-31.56c0-0.04,0.05-0.06,0.08-0.03c0.26,0.27,0.53,0.53,0.82,0.78c0.45,0.38,0.92,0.74,1.42,1.05
				c0.5,0.31,1.03,0.59,1.56,0.8c0.53,0.22,1.03,0.38,1.49,0.55c0.23,0.08,0.44,0.17,0.65,0.26c0.2,0.1,0.4,0.2,0.59,0.31
				c0.09,0.06,0.18,0.12,0.28,0.19c0.09,0.07,0.18,0.13,0.26,0.21l0.13,0.11c0.04,0.04,0.08,0.08,0.12,0.12l0.24,0.24c0,0,0,0,0,0
				c0.3,0.35,0.59,0.73,0.82,1.14c0.23,0.42,0.43,0.87,0.58,1.35c0.15,0.47,0.27,0.96,0.35,1.47c0.02,0.1,0.03,0.2,0.05,0.3
				c0.04,0.31,0.49,0.29,0.5-0.02c0-0.11,0.01-0.22,0.01-0.32C504.6,143.34,504.57,142.8,504.5,142.26z"/>
			<path class="st814" d="M300.49,174.31c-0.15-0.31-0.33-0.6-0.52-0.89c-0.2-0.28-0.42-0.55-0.66-0.79c0,0,0,0,0,0l-0.19-0.17
				c-0.04-0.04-0.11-0.1-0.16-0.13l-0.04-0.03c-0.07-0.05-0.13-0.1-0.2-0.15c-0.07-0.05-0.14-0.09-0.21-0.13
				c-0.14-0.08-0.29-0.15-0.43-0.21c-0.14-0.06-0.29-0.11-0.42-0.15c-0.27-0.09-0.53-0.15-0.76-0.24c-0.23-0.08-0.45-0.19-0.66-0.31
				c-0.22-0.12-0.42-0.27-0.63-0.43c-0.4-0.33-0.78-0.72-1.14-1.15c-0.36-0.44-0.69-0.91-1-1.41c-0.21-0.33-0.53-0.93-0.72-1.28
				c-0.09-0.17-0.25-0.25-0.39-0.2l-0.39,0.15c-0.15,0.06-0.22,0.27-0.14,0.47l8.24,22.05c0.01,0.02,0,0.04-0.02,0.03
				c-0.97-0.28-2.09,0.09-2.93,1.08c-1.1,1.29-1.3,3.89-0.35,5.06c1.06,1.31,3.49,0.76,4.57-0.93c0.02-0.03,0.04-0.06,0.06-0.09
				c0.63-1.06,0.67-2.56,0.16-3.94l-6.96-18.63c-0.01-0.02,0.01-0.04,0.03-0.03c0.18,0.12,0.35,0.23,0.54,0.33
				c0.28,0.15,0.57,0.29,0.86,0.38c0.29,0.1,0.59,0.17,0.87,0.21c0.28,0.04,0.54,0.05,0.78,0.08c0.12,0.01,0.23,0.03,0.35,0.05
				c0.11,0.02,0.22,0.05,0.33,0.09c0.05,0.02,0.11,0.04,0.16,0.06c0.05,0.03,0.11,0.05,0.16,0.08l0.08,0.04
				c0.03,0.01,0.05,0.03,0.08,0.05l0.16,0.1c0,0,0,0,0,0c0.21,0.15,0.42,0.33,0.62,0.54c0.19,0.21,0.38,0.44,0.55,0.7
				c0.17,0.26,0.33,0.52,0.48,0.81c0.03,0.06,0.06,0.11,0.09,0.17c0.09,0.17,0.28,0.09,0.22-0.09c-0.02-0.06-0.04-0.13-0.07-0.19
				C300.77,174.93,300.64,174.62,300.49,174.31z"/>
			<path class="st814" d="M359.71,132.09c-0.08-0.46-0.22-0.92-0.4-1.36c0,0,0,0,0,0l-0.16-0.32c-0.04-0.07-0.1-0.19-0.14-0.27
				l-0.03-0.06c-0.06-0.11-0.13-0.21-0.2-0.31c-0.07-0.1-0.15-0.2-0.22-0.3c-0.16-0.2-0.33-0.38-0.5-0.55
				c-0.18-0.17-0.36-0.33-0.54-0.47c-0.36-0.29-0.7-0.55-0.99-0.81c-0.29-0.26-0.55-0.53-0.79-0.82c-0.24-0.29-0.44-0.61-0.64-0.93
				c-0.37-0.66-0.65-1.37-0.86-2.11c-0.21-0.75-0.34-1.52-0.43-2.31c-0.06-0.52-0.08-1.42-0.1-1.96c0-0.07-0.02-0.14-0.05-0.2
				l0.51-3.3c0.01-0.03,0.05-0.04,0.07-0.02c0.18,0.26,0.37,0.51,0.57,0.75c0.33,0.37,0.66,0.73,1.04,1.05
				c0.37,0.32,0.77,0.61,1.19,0.86c0.41,0.25,0.8,0.45,1.16,0.64c0.18,0.1,0.34,0.2,0.5,0.3c0.16,0.1,0.31,0.21,0.45,0.33
				c0.07,0.06,0.14,0.12,0.2,0.19c0.06,0.07,0.13,0.13,0.19,0.21l0.09,0.11c0.03,0.04,0.06,0.08,0.09,0.11l0.17,0.23c0,0,0,0,0,0
				c0.21,0.32,0.39,0.67,0.53,1.05c0.13,0.38,0.24,0.77,0.3,1.18c0.06,0.41,0.1,0.83,0.1,1.25c0,0.09,0,0.17,0,0.26
				c0,0.26,0.37,0.3,0.42,0.05c0.02-0.09,0.03-0.18,0.05-0.27c0.08-0.44,0.12-0.88,0.13-1.34c0.01-0.45-0.03-0.91-0.1-1.38
				c-0.08-0.46-0.22-0.92-0.4-1.36c0,0,0,0,0,0l-0.16-0.32c-0.04-0.07-0.1-0.19-0.14-0.26l-0.03-0.06c-0.06-0.11-0.13-0.21-0.2-0.31
				c-0.07-0.1-0.15-0.2-0.22-0.3c-0.16-0.2-0.33-0.38-0.5-0.55c-0.18-0.17-0.36-0.33-0.54-0.47c-0.36-0.29-0.7-0.55-0.99-0.81
				c-0.29-0.26-0.55-0.53-0.79-0.82c-0.24-0.29-0.44-0.61-0.64-0.93c-0.37-0.66-0.65-1.37-0.86-2.11c-0.21-0.75-0.34-1.52-0.43-2.31
				c-0.06-0.52-0.08-1.42-0.1-1.96c-0.01-0.25-0.19-0.47-0.44-0.5l-0.73-0.11c-0.28-0.04-0.55,0.15-0.6,0.44l-1.62,10.52l-3.12,20.3
				c0,0.03-0.04,0.04-0.06,0.02c-1.29-1-3.34-1.38-5.44-0.85c-2.74,0.68-5.13,3.48-4.58,5.48c0.61,2.23,4.85,3.34,7.88,2.18
				c0.06-0.02,0.11-0.04,0.16-0.07c0.39-0.16,0.76-0.36,1.09-0.6c1.23-0.88,2.07-2.23,2.3-3.75l2.39-15.52
				c0.01-0.03,0.05-0.04,0.07-0.02c0.18,0.26,0.37,0.51,0.57,0.75c0.33,0.37,0.66,0.73,1.04,1.05c0.37,0.32,0.77,0.61,1.19,0.86
				c0.41,0.25,0.8,0.45,1.16,0.64c0.18,0.1,0.34,0.2,0.5,0.3c0.16,0.1,0.31,0.21,0.45,0.33c0.07,0.06,0.14,0.12,0.2,0.19
				c0.06,0.07,0.13,0.13,0.19,0.21l0.09,0.11c0.03,0.04,0.06,0.08,0.09,0.11l0.17,0.23c0,0,0,0,0,0c0.21,0.32,0.39,0.67,0.53,1.05
				c0.13,0.38,0.24,0.77,0.3,1.18c0.06,0.41,0.1,0.83,0.1,1.25c0,0.09,0,0.17,0,0.26c0,0.26,0.37,0.3,0.42,0.05
				c0.02-0.09,0.03-0.18,0.05-0.27c0.08-0.44,0.12-0.88,0.13-1.34C359.82,133.01,359.78,132.55,359.71,132.09z"/>
			<path class="st814" d="M174.01,244.54c-0.23-0.4-0.52-0.79-0.84-1.14c0,0,0,0,0,0l-0.26-0.25c-0.06-0.06-0.16-0.15-0.22-0.2
				l-0.05-0.04c-0.09-0.08-0.19-0.15-0.29-0.22c-0.1-0.07-0.21-0.14-0.31-0.2c-0.21-0.13-0.44-0.24-0.66-0.34
				c-0.22-0.1-0.45-0.18-0.67-0.26c-0.44-0.15-0.84-0.28-1.21-0.42c-0.36-0.14-0.7-0.31-1.02-0.51c-0.32-0.19-0.62-0.42-0.91-0.66
				c-0.57-0.49-1.08-1.06-1.53-1.69c-0.45-0.63-0.84-1.31-1.19-2.02c-0.23-0.47-0.57-1.31-0.76-1.81c-0.03-0.07-0.06-0.12-0.11-0.17
				l-0.65-3.28c-0.01-0.03,0.03-0.06,0.06-0.04c0.26,0.18,0.52,0.35,0.8,0.51c0.43,0.24,0.87,0.46,1.34,0.63
				c0.46,0.17,0.94,0.31,1.41,0.4c0.47,0.09,0.91,0.14,1.31,0.21c0.2,0.03,0.39,0.07,0.57,0.11c0.18,0.04,0.36,0.1,0.53,0.16
				c0.09,0.03,0.17,0.07,0.26,0.11c0.08,0.04,0.17,0.08,0.25,0.13l0.12,0.07c0.04,0.02,0.08,0.05,0.12,0.08l0.24,0.16c0,0,0,0,0,0
				c0.31,0.23,0.6,0.5,0.86,0.8c0.25,0.31,0.49,0.64,0.69,1.01c0.2,0.36,0.38,0.74,0.52,1.14c0.03,0.08,0.06,0.16,0.09,0.24
				c0.08,0.24,0.45,0.16,0.41-0.1c-0.01-0.09-0.03-0.18-0.04-0.27c-0.08-0.44-0.19-0.87-0.33-1.3c-0.14-0.43-0.34-0.85-0.56-1.26
				c-0.23-0.4-0.52-0.79-0.85-1.14c0,0,0,0,0,0l-0.26-0.25c-0.06-0.06-0.16-0.15-0.22-0.2l-0.05-0.04
				c-0.09-0.08-0.19-0.15-0.29-0.22c-0.1-0.07-0.21-0.14-0.31-0.2c-0.21-0.13-0.44-0.24-0.66-0.34c-0.22-0.1-0.45-0.18-0.67-0.26
				c-0.44-0.15-0.84-0.28-1.21-0.42c-0.36-0.14-0.7-0.31-1.02-0.51c-0.32-0.19-0.62-0.42-0.91-0.66c-0.57-0.49-1.08-1.06-1.53-1.69
				c-0.45-0.63-0.84-1.31-1.19-2.02c-0.23-0.47-0.57-1.31-0.76-1.81c-0.09-0.24-0.34-0.37-0.59-0.32l-0.73,0.14
				c-0.28,0.06-0.47,0.33-0.41,0.61l2.06,10.44l3.98,20.15c0.01,0.03-0.02,0.05-0.05,0.04c-1.55-0.5-3.61-0.16-5.41,1.05
				c-2.34,1.57-3.63,5.02-2.44,6.71c1.34,1.89,5.69,1.48,8.15-0.63c0.04-0.04,0.09-0.08,0.13-0.12c0.31-0.28,0.59-0.6,0.82-0.94
				c0.86-1.24,1.18-2.8,0.88-4.31l-3.05-15.4c-0.01-0.03,0.03-0.06,0.06-0.04c0.26,0.18,0.52,0.35,0.8,0.51
				c0.43,0.24,0.87,0.46,1.34,0.63c0.46,0.17,0.94,0.31,1.41,0.4c0.47,0.09,0.91,0.14,1.31,0.21c0.2,0.03,0.39,0.07,0.57,0.11
				c0.18,0.04,0.36,0.1,0.53,0.16c0.09,0.03,0.17,0.07,0.26,0.11c0.08,0.04,0.17,0.08,0.25,0.13l0.12,0.07
				c0.04,0.02,0.08,0.05,0.12,0.08l0.24,0.16c0,0,0,0,0,0c0.31,0.23,0.6,0.5,0.86,0.8c0.25,0.31,0.49,0.64,0.69,1.01
				c0.2,0.36,0.38,0.74,0.52,1.14c0.03,0.08,0.06,0.16,0.09,0.24c0.08,0.24,0.45,0.16,0.41-0.1c-0.01-0.09-0.03-0.18-0.04-0.27
				c-0.08-0.44-0.19-0.87-0.33-1.3C174.43,245.37,174.24,244.95,174.01,244.54z"/>
			<path class="st814" d="M235.97,128.21c0.06,0.3-0.11,0.6-0.39,0.71l-12.67,5.06l-2.21,0.88l0,0l-5.33,2.13
				c-0.37,0.15-0.79-0.08-0.86-0.47l-0.22-1.14c-0.06-0.3,0.1-0.6,0.39-0.71l1.84-0.74l3.5-1.4l14.87-5.95
				c0.37-0.15,0.79,0.08,0.86,0.47L235.97,128.21z M233.94,117.75l-20.81,8.32l-1.25,0.5c-0.81,0.33-1.28,1.18-1.11,2.04l6.72,34.57
				c0.01,0.04-0.03,0.07-0.06,0.05c-1.97-0.64-4.6-0.22-6.9,1.32c-2.99,2-4.65,6.38-3.14,8.54c1.69,2.41,7.25,1.91,10.4-0.78
				c0.06-0.05,0.11-0.1,0.17-0.15c1.87-1.69,2.67-4.24,2.19-6.68l-4.25-21.86c-0.06-0.3,0.1-0.6,0.39-0.71l8.92-3.57l0.6-0.24
				l10.68-4.27c0.37-0.15,0.79,0.08,0.86,0.47l2.85,14.66c0.09,0.46-0.3,0.89-0.77,0.81c-1.83-0.28-4.03,0.22-6,1.53
				c-2.99,2-4.65,6.38-3.14,8.54c1.69,2.41,7.25,1.91,10.4-0.78c0.06-0.05,0.11-0.1,0.17-0.15c1.87-1.69,2.67-4.24,2.19-6.68
				l-6.64-34.15C236.19,117.97,235,117.32,233.94,117.75L233.94,117.75z"/>
			<path class="st814" d="M418.08,173.84c0.04,0.23-0.08,0.45-0.29,0.53l-9.49,3.79l-1.65,0.66l0,0l-4,1.6
				c-0.28,0.11-0.59-0.06-0.65-0.35l-0.17-0.86c-0.04-0.23,0.08-0.45,0.29-0.53l1.38-0.55l2.62-1.05l11.14-4.45
				c0.28-0.11,0.59,0.06,0.65,0.35L418.08,173.84z M416.55,166l-15.59,6.23l-0.94,0.37c-0.61,0.24-0.96,0.89-0.83,1.53l5.03,25.9
				c0.01,0.03-0.02,0.05-0.05,0.04c-1.48-0.48-3.45-0.16-5.17,0.99c-2.24,1.5-3.49,4.78-2.35,6.4c1.27,1.81,5.43,1.43,7.79-0.58
				c0.04-0.04,0.08-0.07,0.13-0.11c1.4-1.26,2-3.18,1.64-5.01l-3.18-16.38c-0.04-0.23,0.08-0.45,0.29-0.53l6.68-2.67l0.45-0.18
				l8-3.2c0.28-0.11,0.59,0.06,0.65,0.35l2.14,10.98c0.07,0.35-0.23,0.66-0.58,0.61c-1.37-0.21-3.02,0.16-4.5,1.15
				c-2.24,1.5-3.49,4.78-2.35,6.4c1.27,1.81,5.43,1.43,7.79-0.58c0.04-0.04,0.08-0.07,0.13-0.11c1.4-1.26,2-3.18,1.64-5.01
				l-4.97-25.58C418.24,166.17,417.35,165.68,416.55,166L416.55,166z"/>
			<path class="st814" d="M540.36,238.29c-0.06,0.18-0.25,0.29-0.43,0.26l-8.36-1.3l-1.46-0.23l0,0l-3.52-0.55
				c-0.25-0.04-0.4-0.29-0.31-0.52l0.24-0.68c0.06-0.18,0.25-0.29,0.43-0.26l1.21,0.19l2.31,0.36l9.82,1.52
				c0.25,0.04,0.4,0.29,0.31,0.52L540.36,238.29z M542.57,232.06l-13.74-2.13l-0.83-0.13c-0.54-0.08-1.06,0.23-1.24,0.74
				l-7.33,20.58c-0.01,0.02-0.04,0.03-0.05,0.01c-0.85-0.97-2.39-1.57-4.1-1.47c-2.23,0.12-4.5,1.94-4.37,3.57
				c0.14,1.82,3.27,3.31,5.8,2.87c0.05-0.01,0.09-0.02,0.14-0.03c1.53-0.31,2.76-1.42,3.28-2.88l4.63-13.02
				c0.06-0.18,0.25-0.29,0.43-0.26l5.89,0.91l0.4,0.06l7.05,1.09c0.25,0.04,0.4,0.29,0.31,0.52l-3.11,8.73
				c-0.1,0.28-0.44,0.38-0.67,0.19c-0.89-0.73-2.22-1.16-3.69-1.08c-2.23,0.12-4.5,1.94-4.37,3.57c0.14,1.82,3.27,3.31,5.8,2.87
				c0.05-0.01,0.09-0.02,0.14-0.03c1.53-0.31,2.76-1.42,3.28-2.88l7.24-20.33C543.71,232.88,543.28,232.16,542.57,232.06
				L542.57,232.06z"/>
		</g>
		<g>
			<g>
				<g>
					<g>
						<path class="st815" d="M525.54,387.54v45.34c0,3.06-2.48,5.54-5.54,5.54H223.19c-3.06,0-5.54-2.48-5.54-5.54v-45.34
							c0-3.06,2.48-5.54,5.54-5.54H520C523.06,381.99,525.54,384.48,525.54,387.54z"/>
						<rect x="276.49" y="381.99" class="st816" width="90.07" height="56.42"/>
					</g>
					<path class="st817" d="M525.54,426.81v6.06c0,3.06-2.48,5.54-5.54,5.54H223.19c-3.06,0-5.54-2.48-5.54-5.54v-45.34
						c0-3.06,2.48-5.54,5.54-5.54h10.65c25.66,30.78,116.43,51.97,223.94,49.55C481.39,431.01,504.15,429.38,525.54,426.81z"/>
				</g>
				<g>
					<g>
						<path class="st818" d="M456.16,342.4v34.06c0,3.06-2.48,5.54-5.54,5.54H194.18c-3.06,0-5.54-2.48-5.54-5.54V342.4
							c0-3.06,2.48-5.54,5.54-5.54h256.44C453.68,336.86,456.16,339.34,456.16,342.4z"/>
						<rect x="235.38" y="336.86" class="st819" width="5.44" height="45.14"/>
						<rect x="243.14" y="336.86" class="st820" width="26.1" height="45.14"/>
					</g>
					<path class="st817" d="M455.05,379.78c-1.02,1.35-2.62,2.21-4.43,2.21H194.18c-3.06,0-5.54-2.48-5.54-5.54V342.4
						c0-3.06,2.48-5.54,5.54-5.54h11.78c28.84,26.15,116.71,44.6,220.36,43.68C436.05,380.45,445.64,380.2,455.05,379.78z"/>
				</g>
				<g>
					<g>
						<path class="st821" d="M492.38,336.86H265.32c-8.52,0-15.43-6.91-15.43-15.43v-14.27c0-8.52,6.91-15.43,15.43-15.43h227.06
							c8.52,0,15.43,6.91,15.43,15.43v14.27C507.81,329.95,500.9,336.86,492.38,336.86z"/>
						<path class="st819" d="M485.81,314.29h-72.74c-3.84,0-6.95-3.11-6.95-6.95l0,0c0-3.84,3.11-6.95,6.95-6.95h72.74
							c3.84,0,6.95,3.11,6.95,6.95l0,0C492.76,311.18,489.65,314.29,485.81,314.29z"/>
						<path class="st819" d="M471.24,327.05h-43.59c-2.3,0-4.17-1.86-4.17-4.17l0,0c0-2.3,1.86-4.17,4.17-4.17h43.59
							c2.3,0,4.17,1.86,4.17,4.17l0,0C475.4,325.18,473.54,327.05,471.24,327.05z"/>
					</g>
					<path class="st822" d="M507.81,331.2v0.11c0,3.06-2.48,5.54-5.54,5.54H255.43c-3.06,0-5.54-2.48-5.54-5.54v-34.05
						c0-3.06,2.48-5.54,5.54-5.54h15.24c0.34,0.32,0.69,0.63,1.05,0.95c26.88,23.58,108.82,40.22,205.47,39.39
						c9.08-0.08,18.03-0.31,26.79-0.68C505.26,331.33,506.54,331.27,507.81,331.2z"/>
				</g>
				<g>
					<g>
						<path class="st823" d="M432.05,247.29v38.89c0,3.06-2.48,5.54-5.54,5.54H223.19c-3.06,0-5.54-2.48-5.54-5.54v-38.89
							c0-3.06,2.48-5.54,5.54-5.54h203.31C429.57,241.75,432.05,244.23,432.05,247.29z"/>
						<rect x="261.98" y="241.75" class="st819" width="7.25" height="49.97"/>
						<rect x="272.86" y="241.75" class="st819" width="7.25" height="49.97"/>
						<rect x="283.74" y="241.75" class="st819" width="7.25" height="49.97"/>
					</g>
					<path class="st817" d="M431.99,286.93c-0.37,2.71-2.69,4.79-5.49,4.79H223.19c-3.06,0-5.54-2.48-5.54-5.54v-38.89
						c0-3.06,2.48-5.54,5.54-5.54h11.33c0.78,1.07,1.65,2.12,2.64,3.16c0.54,0.56,1.1,1.13,1.7,1.67c0.34,0.32,0.69,0.63,1.05,0.95
						C265.54,270.02,341.23,286.19,431.99,286.93z"/>
				</g>
			</g>
			<g>
				<g>
					<g>
						<path class="st824" d="M384.14,395.38v3.91h-130.2c-1.08,0-1.95-0.87-1.95-1.95c0-0.54,0.22-1.03,0.57-1.38
							c0.35-0.35,0.84-0.57,1.38-0.57H384.14z"/>
						<path class="st825" d="M462.19,397.34c0,0.54-0.22,1.03-0.57,1.38s-0.84,0.57-1.38,0.57h-76.1v-3.91h76.1
							C461.32,395.38,462.19,396.26,462.19,397.34z"/>
					</g>
					
						<ellipse transform="matrix(0.1602 -0.9871 0.9871 0.1602 -67.4543 715.3909)" class="st824" cx="386.69" cy="397.34" rx="6.73" ry="6.73"/>
				</g>
				<g>
					<g>
						<rect x="350.95" y="415.29" class="st824" width="4.46" height="14.11"/>
						<rect x="358.76" y="415.29" class="st824" width="4.46" height="14.11"/>
					</g>
					<g>
						<g>
							<polygon class="st824" points="388.44,422.34 388.44,414.18 393.05,418.26 397.66,422.34 393.05,426.42 388.44,430.5 							
								"/>
							<polygon class="st826" points="401.1,422.42 401.1,415.3 405.13,418.86 409.16,422.42 405.13,425.99 401.1,429.55 							"/>
						</g>
					</g>
					<g>
						<g>
							<polygon class="st824" points="325.74,423.46 325.74,415.3 321.13,419.38 316.52,423.46 321.13,427.54 325.74,431.61 							
								"/>
							<polygon class="st826" points="313.08,423.54 313.08,416.41 309.05,419.98 305.02,423.54 309.05,427.1 313.08,430.66 							
								"/>
						</g>
					</g>
				</g>
			</g>
		</g>
	</g>
</g>
</svg>
