<?xml version="1.0" encoding="utf-8"?>
<!-- Generator: Adobe Illustrator 24.3.0, SVG Export Plug-In . SVG Version: 6.00 Build 0)  -->
<svg version="1.1" id="Layer_1" xmlns="http://www.w3.org/2000/svg" xmlns:xlink="http://www.w3.org/1999/xlink" x="0px" y="0px"
	 viewBox="0 0 700 600" style="enable-background:new 0 0 700 600;" xml:space="preserve">
<style type="text/css">
	.st0{fill:#E6E6E6;}
	.st1{opacity:0.2;}
	.st2{fill:#FFFFFF;}
	.st3{clip-path:url(#SVGID_2_);fill:#FFFFFF;}
	.st4{clip-path:url(#SVGID_2_);}
	.st5{opacity:0.8;}
	.st6{fill:#0A1E29;}
	.st7{fill:#E00022;}
	.st8{opacity:0.91;}
	.st9{fill:#0A1C2E;}
	.st10{fill:#787878;}
	.st11{clip-path:url(#SVGID_2_);fill:url(#SVGID_3_);}
	.st12{clip-path:url(#SVGID_2_);fill:url(#SVGID_4_);}
	.st13{clip-path:url(#SVGID_6_);fill:#FFFFFF;}
	.st14{clip-path:url(#SVGID_6_);}
	.st15{fill:#61A600;}
	.st16{clip-path:url(#SVGID_6_);fill:url(#SVGID_7_);}
	.st17{clip-path:url(#SVGID_6_);fill:url(#SVGID_8_);}
	.st18{clip-path:url(#SVGID_10_);fill:#FFFFFF;}
	.st19{clip-path:url(#SVGID_10_);}
	.st20{fill:#009EE0;}
	.st21{fill:#009ADB;}
	.st22{clip-path:url(#SVGID_10_);fill:url(#SVGID_11_);}
	.st23{clip-path:url(#SVGID_10_);fill:url(#SVGID_12_);}
	.st24{fill:#DDD5E1;}
	.st25{fill:#1B0043;}
	.st26{fill:#F4F5FB;}
	.st27{opacity:0.55;fill:#999999;}
	.st28{fill:#EAECF7;}
	.st29{fill:#7E7C79;}
	.st30{fill:#8F7C90;}
	.st31{fill:#B3A1BC;}
	.st32{fill:url(#SVGID_13_);}
	.st33{clip-path:url(#SVGID_15_);fill:url(#SVGID_16_);}
	.st34{fill:url(#SVGID_17_);}
	.st35{opacity:0.75;fill:#1B0043;}
	.st36{fill:url(#SVGID_18_);}
	.st37{opacity:0.55;fill:#F9D433;}
	.st38{opacity:0.5;fill:#FEC94E;}
	.st39{fill:#F9D433;}
	.st40{fill:url(#SVGID_19_);}
	.st41{fill:url(#SVGID_20_);}
	.st42{opacity:0.32;fill:url(#SVGID_21_);}
	.st43{opacity:0.12;fill:#285067;}
	.st44{fill:url(#SVGID_22_);}
	.st45{fill:url(#SVGID_23_);}
	.st46{fill:url(#SVGID_24_);}
	.st47{fill:#F3F3F3;}
	.st48{opacity:0.2;fill:#0B7199;}
	.st49{fill:#004566;}
	.st50{fill:#C2C1AD;}
	.st51{fill:#F2706E;}
	.st52{fill:#D84E4E;}
	.st53{fill:#0B7199;}
	.st54{opacity:0.3;fill:#F3F3F3;}
	.st55{fill:none;stroke:#F3F3F3;stroke-width:11.3861;stroke-miterlimit:10;}
	.st56{fill:#004564;}
	.st57{fill:none;stroke:#004566;stroke-width:2.0093;stroke-miterlimit:10;}
	.st58{fill:none;stroke:#0B7199;stroke-width:3;stroke-miterlimit:10;}
	.st59{fill:none;stroke:#0B7199;stroke-width:15;stroke-miterlimit:10;}
	.st60{fill:none;stroke:#D84E4E;stroke-width:24;stroke-linecap:round;stroke-linejoin:round;stroke-miterlimit:10;}
	.st61{fill:#FFC7AD;}
	.st62{fill:#2D2331;}
	.st63{fill:#3B2E41;}
	.st64{fill:#EBE9EB;}
	.st65{fill:#F7F7F7;}
	.st66{fill:#A26749;}
	.st67{fill:#F3A984;}
	.st68{enable-background:new    ;}
	.st69{fill:#3D3138;}
	.st70{fill:#62515C;}
	.st71{fill:#32272D;}
	.st72{clip-path:url(#SVGID_26_);enable-background:new    ;}
	.st73{fill:#8B91AD;}
	.st74{clip-path:url(#SVGID_28_);enable-background:new    ;}
	.st75{clip-path:url(#SVGID_30_);enable-background:new    ;}
	.st76{fill:#ADB2CC;}
	.st77{clip-path:url(#SVGID_32_);enable-background:new    ;}
	.st78{opacity:0.2;fill:#DDDEFA;}
	.st79{clip-path:url(#SVGID_34_);}
	.st80{fill:#CF2819;}
	.st81{fill:#DCD8D8;}
	.st82{fill:#F74E3E;}
	.st83{clip-path:url(#SVGID_36_);enable-background:new    ;}
	.st84{fill:#FFC400;}
	.st85{clip-path:url(#SVGID_38_);enable-background:new    ;}
	.st86{clip-path:url(#SVGID_40_);enable-background:new    ;}
	.st87{clip-path:url(#SVGID_42_);enable-background:new    ;}
	.st88{clip-path:url(#SVGID_44_);enable-background:new    ;}
	.st89{clip-path:url(#SVGID_46_);enable-background:new    ;}
	.st90{clip-path:url(#SVGID_48_);enable-background:new    ;}
	.st91{fill:#FFD438;}
	.st92{clip-path:url(#SVGID_50_);enable-background:new    ;}
	.st93{clip-path:url(#SVGID_52_);enable-background:new    ;}
	.st94{clip-path:url(#SVGID_54_);enable-background:new    ;}
	.st95{clip-path:url(#SVGID_56_);enable-background:new    ;}
	.st96{clip-path:url(#SVGID_58_);enable-background:new    ;}
	.st97{clip-path:url(#SVGID_60_);enable-background:new    ;}
	.st98{clip-path:url(#SVGID_62_);enable-background:new    ;}
	.st99{clip-path:url(#SVGID_64_);enable-background:new    ;}
	.st100{clip-path:url(#SVGID_66_);enable-background:new    ;}
	.st101{clip-path:url(#SVGID_68_);enable-background:new    ;}
	.st102{clip-path:url(#SVGID_70_);enable-background:new    ;}
	.st103{clip-path:url(#SVGID_72_);enable-background:new    ;}
	.st104{clip-path:url(#SVGID_74_);enable-background:new    ;}
	.st105{clip-path:url(#SVGID_76_);enable-background:new    ;}
	.st106{clip-path:url(#SVGID_78_);enable-background:new    ;}
	.st107{clip-path:url(#SVGID_80_);enable-background:new    ;}
	.st108{clip-path:url(#SVGID_82_);enable-background:new    ;}
	.st109{fill:#DFE8EF;}
	.st110{fill:#F9FBFC;}
	.st111{fill:#112B46;}
	.st112{fill:#BEE1F4;}
	.st113{fill:#AAD5E8;}
	.st114{fill:#47477A;}
	.st115{fill:#56548C;}
	.st116{fill:#EC827D;}
	.st117{fill:#FBD15B;}
	.st118{fill:#F4C34A;}
	.st119{fill:#FFDC83;}
	.st120{fill:#FFC8AF;}
	.st121{fill:#EFA689;}
	.st122{fill:#E5B641;}
	.st123{fill:#FFD3C2;}
	.st124{fill:#EEEEEE;}
	.st125{fill:#F1F2F2;}
	.st126{fill:#606BF1;}
	.st127{fill:#B1B2F3;}
	.st128{fill:#E6C004;}
	.st129{clip-path:url(#SVGID_84_);}
	.st130{fill:#E0B68C;}
	.st131{fill:#FBD1A3;}
	.st132{fill:#754C29;}
	.st133{fill:#363636;}
	.st134{fill:#5B5B5B;}
	.st135{fill:#E6E7E8;}
	.st136{fill:#00A79D;}
	.st137{fill:#029183;}
	.st138{fill:#414042;}
	.st139{fill:#FAB04E;}
	.st140{fill:#A7A9AC;}
	.st141{fill:#808285;}
	.st142{opacity:0.5;}
	.st143{fill:#DDDDDD;}
	.st144{fill:none;stroke:#A6A8AB;stroke-width:0.1872;stroke-miterlimit:10;}
	.st145{clip-path:url(#SVGID_86_);}
	.st146{fill:#555152;}
	.st147{fill:#565253;}
	.st148{fill:#575354;}
	.st149{fill:#585455;}
	.st150{fill:#595556;}
	.st151{fill:#5A5657;}
	.st152{fill:#5B5758;}
	.st153{fill:#5C5859;}
	.st154{fill:#5D595A;}
	.st155{fill:#5E5A5B;}
	.st156{fill:#5F5B5C;}
	.st157{fill:#605C5D;}
	.st158{fill:#615D5E;}
	.st159{fill:#625E5F;}
	.st160{fill:#636061;}
	.st161{fill:#646162;}
	.st162{fill:#656263;}
	.st163{fill:#666364;}
	.st164{fill:#676465;}
	.st165{fill:#686566;}
	.st166{fill:#696667;}
	.st167{fill:#6A6768;}
	.st168{fill:#6B6869;}
	.st169{fill:#6C696A;}
	.st170{fill:#6D6A6B;}
	.st171{fill:#6E6B6C;}
	.st172{fill:#6F6C6D;}
	.st173{fill:#706D6E;}
	.st174{fill:#716E6F;}
	.st175{clip-path:url(#SVGID_88_);}
	.st176{fill:#FAB14E;}
	.st177{fill:#FAB24E;}
	.st178{fill:#FAB34E;}
	.st179{fill:#FAB44E;}
	.st180{fill:#F9B44E;}
	.st181{fill:#F9B54E;}
	.st182{fill:#F9B64E;}
	.st183{fill:#F9B74E;}
	.st184{fill:#F9B84E;}
	.st185{fill:#F9B94E;}
	.st186{fill:#F9BA4E;}
	.st187{fill:#F9BB4E;}
	.st188{fill:#F8BC4E;}
	.st189{fill:#F8BD4E;}
	.st190{fill:#F8BE4E;}
	.st191{fill:#F8BF4E;}
	.st192{fill:#F8C04E;}
	.st193{fill:#F8C14E;}
	.st194{fill:#F8C24E;}
	.st195{fill:#F8C34E;}
	.st196{fill:#F7C44E;}
	.st197{fill:#F7C54E;}
	.st198{fill:#F7C64E;}
	.st199{fill:#F7C74E;}
	.st200{fill:#F7C84E;}
	.st201{fill:#F7C94E;}
	.st202{fill:#F7CA4E;}
	.st203{fill:#F7CB4E;}
	.st204{fill:#F6CC4E;}
	.st205{fill:#F6CD4E;}
	.st206{fill:#F6CF4E;}
	.st207{fill:#F6D04E;}
	.st208{fill:#F6D14E;}
	.st209{fill:#F6D24E;}
	.st210{fill:#F6D34E;}
	.st211{fill:#F5D54E;}
	.st212{fill:#F5D64E;}
	.st213{fill:#F5D74E;}
	.st214{fill:#F5D84D;}
	.st215{fill:#F5DA4D;}
	.st216{fill:#F5DB4D;}
	.st217{fill:#F4DC4D;}
	.st218{fill:#F4DE4D;}
	.st219{fill:#F4DF4D;}
	.st220{fill:#F4E04D;}
	.st221{fill:#F4E24D;}
	.st222{fill:#F4E34D;}
	.st223{fill:#F3E54D;}
	.st224{fill:#F3E64D;}
	.st225{fill:#F3E74D;}
	.st226{fill:#F3E94D;}
	.st227{fill:#F3EA4D;}
	.st228{fill:#F2EC4D;}
	.st229{fill:#F2ED4D;}
	.st230{fill:#F2EF4D;}
	.st231{fill:#F2F04D;}
	.st232{fill:#F2F24D;}
	.st233{fill:#F1F44D;}
	.st234{fill:#F1F54D;}
	.st235{fill:#F1F74D;}
	.st236{fill:#F1F84D;}
	.st237{fill:#F1FA4D;}
	.st238{fill:#F0FC4D;}
	.st239{fill:#F0FD4D;}
	.st240{fill:#F0FF4D;}
	.st241{clip-path:url(#SVGID_90_);}
	.st242{clip-path:url(#SVGID_92_);}
	.st243{clip-path:url(#SVGID_94_);}
	.st244{fill:#595657;}
	.st245{fill:#5A5758;}
	.st246{fill:#5B5859;}
	.st247{fill:#5C595A;}
	.st248{fill:#5D5A5B;}
	.st249{fill:#5E5B5C;}
	.st250{fill:#5F5C5D;}
	.st251{fill:#605D5E;}
	.st252{fill:#615E5F;}
	.st253{fill:#625F60;}
	.st254{fill:#626061;}
	.st255{fill:#636162;}
	.st256{fill:#646263;}
	.st257{fill:#656364;}
	.st258{fill:#666465;}
	.st259{fill:#676566;}
	.st260{fill:#686667;}
	.st261{fill:#696768;}
	.st262{fill:#6A6869;}
	.st263{fill:#6B696A;}
	.st264{fill:#6B6A6B;}
	.st265{fill:#6C6B6C;}
	.st266{fill:#6D6C6D;}
	.st267{fill:#6E6D6E;}
	.st268{fill:#6F6E6F;}
	.st269{fill:#706F70;}
	.st270{fill:#717071;}
	.st271{fill:#727172;}
	.st272{fill:#737273;}
	.st273{fill:#747375;}
	.st274{fill:#747376;}
	.st275{fill:#757477;}
	.st276{fill:#767578;}
	.st277{fill:#777679;}
	.st278{fill:#78777A;}
	.st279{fill:#79787B;}
	.st280{fill:#7A797C;}
	.st281{fill:#7B7A7D;}
	.st282{fill:#7C7B7E;}
	.st283{fill:#7C7C7F;}
	.st284{fill:#7D7D80;}
	.st285{fill:#7E7E81;}
	.st286{fill:#7F7F82;}
	.st287{fill:#808083;}
	.st288{fill:#818184;}
	.st289{fill:#828285;}
	.st290{fill:#838386;}
	.st291{fill:#848487;}
	.st292{fill:#858588;}
	.st293{fill:#858689;}
	.st294{fill:#86878A;}
	.st295{fill:#87888B;}
	.st296{fill:#88898C;}
	.st297{fill:#898A8D;}
	.st298{fill:#8A8B8E;}
	.st299{fill:#8B8C8F;}
	.st300{fill:#8C8D90;}
	.st301{fill:#8D8E91;}
	.st302{fill:#8E8F92;}
	.st303{fill:#8E9093;}
	.st304{fill:#8F9194;}
	.st305{fill:#909295;}
	.st306{fill:#919396;}
	.st307{fill:#929497;}
	.st308{clip-path:url(#SVGID_96_);}
	.st309{clip-path:url(#SVGID_98_);}
	.st310{fill:#404041;}
	.st311{opacity:0.6;}
	.st312{clip-path:url(#SVGID_100_);}
	.st313{fill:#F0FE4D;}
	.st314{fill:#F1FB4D;}
	.st315{fill:#F1F94D;}
	.st316{fill:#F1F64D;}
	.st317{fill:#F2F34D;}
	.st318{fill:#F2F14D;}
	.st319{fill:#F2EE4D;}
	.st320{fill:#F3EB4D;}
	.st321{fill:#F3E84D;}
	.st322{fill:#F3E44D;}
	.st323{fill:#F4E14D;}
	.st324{fill:#F4DD4D;}
	.st325{fill:#F5D94D;}
	.st326{fill:#F5D84E;}
	.st327{fill:#F5D44E;}
	.st328{fill:#F6CE4E;}
	.st329{clip-path:url(#SVGID_102_);}
	.st330{clip-path:url(#SVGID_104_);}
	.st331{fill:#BCBEC0;}
	.st332{fill:#E8FFFF;}
	.st333{fill:#CFF8F7;}
	.st334{opacity:0.3;}
	.st335{fill:#00B9CF;}
	.st336{fill:#0096A9;}
	.st337{clip-path:url(#SVGID_106_);}
	.st338{opacity:0.1;fill:#251477;}
	.st339{opacity:0.1;fill:#FFFFFF;}
	.st340{fill:#FFCAE0;}
	.st341{fill:#89EBF2;}
	.st342{fill:#FF0067;}
	.st343{opacity:0.1;}
	.st344{fill:#251477;}
	.st345{fill:#FF298D;}
	.st346{fill:#009FAD;}
	.st347{fill:#6ACE83;}
	.st348{fill:#7E3818;}
	.st349{fill:#D7F7F8;}
	.st350{fill:#312A52;}
	.st351{fill:none;stroke:#FFFFFF;stroke-width:5;stroke-miterlimit:10;}
	.st352{fill:#48C6C6;}
	.st353{fill:#3386A7;}
	.st354{fill:#55E6E6;}
	.st355{fill:#3E95AB;}
	.st356{fill:#53E6E6;}
	.st357{fill:#317FA0;}
	.st358{fill:#3895BD;}
	.st359{fill:#241F3C;}
	.st360{fill:#28799C;}
	.st361{fill:#5AF2F2;}
	.st362{fill:#2D6691;}
	.st363{fill:#80E1FA;}
	.st364{clip-path:url(#SVGID_108_);}
	.st365{fill:#1DBFBF;}
	.st366{fill:#52468A;}
	.st367{fill:#42D6D6;}
	.st368{fill:#4ED9D9;}
	.st369{fill:#71FCFC;}
	.st370{fill:#389999;}
	.st371{fill:#D5E9FF;}
	.st372{fill:#C2DEFC;}
	.st373{fill:#9DC8FF;}
	.st374{fill:#FFD7B4;}
	.st375{fill:#FFB549;}
	.st376{fill:#7197D5;}
	.st377{fill:#A7C8E6;}
	.st378{fill:#25669C;}
	.st379{fill:none;stroke:#FFB549;stroke-width:1.8014;stroke-linecap:round;stroke-linejoin:round;stroke-miterlimit:10;}
	.st380{fill:#FFE1C5;}
	.st381{opacity:0.5;fill:#FFFFFF;}
	.st382{fill:#0E537E;}
	.st383{fill:none;stroke:#9DC8FF;stroke-width:1.8014;stroke-linecap:round;stroke-linejoin:round;stroke-miterlimit:10;}
	.st384{fill:#F5F5F5;}
	.st385{fill:#E1E1E1;}
	.st386{fill:#2B454E;}
	.st387{fill:#375A64;}
	.st388{fill:#00DFBF;}
	.st389{fill:#ECECEC;}
	.st390{opacity:0.25;}
	.st391{opacity:0.5;fill:#00DFBF;}
	.st392{opacity:0.4;}
	.st393{opacity:0.45;}
	.st394{opacity:0.35;}
	.st395{opacity:0.3;fill:#FFFFFF;}
	.st396{opacity:0.15;}
	.st397{fill:#1A2E35;}
	.st398{fill:#FAFAFA;}
	.st399{opacity:0.55;}
	.st400{opacity:0.7;fill:#FFFFFF;}
	.st401{opacity:0.6;fill:#FFFFFF;}
	.st402{opacity:0.4;fill:#FFFFFF;}
	.st403{fill:#C76668;}
	.st404{fill:#FFAAA8;}
	.st405{fill:#FF9090;}
</style>
<rect x="-9" y="-2" class="st2" width="717" height="618"/>
<g>
	<g>
		<g>
			<path class="st332" d="M357.82,559.61H36.5c0,0-32.13-72.36,25.64-104.6c57.78-32.23,51.56-91.36,25.78-118.81
				C62.14,308.75,4.26,204.94,98.1,160.26s102.58-47.68,141.58-83.62c39-35.94,77.23-21.38,135.51,0
				c58.28,21.38,124.55-4.97,183,29.47c58.45,34.44,60.37,82.5,20.82,206.47c-39.55,123.96,93.91,125,93.39,247.02H357.82"/>
			<path class="st333" d="M357.12,559.61H64.52c0,0-29.26-67.26,23.35-97.22c52.61-29.96,46.96-84.92,23.48-110.43
				c-23.48-25.51-76.18-122.01,9.27-163.54s93.41-44.31,128.93-77.72c35.52-33.41,70.32-19.87,123.4,0
				c53.07,19.87,113.42-4.62,166.65,27.39s54.98,76.69,18.96,191.91c-36.02,115.22,85.52,116.19,85.05,229.61H357.12"/>
		</g>
		<g class="st334">
			<polygon class="st335" points="532.19,200.19 525.86,200.19 525.86,193.86 519.4,193.86 519.4,200.19 513.07,200.19 
				513.07,206.65 519.4,206.65 519.4,212.98 525.86,212.98 525.86,206.65 532.19,206.65 			"/>
			<polygon class="st335" points="515.18,127.25 505.53,127.25 505.53,117.6 495.67,117.6 495.67,127.25 486.02,127.25 
				486.02,137.11 495.67,137.11 495.67,146.76 505.53,146.76 505.53,137.11 515.18,137.11 			"/>
			<polygon class="st335" points="645.3,235.75 636.58,235.75 636.58,227.03 627.66,227.03 627.66,235.75 618.94,235.75 
				618.94,244.67 627.66,244.67 627.66,253.4 636.58,253.4 636.58,244.67 645.3,244.67 			"/>
			<polygon class="st335" points="532.19,46.72 525.86,46.72 525.86,40.39 519.4,40.39 519.4,46.72 513.07,46.72 513.07,53.18 
				519.4,53.18 519.4,59.51 525.86,59.51 525.86,53.18 532.19,53.18 			"/>
			<polygon class="st335" points="605.82,128.95 599.5,128.95 599.5,122.63 593.03,122.63 593.03,128.95 586.71,128.95 
				586.71,135.42 593.03,135.42 593.03,141.74 599.5,141.74 599.5,135.42 605.82,135.42 			"/>
			<g>
				<polygon class="st335" points="167.81,200.19 174.14,200.19 174.14,193.86 180.6,193.86 180.6,200.19 186.93,200.19 
					186.93,206.65 180.6,206.65 180.6,212.98 174.14,212.98 174.14,206.65 167.81,206.65 				"/>
				<polygon class="st335" points="184.82,127.25 194.47,127.25 194.47,117.6 204.33,117.6 204.33,127.25 213.98,127.25 
					213.98,137.11 204.33,137.11 204.33,146.76 194.47,146.76 194.47,137.11 184.82,137.11 				"/>
				<polygon class="st335" points="54.7,235.75 63.42,235.75 63.42,227.03 72.34,227.03 72.34,235.75 81.06,235.75 81.06,244.67 
					72.34,244.67 72.34,253.4 63.42,253.4 63.42,244.67 54.7,244.67 				"/>
				<polygon class="st335" points="167.81,46.72 174.14,46.72 174.14,40.39 180.6,40.39 180.6,46.72 186.93,46.72 186.93,53.18 
					180.6,53.18 180.6,59.51 174.14,59.51 174.14,53.18 167.81,53.18 				"/>
				<polygon class="st335" points="94.18,128.95 100.5,128.95 100.5,122.63 106.97,122.63 106.97,128.95 113.29,128.95 
					113.29,135.42 106.97,135.42 106.97,141.74 100.5,141.74 100.5,135.42 94.18,135.42 				"/>
			</g>
		</g>
	</g>
	<g>
		<g>
			<path class="st336" d="M230.25,276.63c-9.2-0.33-18.26-1.98-26.94-4.81c0.68-2.07,1.81-6.22,1.36-10.13
				c-0.63-5.48-3.01-8.61-6.24-8.08c-3.14,0.91-3.95,4.76-2.17,9.98c1,2.93,2.95,5.59,4.47,7.35c-4.27-1.52-8.45-3.34-12.49-5.43
				c0.89-1.73,2.87-6.03,2.97-10.3c0.13-5.52-1.8-8.95-5.07-8.87c-3.24,0.46-4.57,4.17-3.53,9.58c0.67,3.49,2.63,6.78,3.94,8.69
				c-1.6-0.87-3.18-1.77-4.74-2.72c-2.81-1.72-5.54-3.58-8.19-5.55c1.07-1.59,3.56-5.66,4.17-9.92c0.77-5.46-0.75-9.1-4-9.4
				c-3.27,0.08-5.03,3.61-4.62,9.11c0.26,3.5,1.79,6.95,2.86,9.01c-3.36-2.59-6.57-5.36-9.61-8.32c1.12-1.5,3.85-5.5,4.65-9.77
				c1.02-5.42-0.34-9.12-3.58-9.57c-3.27-0.06-5.18,3.38-5.02,8.89c0.1,3.32,1.33,6.65,2.29,8.78c-1.5-1.52-2.96-3.08-4.36-4.69
				c-0.58-0.67-1.19-1.39-1.79-2.11c-0.21-2.01-0.89-6.58-3.07-10.14c-2.88-4.71-6.36-6.55-9.06-4.71
				c-2.47,2.14-1.59,5.98,2.23,9.97c2.78,2.91,6.82,4.72,8.8,5.49c3.1,3.93,6.7,7.53,10.35,10.87c-2.23-0.72-5.72-1.57-9.06-1.28
				c-5.5,0.48-8.69,2.78-8.25,6.02c0.82,3.17,4.65,4.08,9.92,2.44c4.07-1.27,7.65-4.33,9.08-5.67c3.87,3.42,7.98,6.57,12.28,9.42
				c-2.19-0.37-6.36-0.84-10.07,0.14c-5.33,1.41-8.09,4.22-7.1,7.34c1.35,2.98,5.28,3.23,10.19,0.71c4.03-2.06,7.18-6.04,8.18-7.41
				c4.21,2.71,8.6,5.13,13.15,7.23c-1.46-0.32-6.66-1.27-11.2-0.07c-5.33,1.41-8.09,4.22-7.1,7.34c1.35,2.98,5.28,3.23,10.19,0.71
				c4.58-2.35,8.02-7.17,8.47-7.81c2.47,1.12,4.98,2.15,7.54,3.08c0.82,0.3,1.65,0.56,2.47,0.84c0.18,0.17,0.29,0.27,0.29,0.27
				s0.03-0.06,0.06-0.16c1.9,0.62,3.83,1.18,5.76,1.69c-2.24,0.12-5.09,0.51-7.6,1.6c-5.06,2.19-7.37,5.38-5.93,8.32
				c1.78,2.75,5.7,2.4,10.18-0.82c3.47-2.49,5.91-6.55,6.83-8.26c5.93,1.31,11.98,2.09,18.06,2.31
				C230.99,277.86,231.03,276.65,230.25,276.63z"/>
			<path class="st336" d="M278.16,297.58c-10.56-5.98-20.16-13.41-28.59-22c2.05-2,5.89-6.18,7.75-11.03
				c2.6-6.8,1.71-11.91-2.39-13.25c-4.23-0.85-7.52,3.16-8.61,10.36c-0.61,4.04,0.06,8.33,0.76,11.32
				c-4.07-4.38-7.86-9.04-11.32-13.94c2.09-1.48,7.02-5.31,9.74-10.25c3.51-6.37,3.34-11.56-0.54-13.46
				c-4.07-1.43-7.88,2.1-9.95,9.07c-1.33,4.49-1.05,9.53-0.67,12.56c-1.35-1.99-2.65-4-3.89-6.06c-2.24-3.72-4.3-7.56-6.21-11.47
				c2.22-1.21,7.61-4.46,10.9-9.07c4.22-5.92,4.66-11.1,1.03-13.43c-3.88-1.89-8.07,1.17-10.94,7.85
				c-1.82,4.25-2.14,9.22-2.13,12.28c-2.36-5.07-4.43-10.27-6.18-15.57c2.22-1.08,7.84-4.09,11.38-8.61
				c4.49-5.73,5.15-10.87,1.63-13.37c-3.79-2.06-8.12,0.8-11.28,7.35c-1.9,3.94-2.49,8.58-2.65,11.67c-0.83-2.69-1.6-5.4-2.26-8.14
				c-0.27-1.13-0.55-2.35-0.81-3.56c0.98-2.48,2.95-8.24,2.57-13.74c-0.5-7.26-3.46-11.53-7.74-11.02
				c-4.19,1.01-5.49,6.03-3.45,13.02c1.49,5.1,5.11,9.67,6.96,11.77c1.23,6.48,3.26,12.88,5.5,19.02c-2.17-2.19-5.73-5.32-9.82-7.01
				c-6.72-2.78-11.86-2.03-13.31,2.03c-0.97,4.2,2.96,7.6,10.12,8.88c5.53,0.99,11.58-0.42,14.07-1.11
				c2.45,6.35,5.34,12.54,8.64,18.49c-2.34-1.77-6.92-4.85-11.87-5.95c-7.1-1.59-12.03,0.02-12.77,4.27
				c-0.23,4.31,4.21,6.99,11.49,7.03c5.96,0.03,12.07-2.7,14.07-3.69c3.28,5.73,6.95,11.24,11,16.45
				c-1.52-1.26-7.02-5.54-13.05-6.89c-7.1-1.59-12.03,0.02-12.77,4.27c-0.23,4.31,4.21,6.99,11.49,7.03
				c6.78,0.04,13.74-3.51,14.66-3.99c2.21,2.82,4.52,5.55,6.95,8.18c0.78,0.84,1.58,1.66,2.38,2.48c0.1,0.31,0.17,0.5,0.17,0.5
				s0.07-0.06,0.17-0.15c1.85,1.89,3.76,3.71,5.72,5.48c-2.69-1.22-6.26-2.49-9.87-2.75c-7.26-0.52-11.9,1.82-11.99,6.13
				c0.41,4.29,5.21,6.28,12.41,5.24c5.58-0.81,10.9-4.08,13.02-5.51c6.14,5.14,12.74,9.73,19.73,13.68
				C278.27,299.47,279.05,298.08,278.16,297.58z"/>
		</g>
		<path class="st336" d="M477.7,518.36c8.83,2.76,17.96,4.23,27.12,4.45c0.04-2.19,0.37-6.5,2.1-10.05
			c2.43-4.98,5.73-7.15,8.62-5.57c2.68,1.91,2.16,5.83-1.28,10.18c-1.93,2.44-4.66,4.31-6.69,5.47c4.56-0.01,9.12-0.34,13.65-0.97
			c-0.26-1.94-0.7-6.67,0.63-10.75c1.72-5.27,4.69-7.88,7.76-6.71c2.91,1.52,2.94,5.48,0.14,10.26c-1.8,3.08-4.76,5.55-6.64,6.92
			c1.81-0.29,3.61-0.61,5.4-0.99c3.24-0.69,6.44-1.54,9.61-2.52c-0.48-1.87-1.48-6.55-0.63-10.79c1.09-5.43,3.75-8.37,6.93-7.56
			c3.07,1.17,3.55,5.1,1.33,10.17c-1.42,3.23-4.01,5.99-5.72,7.58c4.05-1.33,8.02-2.88,11.88-4.67c-0.56-1.8-1.81-6.49-1.14-10.81
			c0.85-5.48,3.37-8.53,6.59-7.87c3.12,1.03,3.78,4.93,1.78,10.1c-1.2,3.11-3.48,5.85-5.11,7.55c1.93-0.94,3.84-1.93,5.7-2.98
			c0.77-0.44,1.59-0.92,2.4-1.41c0.87-1.83,3.05-5.93,6.3-8.58c4.3-3.5,8.21-4.08,10.16-1.43c1.62,2.86-0.5,6.2-5.44,8.7
			c-3.61,1.83-8.04,2.19-10.17,2.26c-4.25,2.69-8.86,4.89-13.44,6.84c2.35,0.07,5.94,0.42,9.01,1.82c5.05,2.29,7.31,5.54,5.8,8.46
			c-1.84,2.73-5.77,2.31-10.21-1c-3.43-2.56-5.8-6.66-6.71-8.41c-4.81,1.94-9.75,3.56-14.78,4.83c2.2,0.38,6.3,1.33,9.49,3.5
			c4.58,3.12,6.25,6.7,4.27,9.33c-2.27,2.37-6.08,1.29-9.89-2.73c-3.12-3.3-4.78-8.12-5.27-9.75c-4.89,1.16-9.87,1.99-14.88,2.45
			c1.49,0.19,6.74,1.02,10.63,3.67c4.58,3.12,6.25,6.7,4.27,9.33c-2.27,2.37-6.08,1.29-9.89-2.73c-3.55-3.75-5.21-9.47-5.41-10.23
			c-2.72,0.24-5.44,0.37-8.17,0.4c-0.87,0.01-1.75-0.02-2.62-0.03c-0.23,0.1-0.37,0.16-0.37,0.16s0-0.07-0.01-0.17
			c-2.01-0.05-4.02-0.16-6.02-0.33c2.08,0.86,4.65,2.19,6.67,4.06c4.06,3.77,5.18,7.56,2.84,9.86c-2.6,2.01-6.2,0.37-9.37-4.17
			c-2.45-3.52-3.41-8.18-3.71-10.11c-6.06-0.74-12.05-2.02-17.88-3.85C476.59,519.28,476.95,518.13,477.7,518.36z"/>
	</g>
	<g>
		<g>
			
				<ellipse transform="matrix(0.1909 -0.9816 0.9816 0.1909 -213.9367 571.7983)" class="st335" cx="239.89" cy="415.68" rx="143.66" ry="143.66"/>
			<g>
				<g>
					<defs>
						
							<ellipse id="SVGID_105_" transform="matrix(0.1909 -0.9816 0.9816 0.1909 -213.9367 571.7983)" cx="239.89" cy="415.68" rx="143.66" ry="143.66"/>
					</defs>
					<clipPath id="SVGID_2_">
						<use xlink:href="#SVGID_105_"  style="overflow:visible;"/>
					</clipPath>
					<g class="st4">
						<path class="st336" d="M132.92,491.21c0,0,1.22,5.53-1.11,8.53c-2.34,3-6.49,7.57-5.05,14.16
							c1.44,6.59,6.39,18.27,10.35,20.79c3.96,2.52,9.03,3.79,8.47,10.49c-0.56,6.69-3.66,22.04-4.03,27.25
							c-0.37,5.2-5.06,27.94-3.58,37.84c1.48,9.89,8.65,13.37,10.93,12.91c2.28-0.47-2.39-13.03,0-17.18
							c2.4-4.14,4.82-5.69,6.77-12.22c1.95-6.54,5.52-9,9.21-9.95c3.69-0.94,2.71-6.12,6.77-10.02c4.06-3.89,9.74-10.24,10.3-14.52
							c0.56-4.28,1.55-9.41,7.09-9c5.54,0.41,8.96-3.54,9.81-11.04c0.86-7.51,2.01-11.29,3.92-13.99c1.9-2.69,3.51-7.11-1.15-10.96
							c-4.66-3.85-10.38-1.34-14.23-4.87c-3.85-3.53-8.08-3.9-9.86-4.03c-1.77-0.12,0.71-10.64-5.27-12.29
							c-5.98-1.66-7.97-2.25-10.23-5.15c-2.26-2.9-10.4-5.51-15.02-4.33c-4.62,1.18-7.44,2.66-11.24,2.77
							c-3.8,0.11-4.53-1.19-8.26-1.24c-3.73-0.06-6.68-2-6.17-5.75c0.52-3.75-2.58-5.14-6.51-7.01c-3.92-1.88-2.37-5.62-6.31-4.63
							c-3.93,0.98-9.55-5.24-9.22-8.99c0.32-3.75,0.28-15.99,7.22-14.15c6.94,1.84,14.63,3.99,18.83,7.14
							c4.2,3.15-0.59-8.92,1.98-11.46c2.57-2.53,10.62-3.95,10.87-7.9c0.25-3.95,2.86-13.3,8.8-17.18
							c5.94-3.88,12.06-3.89,14.75-6.49c2.7-2.6,9.11-13.38,7.34-17.32c-1.78-3.94-7.54-12.08-10.28-15.98
							c-2.75-3.9-7.06-0.6-10.8-1.24c-3.74-0.64-3.29-7.39-6.68-7.96c-3.39-0.58-8.76,1.68-8.61,5.74
							c0.15,4.05,3.33,10.79,0.46,13.04c-2.87,2.25-4.59,5.39-9.07,1.11c-4.48-4.27-13.2-6.44-15.77-10.69
							c-2.57-4.25-3.5-8.74,3.2-13.39c6.7-4.65,14.88-10.35,14.91-13.34c0.03-2.99-3.75-7.51-6.31-7.02
							c-2.56,0.48-1.82,5.33-5.01,4.98c-3.19-0.35-6.16-10.34-9.35-11.84c-3.19-1.5-0.72,10.81-4.89,11.84
							c-4.17,1.03-8.4,1.54-14.84,0c-6.44-1.54-8.06-0.83-12.56,0c-4.49,0.83-5.31-0.4-10.2-2.45c-4.89-2.05-6.6-3.1-16.35-2.28
							c-9.75,0.82-14.69,2.74-19.84,0c-5.15-2.74-14.92,0.81-21.9,0.51c-6.98-0.3-15.99,4.26-16,10.11
							c-0.02,12.51,22.82,16.16,30.63,17.74c7.81,1.58,17.25,8.18,19.78,15.6c2.54,7.41,11.43,9.19,12.97,17.68
							c1.54,8.49,2.39,22.71,4.79,27.06c2.39,4.34,18.13,14.22,21.21,21.33c3.08,7.11,9.78,13.79,14.64,17.95
							c4.86,4.17,16.32,5.61,20.48,8.51C117.87,481.33,123.95,493.53,132.92,491.21z"/>
						<path class="st336" d="M57.89,322.2c-3.61,1.19-5.96,4.78-5.55,8.82c0.42,4.04,3.84,5.19,6.92,4.71
							c3.08-0.47,8.67,0.78,10.27,4.35c1.6,3.57,8.64,2.2,14.07,1.65c5.43-0.55,10.59-2.11,7.35-4.71c-3.24-2.6-2.89-6.42-4.97-8.48
							c-2.08-2.06-3.98,0.03-8.08,0.52c-4.09,0.48-10.03-1.99-13.3-3.82C61.31,323.41,61.5,321,57.89,322.2z"/>
						<path class="st336" d="M63.48,311.06c-4.05,1.09-9.18,4.72-7.81,6.16c1.37,1.45,7.44,2.66,10.6-1.5
							c3.15-4.16,5.46-7.43,3.26-6.3C67.32,310.56,63.48,311.06,63.48,311.06z"/>
						<path class="st336" d="M70.39,316.48c-1.57,0.91-4.29,4.74-0.87,6.23c3.42,1.49,10.99,1.56,13.68-0.83
							c2.69-2.39,0.86-6.54-1.2-7.84C79.96,312.74,71.96,315.57,70.39,316.48z"/>
						<path class="st336" d="M157.07,287.23c-5.72-1.78-9.04-3.17-17.59-2.19c-8.55,0.98-18.28,5.53-24.17,6.17
							c-5.89,0.64-11.81,3.36-13.58,7.31c-1.77,3.95,9.66,7.63,12.09,10.68c2.43,3.05,11.46,6.1,16.68,3.73
							c5.22-2.37,7.37-9.64,12.24-12.56C147.61,297.44,159,287.83,157.07,287.23z"/>
						<path class="st336" d="M97.75,302.59c-3.82-1.14-7.53,0.2-9.21,1.27c-1.68,1.06-0.41,5.62-0.49,8.22
							c-0.08,2.61-1.06,7.69,1.37,11.86c2.42,4.17,1.87,10.13,7.1,10.25c5.23,0.13,9.5-3.74,13.24-6.08
							c3.74-2.33,16.06-1.98,18.46-6c2.39-4.03-1.51-3.48-7.95-3.86c-6.43-0.37-10.07-3.99-14.09-7.91
							C102.15,306.42,100.13,303.3,97.75,302.59z"/>
						<path class="st336" d="M119.81,327.76c-6.7,0.97-7.26,5.36-6.19,9.09c1.06,3.73,9.42-2.16,12.06,0
							c2.64,2.16,7.81,7.42,5.59,11.7c-2.22,4.28,2.68,7.79,8.95,8.6c6.27,0.81,12.1,4.08,15.14,0.07
							c3.05-4.01,4.13-8.41-1.85-11.83c-5.99-3.42-6.36-8.51-10.02-11.2c-3.66-2.68-8.39-8.57-12.62-8.31
							C126.64,326.13,119.81,327.76,119.81,327.76z"/>
						<path class="st336" d="M172.51,288.86c-4.95,1.7-16.78,7.43-18.16,10.97c-1.39,3.54-7.52,4.49-8.37,8.32
							c-0.84,3.83,4.96,4.28,12.66,6.22c7.7,1.93,10.51,5.05,11.21,11.51c0.7,6.45,11.12,7.9,8.59,15.26
							c-2.53,7.36-4.16,11.59-1.24,17.54c2.92,5.94,10.95,13.28,13.21,12.51c2.26-0.77,5.97-16.98,12.01-20.31
							c6.04-3.34,22.98-9.16,23.77-11.22c0.79-2.06,3.98-24.82,3.36-29.02c-0.62-4.2,10.14-10.83,10.49-15.71
							c0.36-4.88-11.32-2.07-16.77-3.08c-5.45-1.01-9.9-6.25-17.89-6.79C197.4,284.5,177.75,287.06,172.51,288.86z"/>
						<path class="st336" d="M261.19,414.5c0,0-9.86-1.38-11.02,0c-1.18,1.38-0.68,7.34-1.37,9.27c-0.68,1.93-0.6,5.63,0.77,5.9
							c1.37,0.27,3.71,2.57,4.72,2.11c1.01-0.46,4.6-2.35,6.66-2.88c2.05-0.53,2.14-3.54,3.68-6.04c1.54-2.5,1.53-6.96,7.05-8.62
							c5.52-1.67,9.1-0.48,10.38,0.98c1.28,1.46,7.9,4.51,7.9,7.93c-0.01,3.42,4.38-1.03,4.07-2.2c-0.31-1.17-5.71-5.83-7.38-7.36
							c-1.67-1.54-2.17-4.67-0.71-5.17c1.45-0.49,6.24,6.24,7.44,6.8c1.21,0.56,3.34,2.71,3.08,4.5c-0.27,1.79,2.88,9.7,4.19,9.96
							c1.31,0.25,3.76-1.49,3.22-3.06c-0.55-1.57-2.89-4.2-1.24-5.36c1.65-1.16,5.98-0.23,7.94-1.55c1.97-1.32-1.02-3.03,0.69-6.28
							c1.71-3.25,2.82-8.13,5-7.46c2.18,0.67,2.18,6.99,3.72,6.69c1.54-0.3,6.28-2.53,9.76,1.34c3.49,3.87,2.47,5.25-1.13,5.71
							c-3.59,0.46-10.43-0.82-12.14,0.66c-1.71,1.48-8.08,2.42-8.12,4.09c-0.04,1.67,1.62,6.47,3.77,6.01
							c2.15-0.46,10.84-1.66,11.65-1.14c0.82,0.52-2.22,11.8-4.51,12.28c-2.29,0.48-4.17,0.6-6.31,1.03
							c-2.14,0.44-7.53-0.55-9.84-2.33c-2.31-1.77-5.9,0.17-9.71,1.67c-3.81,1.49-8.51-1.97-10.22-3.44c-1.71-1.48,0.26-4.98,0-6.54
							c-0.25-1.56-6.67-3.59-9.23-2.33c-2.57,1.26-10.22,2.84-12.68,3.48c-2.46,0.64-5.88-0.68-6.39-0.46
							c-0.51,0.22-1.47,4.21-3.85,5.15c-2.38,0.94-2.39,4.44-3.77,8.1c-1.37,3.65-7.78,8.89-8.73,16.59
							c-0.94,7.7,0,15.31,3.42,21.43c3.42,6.12,8.21,8.69,14.2,8.49c5.99-0.2,16.85-2.35,20.18,0.01c3.34,2.36,3.68,7.7,2.74,11.74
							c-0.94,4.05,1.03,7.21,4.71,13.83c3.68,6.61,5.47,9.78,3.25,14.81c-2.22,5.04-2.48,7.97-0.34,13.42
							c2.14,5.44,1.62,7.61,1.97,12.65c0.34,5.04,3.25,16.98,6.93,17.57c3.68,0.6,10.95-3.36,13.85-7.6
							c2.91-4.24,7.27-12.93,10.52-15.6c3.25-2.66,1.65-9.59,3.4-11.81c1.75-2.22,7.68-6.06,7.27-12.08
							c-0.41-6.02-2.55-13.92,0.02-19.16c2.56-5.23,13.06-13.64,14.4-17.68c1.34-4.04,4.08-9.37,1.6-9.18
							c-2.48,0.2-4.45,1.45-9.15,0.97c-4.71-0.48-7.45-10.22-8.9-12.07c-1.45-1.84-6.79-11.45-6.75-14.19
							c0.04-2.74-3.85-10.86-1.88-10.96c1.97-0.1,6.96,9.97,8.57,13.03c1.61,3.06,4.84,9.55,6.09,13.41
							c1.25,3.87,3.13,5.35,4.98,4.98c1.85-0.37,17.69-8.97,19.87-11.87c2.19-2.9,3.31-7.93,0.97-9.15
							c-2.34-1.22-3.55-4.79-4.17-3.7c-0.62,1.09-2.7,3.45-4.41,3.37c-1.71-0.08-6.55-7.26-7.36-9.7c-0.81-2.44,1.37-4.43,2.31-4.33
							c0.94,0.1,3.8,7.66,7.56,7.6c3.75-0.06,4.13,1.58,6.79,3.06c2.67,1.48,13.82-1.53,15.04,1.85c1.22,3.39,4.7,9.01,7.04,8.14
							c2.34-0.88,1.85,3.31,3.58,8.46c1.73,5.15,4.89,17.05,6.34,17.47c1.45,0.42,5.72-6.39,5.81-10.15
							c0.09-3.75,0.06-6.19,3.41-8.97c3.35-2.78,7.5-8.28,10.37-9.6c2.86-1.33,6.95,5.12,7.1,8.5c0.15,3.37,3.75,2.37,4.61,5.82
							c0.86,3.46,3.17,15.07,4.71,18.59c1.55,3.52,7.1,4.55,5.39,1.66c-1.7-2.89-5.99-13.53-4.27-15.8
							c1.71-2.27,7.22,7.78,10.2,6.32c2.97-1.47,2.97-10.72,0.78-14.43c-2.2-3.72-0.8-9.67,2.02-10.64
							c2.82-0.98,13.17-2.17,15.74-5.72c2.57-3.55,7.74-10.47,6.28-14.45c-1.46-3.98-7.67-12.54-4.65-15.57
							c3.02-3.03,9.99-1.47,11.15,2.62c1.16,4.09,4.62,7.02,6.01,5.23c1.39-1.79-0.53-11.26,3.02-14.37
							c3.54-3.11,13.77-11.65,15.05-16c1.28-4.35,1.14-12.69-1.59-14.46c-2.73-1.77-4.32-3.81-3.12-5.49
							c1.2-1.68,6.93-11.06,14.97-10.07c8.04,0.99,9.92,2.58,13.43,1.34c3.51-1.24,3.85-7.26,8.64-7.07
							c4.79,0.2,10.32-4.85,10.81-2.87c0.48,1.98-4.15,5.57-6.94,8.65c-2.79,3.08-7.82,8.72-7.63,14.64
							c0.19,5.93,1.8,6.52,3.47,5.99c1.67-0.54,7.19-12.43,7.89-15.77c0.7-3.33,4.35-7.92,8.04-7.45
							c3.69,0.47,16.44-4.03,18.41-6.52c1.97-2.49-2.36-7.12,0.34-7.43c2.7-0.3,10.52,4.54,13.85,2.96c3.34-1.58-2.99-7.9-5.99-8.69
							c-2.99-0.79-15.05-5.92-17.36-4.94c-2.31,0.99-8.04-0.3-10.52-1.88c-2.48-1.58-10.09-3.65-15.05-3.06
							c-4.96,0.59-7.02-3.55-10.61-4.44c-3.59-0.89-14.62-3.85-18.86-1.97c-4.23,1.88-10.99,2.67-13.56,2.27
							c-2.57-0.4-6.07-4.25-8.3-6.42c-2.22-2.17-11.89-1.87-14.76-1.77c-2.86,0.09-9.96-1.59-13.81-0.35
							c-3.85,1.24-11.81,1.29-9.07,0c2.74-1.29,12.85-5.43,13-8.54c0.15-3.11-3.5-4.84-7.87-4.74c-4.36,0.1-10.03-2.8-12.42-0.55
							c-2.39,2.25-12.13,3.19-16.75,6.17c-4.62,2.99-3.08,5.6-6.75,6.5c-3.68,0.9-9.41,3.08-8.9,7.03c0.51,3.95-5.12,1.75-8.04,4.15
							c-2.93,2.4-0.35,8-3.34,10.57c-3,2.57-7.29,2.27-5.91,0.89c1.37-1.38,4.99-4.78,4.59-9.15c-0.4-4.38,1.49-10.18-2.27-10.83
							c-3.76-0.65-6.5,3.79-6.33,6.65c0.17,2.86,2.36,8.29,1.35,9.18c-1.01,0.89-3.75-3-9.82-4.37c-6.07-1.37-5.47,3.29-8.21,3.78
							c-2.74,0.5-9.41-0.1-14.11,2.87c-4.71,2.96-6.14,2.67-8.97,3.6c-2.83,0.94-5.33,4.76-8.19,5.64c-2.86,0.88-5.08,2.5-6.45-0.46
							c-1.37-2.96-6.21-7.44-3.98-6.72c2.24,0.72,12.69,2,13.34-0.08c0.65-2.08-10.12-7.63-11.84-8.59
							c-1.73-0.95-7.35-5.97-12.98-5.02c-5.64,0.95-15.38,5.56-18.21,9.98c-2.82,4.43-8.27,13.36-11.28,15.27
							c-3.01,1.91-5.82,6.09-5.17,9.79c0.64,3.7,3.51,6.26,5.05,5.44c1.54-0.82,4.21-4.97,4.84-3.78c0.63,1.19,1.66,5.93,2.69,8.2
							c1.02,2.27,2.11,2.38,4.23,0.95c2.12-1.43,3.09-7.58,2.95-10.65c-0.13-3.06-0.15-9.5,3.34-11.83
							c3.49-2.34,5.36-7.65,7.72-6.49c2.37,1.16-0.58,4.71-1.93,7.97c-1.35,3.26-2.52,9.03-0.61,9.11c1.91,0.08,9.95-1.86,10.21,0
							c0.26,1.86-8.61,1.88-8.25,5.51c0.35,3.63-2.5,4.72-4.31,6.65c-1.81,1.94-9.93,7.37-14.21,6.58
							c-4.28-0.79-10.39-0.4-13.13,3.01c-2.74,3.41-4.57,7.36-8.17,9.63C259.91,403.58,261.69,412.97,261.19,414.5z"/>
						<path class="st336" d="M256.32,398.16c3.33,1.21,9.75-4.35,9.92-6.81c0.17-2.47-3.83-5.15-4.61-7.71
							c-0.78-2.56-0.37-5.96-1.64-7.69c-1.26-1.73-7.12,0.1-7.02,2.12c0.1,2.02,1.14,3.81,2.76,6.52
							C257.35,387.29,254.7,397.57,256.32,398.16z"/>
						<path class="st336" d="M247.85,394.89c2.85,1.82,5.76-2.21,5.79-5.3c0.03-3.09,0.2-6.25-2.11-6.15
							C249.22,383.54,244.6,392.82,247.85,394.89z"/>
						<path class="st336" d="M422.85,496.9c0,0,8.47,15.48,12.13,17.46c3.66,1.98,5.33-1.77,3.66-5.22
							C436.96,505.68,422.93,495.02,422.85,496.9z"/>
						<path class="st336" d="M448.94,501.18c-2.07,2.94-2.24,9.44,0.33,10.53c2.58,1.09,6.21,5.25,8.22-1.36
							c2.01-6.61,3.85-16.34,1.43-17.04C456.5,492.6,450.44,499.04,448.94,501.18z"/>
						<path class="st336" d="M465.5,468.92c-3.17-0.45-3.72,6.36-1.39,10.88c2.33,4.53,1.54,9.22,3.44,12.02
							c1.91,2.8,5.61-0.86,3.78-4.17C469.51,484.34,467.14,469.16,465.5,468.92z"/>
						<path class="st336" d="M466.07,540.6c-1.68,3.21-6.54,4.11-11.15,6.91c-4.61,2.8-2.76,7.01-1.2,15.61
							c1.55,8.59-0.64,16.23,2.44,14.66c3.08-1.57,13.07-7.82,20.21-7.95c7.14-0.13,16.07,10.06,22.28,13.53
							c6.22,3.48,11.83,3.39,14.67-1.8c2.84-5.18,8.65-17.27,6.06-22.56c-2.59-5.29-10.79-11.67-12.35-17.36
							c-1.56-5.69-4.32-14.23-5.78-14.21c-1.46,0.03-0.82,12-4.26,11.28c-3.44-0.72-5.6-5.28-7.23-7.5
							c-1.62-2.22-8.94,2.02-12.58,3.35C473.57,535.89,469.69,533.67,466.07,540.6z"/>
						<path class="st336" d="M479.83,505.88c0.75,2.96,2.85,8.73,8.45,9.72c5.59,0.98,5.69,1.9,9.47,4.59
							c3.78,2.69,7.85,1.49,12.62,3.86c4.77,2.37,1.61-5.14-4.3-9.09c-5.9-3.95-13.31-6.6-16.43-7.38
							C486.53,506.79,479.83,505.88,479.83,505.88z"/>
					</g>
				</g>
			</g>
			<path class="st338" d="M279.44,277.53c12.55,21.33,19.76,46.19,19.76,72.73c0,79.34-64.32,143.66-143.66,143.66
				c-13.72,0-26.98-1.92-39.55-5.51c24.97,42.44,71.1,70.93,123.9,70.93c79.34,0,143.66-64.32,143.66-143.66
				C383.55,350.05,339.55,294.71,279.44,277.53z"/>
			<path class="st339" d="M96.94,401.42c28.07,3.36,65.29-10.11,97.38-37.92c32.23-27.93,50.87-63.03,51.39-91.36
				c-1.93-0.08-3.87-0.13-5.81-0.13C165.36,272.02,104.09,328.78,96.94,401.42z"/>
		</g>
		<g>
			<g>
				<path class="st340" d="M470.09,551.27c0,4.59-3.75,8.34-8.34,8.34h-221.9c-4.59,0-8.34-3.75-8.34-8.34V247.45
					c0-4.59,3.75-8.34,8.34-8.34h221.9c4.59,0,8.34,3.75,8.34,8.34V551.27z"/>
				<path class="st339" d="M239.86,239.11c-4.59,0-8.34,3.75-8.34,8.34v101.91c37.82-7.16,72.31-33.69,89.4-73.48
					c5.18-12.07,8.36-24.46,9.72-36.77H239.86z"/>
				<rect x="250.83" y="258.13" class="st2" width="199.95" height="282.46"/>
				<path class="st335" d="M415.33,250.95h-49.21c2.43-3.22,3.88-7.21,3.88-11.55c0-10.61-8.6-19.21-19.21-19.21
					c-10.61,0-19.21,8.6-19.21,19.21c0,4.34,1.46,8.33,3.88,11.55h-49.21c-3.67,0-6.67,3-6.67,6.67c0,3.67,3,6.67,6.67,6.67h129.06
					c3.67,0,6.67-3,6.67-6.67C422,253.95,419,250.95,415.33,250.95z M350.8,231.02c4.63,0,8.39,3.76,8.39,8.39
					c0,4.63-3.76,8.39-8.39,8.39c-4.63,0-8.39-3.76-8.39-8.39C342.42,234.78,346.17,231.02,350.8,231.02z"/>
			</g>
			<g>
				<g>
					
						<ellipse transform="matrix(0.1589 -0.9873 0.9873 0.1589 -21.6824 616.1824)" class="st341" cx="350.8" cy="320.82" rx="37.01" ry="37.01"/>
					<polygon class="st2" points="370.11,314.29 357.33,314.29 357.33,301.52 344.28,301.52 344.28,314.29 331.5,314.29 
						331.5,327.34 344.28,327.34 344.28,340.12 357.33,340.12 357.33,327.34 370.11,327.34 					"/>
				</g>
				<g>
					<g>
						<g>
							<g>
								<rect x="276.09" y="380.09" class="st341" width="149.43" height="3.79"/>
							</g>
							<g>
								<rect x="276.09" y="399.06" class="st341" width="149.43" height="3.79"/>
							</g>
						</g>
						<g>
							<g>
								<rect x="276.09" y="418.03" class="st341" width="149.43" height="3.79"/>
							</g>
							<g>
								<rect x="276.09" y="437" class="st341" width="149.43" height="3.79"/>
							</g>
						</g>
					</g>
					<g>
						<g>
							<g>
								<rect x="276.09" y="455.98" class="st341" width="149.43" height="3.79"/>
							</g>
							<g>
								<rect x="276.09" y="474.95" class="st341" width="149.43" height="3.79"/>
							</g>
						</g>
						<g>
							<g>
								<rect x="276.09" y="493.92" class="st341" width="149.43" height="3.79"/>
							</g>
							<g>
								<rect x="276.09" y="512.9" class="st341" width="149.43" height="3.79"/>
							</g>
						</g>
					</g>
				</g>
			</g>
			<path class="st338" d="M309.59,559.61h152.17c4.59,0,8.34-3.75,8.34-8.34V247.45c0-4.59-3.75-8.34-8.34-8.34h-14.63
				C457.98,439.23,364.84,526.01,309.59,559.61z"/>
		</g>
		<g>
			<g>
				<path class="st342" d="M553.4,468.01l-0.02,0c2.82-6.24,4.4-13.16,4.4-20.45c0-27.47-22.27-49.74-49.74-49.74
					c-19.33,0-36.06,11.03-44.3,27.13c-8.23-16.1-24.97-27.13-44.3-27.13c-27.47,0-49.74,22.27-49.74,49.74
					c0,7.29,1.58,14.21,4.4,20.45l-0.01,0c0,0,0.1,0.21,0.29,0.61c0.5,1.07,1.03,2.11,1.61,3.13c7.06,13.28,34.27,58.92,87.75,87.35
					c53.48-28.43,80.69-74.07,87.75-87.35c0.57-1.02,1.11-2.07,1.61-3.13C553.31,468.22,553.4,468.01,553.4,468.01z"/>
				<g class="st343">
					<path class="st344" d="M557.79,447.56c0-27.47-22.27-49.74-49.74-49.74c-4.41,0-8.68,0.58-12.75,1.66
						c21.29,5.63,36.99,25.02,36.99,48.08c0,7.29-1.58,14.21-4.4,20.45l0.01,0c0,0-0.1,0.21-0.29,0.61
						c-0.5,1.07-1.03,2.11-1.61,3.13c-6.48,12.18-29.91,51.58-75,79.96c4.07,2.56,8.32,5.04,12.75,7.39
						c53.48-28.43,80.69-74.07,87.75-87.35c0.57-1.02,1.11-2.07,1.61-3.13c0.19-0.4,0.29-0.61,0.29-0.61l-0.02,0
						C556.21,461.77,557.79,454.85,557.79,447.56z"/>
				</g>
				<path class="st345" d="M422.97,448.16c12.38-14.36,20.1-30.08,22.21-43.17c-7.5-4.55-16.3-7.17-25.72-7.17
					c-27.47,0-49.74,22.27-49.74,49.74c0,7.29,1.58,14.21,4.4,20.45l-0.01,0c0,0,0.1,0.21,0.29,0.61c0.5,1.07,1.03,2.11,1.61,3.13
					c0.82,1.54,1.92,3.53,3.29,5.87C392.86,474.68,409.18,464.16,422.97,448.16z"/>
			</g>
			<path class="st340" d="M562.99,464.65c-19.78,0-39.56,0-59.33,0c-5.3,0-10.74-1.51-14.25,2.87c-5.2,6.5-10.4,13-15.6,19.49
				c-7.17-22.19-14.34-44.38-21.52-66.57c-0.84-2.59-4.38-2.57-5.22,0c-5.08,15.45-10.15,30.91-15.22,46.37
				c-22.44,0-44.88,0-67.33,0c-3.49,0-3.49,5.41,0,5.41c23.09,0,46.19,0,69.28,0c1.25,0,2.23-0.83,2.61-1.99
				c4.41-13.45,8.83-26.9,13.25-40.34c6.83,21.15,13.67,42.29,20.5,63.44c0.56,1.75,3.17,2.89,4.52,1.19
				c5.79-7.24,11.58-14.48,17.38-21.72c0.73-0.91,1.46-1.83,2.2-2.74c0.02,0,0.04,0,0.06,0c3.85,0,7.7,0,11.54,0
				c19.04,0,38.08,0,57.12,0C566.48,470.06,566.48,464.65,562.99,464.65z"/>
		</g>
		<g>
			<path class="st346" d="M248.71,483.64c-0.97-4.16-0.63-7.46,0.01-10.55c0.69-3.06,1.92-5.77,3.52-8.22
				c1.62-2.45,3.63-4.64,6.17-6.48c2.6-1.8,5.5-3.4,9.72-4.13c0.98,4.17,0.65,7.47,0.01,10.56c-0.7,3.06-1.92,5.77-3.54,8.21
				c-1.63,2.44-3.64,4.63-6.19,6.46C255.82,481.3,252.91,482.9,248.71,483.64z"/>
			<g>
				<path class="st347" d="M286.32,484.4c-17.18-10.28-31.63,2.23-36.55,7.21c-4.92-4.98-19.51-17.72-36.55-7.21
					c-23.68,14.6-11.94,70.42,9.84,74.75c13.64,2.71,22.87-7.53,26.71-12.96c3.84,5.43,13.07,15.67,26.71,12.96
					C298.27,554.83,310.73,499.01,286.32,484.4z"/>
				<g>
					<path class="st348" d="M232.18,461.33c10.12,8.01,16.4,21.49,15.91,34.3c-0.08,2.17,3.29,2.16,3.37,0
						c0.37-9.51-2.63-18.79-7.96-26.62c-2.49-3.65-5.44-7.3-8.93-10.07C232.88,457.62,230.48,459.98,232.18,461.33L232.18,461.33z"
						/>
				</g>
				<path class="st342" d="M286.32,484.4c-17.18-10.28-31.63,2.23-36.55,7.21c-4.92-4.98-19.51-17.72-36.55-7.21
					c-23.68,14.6-11.94,70.42,9.84,74.75c13.64,2.71,22.87-7.53,26.71-12.96c3.84,5.43,13.07,15.67,26.71,12.96
					C298.27,554.83,310.73,499.01,286.32,484.4z"/>
				<path class="st338" d="M286.32,484.4c-3.99-2.39-7.83-3.53-11.44-3.84c-5.41,20.04-21.79,61.95-65.06,68.36
					c3.66,5.41,8.17,9.23,13.24,10.24c13.64,2.71,22.87-7.53,26.71-12.96c3.84,5.43,13.07,15.67,26.71,12.96
					C298.27,554.83,310.73,499.01,286.32,484.4z"/>
				<path class="st345" d="M221.08,499.05c5.74-5.74,9.72-12.15,11.59-17.93c-5.71-1.43-12.36-1.08-19.44,3.28
					c-8.41,5.18-12.33,15.57-12.94,27C206.75,510.08,214.37,505.76,221.08,499.05z"/>
			</g>
		</g>
		<g>
			<g>
				<path class="st341" d="M345.3,555.16c0,2.38-1.95,4.33-4.33,4.33h-48.34c-2.38,0-4.33-1.95-4.33-4.33v-65.82
					c0-2.38,1.95-4.33,4.33-4.33h48.34c2.38,0,4.33,1.95,4.33,4.33V555.16z"/>
				<g>
					<path class="st335" d="M334.4,482.33c0,1.47-1.2,2.68-2.68,2.68h-29.85c-1.47,0-2.68-1.2-2.68-2.68v-14.65
						c0-1.47,1.2-2.68,2.68-2.68h29.85c1.47,0,2.68,1.2,2.68,2.68V482.33z"/>
					<g>
						<path class="st346" d="M302.79,483.44h-0.87c-0.44,0-0.8-0.36-0.8-0.8v-15.23c0-0.44,0.36-0.8,0.8-0.8h0.87
							c0.44,0,0.8,0.36,0.8,0.8v15.23C303.59,483.08,303.23,483.44,302.79,483.44z"/>
						<path class="st346" d="M310.01,483.44h-0.87c-0.44,0-0.8-0.36-0.8-0.8v-15.23c0-0.44,0.36-0.8,0.8-0.8h0.87
							c0.44,0,0.8,0.36,0.8,0.8v15.23C310.81,483.08,310.45,483.44,310.01,483.44z"/>
						<path class="st346" d="M317.23,483.44h-0.87c-0.44,0-0.8-0.36-0.8-0.8v-15.23c0-0.44,0.36-0.8,0.8-0.8h0.87
							c0.44,0,0.8,0.36,0.8,0.8v15.23C318.03,483.08,317.67,483.44,317.23,483.44z"/>
						<path class="st346" d="M324.45,483.44h-0.87c-0.44,0-0.8-0.36-0.8-0.8v-15.23c0-0.44,0.36-0.8,0.8-0.8h0.87
							c0.44,0,0.8,0.36,0.8,0.8v15.23C325.25,483.08,324.89,483.44,324.45,483.44z"/>
						<path class="st346" d="M331.67,483.44h-0.87c-0.44,0-0.8-0.36-0.8-0.8v-15.23c0-0.44,0.36-0.8,0.8-0.8h0.87
							c0.44,0,0.8,0.36,0.8,0.8v15.23C332.47,483.08,332.11,483.44,331.67,483.44z"/>
					</g>
				</g>
				<g>
					<rect x="288.3" y="503.3" class="st335" width="42.83" height="35.43"/>
					<g>
						<rect x="293.32" y="511.05" class="st349" width="31.93" height="2.89"/>
						<rect x="293.32" y="519.72" class="st349" width="31.93" height="2.89"/>
						<rect x="293.32" y="528.38" class="st349" width="31.93" height="2.89"/>
					</g>
				</g>
			</g>
			<path class="st338" d="M340.97,485.01h-9.84c2.38,0,4.33,1.95,4.33,4.33v65.82c0,2.38-1.95,4.33-4.33,4.33h9.84
				c2.38,0,4.33-1.95,4.33-4.33v-65.82C345.3,486.96,343.35,485.01,340.97,485.01z"/>
			<path class="st339" d="M288.3,489.34v35.11c0.31,0.01,0.61,0.03,0.92,0.03c17.07,0,30.91-15.21,30.91-33.98
				c0-1.87-0.14-3.7-0.41-5.49h-27.09C290.25,485.01,288.3,486.96,288.3,489.34z"/>
		</g>
		<g>
			<g>
				<g>
					<path class="st335" d="M479.14,317.31c-0.01-0.04-0.02-0.1-0.04-0.16c0,0,0,0.01,0,0.01
						C479.12,317.21,479.13,317.26,479.14,317.31z"/>
					<path class="st335" d="M591.46,353.61c5.93-11.31,9.28-24.05,10.99-36.65c1.54-11.34,1.98-23.24-0.14-34.54
						c-0.84-4.46-2.04-8.86-4.29-12.82c-3-5.3-7.74-9.85-13.45-12.1c-7.4-2.91-16.68-2.41-23.85,1.1c-1.75,0.86-2.81,2.73-2.06,4.66
						c0.66,1.7,2.9,2.92,4.66,2.06c1.52-0.74,3.16-1.23,4.79-1.68c-0.09,0.03,0.74-0.18,0.91-0.21c0.43-0.09,0.85-0.16,1.28-0.23
						c1.02-0.16,2.04-0.28,3.07-0.33c0.5-0.03,0.99-0.04,1.49-0.04c0.1,0,0.21,0,0.31,0c0.11,0.01,0.54,0.03,0.61,0.03
						c1.18,0.1,2.35,0.25,3.51,0.51c1.64,0.37,4.29,1.46,5.77,2.47c2.42,1.65,4.13,3.46,5.78,5.83c0.39,0.57,0.74,1.16,1.12,1.74
						c0.04,0.06,0.06,0.09,0.08,0.12c0.03,0.06,0.06,0.14,0.12,0.26c0.38,0.79,0.74,1.58,1.06,2.4c0.33,0.85,0.62,1.72,0.88,2.59
						c0.14,0.46,0.27,0.93,0.39,1.4c0.05,0.19,0.1,0.38,0.15,0.58c0.03,0.14,0.11,0.48,0.13,0.54c2.2,10.39,2.13,20.81,0.99,31.13
						c-1.29,11.77-3.96,23.27-8.81,34.02c-2.57,5.7-5.42,10.59-9.59,15.33c-3.45,3.92-7.77,7.21-12.57,9.13
						c-4.2,1.57-9.18,2.19-13.56,1.88c-5.47-0.39-10.55-1.68-15.44-3.5c-11.06-4.13-20.91-10.47-29.99-17.98
						c-8.4-6.95-15.85-14.48-21.81-23.74c-0.58-0.9-1.13-1.81-1.67-2.74c-0.05-0.08-0.1-0.17-0.14-0.26
						c-0.06-0.11-0.23-0.42-0.27-0.5c-0.24-0.48-0.49-0.95-0.72-1.43c-0.78-1.62-1.44-3.29-1.96-5.01c-0.03-0.1-0.05-0.19-0.08-0.29
						c0.1,0.38-0.01,0.04-0.04-0.12c0-0.01,0-0.02,0-0.03c-0.02-0.08-0.04-0.16-0.07-0.24c0.03,0.09,0.05,0.17,0.06,0.23
						c-0.08-0.63-0.24-1.25-0.33-1.87c-0.21-1.46-0.33-3.22-0.27-4.48c0.15-2.85,0.63-4.81,1.77-7.22c0.83-1.75,2.57-4.13,3.99-5.52
						c1.08-1.06,3.32-2.75,5.06-3.79c0.14-0.09,0.29-0.17,0.43-0.25c0.07-0.04,0.1-0.06,0.15-0.09c0.02-0.01,0.02-0.01,0.05-0.02
						c0.36-0.17,0.71-0.37,1.08-0.55c0.63-0.31,1.27-0.59,1.92-0.86c0.61-0.25,1.23-0.49,1.86-0.67c1.87-0.54,2.72-2.96,2.06-4.66
						c-0.75-1.95-2.79-2.61-4.66-2.06c-6.3,1.83-12.55,6.31-16.26,11.67c-6.46,9.33-5.59,21.04-0.35,30.67
						c5.44,9.99,13.37,18.58,21.8,26.12c9.49,8.48,20.28,15.9,32.01,20.91c10.78,4.6,23.1,7.26,34.59,4.19
						c0.07,0.26,0.16,0.51,0.28,0.76c0.43,0.88,0.84,1.76,1.25,2.65c0.5,1.1,1,2.2,1.48,3.3c0.28,0.64,0.56,1.27,0.83,1.91
						c0.17,0.39,0.34,0.79,0.51,1.18c0.08,0.18,0.16,0.37,0.23,0.55c0.03,0.06,0.04,0.1,0.06,0.14c3.78,9,7.18,18.16,10.23,27.43
						c4.14,12.6,7.61,25.44,10.22,38.44c2.73,13.61,5,27.72,4.26,41.64c-0.54,10.3-2.96,20.61-7.96,29.49
						c-4.27,7.59-10.29,13.88-17.61,18.33c-3.81,2.31-7.11,3.79-11.13,5.09c-2.05,0.66-4.13,1.21-6.23,1.65
						c-1.06,0.22-2.12,0.42-3.19,0.58c-0.25,0.04-0.5,0.08-0.76,0.11c-0.05,0.01-0.08,0.01-0.11,0.02c-0.02,0-0.04,0-0.07,0.01
						c-0.57,0.07-1.14,0.14-1.72,0.19c-10.45,1.04-20.98-0.51-30.96-3.68c-9.58-3.05-18.5-7.82-26.53-13.86
						c-0.04-0.03-0.19-0.15-0.26-0.2c-0.13-0.1-0.26-0.2-0.39-0.31c-0.35-0.28-0.7-0.56-1.05-0.84c-0.73-0.59-1.45-1.2-2.16-1.82
						c-1.15-1-2.27-2.03-3.36-3.09c-1.35-1.31-2.66-2.66-3.87-4.09c-0.16-0.19-0.33-0.39-0.49-0.59c-1.2-1.53-3.84-1.26-5.1,0
						c-1.51,1.51-1.21,3.56,0,5.1c2.4,3.06,5.35,5.76,8.3,8.27c7.53,6.43,15.99,11.62,25.12,15.46
						c19.44,8.17,42.02,10.17,61.59,1.37c18.56-8.35,30.34-26.1,33.84-45.82c2.43-13.67,1.24-27.37-0.78-41.01
						c-2.13-14.39-5.44-28.59-9.58-42.53c-4.86-16.35-10.72-32.6-18.06-48.02c-0.07-0.14-0.13-0.28-0.2-0.41
						C579.91,371.28,586.66,362.76,591.46,353.61z"/>
				</g>
				<path class="st336" d="M506.97,284.1c0.74,1.69-0.04,3.68-1.73,4.42l-11.74,5.13c-1.69,0.74-3.68-0.04-4.42-1.73l-1.78-4.07
					c-0.74-1.69,0.04-3.68,1.73-4.42l11.74-5.13c1.69-0.74,3.68,0.04,4.42,1.73L506.97,284.1z"/>
				<path class="st336" d="M568.28,262.08c0.67,1.72-0.19,3.68-1.91,4.35l-11.94,4.65c-1.72,0.67-3.68-0.19-4.35-1.91l-1.61-4.14
					c-0.67-1.72,0.19-3.68,1.91-4.35l11.94-4.65c1.72-0.67,3.68,0.19,4.35,1.91L568.28,262.08z"/>
			</g>
			<g>
				<path class="st341" d="M549.91,368.68C549.54,368.59,549.64,368.62,549.91,368.68L549.91,368.68z"/>
				<path class="st336" d="M596.44,322.68c-3.47-0.79-8.22,1.06-8.87,5.03c-0.65,4.01-1.78,7.97-3.05,11.82
					c-0.59,1.8-1.24,3.59-1.94,5.35c-0.03,0.08-0.13,0.32-0.23,0.56c-0.13,0.3-0.3,0.69-0.35,0.8c-0.45,1-0.91,1.98-1.4,2.96
					c-0.98,1.95-2.04,3.86-3.21,5.71c-0.58,0.91-1.18,1.8-1.8,2.68c-0.27,0.38-0.59,0.75-0.84,1.14c1.19-1.88,0.02-0.05-0.39,0.44
					c-1.44,1.7-3.01,3.3-4.71,4.74c-0.14,0.12-0.29,0.24-0.44,0.36c-0.28,0.2-0.56,0.41-0.84,0.61c-1.01,0.69-2.06,1.33-3.14,1.9
					c-0.35,0.18-0.71,0.35-1.06,0.52c0.06-0.01,0.1-0.02,0.16-0.03c-0.09,0.01-0.21,0.06-0.32,0.11c-0.09,0.04-0.17,0.09-0.26,0.13
					c-0.16,0.08-0.28,0.11-0.35,0.12c-1.1,0.39-2.22,0.72-3.35,0.97c-0.47,0.11-0.95,0.18-1.43,0.28c-0.09,0.01-0.17,0.03-0.26,0.04
					c-1.3,0.13-2.6,0.18-3.91,0.17c-1.18-0.01-2.35-0.08-3.52-0.19c-0.29-0.03-0.75-0.13-1.03-0.2c0.15,0.04,0.39,0.1,0.73,0.19
					c-0.57-0.15-1.19-0.18-1.77-0.28c-2.52-0.44-5-1.06-7.44-1.8c-2.27-0.69-4.51-1.49-6.71-2.38c-0.16-0.06-0.32-0.13-0.48-0.19
					c-0.44-0.22-0.92-0.39-1.37-0.59c-1.13-0.51-2.26-1.04-3.37-1.58c-5.25-2.57-10.45-5.48-15.2-8.92
					c-3.07-2.22-8.16-0.63-9.86,2.59c-1.97,3.73-0.69,7.5,2.59,9.86c4.22,3.05,8.8,5.66,13.43,8.03c9.74,4.98,20.17,8.88,31.15,9.75
					c3.77,0.3,7.47,0.04,11.03-0.7c1.06,2.57,2.12,5.15,3.14,7.73c3.73,9.39,7.29,18.86,10.41,28.47
					c1.68,5.17,3.24,10.38,4.44,15.68c0.83,3.68,5.28,6.19,8.87,5.03c3.86-1.25,5.93-4.92,5.03-8.87
					c-2.24-9.92-5.62-19.59-9.11-29.12c-3.01-8.22-6.21-16.36-9.57-24.44c0-0.01-0.01-0.01-0.01-0.02c2.1-1.39,4.1-2.98,5.95-4.79
					c7.15-6.97,11.86-16.04,15.34-25.28c1.88-4.99,3.48-10.23,4.34-15.5C602.08,327.84,600.52,323.6,596.44,322.68z"/>
				<path class="st341" d="M564.02,367.37c0.05-0.03,0.1-0.05,0.16-0.08c-0.81,0.15-0.97,0.34-0.77,0.32
					c0.04-0.02,0.09-0.03,0.13-0.04C563.66,367.52,563.84,367.44,564.02,367.37z"/>
			</g>
			<g>
				
					<ellipse transform="matrix(0.2287 -0.9735 0.9735 0.2287 -148.6912 862.4487)" class="st341" cx="469.9" cy="525.06" rx="16.01" ry="16.01"/>
				<circle class="st336" cx="469.9" cy="525.06" r="9.24"/>
			</g>
		</g>
	</g>
	<g>
		<path class="st342" d="M450.28,189.1L450.28,189.1c0.32-0.72,0.51-1.52,0.51-2.36c0-3.17-2.57-5.73-5.73-5.73
			c-2.23,0-4.16,1.27-5.11,3.13c-0.95-1.86-2.88-3.13-5.11-3.13c-3.17,0-5.73,2.57-5.73,5.73c0,0.84,0.18,1.64,0.51,2.36l0,0
			c0,0,0.01,0.02,0.03,0.07c0.06,0.12,0.12,0.24,0.19,0.36c0.81,1.53,3.95,6.79,10.12,10.07c6.17-3.28,9.3-8.54,10.12-10.07
			c0.07-0.12,0.13-0.24,0.19-0.36C450.26,189.12,450.28,189.1,450.28,189.1z"/>
		<path class="st342" d="M555.85,304.88L555.85,304.88c0.24-0.53,0.37-1.12,0.37-1.73c0-2.33-1.89-4.22-4.22-4.22
			c-1.64,0-3.06,0.94-3.76,2.3c-0.7-1.37-2.12-2.3-3.76-2.3c-2.33,0-4.22,1.89-4.22,4.22c0,0.62,0.13,1.2,0.37,1.73l0,0
			c0,0,0.01,0.02,0.02,0.05c0.04,0.09,0.09,0.18,0.14,0.27c0.6,1.13,2.91,5,7.44,7.41c4.53-2.41,6.84-6.28,7.44-7.41
			c0.05-0.09,0.09-0.18,0.14-0.27C555.84,304.9,555.85,304.88,555.85,304.88z"/>
		<path class="st342" d="M281.41,198.98L281.41,198.98c0.17-0.37,0.26-0.78,0.26-1.21c0-1.63-1.32-2.95-2.95-2.95
			c-1.15,0-2.14,0.65-2.63,1.61c-0.49-0.95-1.48-1.61-2.63-1.61c-1.63,0-2.95,1.32-2.95,2.95c0,0.43,0.09,0.84,0.26,1.21l0,0
			c0,0,0.01,0.01,0.02,0.04c0.03,0.06,0.06,0.13,0.1,0.19c0.42,0.79,2.03,3.49,5.2,5.18c3.17-1.69,4.78-4.39,5.2-5.18
			c0.03-0.06,0.07-0.12,0.1-0.19C281.4,198.99,281.41,198.98,281.41,198.98z"/>
		<path class="st342" d="M119.45,294.49L119.45,294.49c0.24-0.53,0.37-1.12,0.37-1.73c0-2.33-1.89-4.22-4.22-4.22
			c-1.64,0-3.06,0.94-3.76,2.3c-0.7-1.37-2.12-2.3-3.76-2.3c-2.33,0-4.22,1.89-4.22,4.22c0,0.62,0.13,1.2,0.37,1.73l0,0
			c0,0,0.01,0.02,0.02,0.05c0.04,0.09,0.09,0.18,0.14,0.27c0.6,1.13,2.91,5,7.44,7.41c4.53-2.41,6.84-6.28,7.44-7.41
			c0.05-0.09,0.09-0.18,0.14-0.27C119.45,294.51,119.45,294.49,119.45,294.49z"/>
	</g>
</g>
</svg>
