<?xml version="1.0" encoding="utf-8"?>
<!-- Generator: Adobe Illustrator 24.3.0, SVG Export Plug-In . SVG Version: 6.00 Build 0)  -->
<svg version="1.1" id="Layer_1" xmlns="http://www.w3.org/2000/svg" xmlns:xlink="http://www.w3.org/1999/xlink" x="0px" y="0px"
	 viewBox="0 0 700 600" style="enable-background:new 0 0 700 600;" xml:space="preserve">
<style type="text/css">
	.st0{fill-rule:evenodd;clip-rule:evenodd;fill:#E6E6E6;}
	.st1{fill-rule:evenodd;clip-rule:evenodd;}
	.st2{fill-rule:evenodd;clip-rule:evenodd;fill:#333333;}
	.st3{fill-rule:evenodd;clip-rule:evenodd;fill:#464646;}
	.st4{fill-rule:evenodd;clip-rule:evenodd;fill:#151515;}
	.st5{fill-rule:evenodd;clip-rule:evenodd;fill:url(#SVGID_1_);}
	.st6{filter:url(#Adobe_OpacityMaskFilter);}
	.st7{fill-rule:evenodd;clip-rule:evenodd;fill:#FAFAFA;}
	.st8{mask:url(#SVGID_2_);}
	.st9{fill-rule:evenodd;clip-rule:evenodd;fill:#FFFFFF;}
	.st10{fill-rule:evenodd;clip-rule:evenodd;fill:#FDC00F;}
	.st11{fill-rule:evenodd;clip-rule:evenodd;fill:#131313;}
	.st12{fill-rule:evenodd;clip-rule:evenodd;fill:#C40000;}
	.st13{fill-rule:evenodd;clip-rule:evenodd;fill:url(#SVGID_3_);}
	.st14{fill-rule:evenodd;clip-rule:evenodd;fill:url(#SVGID_4_);}
	.st15{fill-rule:evenodd;clip-rule:evenodd;fill:url(#SVGID_5_);}
	.st16{fill-rule:evenodd;clip-rule:evenodd;fill:url(#SVGID_6_);}
	.st17{fill-rule:evenodd;clip-rule:evenodd;fill:#CACACA;}
	.st18{fill-rule:evenodd;clip-rule:evenodd;fill:url(#SVGID_7_);}
	
		.st19{fill-rule:evenodd;clip-rule:evenodd;fill:#131313;stroke:#000000;stroke-width:2.4001;stroke-linecap:round;stroke-linejoin:round;stroke-miterlimit:22.9256;}
	
		.st20{fill-rule:evenodd;clip-rule:evenodd;fill:#464646;stroke:#000000;stroke-width:2.4001;stroke-linecap:round;stroke-linejoin:round;stroke-miterlimit:22.9256;}
	.st21{fill-rule:evenodd;clip-rule:evenodd;fill:url(#SVGID_8_);}
	.st22{fill-rule:evenodd;clip-rule:evenodd;fill:url(#SVGID_9_);}
	.st23{fill-rule:evenodd;clip-rule:evenodd;fill:url(#SVGID_10_);}
	.st24{fill-rule:evenodd;clip-rule:evenodd;fill:url(#SVGID_11_);}
	.st25{fill-rule:evenodd;clip-rule:evenodd;fill:url(#SVGID_12_);}
	.st26{fill-rule:evenodd;clip-rule:evenodd;fill:url(#SVGID_13_);}
	.st27{fill-rule:evenodd;clip-rule:evenodd;fill:url(#SVGID_14_);}
	.st28{fill-rule:evenodd;clip-rule:evenodd;fill:url(#SVGID_15_);}
	.st29{fill-rule:evenodd;clip-rule:evenodd;fill:url(#SVGID_16_);}
	.st30{fill-rule:evenodd;clip-rule:evenodd;fill:url(#SVGID_17_);}
	.st31{filter:url(#Adobe_OpacityMaskFilter_1_);}
	.st32{fill-rule:evenodd;clip-rule:evenodd;fill:url(#SVGID_19_);}
	.st33{opacity:0.3;mask:url(#SVGID_18_);fill-rule:evenodd;clip-rule:evenodd;}
	.st34{filter:url(#Adobe_OpacityMaskFilter_2_);}
	.st35{fill-rule:evenodd;clip-rule:evenodd;fill:url(#SVGID_21_);}
	.st36{opacity:0.3;mask:url(#SVGID_20_);fill-rule:evenodd;clip-rule:evenodd;}
	.st37{filter:url(#Adobe_OpacityMaskFilter_3_);}
	.st38{fill-rule:evenodd;clip-rule:evenodd;fill:url(#SVGID_23_);}
	.st39{mask:url(#SVGID_22_);fill-rule:evenodd;clip-rule:evenodd;fill:#FFFFFF;}
	.st40{filter:url(#Adobe_OpacityMaskFilter_4_);}
	.st41{fill-rule:evenodd;clip-rule:evenodd;fill:url(#SVGID_25_);}
	.st42{opacity:0.6;mask:url(#SVGID_24_);fill-rule:evenodd;clip-rule:evenodd;fill:#FFFFFF;}
	.st43{filter:url(#Adobe_OpacityMaskFilter_5_);}
	.st44{fill-rule:evenodd;clip-rule:evenodd;fill:url(#SVGID_27_);}
	.st45{opacity:0.6;mask:url(#SVGID_26_);fill-rule:evenodd;clip-rule:evenodd;fill:#FFFFFF;}
	.st46{filter:url(#Adobe_OpacityMaskFilter_6_);}
	.st47{fill-rule:evenodd;clip-rule:evenodd;fill:url(#SVGID_29_);}
	.st48{mask:url(#SVGID_28_);fill-rule:evenodd;clip-rule:evenodd;fill:#FFFFFF;}
	.st49{filter:url(#Adobe_OpacityMaskFilter_7_);}
	.st50{fill-rule:evenodd;clip-rule:evenodd;fill:url(#SVGID_31_);}
	.st51{mask:url(#SVGID_30_);fill-rule:evenodd;clip-rule:evenodd;fill:#FFFFFF;}
	.st52{filter:url(#Adobe_OpacityMaskFilter_8_);}
	.st53{fill-rule:evenodd;clip-rule:evenodd;fill:url(#SVGID_33_);}
	.st54{mask:url(#SVGID_32_);fill-rule:evenodd;clip-rule:evenodd;fill:#FFFFFF;}
	.st55{filter:url(#Adobe_OpacityMaskFilter_9_);}
	.st56{fill-rule:evenodd;clip-rule:evenodd;fill:url(#SVGID_35_);}
	.st57{opacity:0.9;mask:url(#SVGID_34_);fill-rule:evenodd;clip-rule:evenodd;fill:#FFFFFF;}
	.st58{filter:url(#Adobe_OpacityMaskFilter_10_);}
	.st59{fill-rule:evenodd;clip-rule:evenodd;fill:url(#SVGID_37_);}
	.st60{opacity:0.8;mask:url(#SVGID_36_);fill-rule:evenodd;clip-rule:evenodd;fill:#FFFFFF;}
	.st61{fill:#E1E1E1;}
	.st62{fill:#ECECEC;}
	.st63{fill:#FFFFFF;}
	.st64{fill:#FFBF9D;}
	.st65{fill:#FF9A6C;}
	.st66{fill:#1A2E35;}
	.st67{fill:#375A64;}
	.st68{fill:none;stroke:#44555B;stroke-width:0.05;stroke-miterlimit:10;}
	.st69{fill:#FF735D;}
	.st70{opacity:0.3;}
	.st71{fill:#FAFAFA;}
	.st72{opacity:0.4;}
	.st73{opacity:0.81;fill:#E1E2FE;}
	.st74{opacity:0.14;fill:#3E479B;}
	.st75{fill:#F7A9B4;}
	.st76{opacity:0.39;fill:#F7A9B4;}
	.st77{fill:#599AF2;}
	.st78{opacity:0.07;fill:#ECF1F7;}
	.st79{fill:#3E479B;}
	.st80{opacity:0.39;fill:#6D6CD4;}
	.st81{opacity:0.39;fill:#3E479B;}
	.st82{fill:#6161B5;}
	.st83{opacity:0.28;}
	.st84{opacity:0.21;fill:#FFFFFF;}
	.st85{opacity:0.76;fill:#FFFFFF;}
	.st86{opacity:0.58;fill:#3E479B;}
	.st87{fill:none;}
	.st88{fill:#4C65BA;}
	.st89{opacity:0.43;fill:#3E479B;}
	.st90{fill:#F28393;}
	.st91{opacity:0.12;fill:#FFFFFF;}
	.st92{fill:url(#SVGID_38_);}
	.st93{fill:#91B3FA;}
	.st94{fill:#DCE5FE;}
	.st95{fill:#BDD0FB;}
	.st96{fill:url(#SVGID_39_);}
	.st97{opacity:0.73;fill:#FFFFFF;}
	.st98{fill:url(#SVGID_40_);}
	.st99{fill:url(#SVGID_41_);}
	.st100{opacity:0.51;fill:#FFFFFF;}
	.st101{fill:url(#SVGID_42_);}
	.st102{fill:url(#SVGID_43_);}
	.st103{fill:url(#SVGID_44_);}
	.st104{fill:url(#SVGID_45_);}
	.st105{fill:url(#SVGID_46_);}
	.st106{fill:url(#SVGID_47_);}
	.st107{fill:url(#SVGID_48_);}
	.st108{fill:url(#SVGID_49_);}
	.st109{fill:url(#SVGID_50_);}
	.st110{fill:url(#SVGID_51_);}
	.st111{fill:url(#SVGID_52_);}
	.st112{fill:url(#SVGID_53_);}
	.st113{fill:url(#SVGID_54_);}
	.st114{fill:url(#SVGID_55_);}
	.st115{fill:url(#SVGID_56_);}
	.st116{fill:url(#SVGID_57_);}
	.st117{fill:url(#SVGID_58_);}
	.st118{fill:url(#SVGID_59_);}
	.st119{fill:url(#SVGID_60_);}
	.st120{fill:url(#SVGID_61_);}
	.st121{fill:url(#SVGID_62_);}
	.st122{fill:url(#SVGID_63_);}
	.st123{fill:url(#SVGID_64_);}
	.st124{fill:url(#SVGID_65_);}
	.st125{fill:url(#SVGID_66_);}
	.st126{fill:url(#SVGID_67_);}
	.st127{fill:url(#SVGID_68_);}
	.st128{fill:url(#SVGID_69_);}
	.st129{fill:url(#SVGID_70_);}
	.st130{fill:url(#SVGID_71_);}
	.st131{fill:url(#SVGID_72_);}
	.st132{fill:url(#SVGID_73_);}
	.st133{fill:url(#SVGID_74_);}
	.st134{fill:url(#SVGID_75_);}
	.st135{fill:url(#SVGID_76_);}
	.st136{fill:url(#SVGID_77_);}
	.st137{fill:url(#SVGID_78_);}
	.st138{fill:url(#SVGID_79_);}
	.st139{fill:url(#SVGID_80_);}
	.st140{fill:url(#SVGID_81_);}
	.st141{fill:url(#SVGID_82_);}
	.st142{fill:url(#SVGID_83_);}
	.st143{fill:url(#SVGID_84_);}
	.st144{fill:url(#SVGID_85_);}
	.st145{fill:url(#SVGID_86_);}
	.st146{fill:url(#SVGID_87_);}
	.st147{fill:url(#SVGID_88_);}
	.st148{fill:url(#SVGID_89_);}
	.st149{fill:url(#SVGID_90_);}
	.st150{fill:url(#SVGID_91_);}
	.st151{fill:url(#SVGID_92_);}
	.st152{fill:url(#SVGID_93_);}
	.st153{fill:url(#SVGID_94_);}
	.st154{fill:url(#SVGID_95_);}
	.st155{fill:url(#SVGID_96_);}
	.st156{fill:url(#SVGID_97_);}
	.st157{fill:url(#SVGID_98_);}
	.st158{fill:url(#SVGID_99_);}
	.st159{fill:url(#SVGID_100_);}
	.st160{fill:url(#SVGID_101_);}
	.st161{fill:url(#SVGID_102_);}
	.st162{fill:url(#SVGID_103_);}
	.st163{fill:url(#SVGID_104_);}
	.st164{fill:url(#SVGID_105_);}
	.st165{fill:url(#SVGID_106_);}
	.st166{fill:url(#SVGID_107_);}
	.st167{fill:url(#SVGID_108_);}
	.st168{fill:url(#SVGID_109_);}
	.st169{fill:url(#SVGID_110_);}
	.st170{fill:url(#SVGID_111_);}
	.st171{fill:url(#SVGID_112_);}
	.st172{fill:url(#SVGID_113_);}
	.st173{fill:url(#SVGID_114_);}
	.st174{fill:url(#SVGID_115_);}
	.st175{fill:url(#SVGID_116_);}
	.st176{fill:url(#SVGID_117_);}
	.st177{fill:url(#SVGID_118_);}
	.st178{fill:url(#SVGID_119_);}
	.st179{fill:url(#SVGID_120_);}
	.st180{fill:url(#SVGID_121_);}
	.st181{fill:url(#SVGID_122_);}
	.st182{fill:url(#SVGID_123_);}
	.st183{fill:url(#SVGID_124_);}
	.st184{fill:url(#SVGID_125_);}
	.st185{fill:url(#SVGID_126_);}
	.st186{fill:url(#SVGID_127_);}
	.st187{fill:url(#SVGID_128_);}
	.st188{fill:url(#SVGID_129_);}
	.st189{fill:url(#SVGID_130_);}
	.st190{fill:url(#SVGID_131_);}
	.st191{fill:url(#SVGID_132_);}
	.st192{fill:url(#SVGID_133_);}
	.st193{fill:url(#SVGID_134_);}
	.st194{fill:url(#SVGID_135_);}
	.st195{fill:url(#SVGID_136_);}
	.st196{fill:url(#SVGID_137_);}
	.st197{fill:url(#SVGID_138_);}
	.st198{fill:url(#SVGID_139_);}
	.st199{fill:url(#SVGID_140_);}
	.st200{fill:url(#SVGID_141_);}
	.st201{fill:url(#SVGID_142_);}
	.st202{fill:url(#SVGID_143_);}
	.st203{fill:url(#SVGID_144_);}
	.st204{fill:url(#SVGID_145_);}
	.st205{fill:url(#SVGID_146_);}
	.st206{fill:url(#SVGID_147_);}
	.st207{fill:url(#SVGID_148_);}
	.st208{fill:url(#SVGID_149_);}
	.st209{fill:url(#SVGID_150_);}
	.st210{fill:url(#SVGID_151_);}
	.st211{fill:url(#SVGID_152_);}
	.st212{fill:url(#SVGID_153_);}
	.st213{fill:url(#SVGID_154_);}
	.st214{fill:url(#SVGID_155_);}
	.st215{fill:url(#SVGID_156_);}
	.st216{fill:url(#SVGID_157_);}
	.st217{fill:url(#SVGID_158_);}
	.st218{fill:url(#SVGID_159_);}
	.st219{fill:url(#SVGID_160_);}
	.st220{fill:url(#SVGID_161_);}
	.st221{fill:url(#SVGID_162_);}
	.st222{fill:url(#SVGID_163_);}
	.st223{fill:url(#SVGID_164_);}
	.st224{fill:url(#SVGID_165_);}
	.st225{fill:url(#SVGID_166_);}
	.st226{fill:url(#SVGID_167_);}
	.st227{fill:url(#SVGID_168_);}
	.st228{fill:url(#SVGID_169_);}
	.st229{fill:url(#SVGID_170_);}
	.st230{fill:url(#SVGID_171_);}
	.st231{fill:url(#SVGID_172_);}
	.st232{fill:url(#SVGID_173_);}
	.st233{fill:url(#SVGID_174_);}
	.st234{fill:url(#SVGID_175_);}
	.st235{fill:url(#SVGID_176_);}
	.st236{fill:url(#SVGID_177_);}
	.st237{fill:url(#SVGID_178_);}
	.st238{fill:url(#SVGID_179_);}
	.st239{fill:url(#SVGID_180_);}
	.st240{fill:url(#SVGID_181_);}
	.st241{fill:url(#SVGID_182_);}
	.st242{fill:url(#SVGID_183_);}
	.st243{fill:url(#SVGID_184_);}
	.st244{fill:url(#SVGID_185_);}
	.st245{fill:url(#SVGID_186_);}
	.st246{fill:url(#SVGID_187_);}
	.st247{fill:url(#SVGID_188_);}
	.st248{fill:url(#SVGID_189_);}
	.st249{fill:url(#SVGID_190_);}
	.st250{fill:url(#SVGID_191_);}
	.st251{fill:url(#SVGID_192_);}
	.st252{fill:url(#SVGID_193_);}
	.st253{fill:url(#SVGID_194_);}
	.st254{fill:url(#SVGID_195_);}
	.st255{fill:url(#SVGID_196_);}
	.st256{fill:url(#SVGID_197_);}
	.st257{fill:url(#SVGID_198_);}
	.st258{fill:url(#SVGID_199_);}
	.st259{fill:url(#SVGID_200_);}
	.st260{fill:url(#SVGID_201_);}
	.st261{fill:url(#SVGID_202_);}
	.st262{fill:url(#SVGID_203_);}
	.st263{fill:url(#SVGID_204_);}
	.st264{fill:url(#SVGID_205_);}
	.st265{fill:url(#SVGID_206_);}
	.st266{fill:url(#SVGID_207_);}
	.st267{fill:url(#SVGID_208_);}
	.st268{fill:url(#SVGID_209_);}
	.st269{fill:url(#SVGID_210_);}
	.st270{fill:url(#SVGID_211_);}
	.st271{fill:url(#SVGID_212_);}
	.st272{fill:url(#SVGID_213_);}
	.st273{fill:url(#SVGID_214_);}
	.st274{fill:url(#SVGID_215_);}
	.st275{fill:url(#SVGID_216_);}
	.st276{fill:url(#SVGID_217_);}
	.st277{fill:url(#SVGID_218_);}
	.st278{fill:url(#SVGID_219_);}
	.st279{fill:url(#SVGID_220_);}
	.st280{fill:url(#SVGID_221_);}
	.st281{fill:url(#SVGID_222_);}
	.st282{fill:url(#SVGID_223_);}
	.st283{fill:url(#SVGID_224_);}
	.st284{fill:url(#SVGID_225_);}
	.st285{fill:url(#SVGID_226_);}
	.st286{fill:url(#SVGID_227_);}
	.st287{fill:url(#SVGID_228_);}
	.st288{fill:url(#SVGID_229_);}
	.st289{fill:url(#SVGID_230_);}
	.st290{fill:url(#SVGID_231_);}
	.st291{fill:url(#SVGID_232_);}
	.st292{fill:url(#SVGID_233_);}
	.st293{fill:url(#SVGID_234_);}
	.st294{fill:url(#SVGID_235_);}
	.st295{fill:url(#SVGID_236_);}
	.st296{fill:url(#SVGID_237_);}
	.st297{fill:url(#SVGID_238_);}
	.st298{fill:url(#SVGID_239_);}
	.st299{fill:url(#SVGID_240_);}
	.st300{fill:url(#SVGID_241_);}
	.st301{fill:url(#SVGID_242_);}
	.st302{fill:url(#SVGID_243_);}
	.st303{fill:url(#SVGID_244_);}
	.st304{fill:url(#SVGID_245_);}
	.st305{fill:url(#SVGID_246_);}
	.st306{fill:url(#SVGID_247_);}
	.st307{fill:url(#SVGID_248_);}
	.st308{fill:url(#SVGID_249_);}
	.st309{fill:url(#SVGID_250_);}
	.st310{fill:url(#SVGID_251_);}
	.st311{fill:url(#SVGID_252_);}
	.st312{fill:url(#SVGID_253_);}
	.st313{fill:url(#SVGID_254_);}
	.st314{fill:url(#SVGID_255_);}
	.st315{fill:url(#SVGID_256_);}
	.st316{fill:url(#SVGID_257_);}
	.st317{fill:url(#SVGID_258_);}
	.st318{fill:url(#SVGID_259_);}
	.st319{fill:url(#SVGID_260_);}
	.st320{fill:url(#SVGID_261_);}
	.st321{fill:url(#SVGID_262_);}
	.st322{fill:url(#SVGID_263_);}
	.st323{fill:url(#SVGID_264_);}
	.st324{fill:#E8F2FC;stroke:#000000;stroke-width:3;stroke-linecap:round;stroke-linejoin:round;}
	.st325{fill:#FFFFFF;stroke:#000000;stroke-width:3;stroke-linecap:round;stroke-linejoin:round;}
	.st326{fill:#3B94EC;}
	.st327{fill:#D8DBD7;stroke:#010200;stroke-width:3;}
	.st328{opacity:0.17;fill:#010200;}
	.st329{fill:#FFFFFF;stroke:#020500;stroke-width:3;stroke-linecap:round;stroke-linejoin:round;}
	.st330{fill:#F5F5F5;}
	.st331{fill:#D5E3EF;}
	.st332{fill:none;stroke:#000000;stroke-width:3;stroke-linecap:round;stroke-linejoin:round;}
	.st333{fill:#3B94EC;stroke:#000000;stroke-width:3;stroke-linecap:round;stroke-linejoin:round;}
	.st334{fill:#FFFFFF;stroke:#000000;stroke-width:3;}
	.st335{fill:#E8F2FC;}
	.st336{fill:#3381E0;stroke:#000000;stroke-width:3;stroke-linecap:round;stroke-linejoin:round;}
	.st337{fill:#3B94EC;stroke:#010200;stroke-width:3;}
	.st338{fill:#DDDDDD;stroke:#000000;stroke-width:3;stroke-linecap:round;stroke-linejoin:round;}
	.st339{fill:#DDDDDD;}
	.st340{fill:#231F20;}
	.st341{fill:#FFFFFF;stroke:#000000;stroke-width:3;stroke-miterlimit:10;}
	.st342{fill:#FCFCFC;}
	.st343{opacity:0.46;fill:#707070;}
	.st344{fill:#010200;}
	.st345{fill:#3381E0;}
	.st346{fill:none;stroke:#FFFFFF;stroke-width:3;stroke-linecap:round;stroke-miterlimit:10;}
	.st347{fill:#F5F6F6;}
	.st348{fill:#F0F1F1;}
	.st349{fill:#EBECED;}
	.st350{fill:#E6E7E8;}
	.st351{fill:#E1E3E4;}
	.st352{fill:#DCDEDF;}
	.st353{fill:#D8D9DB;}
	.st354{fill:#D3D5D6;}
	.st355{fill:#CED0D2;}
	.st356{fill:#C9CBCD;}
	.st357{fill:#C4C6C9;}
	.st358{fill:#BFC2C4;}
	.st359{fill:#BABDC0;}
	.st360{fill:#B5B8BB;}
	.st361{fill:#B0B4B7;}
	.st362{fill:#ABAFB2;}
	.st363{fill:#A6AAAE;}
	.st364{fill:#A1A6A9;}
	.st365{fill:#9CA1A5;}
	.st366{fill:#979CA0;}
	.st367{fill:#92979C;}
	.st368{fill:#8D9397;}
	.st369{fill:#898E93;}
	.st370{fill:#84898E;}
	.st371{fill:#7F858A;}
	.st372{fill:#7A8085;}
	.st373{fill:#757B81;}
	.st374{fill:#70767C;}
	.st375{fill:#6B7278;}
	.st376{fill:#666D73;}
	.st377{fill:#556570;}
	.st378{fill:#445059;}
	.st379{fill:#A2D1F5;}
	.st380{fill:#EEF2F5;}
	.st381{fill:#404B54;}
	.st382{fill:#93A4B3;}
	.st383{fill:#BAE1FF;}
	.st384{fill:#41AB27;}
	.st385{fill:#D9F7FC;}
	.st386{fill:#005869;}
	.st387{fill:#1EABB0;}
	.st388{fill:#58D7DB;}
	.st389{fill:#004378;}
	.st390{fill:#147275;}
	.st391{fill:#C4EBF5;}
	.st392{fill:#00414D;}
	.st393{filter:url(#Adobe_OpacityMaskFilter_11_);}
	.st394{mask:url(#SVGID_265_);}
	.st395{fill:#DEA676;}
	.st396{fill:#E8B588;}
	.st397{fill:#06263B;}
	.st398{fill:#1A487E;}
	.st399{fill:#00959B;}
	.st400{fill:#091D38;}
	.st401{fill:#0E426F;}
	.st402{fill:#0E4B6F;}
	.st403{opacity:0.3;fill:#0E4B6F;}
	.st404{fill:#6ED5D8;}
	.st405{fill:#AFC4D7;}
	.st406{fill:#003257;}
	.st407{fill:#ABEBED;}
	.st408{fill:#EEA674;}
	.st409{opacity:0.3;fill:#003257;}
	.st410{fill:#008C91;}
	.st411{fill:#00284B;}
	.st412{opacity:0.5;fill:#AFC4D7;}
	.st413{opacity:0.75;fill:#0A3C5F;}
	.st414{fill:#FD9828;}
	.st415{fill:#00AEB5;}
	.st416{fill:#DFF1FC;}
	.st417{fill:#EDF6FC;}
	.st418{fill:#006E76;}
	.st419{fill:#0A3C5F;}
	.st420{fill:#002F54;}
	.st421{fill:#008188;}
	.st422{fill:#00B2B8;}
	.st423{fill:#024851;}
	.st424{fill:#036F76;}
	.st425{fill:#0CAAB0;}
	.st426{fill:#56C9CC;}
	.st427{fill:#CE5B00;}
	.st428{fill:#E57200;}
	.st429{fill:#FD8A00;}
	.st430{fill:#FFAF2F;}
	.st431{fill:#DD8400;}
	.st432{fill:#F9AF00;}
	.st433{fill:#FFD03C;}
	.st434{fill:#20C2C6;}
	.st435{fill:#0C9197;}
	.st436{fill:#7AD9DB;}
	.st437{fill:#006870;}
	.st438{fill:#003741;}
	.st439{fill:#D26900;}
	.st440{fill:#000F1A;}
	.st441{fill:#002040;}
	.st442{fill:#00365A;}
	.st443{fill:#0B5587;}
	.st444{fill:#006C73;}
	.st445{fill:#47C5C9;}
	.st446{fill:#E9FFFF;}
	.st447{fill:#FD8C10;}
	.st448{fill:#D38400;}
	.st449{fill:#F5AF15;}
	.st450{fill:#F4A600;}
	.st451{fill:#FFD633;}
	.st452{fill:#FEC22E;}
	.st453{fill:#3A3F48;}
	.st454{fill:#08848A;}
	.st455{fill:#4D4D47;}
	.st456{fill:#3C4148;}
	.st457{fill:#6A6D73;}
	.st458{fill:#3F4349;}
	.st459{fill:#009DA4;}
	.st460{fill:#3D4148;}
	.st461{fill:#FD7900;}
	.st462{fill:#10979D;}
	.st463{fill:#F48E00;}
	.st464{fill:#1EC0C4;}
	.st465{fill:#1D1D1B;}
	.st466{fill:#FD9A00;}
	.st467{fill:#3B4048;}
	.st468{fill:url(#SVGID_266_);}
	.st469{fill:url(#SVGID_267_);}
	.st470{fill:url(#SVGID_268_);}
	.st471{fill:url(#SVGID_269_);}
	.st472{fill:url(#SVGID_270_);}
	.st473{fill:url(#SVGID_271_);}
	.st474{fill:url(#SVGID_272_);}
	.st475{fill:url(#SVGID_273_);}
	.st476{fill:url(#SVGID_274_);}
	.st477{fill:url(#SVGID_275_);}
	.st478{fill:url(#SVGID_276_);}
	.st479{fill:url(#SVGID_277_);}
	.st480{fill:url(#SVGID_278_);}
	.st481{fill:url(#SVGID_279_);}
	.st482{fill:url(#SVGID_280_);}
	.st483{fill:url(#SVGID_281_);}
	.st484{fill:url(#SVGID_282_);}
	.st485{fill:url(#SVGID_283_);}
	.st486{fill:url(#SVGID_284_);}
	.st487{fill:url(#SVGID_285_);}
	.st488{fill:url(#SVGID_286_);}
	.st489{fill:url(#SVGID_287_);}
	.st490{fill:url(#SVGID_288_);}
	.st491{fill:url(#SVGID_289_);}
	.st492{fill:url(#SVGID_290_);}
	.st493{fill:url(#SVGID_291_);}
	.st494{fill:url(#SVGID_292_);}
	.st495{fill:url(#SVGID_293_);}
	.st496{fill:url(#SVGID_294_);}
	.st497{fill:url(#SVGID_295_);}
	.st498{fill:url(#SVGID_296_);}
	.st499{fill:url(#SVGID_297_);}
	.st500{fill:url(#SVGID_298_);}
	.st501{fill:url(#SVGID_299_);}
	.st502{fill:url(#SVGID_300_);}
	.st503{fill:#7D97F4;}
	.st504{fill:url(#SVGID_301_);}
	.st505{fill:url(#SVGID_302_);}
	.st506{fill:url(#SVGID_303_);}
	.st507{fill:url(#SVGID_304_);}
	.st508{fill:url(#SVGID_305_);}
	.st509{fill:url(#SVGID_306_);}
	.st510{fill:url(#SVGID_307_);}
	.st511{fill:url(#SVGID_308_);}
	.st512{fill:url(#SVGID_309_);}
	.st513{fill:url(#SVGID_310_);}
	.st514{fill:url(#SVGID_311_);}
	.st515{fill:url(#SVGID_312_);}
	.st516{fill:url(#SVGID_313_);}
	.st517{fill:url(#SVGID_314_);}
	.st518{fill:url(#SVGID_315_);}
	.st519{fill:url(#SVGID_316_);}
	.st520{fill:url(#SVGID_317_);}
	.st521{fill:url(#SVGID_318_);}
	.st522{fill:url(#SVGID_319_);}
	.st523{fill:url(#SVGID_320_);}
	.st524{fill:url(#SVGID_321_);}
	.st525{fill:url(#SVGID_322_);}
	.st526{fill:url(#SVGID_323_);}
	.st527{fill:url(#SVGID_324_);}
	.st528{fill:url(#SVGID_325_);}
	.st529{fill:url(#SVGID_326_);}
	.st530{fill:url(#SVGID_327_);}
	.st531{fill:url(#SVGID_328_);}
	.st532{fill:url(#SVGID_329_);}
	.st533{fill:url(#SVGID_330_);}
	.st534{fill:url(#SVGID_331_);}
	.st535{fill:url(#SVGID_332_);}
	.st536{fill:url(#SVGID_333_);}
	.st537{fill:url(#SVGID_334_);}
	.st538{fill:url(#SVGID_335_);}
	.st539{fill:url(#SVGID_336_);}
	.st540{fill:url(#SVGID_337_);}
	.st541{fill:url(#SVGID_338_);}
	.st542{fill:url(#SVGID_339_);}
	.st543{fill:url(#SVGID_340_);}
	.st544{fill:url(#SVGID_341_);}
	.st545{fill:url(#SVGID_342_);}
	.st546{fill:url(#SVGID_343_);}
	.st547{fill:url(#SVGID_344_);}
	.st548{fill:url(#SVGID_345_);}
	.st549{fill:url(#SVGID_346_);}
	.st550{fill:url(#SVGID_347_);}
	.st551{fill:url(#SVGID_348_);}
	.st552{fill:url(#SVGID_349_);}
	.st553{fill:url(#SVGID_350_);}
	.st554{fill:url(#SVGID_351_);}
	.st555{fill:url(#SVGID_352_);}
	.st556{fill:url(#SVGID_353_);}
	.st557{fill:url(#SVGID_354_);}
	.st558{fill:url(#SVGID_355_);}
	.st559{fill:url(#SVGID_356_);}
	.st560{fill:url(#SVGID_357_);}
	.st561{fill:url(#SVGID_358_);}
	.st562{fill:url(#SVGID_359_);}
	.st563{fill:url(#SVGID_360_);}
	.st564{fill:url(#SVGID_361_);}
	.st565{fill:url(#SVGID_362_);}
	.st566{fill:url(#SVGID_363_);}
	.st567{fill:url(#SVGID_364_);}
	.st568{fill:url(#SVGID_365_);}
	.st569{fill:url(#SVGID_366_);}
	.st570{fill:url(#SVGID_367_);}
	.st571{fill:url(#SVGID_368_);}
	.st572{fill:url(#SVGID_369_);}
	.st573{fill:url(#SVGID_370_);}
	.st574{fill:url(#SVGID_371_);}
	.st575{fill:url(#SVGID_372_);}
	.st576{fill:url(#SVGID_373_);}
	.st577{fill:url(#SVGID_374_);}
	.st578{fill:url(#SVGID_375_);}
	.st579{fill:url(#SVGID_376_);}
	.st580{fill:url(#SVGID_377_);}
	.st581{fill:url(#SVGID_378_);}
	.st582{fill:url(#SVGID_379_);}
	.st583{fill:url(#SVGID_380_);}
	.st584{fill:url(#SVGID_381_);}
	.st585{fill:url(#SVGID_382_);}
	.st586{fill:url(#SVGID_383_);}
	.st587{clip-path:url(#SVGID_385_);fill:url(#SVGID_386_);}
	.st588{fill:url(#SVGID_387_);}
	.st589{opacity:0.62;fill:#FFFFFF;}
	.st590{fill:url(#SVGID_388_);}
	.st591{fill:url(#SVGID_389_);}
	.st592{fill:url(#SVGID_390_);}
	.st593{fill:url(#SVGID_391_);}
	.st594{fill:url(#SVGID_392_);}
	.st595{fill:url(#SVGID_393_);}
	.st596{fill:url(#SVGID_394_);}
	.st597{fill:url(#SVGID_395_);}
	.st598{fill:url(#SVGID_396_);}
	.st599{opacity:0.71;fill:#FFFFFF;}
	.st600{opacity:0.75;fill:#FFFFFF;}
	.st601{fill:url(#SVGID_397_);}
	.st602{fill:url(#SVGID_398_);}
	.st603{fill:url(#SVGID_399_);}
	.st604{fill:url(#SVGID_400_);}
	.st605{fill:url(#SVGID_401_);}
	.st606{fill:url(#SVGID_402_);}
	.st607{fill:url(#SVGID_403_);}
	.st608{fill:url(#SVGID_404_);}
	.st609{fill:url(#SVGID_405_);}
	.st610{fill:url(#SVGID_406_);}
	.st611{fill:#5AE4A7;}
	.st612{opacity:0.7;fill:#FFFFFF;}
	.st613{fill:none;stroke:#1A2E35;stroke-linecap:round;stroke-linejoin:round;stroke-miterlimit:10;}
	.st614{fill:none;stroke:#1A2E35;stroke-width:2;stroke-linecap:round;stroke-linejoin:round;stroke-miterlimit:10;}
	.st615{fill:#FFFFFF;stroke:#1A2E35;stroke-linecap:round;stroke-linejoin:round;stroke-miterlimit:10;}
	.st616{fill:#5AE4A7;stroke:#1A2E35;stroke-linecap:round;stroke-linejoin:round;stroke-miterlimit:10;}
	.st617{opacity:0.5;fill:#5AE4A7;}
	.st618{opacity:0.5;}
	.st619{fill:#999999;stroke:#1A2E35;stroke-linecap:round;stroke-linejoin:round;stroke-miterlimit:10;}
	.st620{fill:#BFBFBF;stroke:#1A2E35;stroke-linecap:round;stroke-linejoin:round;stroke-miterlimit:10;}
	.st621{opacity:0.4;clip-path:url(#XMLID_11_);fill:#FFFFFF;}
	.st622{opacity:0.5;clip-path:url(#XMLID_11_);fill-opacity:0.7;}
	.st623{opacity:0.3;clip-path:url(#XMLID_12_);fill-opacity:0.7;}
	.st624{opacity:0.3;clip-path:url(#XMLID_13_);fill-opacity:0.7;}
	.st625{opacity:0.4;clip-path:url(#XMLID_14_);fill:#FFFFFF;}
	.st626{fill:#1A2E35;stroke:#1A2E35;stroke-linecap:round;stroke-linejoin:round;stroke-miterlimit:10;}
	.st627{fill:#757575;stroke:#1A2E35;stroke-linecap:round;stroke-linejoin:round;stroke-miterlimit:10;}
	.st628{opacity:0.5;clip-path:url(#XMLID_15_);fill-opacity:0.7;}
	.st629{opacity:0.3;clip-path:url(#XMLID_15_);fill-opacity:0.7;}
	.st630{opacity:0.4;clip-path:url(#XMLID_16_);fill:#FFFFFF;}
	.st631{opacity:0.4;fill:#FFFFFF;}
	.st632{opacity:0.2;fill:#FFFFFF;}
	.st633{fill:#CDD9FC;}
	.st634{fill:#27326D;}
	.st635{fill:#DDE6E9;}
	.st636{fill:#3B4AA3;}
	.st637{fill:#9BB3FA;}
	.st638{opacity:0.44;fill:#424242;}
	.st639{opacity:0.44;fill:#0540F2;}
	.st640{fill:#3766F5;}
	.st641{fill:#698CF7;}
	.st642{clip-path:url(#SVGID_412_);}
	.st643{fill:#DD2C10;}
	.st644{fill:#0420BF;}
	.st645{fill:#1675F2;}
	.st646{fill:none;stroke:#082A40;stroke-width:0.7247;stroke-linecap:round;stroke-linejoin:round;stroke-miterlimit:10;}
	.st647{fill:#FDBDBE;}
	.st648{fill:#CE1F0D;}
	.st649{fill:#EA9A9E;}
	.st650{fill:#082A40;}
	.st651{fill:#FF4A26;}
	.st652{fill:#FF9226;}
	.st653{opacity:0.2;}
	.st654{fill:none;stroke:#32324C;stroke-width:2;stroke-linecap:round;stroke-linejoin:round;}
	.st655{fill:none;stroke:#32324C;stroke-width:2;stroke-linecap:round;stroke-linejoin:round;stroke-dasharray:10.1974,7.1382;}
	
		.st656{opacity:0.2;fill:none;stroke:#32324C;stroke-width:2;stroke-linecap:round;stroke-linejoin:round;stroke-miterlimit:10;stroke-dasharray:10,7;}
	.st657{opacity:0.1;fill:#32324C;}
	.st658{fill:#2C2C2C;}
	.st659{fill:#DE9D01;}
	.st660{fill:#BF8005;}
	.st661{fill:none;stroke:#FFFFFF;stroke-width:0.75;stroke-miterlimit:10;}
	.st662{fill:#009762;}
	.st663{fill:#E2E2E2;}
	.st664{fill:#FFAF82;}
	.st665{fill:#F88968;}
	.st666{fill:#FFA378;}
	.st667{fill:#32324C;}
	.st668{fill:#00784E;}
	.st669{fill:#920E08;}
	.st670{fill:#F85C66;}
	.st671{fill:url(#SVGID_413_);}
	.st672{fill:url(#SVGID_414_);}
	.st673{fill:#050705;}
	.st674{fill:url(#SVGID_415_);}
	.st675{fill:#373E72;}
	.st676{fill:#397BFF;}
	.st677{opacity:0.2;fill:#344182;}
	.st678{fill:#F9F9F9;}
	.st679{fill:#FD5520;}
	.st680{fill:#F0F0F0;}
	.st681{fill:#E7E7E7;}
	.st682{fill:#007CFF;}
	.st683{opacity:0.3;fill:#1A2E35;}
	.st684{opacity:0.5;fill:#FFFFFF;}
	.st685{fill:#903C38;}
	.st686{fill:#740606;}
	.st687{opacity:0.6;}
	.st688{opacity:0.3;fill:#FFFFFF;}
	.st689{opacity:0.1;}
	.st690{opacity:0.6;fill:#FFFFFF;}
	.st691{clip-path:url(#SVGID_417_);}
	.st692{fill:#E0DFFB;}
	.st693{fill:#C3C2F0;}
	.st694{clip-path:url(#SVGID_419_);}
	.st695{fill:#CCCFDE;}
	.st696{fill:#8C5649;}
	.st697{fill:#454582;}
	.st698{fill:#5F5FA6;}
	.st699{fill:#505096;}
	.st700{fill:#313163;}
	.st701{fill:#6B6BBA;}
	.st702{fill:#3B3B78;}
	.st703{fill:#25254A;}
	.st704{fill:#9191CC;}
	.st705{fill:#7171B3;}
	.st706{fill:#4A4A82;}
	.st707{clip-path:url(#SVGID_421_);}
	.st708{fill:#170F16;}
	.st709{fill:#382536;}
	.st710{fill:#DEDEDE;}
	.st711{fill:#482F45;}
	.st712{fill:#6B4667;}
	.st713{fill:#EBE4DC;}
	.st714{fill:#D98218;}
	.st715{fill:#0D0D36;}
	.st716{fill:#FF8762;}
	.st717{fill:#E0B3A8;}
	.st718{fill:#EC8E1A;}
	.st719{fill:#E0C8A8;}
	.st720{fill:#52483D;}
	.st721{fill:#855780;}
	.st722{fill:#592F25;}
	.st723{fill:#783F31;}
	.st724{fill:#592011;}
	.st725{fill:#632313;}
	.st726{fill:#AB3C21;}
	.st727{fill:#BF654E;}
	.st728{fill:#D6C0A5;}
	.st729{fill:#1A1A4F;}
	.st730{fill:#4D72B0;}
	.st731{opacity:0.81;}
	.st732{fill:#E1E2FE;}
	.st733{fill:#0E100E;}
	.st734{fill:#212122;}
	.st735{fill:#7CA7D9;}
	.st736{fill:#F1CC59;}
	.st737{fill:#F0822A;}
	.st738{clip-path:url(#SVGID_425_);}
	.st739{fill:#F78F8D;}
	.st740{fill:#040156;}
	.st741{fill:#5D4C9B;}
	.st742{fill:#E56868;}
	.st743{fill:#6666DB;}
	.st744{fill:#FA9A3F;}
	.st745{fill:#F9918F;}
	.st746{fill:#FC6868;}
	.st747{fill:#FD918F;}
	.st748{fill:#D4D1C2;}
	.st749{fill:#02DAFF;}
	.st750{fill:#6D4C41;}
	.st751{fill:#FFF3E0;}
	.st752{opacity:0.8;}
	.st753{fill:#F5CBA7;}
	.st754{fill:#FFD54F;}
	.st755{fill:#FFF176;}
	.st756{fill:#FF8CC8;}
	.st757{fill:#FF5722;}
	.st758{fill:#FFA726;}
	.st759{fill:#F4F7FA;}
	.st760{fill:url(#SVGID_426_);}
	.st761{fill:url(#SVGID_427_);}
	.st762{fill:#D8DEE8;}
	.st763{fill:url(#SVGID_428_);}
	.st764{fill:url(#SVGID_429_);}
	.st765{fill:url(#SVGID_430_);}
	.st766{fill:#DE8BDF;}
	.st767{opacity:0.4;fill:#D8DEE8;}
	.st768{fill:url(#SVGID_431_);}
	.st769{fill:url(#SVGID_432_);}
	.st770{fill:url(#SVGID_433_);}
	.st771{fill:url(#SVGID_434_);}
	.st772{fill:url(#SVGID_435_);}
	.st773{fill:url(#SVGID_436_);}
	.st774{fill:url(#SVGID_437_);}
	.st775{fill:url(#SVGID_438_);}
	.st776{fill:url(#SVGID_439_);}
	.st777{fill:#97A6B7;}
	.st778{fill:url(#SVGID_440_);}
	.st779{fill:url(#SVGID_441_);}
	.st780{fill:url(#SVGID_442_);}
	.st781{opacity:0.4;fill:#97A6B7;}
	.st782{fill:url(#SVGID_443_);}
	.st783{fill:url(#SVGID_444_);}
	.st784{fill:url(#SVGID_445_);}
	.st785{fill:url(#SVGID_446_);}
	.st786{fill:url(#SVGID_447_);}
	.st787{opacity:0.2;fill:url(#SVGID_448_);}
	.st788{fill:url(#SVGID_449_);}
	.st789{fill:url(#SVGID_450_);}
	.st790{fill:url(#SVGID_451_);}
	.st791{fill:url(#SVGID_452_);}
	.st792{fill:url(#SVGID_453_);}
	.st793{fill:url(#SVGID_454_);}
	.st794{fill:url(#SVGID_455_);}
	.st795{fill:url(#SVGID_456_);}
	.st796{opacity:0.6;fill:url(#SVGID_457_);}
	.st797{fill:url(#SVGID_458_);}
	.st798{fill:url(#SVGID_459_);}
	.st799{fill:url(#SVGID_460_);}
	.st800{fill:url(#SVGID_461_);}
	.st801{fill:url(#SVGID_462_);}
	.st802{fill:url(#SVGID_463_);}
	.st803{opacity:0.3;fill:url(#SVGID_464_);}
	.st804{fill:url(#SVGID_465_);}
	.st805{fill:url(#SVGID_466_);}
	.st806{fill:url(#SVGID_467_);}
	.st807{fill:url(#SVGID_468_);}
	.st808{fill:url(#SVGID_469_);}
	.st809{fill:url(#SVGID_470_);}
	.st810{opacity:0.3;fill:url(#SVGID_471_);}
	.st811{fill:url(#SVGID_472_);}
	.st812{fill:url(#SVGID_473_);}
	.st813{fill:#EAF4F5;}
	.st814{fill:#62C4BD;}
	.st815{fill:#F29D29;}
	.st816{fill:#EA932A;}
	.st817{opacity:0.05;}
	.st818{fill:#59AFB0;}
	.st819{opacity:0.24;fill:#FFFFFF;}
	.st820{fill:#509B99;}
	.st821{fill:#F8D168;}
	.st822{opacity:0.16;}
	.st823{fill:#FC612B;}
	.st824{fill:#F2F2F2;}
	.st825{opacity:0.26;fill:#FFFFFF;}
	.st826{opacity:0.67;fill:#F2F2F2;}
	.st827{fill:#A4B3FF;}
	.st828{fill:#717FE2;}
	.st829{fill:#D6E0FF;}
	.st830{fill:#230768;}
	.st831{fill:none;stroke:#D6E0FF;stroke-width:2;stroke-linecap:round;stroke-linejoin:round;stroke-miterlimit:10;}
	.st832{fill:none;stroke:#717FE2;stroke-width:2;stroke-linecap:round;stroke-linejoin:round;stroke-miterlimit:10;}
	.st833{fill:#271F53;}
	.st834{opacity:0.06;fill:#271F53;}
	.st835{fill:url(#SVGID_474_);}
	.st836{fill:url(#SVGID_475_);}
	.st837{fill:url(#SVGID_476_);}
	.st838{fill:url(#SVGID_477_);}
	.st839{fill:url(#SVGID_478_);}
	.st840{fill:url(#SVGID_479_);}
	.st841{fill:url(#SVGID_480_);}
	.st842{fill:url(#SVGID_481_);}
	.st843{fill:url(#SVGID_482_);}
	.st844{fill:url(#SVGID_483_);}
	.st845{fill:url(#SVGID_484_);}
	.st846{fill:url(#SVGID_485_);}
	.st847{fill:url(#SVGID_486_);}
	.st848{fill:url(#SVGID_487_);}
	.st849{fill:url(#SVGID_488_);}
	.st850{fill:url(#SVGID_489_);}
	.st851{fill:url(#SVGID_490_);}
	.st852{fill:url(#SVGID_491_);}
	.st853{fill:url(#SVGID_492_);}
	.st854{fill:url(#SVGID_493_);}
	.st855{fill:url(#SVGID_494_);}
	.st856{fill:url(#SVGID_495_);}
	.st857{fill:url(#SVGID_496_);}
	.st858{fill:url(#SVGID_497_);}
	.st859{fill:url(#SVGID_498_);}
	.st860{fill:url(#SVGID_499_);}
	.st861{fill:url(#SVGID_500_);}
	.st862{fill:url(#SVGID_501_);}
	.st863{fill:url(#SVGID_502_);}
	.st864{fill:url(#SVGID_503_);}
	.st865{fill:url(#SVGID_504_);}
	.st866{fill:url(#SVGID_505_);}
	.st867{fill:url(#SVGID_506_);}
	.st868{fill:url(#SVGID_507_);}
	.st869{fill:url(#SVGID_508_);}
	.st870{fill:url(#SVGID_509_);}
	.st871{fill:url(#SVGID_510_);}
	.st872{fill:url(#SVGID_511_);}
	.st873{fill:url(#SVGID_512_);}
	.st874{fill:url(#SVGID_513_);}
	.st875{fill:url(#SVGID_514_);}
	.st876{fill:url(#SVGID_515_);}
	.st877{fill:url(#SVGID_516_);}
	.st878{fill:url(#SVGID_517_);}
	.st879{fill:url(#SVGID_518_);}
	.st880{fill:url(#SVGID_519_);}
	.st881{fill:url(#SVGID_520_);}
	.st882{fill:url(#SVGID_521_);}
	.st883{fill:url(#SVGID_522_);}
	.st884{fill:url(#SVGID_523_);}
	.st885{fill:url(#SVGID_524_);}
	.st886{fill:url(#SVGID_525_);}
	.st887{fill:url(#SVGID_526_);}
	.st888{fill:url(#SVGID_527_);}
	.st889{fill:url(#SVGID_528_);}
	.st890{fill:url(#SVGID_529_);}
	.st891{fill:url(#SVGID_530_);}
	.st892{fill:url(#SVGID_531_);}
	.st893{fill:url(#SVGID_532_);}
	.st894{fill:url(#SVGID_533_);}
	.st895{fill:url(#SVGID_534_);}
	.st896{fill:url(#SVGID_535_);}
	.st897{fill:url(#SVGID_536_);}
	.st898{fill:url(#SVGID_537_);}
	.st899{fill:url(#SVGID_538_);}
	.st900{fill:url(#SVGID_539_);}
	.st901{fill:url(#SVGID_540_);}
	.st902{fill:url(#SVGID_541_);}
	.st903{fill:url(#SVGID_542_);}
	.st904{fill:url(#SVGID_543_);}
	.st905{fill:url(#SVGID_544_);}
	.st906{fill:url(#SVGID_545_);}
	.st907{fill:url(#SVGID_546_);}
	.st908{fill:url(#SVGID_547_);}
	.st909{fill:url(#SVGID_548_);}
	.st910{fill:url(#SVGID_549_);}
	.st911{fill:url(#SVGID_550_);}
	.st912{fill:url(#SVGID_551_);}
	.st913{fill:url(#SVGID_552_);}
	.st914{fill:url(#SVGID_553_);}
	.st915{fill:url(#SVGID_554_);}
	.st916{fill:url(#SVGID_555_);}
	.st917{fill:url(#SVGID_556_);}
	.st918{fill:url(#SVGID_557_);}
	.st919{fill:url(#SVGID_558_);}
	.st920{fill:url(#SVGID_559_);}
	.st921{fill:url(#SVGID_560_);}
	.st922{fill:url(#SVGID_561_);}
	.st923{fill:url(#SVGID_562_);}
	.st924{fill:url(#SVGID_563_);}
	.st925{fill:url(#SVGID_564_);}
	.st926{fill:url(#SVGID_565_);}
	.st927{fill:url(#SVGID_566_);}
	.st928{fill:url(#SVGID_567_);}
	.st929{fill:url(#SVGID_568_);}
	.st930{fill:url(#SVGID_569_);}
	.st931{fill:url(#SVGID_570_);}
	.st932{fill:url(#SVGID_571_);}
	.st933{fill:url(#SVGID_572_);}
	.st934{fill:url(#SVGID_573_);}
	.st935{fill:url(#SVGID_574_);}
	.st936{fill:url(#SVGID_575_);}
	.st937{fill:url(#SVGID_576_);}
	.st938{fill:url(#SVGID_577_);}
	.st939{fill:url(#SVGID_578_);}
	.st940{fill:url(#SVGID_579_);}
	.st941{fill:url(#SVGID_580_);}
	.st942{fill:url(#SVGID_581_);}
	.st943{fill:url(#SVGID_582_);}
	.st944{fill:url(#SVGID_583_);}
	.st945{fill:url(#SVGID_584_);}
	.st946{fill:url(#SVGID_585_);}
	.st947{fill:url(#SVGID_586_);}
	.st948{fill:url(#SVGID_587_);}
	.st949{fill:url(#SVGID_588_);}
	.st950{fill:url(#SVGID_589_);}
	.st951{fill:url(#SVGID_590_);}
	.st952{fill:url(#SVGID_591_);}
	.st953{fill:url(#SVGID_592_);}
	.st954{fill:url(#SVGID_593_);}
	.st955{fill:url(#SVGID_594_);}
	.st956{fill:url(#SVGID_595_);}
	.st957{fill:url(#SVGID_596_);}
	.st958{fill:url(#SVGID_597_);}
	.st959{fill:url(#SVGID_598_);}
	.st960{fill:url(#SVGID_599_);}
	.st961{fill:url(#SVGID_600_);}
	.st962{fill:url(#SVGID_601_);}
	.st963{fill:url(#SVGID_602_);}
	.st964{fill:url(#SVGID_603_);}
	.st965{fill:url(#SVGID_604_);}
	.st966{fill:url(#SVGID_605_);}
	.st967{fill:url(#SVGID_606_);}
	.st968{fill:url(#SVGID_607_);}
	.st969{fill:url(#SVGID_608_);}
	.st970{fill:url(#SVGID_609_);}
	.st971{fill:url(#SVGID_610_);}
	.st972{fill:url(#SVGID_611_);}
	.st973{fill:url(#SVGID_612_);}
	.st974{fill:url(#SVGID_613_);}
	.st975{fill:url(#SVGID_614_);}
	.st976{fill:url(#SVGID_615_);}
	.st977{fill:url(#SVGID_616_);}
	.st978{fill:url(#SVGID_617_);}
	.st979{fill:url(#SVGID_618_);}
	.st980{fill:url(#SVGID_619_);}
</style>
<path class="st86" d="M334.4,51.05c-0.21,0.97-1.16,1.59-2.14,1.39c-0.97-0.21-1.59-1.16-1.39-2.14c0.21-0.97,1.16-1.59,2.14-1.39
	C333.99,49.12,334.61,50.08,334.4,51.05z"/>
<rect x="-12" y="-12" class="st63" width="728" height="649"/>
<g>
	<path class="st827" d="M642.99,562.92H57.01c-1.5,0-2.71-1.21-2.71-2.71v-11.24c0-1.5,1.21-2.71,2.71-2.71h585.99
		c1.5,0,2.71,1.21,2.71,2.71v11.24C645.7,561.7,644.49,562.92,642.99,562.92z"/>
	<path class="st828" d="M435.41,546.26H264.59c-10.83,0-19.6-8.78-19.6-19.6V162.58c0-10.83,8.78-19.6,19.6-19.6h170.82
		c10.83,0,19.6,8.78,19.6,19.6v364.07C455.01,537.48,446.24,546.26,435.41,546.26z"/>
	<g>
		<path class="st829" d="M364.05,317h-28.1c-1.37,0-2.48-1.11-2.48-2.48l0,0c0-1.37,1.11-2.48,2.48-2.48h28.1
			c1.37,0,2.48,1.11,2.48,2.48l0,0C366.53,315.89,365.42,317,364.05,317z"/>
		<rect x="347.52" y="265.68" class="st829" width="4.96" height="50"/>
		<g>
			<g>
				<path class="st829" d="M354.89,285.94h-9.78c-9.57,0-17.36-7.79-17.36-17.36v-9.21c0-0.8,0.65-1.46,1.46-1.46
					c0.8,0,1.46,0.65,1.46,1.46v9.21c0,7.97,6.48,14.45,14.45,14.45h9.78c7.97,0,14.45-6.48,14.45-14.45v-9.21
					c0-0.8,0.65-1.46,1.46-1.46c0.8,0,1.46,0.65,1.46,1.46v9.21C372.25,278.15,364.46,285.94,354.89,285.94z"/>
			</g>
			<path class="st829" d="M357.59,277.2h-15.18c-3.27,0-5.92-2.65-5.92-5.92v-40.82c0-3.27,2.65-5.92,5.92-5.92h15.18
				c3.27,0,5.92,2.65,5.92,5.92v40.82C363.52,274.55,360.86,277.2,357.59,277.2z"/>
		</g>
	</g>
	<g>
		<path class="st830" d="M307.07,384.68c0,3.54-2.87,6.4-6.4,6.4c-3.54,0-6.4-2.87-6.4-6.4c0-3.54,2.87-6.4,6.4-6.4
			C304.2,378.28,307.07,381.14,307.07,384.68z"/>
		<path class="st830" d="M331.73,384.68c0,3.54-2.87,6.4-6.4,6.4c-3.54,0-6.4-2.87-6.4-6.4c0-3.54,2.87-6.4,6.4-6.4
			C328.87,378.28,331.73,381.14,331.73,384.68z"/>
		<path class="st830" d="M356.4,384.68c0,3.54-2.87,6.4-6.4,6.4s-6.4-2.87-6.4-6.4c0-3.54,2.87-6.4,6.4-6.4
			S356.4,381.14,356.4,384.68z"/>
		<path class="st830" d="M381.07,384.68c0,3.54-2.87,6.4-6.4,6.4c-3.54,0-6.4-2.87-6.4-6.4c0-3.54,2.87-6.4,6.4-6.4
			C378.2,378.28,381.07,381.14,381.07,384.68z"/>
		<path class="st830" d="M405.74,384.68c0,3.54-2.87,6.4-6.4,6.4c-3.54,0-6.4-2.87-6.4-6.4c0-3.54,2.87-6.4,6.4-6.4
			C402.87,378.28,405.74,381.14,405.74,384.68z"/>
		<path class="st830" d="M430.4,384.68c0,3.54-2.87,6.4-6.4,6.4s-6.4-2.87-6.4-6.4c0-3.54,2.87-6.4,6.4-6.4
			S430.4,381.14,430.4,384.68z"/>
		<path class="st830" d="M307.07,409.35c0,3.54-2.87,6.4-6.4,6.4c-3.54,0-6.4-2.87-6.4-6.4s2.87-6.4,6.4-6.4
			C304.2,402.94,307.07,405.81,307.07,409.35z"/>
		<path class="st830" d="M331.73,409.35c0,3.54-2.87,6.4-6.4,6.4c-3.54,0-6.4-2.87-6.4-6.4s2.87-6.4,6.4-6.4
			C328.87,402.94,331.73,405.81,331.73,409.35z"/>
		<path class="st830" d="M356.4,409.35c0,3.54-2.87,6.4-6.4,6.4s-6.4-2.87-6.4-6.4s2.87-6.4,6.4-6.4S356.4,405.81,356.4,409.35z"/>
		<path class="st830" d="M381.07,409.35c0,3.54-2.87,6.4-6.4,6.4c-3.54,0-6.4-2.87-6.4-6.4s2.87-6.4,6.4-6.4
			C378.2,402.94,381.07,405.81,381.07,409.35z"/>
		<path class="st830" d="M405.74,409.35c0,3.54-2.87,6.4-6.4,6.4c-3.54,0-6.4-2.87-6.4-6.4s2.87-6.4,6.4-6.4
			C402.87,402.94,405.74,405.81,405.74,409.35z"/>
		<path class="st830" d="M430.4,409.35c0,3.54-2.87,6.4-6.4,6.4s-6.4-2.87-6.4-6.4s2.87-6.4,6.4-6.4S430.4,405.81,430.4,409.35z"/>
		<path class="st830" d="M307.07,434.01c0,3.54-2.87,6.4-6.4,6.4c-3.54,0-6.4-2.87-6.4-6.4c0-3.54,2.87-6.4,6.4-6.4
			C304.2,427.61,307.07,430.48,307.07,434.01z"/>
		<path class="st830" d="M331.73,434.01c0,3.54-2.87,6.4-6.4,6.4c-3.54,0-6.4-2.87-6.4-6.4c0-3.54,2.87-6.4,6.4-6.4
			C328.87,427.61,331.73,430.48,331.73,434.01z"/>
		<path class="st830" d="M356.4,434.01c0,3.54-2.87,6.4-6.4,6.4s-6.4-2.87-6.4-6.4c0-3.54,2.87-6.4,6.4-6.4
			S356.4,430.48,356.4,434.01z"/>
		<path class="st830" d="M381.07,434.01c0,3.54-2.87,6.4-6.4,6.4c-3.54,0-6.4-2.87-6.4-6.4c0-3.54,2.87-6.4,6.4-6.4
			C378.2,427.61,381.07,430.48,381.07,434.01z"/>
		<path class="st830" d="M405.74,434.01c0,3.54-2.87,6.4-6.4,6.4c-3.54,0-6.4-2.87-6.4-6.4c0-3.54,2.87-6.4,6.4-6.4
			C402.87,427.61,405.74,430.48,405.74,434.01z"/>
		<path class="st830" d="M430.4,434.01c0,3.54-2.87,6.4-6.4,6.4s-6.4-2.87-6.4-6.4c0-3.54,2.87-6.4,6.4-6.4
			S430.4,430.48,430.4,434.01z"/>
		<path class="st830" d="M307.07,458.68c0,3.54-2.87,6.4-6.4,6.4c-3.54,0-6.4-2.87-6.4-6.4s2.87-6.4,6.4-6.4
			C304.2,452.28,307.07,455.15,307.07,458.68z"/>
		<path class="st830" d="M331.73,458.68c0,3.54-2.87,6.4-6.4,6.4c-3.54,0-6.4-2.87-6.4-6.4s2.87-6.4,6.4-6.4
			C328.87,452.28,331.73,455.15,331.73,458.68z"/>
		<path class="st830" d="M356.4,458.68c0,3.54-2.87,6.4-6.4,6.4s-6.4-2.87-6.4-6.4s2.87-6.4,6.4-6.4S356.4,455.15,356.4,458.68z"/>
		<path class="st830" d="M381.07,458.68c0,3.54-2.87,6.4-6.4,6.4c-3.54,0-6.4-2.87-6.4-6.4s2.87-6.4,6.4-6.4
			C378.2,452.28,381.07,455.15,381.07,458.68z"/>
		<path class="st830" d="M405.74,458.68c0,3.54-2.87,6.4-6.4,6.4c-3.54,0-6.4-2.87-6.4-6.4s2.87-6.4,6.4-6.4
			C402.87,452.28,405.74,455.15,405.74,458.68z"/>
		<path class="st830" d="M430.4,458.68c0,3.54-2.87,6.4-6.4,6.4s-6.4-2.87-6.4-6.4s2.87-6.4,6.4-6.4S430.4,455.15,430.4,458.68z"/>
		<circle class="st830" cx="300.66" cy="483.35" r="6.4"/>
		<path class="st830" d="M282.4,384.68c0,3.54-2.87,6.4-6.4,6.4s-6.4-2.87-6.4-6.4c0-3.54,2.87-6.4,6.4-6.4
			S282.4,381.14,282.4,384.68z"/>
		<path class="st830" d="M282.4,409.35c0,3.54-2.87,6.4-6.4,6.4s-6.4-2.87-6.4-6.4s2.87-6.4,6.4-6.4S282.4,405.81,282.4,409.35z"/>
		<path class="st830" d="M282.4,434.01c0,3.54-2.87,6.4-6.4,6.4s-6.4-2.87-6.4-6.4c0-3.54,2.87-6.4,6.4-6.4
			S282.4,430.48,282.4,434.01z"/>
		<path class="st830" d="M282.4,458.68c0,3.54-2.87,6.4-6.4,6.4s-6.4-2.87-6.4-6.4s2.87-6.4,6.4-6.4S282.4,455.15,282.4,458.68z"/>
		<circle class="st830" cx="276" cy="483.35" r="6.4"/>
		<circle class="st830" cx="325.33" cy="483.35" r="6.4"/>
		<circle class="st830" cx="350" cy="483.35" r="6.4"/>
		<circle class="st830" cx="374.67" cy="483.35" r="6.4"/>
		<circle class="st830" cx="399.34" cy="483.35" r="6.4"/>
		<circle class="st830" cx="424" cy="483.35" r="6.4"/>
	</g>
	<g>
		<g>
			<path class="st831" d="M290,299.37c-8.98-8.96-14.53-21.34-14.53-35.03c0-13.66,5.55-26.04,14.5-35"/>
			<path class="st831" d="M302.47,286.89c-5.78-5.76-9.36-13.74-9.36-22.55c0-8.8,3.56-16.76,9.34-22.53"/>
			<path class="st831" d="M314.28,275.08c-2.76-2.74-4.46-6.54-4.46-10.74c0-4.19,1.7-7.98,4.44-10.72"/>
		</g>
		<g>
			<path class="st831" d="M410,229.34c8.98,8.96,14.53,21.34,14.53,35.03c0,13.66-5.55,26.04-14.5,35"/>
			<path class="st831" d="M397.53,241.82c5.78,5.76,9.36,13.74,9.36,22.55c0,8.8-3.56,16.76-9.34,22.53"/>
			<path class="st831" d="M385.72,253.63c2.76,2.74,4.46,6.54,4.46,10.74c0,4.19-1.7,7.98-4.44,10.72"/>
		</g>
	</g>
	<g>
		<path class="st829" d="M614.86,295.08h-98.02c-10.83,0-19.6-8.78-19.6-19.6v-58.31c0-10.83,8.78-19.6,19.6-19.6h98.02
			c10.83,0,19.6,8.78,19.6,19.6v58.31C634.47,286.31,625.69,295.08,614.86,295.08z"/>
		<path class="st829" d="M556.93,295.08h-75.52c-2.56,0-3.84-3.09-2.03-4.9l19.22-19.22L556.93,295.08z"/>
	</g>
	<g>
		<path class="st829" d="M78.39,359.26h98.02c10.83,0,19.6-8.78,19.6-19.6v-58.31c0-10.83-8.78-19.6-19.6-19.6H78.39
			c-10.83,0-19.6,8.78-19.6,19.6v58.31C58.78,350.49,67.56,359.26,78.39,359.26z"/>
		<path class="st829" d="M136.32,359.26h75.52c2.56,0,3.84-3.09,2.03-4.9l-19.22-19.22L136.32,359.26z"/>
	</g>
	<g>
		<path class="st829" d="M120.85,183.22h80.03c8.84,0,16.01-7.17,16.01-16.01v-47.61c0-8.84-7.17-16.01-16.01-16.01h-80.03
			c-8.84,0-16.01,7.17-16.01,16.01v47.61C104.85,176.06,112.01,183.22,120.85,183.22z"/>
		<path class="st829" d="M168.15,183.22h61.66c2.09,0,3.13-2.52,1.66-4l-15.69-15.69L168.15,183.22z"/>
	</g>
	<g>
		<path class="st829" d="M113.31,504.89h80.03c8.84,0,16.01-7.17,16.01-16.01v-47.61c0-8.84-7.17-16.01-16.01-16.01h-80.03
			c-8.84,0-16.01,7.17-16.01,16.01v47.61C97.3,497.73,104.47,504.89,113.31,504.89z"/>
		<path class="st829" d="M160.6,504.89h61.66c2.09,0,3.13-2.52,1.66-4l-15.69-15.69L160.6,504.89z"/>
	</g>
	<g>
		<path class="st829" d="M591.32,482.55h-84.7c-9.35,0-16.94-7.58-16.94-16.94v-50.38c0-9.35,7.58-16.94,16.94-16.94h84.7
			c9.36,0,16.94,7.58,16.94,16.94v50.38C608.26,474.96,600.67,482.55,591.32,482.55z"/>
		<path class="st829" d="M541.27,482.55h-65.25c-2.21,0-3.31-2.67-1.75-4.23l16.61-16.61L541.27,482.55z"/>
	</g>
	<g>
		<path class="st829" d="M431.13,53.31v45.26c0,8.96-7.26,16.22-16.22,16.22H312.85c-8.96,0-16.22-7.26-16.22-16.22V53.31
			c0-8.96,7.26-16.22,16.22-16.22h102.05C423.87,37.08,431.13,44.35,431.13,53.31z"/>
		<path class="st829" d="M431.13,65.39v62.5c0,2.12-2.56,3.17-4.05,1.68l-15.91-15.91L431.13,65.39z"/>
	</g>
	<g>
		<path class="st832" d="M180.84,160.58h-46.1c-0.77,0-1.39-0.62-1.39-1.39v-31.57c0-0.77,0.62-1.39,1.39-1.39h46.1
			c0.77,0,1.39,0.62,1.39,1.39v31.57C182.22,159.96,181.6,160.58,180.84,160.58z"/>
		<path class="st832" d="M158.95,142.6l20.56-14.45c0.84-0.59,0.42-1.91-0.6-1.91h-43.13c-0.75,0-1.05,0.96-0.44,1.39l21.29,14.96
			C157.32,143.09,158.25,143.09,158.95,142.6z"/>
	</g>
	<g>
		<g>
			<path class="st832" d="M521.81,221.97l-0.73,0.3v52.66l1.42-0.56c14.07-5.51,29.39-5.31,43.35,0.56l0,0v-52.66l-0.73-0.3
				C551.12,216.29,535.81,216.29,521.81,221.97z"/>
			<path class="st832" d="M609.89,221.97c-14-5.68-29.3-5.68-43.31,0l-0.73,0.3v52.66l1.42-0.56c14.07-5.51,29.39-5.31,43.35,0.56
				v-52.66L609.89,221.97z"/>
		</g>
		<path class="st832" d="M558.13,232.37l-0.48-0.19c-9.17-3.72-19.2-3.72-28.38,0l-0.48,0.19"/>
		<path class="st832" d="M558.13,246.44l-0.48-0.19c-9.17-3.72-19.2-3.72-28.38,0l-0.48,0.19"/>
		<path class="st832" d="M558.13,260.51l-0.48-0.19c-9.17-3.72-19.2-3.72-28.38,0l-0.48,0.19"/>
		<path class="st832" d="M603.53,232.37l-0.48-0.19c-9.17-3.72-19.2-3.72-28.38,0l-0.48,0.19"/>
		<path class="st832" d="M603.53,246.44l-0.48-0.19c-9.17-3.72-19.2-3.72-28.38,0l-0.48,0.19"/>
		<path class="st832" d="M603.53,260.51l-0.48-0.19c-9.17-3.72-19.2-3.72-28.38,0l-0.48,0.19"/>
	</g>
	<g>
		<circle class="st832" cx="536.34" cy="428.9" r="19.55"/>
		<path class="st832" d="M577.82,465.06l-25.26-25.26c-0.69,1.03-1.49,2.01-2.4,2.92c-0.91,0.91-1.89,1.7-2.92,2.4l25.26,25.26
			c1.47,1.47,3.85,1.47,5.32,0C579.29,468.91,579.29,466.53,577.82,465.06z"/>
		<circle class="st832" cx="536.34" cy="428.9" r="10.91"/>
	</g>
	<g>
		<path class="st832" d="M358.43,70.49c3-3,7.87-3,10.87,0c3,3,3,7.87,0,10.87c-3,3-7.87,3-10.87,0S355.43,73.49,358.43,70.49z"/>
		<path class="st832" d="M366.44,93.59l4.53,8.95c3.57-0.63,3.47-0.54,6.57-2.68l-3.15-9.57l3.82-3.82l9.57,3.15
			c2.09-3.02,1.97-2.85,2.62-6.33l-8.24-4.36v-5.4l8.34-4.38c-0.6-3.64-0.5-3.62-2.67-6.78l-8.9,2.74l-3.82-3.82l2.79-8.97
			c-3.09-2.22-3.01-2.19-6.6-2.87l-4.37,8.32h-5.4l-4.4-8.44c-3.59,0.59-3.52,0.46-6.65,2.57l2.84,9.07l-3.82,3.82l-9.19-2.92
			c-2.23,3.08-2.21,3-2.91,6.58L346,72.9v5.4l-8.74,4.48c0.59,3.58,0.47,3.51,2.58,6.62l9.42-3.06l3.82,3.82l-3.11,9.51
			c3.08,2.18,2.97,2.14,6.53,2.8l4.52-8.9H366.44z"/>
	</g>
	<g>
		<path class="st832" d="M81.3,278.32h11.55c2.35,0,4.37,1.72,4.85,4.11l9.07,45.54c0.48,2.4,2.5,4.11,4.85,4.11h39.79"/>
		<path class="st832" d="M99.4,287.6l59.54,0l-6.23,30.53c-0.48,2.4-2.5,4.11-4.85,4.11l-40.98,0"/>
		<path class="st832" d="M120.98,337.9c0,2.64-2.14,4.79-4.79,4.79c-2.64,0-4.79-2.14-4.79-4.79c0-2.64,2.14-4.79,4.79-4.79
			C118.84,333.11,120.98,335.25,120.98,337.9z"/>
		<path class="st832" d="M147.32,337.9c0,2.64-2.14,4.79-4.79,4.79c-2.64,0-4.79-2.14-4.79-4.79c0-2.64,2.14-4.79,4.79-4.79
			C145.17,333.11,147.32,335.25,147.32,337.9z"/>
		<line class="st832" x1="102.18" y1="304.92" x2="155.41" y2="304.92"/>
		<line class="st832" x1="128.79" y1="287.6" x2="128.79" y2="322.25"/>
		<line class="st832" x1="144.15" y1="287.6" x2="140.07" y2="322.25"/>
		<line class="st832" x1="113.24" y1="287.6" x2="117.32" y2="322.25"/>
	</g>
	<g>
		<path class="st828" d="M148.36,482.08c0,1.94-2.51,3.51-5.61,3.51c-3.1,0-5.61-1.57-5.61-3.51c0-1.94,2.51-3.51,5.61-3.51
			C145.84,478.57,148.36,480.14,148.36,482.08z"/>
		<path class="st828" d="M167.3,474.06c0,1.94-2.51,3.51-5.61,3.51s-5.61-1.57-5.61-3.51c0-1.94,2.51-3.51,5.61-3.51
			S167.3,472.12,167.3,474.06z"/>
		<polyline class="st832" points="166.08,474.06 166.08,445.55 147.13,453.74 147.13,482.08 		"/>
	</g>
</g>
</svg>
