<?xml version="1.0" encoding="utf-8"?>
<!-- Generator: Adobe Illustrator 24.3.0, SVG Export Plug-In . SVG Version: 6.00 Build 0)  -->
<svg version="1.1" id="Layer_1" xmlns="http://www.w3.org/2000/svg" xmlns:xlink="http://www.w3.org/1999/xlink" x="0px" y="0px"
	 viewBox="0 0 700 600" style="enable-background:new 0 0 700 600;" xml:space="preserve">
<style type="text/css">
	.st0{fill:#FFFFFF;}
	.st1{fill:#1A2E35;}
	.st2{fill:#DCDCDC;}
	.st3{fill:#A8A8A8;}
	.st4{fill:#ED776A;}
	.st5{fill:#ECECEC;}
	.st6{fill:#FFC800;}
	.st7{opacity:0.1;}
	.st8{fill:#2B454E;}
	.st9{opacity:0.2;}
	.st10{fill:#FF9BBE;}
	.st11{fill:#FFFDFC;}
	.st12{fill:#375A64;}
	.st13{opacity:0.57;fill:#2B454E;}
	.st14{fill:none;stroke:#171714;stroke-width:0.5;stroke-miterlimit:10;}
	.st15{opacity:0.65;fill:#2B454E;}
	.st16{opacity:0.65;fill:#DCDCDC;}
	.st17{opacity:0.43;clip-path:url(#XMLID_13_);fill:#A4C4FF;}
	.st18{fill:#A4C4FF;}
	.st19{fill:#E3EEFE;}
	.st20{fill:#D1DAF7;}
	.st21{clip-path:url(#XMLID_28_);fill:#38385C;}
	.st22{clip-path:url(#XMLID_46_);fill:#504F79;}
	.st23{clip-path:url(#XMLID_47_);fill:#739BFD;}
	.st24{fill:#38385C;}
	.st25{fill:#504F79;}
	.st26{opacity:0.14;fill:#1A1A35;}
	.st27{opacity:0.14;}
	.st28{fill:#1A1A35;}
	.st29{clip-path:url(#XMLID_48_);fill:#FF8370;}
	.st30{clip-path:url(#XMLID_1325_);fill:#FF8370;}
	.st31{clip-path:url(#XMLID_1326_);fill:#1A1A35;}
	.st32{fill:#38385D;}
	.st33{clip-path:url(#XMLID_1327_);fill:#FF8370;}
	.st34{clip-path:url(#XMLID_1328_);fill:#DF4930;}
	.st35{fill:#FF8370;}
	.st36{clip-path:url(#XMLID_1329_);fill:#38385D;}
	.st37{fill:#FFB6A6;}
	.st38{fill:#739BFD;}
	.st39{fill:#E3EEFD;}
	.st40{enable-background:new    ;}
	.st41{fill:#BFBFBF;}
	.st42{fill:#00D9D0;}
	.st43{fill:#00A39C;}
	.st44{fill:#D6E7F8;}
	.st45{fill:#9BB5CD;}
	.st46{fill:#F8F9FC;}
	.st47{fill:#80D0F5;}
	.st48{fill:#EBC1AE;}
	.st49{fill:#F61C1C;}
	.st50{fill:#F54141;}
	.st51{fill:#393B42;}
	.st52{fill:#FDFFFE;}
	.st53{fill:#184B6E;}
	.st54{fill:#FF5542;}
	.st55{fill:#002542;}
	.st56{fill:#718D97;}
	.st57{fill:#1C2326;}
	.st58{fill:#154363;}
	.st59{fill:#242629;}
	.st60{fill:#455257;}
	.st61{fill:#293033;}
	.st62{clip-path:url(#XMLID_1330_);enable-background:new    ;}
	.st63{fill:#2B3336;}
	.st64{clip-path:url(#XMLID_1331_);enable-background:new    ;}
	.st65{fill:#353F43;}
	.st66{clip-path:url(#XMLID_1332_);enable-background:new    ;}
	.st67{clip-path:url(#XMLID_1333_);enable-background:new    ;}
	.st68{clip-path:url(#XMLID_1334_);enable-background:new    ;}
	.st69{clip-path:url(#XMLID_1335_);enable-background:new    ;}
	.st70{clip-path:url(#XMLID_1336_);enable-background:new    ;}
	.st71{clip-path:url(#XMLID_1337_);enable-background:new    ;}
	.st72{fill:#2B2E31;}
	.st73{fill:#1E2022;}
	.st74{fill:#303437;}
	.st75{fill:#358683;}
	.st76{fill:#FF8A23;}
	.st77{fill:#FFB923;}
	.st78{fill:#224E5D;}
	.st79{fill:#FFA323;}
	.st80{fill:#801C19;}
	.st81{fill:#E5BD99;}
	.st82{fill:#C62B27;}
	.st83{fill:#ED5F00;}
	.st84{fill:#ED0047;}
	.st85{fill:#035951;}
	.st86{fill:#EFD0B4;}
	.st87{fill:#0B2130;}
	.st88{fill:#323C3F;}
	.st89{fill:#0795C2;}
	.st90{fill:#DB1D1D;}
	.st91{fill:#F45B4D;}
	.st92{fill:#09B7ED;}
	.st93{fill:#F1F2F2;}
	.st94{fill:#4A2400;}
	.st95{fill:#AAAAAA;}
	.st96{fill:#114269;}
	.st97{fill:#EDF1F4;}
	.st98{fill:#EFEDEE;}
	.st99{fill:#082C44;}
	.st100{fill:#134169;}
	.st101{fill:#536269;}
	.st102{fill:#153C57;}
	.st103{clip-path:url(#XMLID_1338_);enable-background:new    ;}
	.st104{clip-path:url(#XMLID_1339_);enable-background:new    ;}
	.st105{clip-path:url(#XMLID_1340_);enable-background:new    ;}
	.st106{clip-path:url(#XMLID_1341_);enable-background:new    ;}
	.st107{clip-path:url(#XMLID_1342_);enable-background:new    ;}
	.st108{clip-path:url(#XMLID_1421_);enable-background:new    ;}
	.st109{clip-path:url(#XMLID_1422_);enable-background:new    ;}
	.st110{clip-path:url(#XMLID_1423_);enable-background:new    ;}
	.st111{fill:#113147;}
	.st112{fill:#915533;}
	.st113{fill:#1A4B6C;}
	.st114{fill:#174361;}
	.st115{fill:#102C40;}
	.st116{fill:#594A43;}
	.st117{fill:#E7FDF8;}
	.st118{fill:#FF9D00;}
	.st119{fill:#FFCA00;}
	.st120{clip-path:url(#XMLID_1424_);enable-background:new    ;}
	.st121{fill:#A0A0A0;}
	.st122{fill:#A1A1A1;}
	.st123{fill:#8A8A8A;}
	.st124{clip-path:url(#XMLID_1425_);enable-background:new    ;}
	.st125{clip-path:url(#XMLID_1426_);enable-background:new    ;}
	.st126{fill:#E2E2E2;}
	.st127{clip-path:url(#XMLID_1427_);}
	.st128{fill:#E3E3E3;}
	.st129{clip-path:url(#XMLID_1428_);}
	.st130{fill:#F0F0F0;}
	.st131{fill:#D4D4D4;}
	.st132{clip-path:url(#XMLID_1429_);enable-background:new    ;}
	.st133{fill:#972112;}
	.st134{clip-path:url(#XMLID_1430_);enable-background:new    ;}
	.st135{fill:#BD2A16;}
	.st136{fill:#E3321A;}
	.st137{fill:#811D0F;}
	.st138{clip-path:url(#XMLID_1431_);enable-background:new    ;}
	.st139{fill:#181818;}
	.st140{clip-path:url(#XMLID_1432_);enable-background:new    ;}
	.st141{fill:#272727;}
	.st142{fill:#343434;}
	.st143{clip-path:url(#XMLID_1433_);enable-background:new    ;}
	.st144{clip-path:url(#XMLID_1434_);enable-background:new    ;}
	.st145{clip-path:url(#XMLID_1435_);enable-background:new    ;}
	.st146{clip-path:url(#XMLID_1441_);enable-background:new    ;}
	.st147{clip-path:url(#XMLID_1442_);}
	.st148{clip-path:url(#XMLID_1443_);}
	.st149{fill:#278704;}
	.st150{fill:#8ECC37;}
	.st151{fill:#154802;}
	.st152{fill:#154902;}
	.st153{fill:#E69008;}
	.st154{fill:#FFD911;}
	.st155{fill:#E77A30;}
	.st156{fill:#F09A12;}
	.st157{fill:#F7F7F7;}
	.st158{fill:#373660;}
	.st159{fill:#FE6D60;}
	.st160{fill:#E8E8E8;}
	.st161{fill:#FFC967;}
	.st162{clip-path:url(#XMLID_1444_);fill:#FFB2A0;}
	.st163{clip-path:url(#XMLID_1445_);fill:#FFB2A0;}
	.st164{fill:#FFB2A0;}
	.st165{fill:#4F5285;}
	.st166{fill:#FFA648;}
	.st167{fill:#E63E36;}
	.st168{clip-path:url(#XMLID_1447_);fill:#FFB2A0;}
	.st169{clip-path:url(#XMLID_1448_);fill:#FE6D60;}
	.st170{clip-path:url(#XMLID_1449_);fill:#FFC967;}
	.st171{clip-path:url(#XMLID_1450_);fill:#FFB2A0;}
	.st172{clip-path:url(#XMLID_1451_);fill:#FFB2A0;}
	.st173{clip-path:url(#XMLID_1452_);fill:#E63E36;}
	.st174{fill:#BA9BC9;}
	.st175{fill:#1B4860;}
	.st176{fill:#CAD9E0;}
	.st177{fill:#C1272D;}
	.st178{fill:#E4F4FF;}
	.st179{fill:#2C546F;}
	.st180{fill:#1A1A1A;}
	.st181{fill:#CCA692;}
	.st182{fill:#E2BBA1;}
	.st183{fill:#B2B6B7;}
	.st184{fill:#A2A4A5;}
	.st185{fill:#CDD1D3;}
	.st186{fill:#607575;}
	.st187{fill:#536668;}
	.st188{fill:#333333;}
	.st189{fill:#A67C52;}
	.st190{fill:#8C6239;}
	.st191{fill:#CCCCCC;}
	.st192{fill:#603813;}
	.st193{fill:#F79FBC;}
	.st194{opacity:0.12;fill:#00C3D2;}
	.st195{fill:#434343;}
	.st196{fill:none;stroke:#606060;stroke-width:2;stroke-linecap:round;stroke-miterlimit:10;stroke-dasharray:6.9258,6.9258;}
	.st197{fill:#797276;}
	.st198{opacity:0.39;fill:#B8B6BC;}
	.st199{opacity:0.38;fill:#BEBEBE;}
	.st200{fill:none;stroke:#606060;stroke-width:2;stroke-linecap:round;stroke-miterlimit:10;stroke-dasharray:7.018,7.018;}
	.st201{fill:#B8B6BC;}
	.st202{fill:#F2EDE1;}
	.st203{opacity:0.5;fill:#BEBEBE;}
	.st204{opacity:0.51;fill:#434343;}
	.st205{fill:#FF9700;}
	.st206{opacity:0.34;}
	.st207{opacity:0.19;fill:#25E1DC;}
	.st208{opacity:0.39;}
	.st209{fill:#25E1DC;}
	.st210{fill:#ACCAD2;}
	.st211{fill:#FF4B16;}
	.st212{clip-path:url(#SVGID_2_);fill:#F2EDE1;}
	.st213{clip-path:url(#SVGID_2_);fill:none;stroke:#434343;stroke-width:4;stroke-miterlimit:10;}
	.st214{clip-path:url(#SVGID_4_);fill:#F2EDE1;}
	.st215{clip-path:url(#SVGID_4_);fill:none;stroke:#434343;stroke-width:4;stroke-miterlimit:10;}
	.st216{opacity:0.46;fill:#FF9700;}
	.st217{fill:#00C8AA;}
	.st218{opacity:0.47;}
	.st219{fill:#BEBEBE;}
	.st220{opacity:0.44;}
	.st221{fill:#FFD9BA;}
	.st222{fill:#FF8207;}
	.st223{opacity:0.74;}
	.st224{fill:#FFC100;}
	.st225{opacity:0.47;fill:#FFC100;}
	.st226{fill:none;stroke:#434343;stroke-miterlimit:10;}
	.st227{opacity:0.53;}
	.st228{fill:#2C2C2C;}
	.st229{fill:#FFB87E;}
	.st230{opacity:0.42;}
	.st231{opacity:0.5;}
	.st232{fill:#000E67;}
	.st233{fill:url(#SVGID_5_);}
	.st234{fill:url(#SVGID_6_);}
	.st235{fill:#030B29;}
	.st236{fill:#FBEAF9;}
	.st237{fill:#FB676A;}
	.st238{fill:#C262FB;}
	.st239{fill:#7AC9DC;}
	.st240{fill:#FAA871;}
	.st241{clip-path:url(#XMLID_1454_);fill:#D6CEFB;}
	.st242{fill:url(#SVGID_7_);}
	.st243{fill:url(#SVGID_8_);}
	.st244{clip-path:url(#XMLID_1456_);fill:#D2C4FB;}
	.st245{fill:#92C7C5;}
	.st246{fill:#7E4CD8;}
	.st247{fill:url(#SVGID_9_);}
	.st248{clip-path:url(#XMLID_1458_);fill:#D2C4FB;}
	.st249{fill:url(#SVGID_10_);}
	.st250{fill:url(#SVGID_11_);}
	.st251{fill:url(#SVGID_12_);}
	.st252{fill:#F6F6F6;}
	.st253{fill:url(#SVGID_13_);}
	.st254{fill:url(#SVGID_14_);}
	.st255{fill:#63B4FF;}
	.st256{fill:#5A9C93;}
	.st257{fill:#E3DADD;}
	.st258{fill:#909F81;}
	.st259{fill:#CAD1C3;}
	.st260{fill:#EAC34F;}
	.st261{fill:#F3DFA2;}
	.st262{fill:#C29B2F;}
	.st263{fill:#8C6B0D;}
	.st264{fill:#E0BA60;}
	.st265{fill:#FFDE8D;}
	.st266{fill:#D8E2ED;}
	.st267{fill:#B3BBC4;}
	.st268{fill:#755909;}
	.st269{fill:#99A4B0;}
	.st270{fill:#90001B;}
	.st271{fill:#D11E36;}
	.st272{fill:#E16C7C;}
	.st273{fill:#D84054;}
	.st274{fill:#C2C2C2;}
	.st275{fill:#E3E5E1;}
	.st276{fill:#ECEDEA;}
	.st277{fill:#F8F6F4;}
	.st278{fill:#BAC2BF;}
	.st279{fill:#79958E;}
	.st280{fill:#737474;}
	.st281{fill:#585959;}
	.st282{fill:#484949;}
	.st283{fill:#F0F2EE;}
	.st284{fill:#A68DA6;}
	.st285{fill:#B53633;}
	.st286{fill:#C9BDB1;}
	.st287{fill:#FFF4E0;}
	.st288{fill:#FFF7E0;}
	.st289{fill:#BABABA;}
	.st290{fill:#68716E;}
	.st291{fill:#B3C7C7;}
	.st292{fill:#8C9C9C;}
	.st293{fill:#DBEBEB;}
	.st294{fill:#7C8A88;}
	.st295{fill:#4C5453;}
	.st296{fill:#006986;}
	.st297{fill:#EAFBFC;}
	.st298{fill:#1D2D36;}
	.st299{fill:#424242;}
	.st300{fill:#C1CECF;}
	.st301{fill:#A7B3B3;}
	.st302{fill:#212121;}
	.st303{fill:#262626;}
	.st304{fill:#303233;}
	.st305{fill:#3B3B3B;}
	.st306{fill:#858585;}
	.st307{clip-path:url(#XMLID_1459_);}
	.st308{fill:#B58A47;}
	.st309{fill:#FFC48C;}
	.st310{fill:#63380A;}
	.st311{fill:#5F6B04;}
	.st312{fill:#DBE979;}
	.st313{fill:#4F5904;}
	.st314{fill:#AEB826;}
	.st315{fill:#E0609E;}
	.st316{fill:#FF8DC1;}
	.st317{fill:#CDE044;}
	.st318{fill:#4E1397;}
	.st319{fill:#A881D2;}
	.st320{fill:#440D80;}
	.st321{fill:#7A37CD;}
	.st322{fill:#B0F578;}
	.st323{fill:#C7FF9D;}
	.st324{fill:#A459F5;}
	.st325{fill:#45761A;}
	.st326{fill:#95C57A;}
	.st327{fill:#335F13;}
	.st328{fill:#72AC3F;}
	.st329{fill:#D47E7D;}
	.st330{fill:#F3AFAD;}
	.st331{fill:#91D462;}
	.st332{fill:#82081F;}
	.st333{fill:#CC8992;}
	.st334{fill:#6B0413;}
	.st335{fill:#B82643;}
	.st336{fill:#60E0DA;}
	.st337{fill:#8DFFFC;}
	.st338{fill:#E04459;}
	.st339{fill:#086082;}
	.st340{fill:#81B1C9;}
	.st341{fill:#04496B;}
	.st342{fill:#2690B8;}
	.st343{fill:#44ABE0;}
	.st344{fill:#137497;}
	.st345{fill:#A2DAF5;}
	.st346{fill:#0D5B80;}
	.st347{fill:#37A6CD;}
	.st348{fill:#F5D078;}
	.st349{fill:#FFE29D;}
	.st350{fill:#59C3F5;}
	.st351{fill:#820810;}
	.st352{fill:#ED9293;}
	.st353{fill:#6B0406;}
	.st354{fill:#B82630;}
	.st355{fill:#60D5E0;}
	.st356{fill:#8DF2FF;}
	.st357{fill:#E04445;}
	.st358{fill:#977203;}
	.st359{fill:#F2D46F;}
	.st360{fill:#806200;}
	.st361{fill:#CD9F18;}
	.st362{fill:#AA42F5;}
	.st363{fill:#C265FF;}
	.st364{fill:#F5C62D;}
	.st365{fill:#004311;}
	.st366{fill:#30AE57;}
	.st367{fill:#002C0D;}
	.st368{fill:#057921;}
	.st369{fill:#A1420E;}
	.st370{fill:#C05F29;}
	.st371{fill:#0AA138;}
	.st372{fill:#131414;}
	.st373{fill:#D0E6E6;}
	.st374{fill:#27292A;}
	.st375{fill:#191A1A;}
	.st376{fill:#5B6662;}
	.st377{fill:#404747;}
	.st378{fill:#4B4E50;}
	.st379{fill:#69717A;}
	.st380{fill:#5EB1E8;}
	.st381{fill:#85CBEC;}
	.st382{fill:#848D8F;}
	.st383{fill:#5E6A70;}
	.st384{fill:#566063;}
	.st385{fill:#3E3F4A;}
	.st386{fill:#8357D9;}
	.st387{fill:#A78FFF;}
	.st388{fill:#354747;}
	.st389{fill:url(#XMLID_1460_);}
	.st390{fill:url(#XMLID_1461_);}
	.st391{fill:url(#XMLID_1462_);}
	.st392{fill:url(#XMLID_1463_);}
	.st393{fill:url(#XMLID_1464_);}
	.st394{fill:url(#XMLID_1465_);}
	.st395{fill:url(#XMLID_1466_);}
	.st396{fill:url(#XMLID_1467_);}
	.st397{fill:url(#XMLID_1468_);}
	.st398{fill:url(#XMLID_1469_);}
	.st399{fill:url(#XMLID_1470_);}
	.st400{fill:url(#XMLID_1471_);}
	.st401{fill:url(#XMLID_1472_);}
	.st402{fill:url(#XMLID_1473_);}
	.st403{fill:url(#XMLID_1474_);}
	.st404{fill:url(#XMLID_1475_);}
	.st405{fill:url(#XMLID_1476_);}
	.st406{fill:url(#XMLID_1477_);}
	.st407{fill:url(#XMLID_1478_);}
	.st408{fill:url(#XMLID_1479_);}
	.st409{fill:url(#XMLID_1480_);}
	.st410{fill:url(#XMLID_1481_);}
	.st411{fill:url(#XMLID_1482_);}
	.st412{fill:url(#XMLID_1483_);}
	.st413{fill:url(#XMLID_1484_);}
	.st414{fill:url(#XMLID_1485_);}
	.st415{fill:url(#XMLID_1486_);}
	.st416{fill:url(#XMLID_1487_);}
	.st417{fill:url(#XMLID_1488_);}
	.st418{fill:url(#XMLID_1489_);}
	.st419{fill:url(#XMLID_1490_);}
	.st420{fill:url(#XMLID_1491_);}
	.st421{fill:url(#XMLID_1492_);}
	.st422{fill:url(#XMLID_1493_);}
	.st423{fill:url(#XMLID_1494_);}
	.st424{fill:url(#XMLID_1495_);}
	.st425{fill:url(#XMLID_1496_);}
	.st426{fill:url(#XMLID_1497_);}
	.st427{fill:url(#XMLID_1498_);}
	.st428{fill:url(#XMLID_1499_);}
	.st429{fill:url(#XMLID_1500_);}
	.st430{fill:url(#XMLID_1501_);}
	.st431{fill:url(#XMLID_1502_);}
	.st432{fill:url(#XMLID_1503_);}
	.st433{fill:url(#XMLID_1504_);}
	.st434{fill:url(#XMLID_1505_);}
	.st435{fill:url(#XMLID_1506_);}
	.st436{fill:url(#XMLID_1507_);}
	.st437{fill:url(#XMLID_1508_);}
	.st438{fill:url(#XMLID_1509_);}
	.st439{fill:url(#XMLID_1510_);}
	.st440{fill:url(#XMLID_1511_);}
	.st441{fill:url(#XMLID_1512_);}
	.st442{fill:url(#XMLID_1513_);}
	.st443{fill:url(#XMLID_1514_);}
	.st444{fill:url(#XMLID_1515_);}
	.st445{fill:url(#XMLID_1516_);}
	.st446{fill:url(#XMLID_1517_);}
	.st447{fill:url(#XMLID_1518_);}
	.st448{fill:url(#XMLID_1519_);}
	.st449{fill:url(#XMLID_1520_);}
	.st450{fill:url(#XMLID_1521_);}
	.st451{fill:url(#XMLID_1522_);}
	.st452{fill:url(#XMLID_1523_);}
	.st453{fill:url(#XMLID_1526_);}
	.st454{fill:url(#XMLID_1527_);}
	.st455{fill:url(#XMLID_1528_);}
	.st456{fill:url(#XMLID_1529_);}
	.st457{fill:url(#XMLID_1530_);}
	.st458{fill:url(#XMLID_1531_);}
	.st459{fill:url(#XMLID_1532_);}
	.st460{fill:url(#XMLID_1533_);}
	.st461{fill:url(#XMLID_1534_);}
	.st462{fill:url(#XMLID_1535_);}
	.st463{fill:url(#XMLID_1536_);}
	.st464{fill:url(#XMLID_1537_);}
	.st465{fill:url(#XMLID_1538_);}
	.st466{fill:url(#XMLID_1539_);}
	.st467{fill:url(#XMLID_1540_);}
	.st468{fill:#373A3F;}
	.st469{fill:#45494E;}
	.st470{fill:#6C7578;}
	.st471{fill:#1B1D1D;}
	.st472{fill:#C4CACA;}
	.st473{fill:#DAEBE8;}
	.st474{fill:url(#XMLID_1541_);}
	.st475{opacity:0.3;}
	.st476{fill:url(#SVGID_15_);}
	.st477{fill:url(#SVGID_16_);}
	.st478{fill:url(#SVGID_17_);}
	.st479{fill:url(#SVGID_18_);}
	.st480{fill:url(#SVGID_19_);}
	.st481{fill:url(#SVGID_20_);}
	.st482{fill:url(#SVGID_21_);}
	.st483{fill:url(#SVGID_22_);}
	.st484{fill:url(#SVGID_23_);}
	.st485{fill:url(#SVGID_24_);}
	.st486{fill:url(#SVGID_25_);}
	.st487{fill:url(#SVGID_26_);}
	.st488{fill:url(#SVGID_27_);}
	.st489{fill:url(#SVGID_28_);}
	.st490{fill:url(#SVGID_29_);}
	.st491{fill:url(#SVGID_30_);}
	.st492{fill:url(#SVGID_31_);}
	.st493{fill:url(#SVGID_32_);}
	.st494{fill:url(#SVGID_33_);}
	.st495{fill:url(#SVGID_34_);}
	.st496{fill:url(#SVGID_35_);}
	.st497{fill:url(#SVGID_36_);}
	.st498{fill:url(#SVGID_37_);}
	.st499{fill:url(#SVGID_38_);}
	.st500{fill:url(#SVGID_39_);}
	.st501{fill:url(#SVGID_40_);}
	.st502{fill:url(#SVGID_41_);}
	.st503{fill:url(#SVGID_42_);}
	.st504{fill:url(#SVGID_43_);}
	.st505{opacity:0.8;}
	.st506{fill:url(#SVGID_44_);}
	.st507{fill:url(#SVGID_45_);}
	.st508{fill:url(#SVGID_46_);}
	.st509{fill:url(#SVGID_47_);}
	.st510{fill:url(#SVGID_48_);}
	.st511{fill:url(#SVGID_49_);}
	.st512{fill:url(#SVGID_50_);}
	.st513{fill:url(#SVGID_51_);}
	.st514{fill:url(#SVGID_52_);}
	.st515{fill:url(#SVGID_53_);}
	.st516{fill:url(#SVGID_54_);}
	.st517{fill:url(#SVGID_55_);}
	.st518{fill:url(#SVGID_56_);}
	.st519{fill:url(#SVGID_57_);}
	.st520{fill:url(#SVGID_58_);}
	.st521{fill:url(#SVGID_59_);}
	.st522{fill:url(#SVGID_60_);}
	.st523{fill:url(#SVGID_61_);}
	.st524{fill:url(#SVGID_62_);}
	.st525{fill:url(#SVGID_63_);}
	.st526{fill:url(#SVGID_64_);}
	.st527{fill:url(#SVGID_65_);}
	.st528{fill:url(#SVGID_66_);}
	.st529{fill:url(#SVGID_67_);}
	.st530{fill:url(#SVGID_68_);}
	.st531{fill:url(#SVGID_69_);}
	.st532{fill:url(#SVGID_70_);}
	.st533{fill:url(#SVGID_71_);}
	.st534{fill:url(#SVGID_72_);}
	.st535{fill:url(#SVGID_73_);}
	.st536{fill:url(#SVGID_74_);}
	.st537{fill:url(#SVGID_75_);}
	.st538{fill:url(#SVGID_76_);}
	.st539{fill:url(#SVGID_77_);}
	.st540{fill:url(#SVGID_78_);}
	.st541{fill:url(#SVGID_79_);}
	.st542{fill:url(#SVGID_80_);}
	.st543{fill:url(#SVGID_81_);}
	.st544{fill:url(#SVGID_82_);}
	.st545{fill:url(#SVGID_83_);}
	.st546{fill:url(#SVGID_84_);}
	.st547{fill:url(#SVGID_85_);}
	.st548{fill:url(#SVGID_86_);}
	.st549{fill:url(#SVGID_87_);}
	.st550{fill:url(#SVGID_88_);}
	.st551{fill:url(#SVGID_89_);}
	.st552{fill:url(#SVGID_90_);}
	.st553{fill:url(#SVGID_91_);}
	.st554{fill:#5CFF76;}
	.st555{fill:#FF24A4;}
	.st556{fill:none;stroke:url(#SVGID_92_);stroke-width:0.75;stroke-miterlimit:10;}
	.st557{fill:none;stroke:url(#SVGID_93_);stroke-width:0.75;stroke-miterlimit:10;}
	.st558{fill:url(#SVGID_94_);}
	.st559{fill:#07226B;stroke:url(#SVGID_95_);stroke-width:0.75;stroke-miterlimit:10;}
	.st560{fill:url(#SVGID_96_);}
	.st561{fill:#07226B;stroke:url(#SVGID_97_);stroke-width:0.75;stroke-miterlimit:10;}
	.st562{fill:url(#SVGID_98_);}
	.st563{fill:#07226B;stroke:url(#SVGID_99_);stroke-width:0.75;stroke-miterlimit:10;}
	.st564{fill:url(#SVGID_100_);}
	.st565{fill:#07226B;stroke:url(#SVGID_101_);stroke-width:0.75;stroke-miterlimit:10;}
	.st566{fill:#1D1D1B;}
	.st567{fill:#80CBC4;}
	.st568{fill:#323232;}
	.st569{fill:none;stroke:#FEFFFF;stroke-miterlimit:10;}
	.st570{fill:#58818A;}
	.st571{fill:#465A65;}
	.st572{fill:#B1BCC2;}
	.st573{fill:#EBEDF1;}
	.st574{fill:#E7EDF5;}
	.st575{fill:#3498AC;}
	.st576{fill:#02ABC1;}
	.st577{fill:#47556A;}
	.st578{fill:#AFBBC1;}
	.st579{fill:#0071BC;}
	.st580{fill:#B5CB39;}
	.st581{fill:#F7931E;}
	.st582{fill:#FBB03B;}
	.st583{fill:#FCEE21;}
	.st584{fill:#E2CE14;}
	.st585{fill:#FF7146;}
	.st586{fill:#B0BEC7;}
	.st587{fill:#D1DDE0;}
	.st588{fill:#F2F2F2;}
	.st589{fill:#E6E6E6;}
	.st590{fill:#666666;}
	.st591{fill:#B3B3B3;}
	.st592{fill:#434647;}
	.st593{fill:#EEF7FD;}
	.st594{fill:#003D6D;}
	.st595{fill:#ADC9D6;}
	.st596{fill:#406791;}
	.st597{fill:#4FD6D8;}
	.st598{fill:#89ABBF;}
	.st599{fill:#F23D4F;}
	.st600{fill:#B42E41;}
	.st601{fill:#445C77;}
	.st602{fill:#0F3554;}
	.st603{fill:#00C3C7;}
	.st604{fill:#974F61;}
	.st605{fill:#489BA1;}
	.st606{fill:#79BDB8;}
	.st607{fill:#CFDDE6;}
	.st608{fill:#FABC4F;}
	.st609{fill:#313131;}
	.st610{fill:#F4F2EF;}
	.st611{fill:#D3D3D8;}
	.st612{opacity:0.75;fill:#BFBFBF;}
	.st613{fill:#DCDCE0;}
	.st614{opacity:0.65;fill:#C2C2C2;}
	.st615{opacity:0.65;fill:#CCCCCC;}
	.st616{fill:#1F1F1F;}
	.st617{fill:#33CCCC;}
	.st618{fill:#3D3D3D;}
	.st619{fill:#FFD91F;}
	.st620{fill:#FF6633;}
	.st621{fill:#66CCFF;}
	.st622{fill:#CACACA;}
	.st623{fill:#2E2E2E;}
	.st624{fill:url(#SVGID_102_);}
	.st625{fill:#4784D9;}
	.st626{fill:#9ACCCC;}
	.st627{fill:#F2F0EC;}
	.st628{fill:#5C5C5C;}
	.st629{opacity:0.55;fill:url(#SVGID_103_);}
	.st630{fill:#6D6D6D;}
	.st631{fill:#BBBBBB;}
	.st632{fill:#727272;}
	.st633{opacity:0.32;fill:#363636;}
	.st634{opacity:0.55;fill:url(#SVGID_104_);}
	.st635{clip-path:url(#SVGID_106_);}
	.st636{fill:none;stroke:#222D54;stroke-width:5;stroke-miterlimit:10;}
	.st637{fill:url(#SVGID_107_);}
	.st638{opacity:0.14;fill:url(#SVGID_108_);}
	.st639{fill:#222D54;}
	.st640{fill:url(#SVGID_109_);}
	.st641{fill:url(#SVGID_110_);}
	.st642{fill:#4A61A8;}
	.st643{filter:url(#Adobe_OpacityMaskFilter);}
	.st644{filter:url(#Adobe_OpacityMaskFilter_1_);}
	.st645{mask:url(#SVGID_111_);fill:url(#SVGID_112_);}
	.st646{opacity:0.14;fill:url(#SVGID_113_);}
	.st647{fill:#B8CAFC;}
	.st648{fill:#0A1330;}
	.st649{fill:#95B0FC;}
	.st650{fill:#231F20;}
	.st651{fill:#333E6E;}
	.st652{fill:#839BDB;}
	.st653{fill:#41465A;}
	.st654{fill:#CCD8FF;}
	.st655{fill:#FF4294;}
	.st656{fill:#99FF99;}
	.st657{fill:#96A3D1;}
	.st658{fill:#7193FF;}
	.st659{fill:#5A76CC;}
	.st660{fill:#CDCCCB;}
	.st661{fill:#E5E5E5;}
	.st662{fill:#E9E9EA;}
	.st663{fill:#E7E6E6;}
	.st664{fill:#0D85D6;}
	.st665{fill:#828383;}
	.st666{fill:#676767;}
	.st667{fill:#F3F2F2;}
	.st668{fill:#878689;}
	.st669{fill:#9FD2FF;}
	.st670{fill:none;stroke:#99FF99;stroke-width:1.6717;stroke-miterlimit:10;}
	.st671{fill:none;stroke:#99FF99;stroke-width:2;stroke-linecap:round;stroke-miterlimit:10;}
	.st672{fill:none;stroke:#FFFFFF;stroke-width:2;stroke-miterlimit:10;}
	.st673{fill:none;stroke:#FF4294;stroke-width:2;stroke-linecap:round;stroke-linejoin:round;stroke-miterlimit:10;}
	.st674{fill:none;stroke:#F2F2F2;stroke-width:1.4114;stroke-linecap:round;stroke-linejoin:round;stroke-miterlimit:10;}
	.st675{fill:none;stroke:#FF4294;stroke-width:1.6591;stroke-miterlimit:10;}
	.st676{fill:#253D5A;}
	.st677{fill:#4E6B93;}
	.st678{fill:none;stroke:#85EA5C;stroke-width:1.7849;stroke-miterlimit:10;}
	.st679{fill:none;stroke:#FF4294;stroke-width:1.7849;stroke-miterlimit:10;}
	.st680{fill:none;stroke:#CD6C8C;stroke-width:1.7849;stroke-miterlimit:10;}
	.st681{fill:none;stroke:#FFFFFF;stroke-width:1.1667;stroke-miterlimit:10;}
	.st682{fill:#EE8BA8;}
	.st683{fill:#DB7796;}
	.st684{opacity:0.14;fill:url(#SVGID_114_);}
	.st685{fill:#31435C;}
	.st686{fill:#82B2F5;}
	.st687{fill:#233042;}
	.st688{fill:#678DC2;}
	.st689{fill:none;stroke:#85EA5C;stroke-width:0.931;stroke-miterlimit:10;}
	.st690{fill:none;stroke:#FF4294;stroke-width:0.931;stroke-miterlimit:10;}
	.st691{fill:none;stroke:#CD6C8C;stroke-width:0.931;stroke-miterlimit:10;}
	.st692{fill:#3D5473;}
	.st693{fill:#739DD6;}
	.st694{fill:#0E1221;}
	.st695{fill:#A1B5FF;}
	.st696{fill:#FFB0C7;}
	.st697{fill:url(#SVGID_115_);}
	.st698{fill:#FFC2D4;}
	.st699{fill:url(#SVGID_116_);}
	.st700{fill:#090327;}
	.st701{fill:#56FFCF;}
	.st702{fill:url(#SVGID_117_);}
	.st703{fill:#751A1F;}
	.st704{fill:url(#SVGID_118_);}
	.st705{opacity:0.41;fill:url(#SVGID_119_);}
	.st706{opacity:0.41;fill:url(#SVGID_120_);}
	.st707{opacity:0.5;fill:url(#SVGID_121_);}
	.st708{opacity:0.5;fill:url(#SVGID_122_);}
	.st709{opacity:0.41;fill:url(#SVGID_123_);}
	.st710{opacity:0.41;fill:url(#SVGID_124_);}
	.st711{opacity:0.2;fill:#650B33;}
	.st712{fill:#FFD1AB;}
	.st713{opacity:0.2;fill:#A73148;}
	.st714{fill:#FFDBBD;}
	.st715{fill:#2D002A;}
	.st716{fill:#360B48;}
	.st717{fill:#FFA765;}
	.st718{fill:#C9F4FF;}
	.st719{fill:#F38855;}
	.st720{fill:#D2654D;}
	.st721{opacity:0.2;fill:#6D0B48;}
	.st722{fill:#4A245B;}
	.st723{opacity:0.5;fill:#360B48;}
	.st724{fill:#A4D4FF;}
	.st725{fill:#512C61;}
	.st726{opacity:0.2;fill:#360B48;}
	.st727{fill:#573165;}
	.st728{opacity:0.3;fill:#680B3E;}
	.st729{fill:#553165;}
	.st730{fill:#795D85;}
	.st731{fill:#6A4774;}
	.st732{fill:#6C1D08;}
	.st733{fill:#541B08;}
	.st734{fill:#CA0D4A;}
	.st735{fill:#9A0D22;}
	.st736{fill:#6C1C28;}
	.st737{fill:#4C0D07;}
	.st738{fill:#FFFFCC;}
	.st739{fill:#582A28;}
	.st740{fill:#E57D58;}
	.st741{opacity:0.5;fill:#F38855;}
	.st742{fill:#542308;}
	.st743{opacity:0.5;fill:#FFFFFF;}
	.st744{fill:#3F1B08;}
	.st745{fill:#B05658;}
	.st746{fill:#FFFBBB;}
	.st747{fill:#772808;}
	.st748{fill:#E57758;}
	.st749{fill:#802D15;}
	.st750{opacity:0.5;fill:#6C1D08;}
	.st751{fill:#91412C;}
	.st752{fill:#240822;}
	.st753{opacity:0.41;fill:url(#SVGID_125_);}
	.st754{fill:#000C2A;}
	.st755{fill:#172250;}
	.st756{fill:#8BAEE1;}
	.st757{fill:#2C3660;}
	.st758{fill:#3C456C;}
	.st759{opacity:0.5;fill:#FFFFCC;}
	.st760{opacity:0.2;fill:#6D0B9C;}
	.st761{opacity:0.3;fill:#8BD3FE;}
	.st762{fill:#DA7555;}
	.st763{fill:#9CFFFF;}
	.st764{fill:#210729;}
	.st765{fill:#1B0018;}
	.st766{fill:#662051;}
	.st767{fill:#70FFFF;}
	.st768{fill:#2B1333;}
	.st769{fill:#351E47;}
	.st770{fill:#4A275C;}
	.st771{fill:#331C3B;}
	.st772{fill:#63526A;}
	.st773{fill:#97B6E1;}
	.st774{opacity:0.3;fill:#97B6E1;}
	.st775{fill:#FF1717;}
	.st776{opacity:0.36;fill:#542340;}
	.st777{fill:#6D99D5;}
	.st778{opacity:0.2;fill:#A2186A;}
	.st779{fill:#1D1839;}
	.st780{fill:#861827;}
	.st781{fill:#840020;}
	.st782{fill:#6A1A00;}
	.st783{fill:#B14845;}
	.st784{fill:#490D00;}
	.st785{fill:#181D49;}
	.st786{fill:#9A1B3E;}
	.st787{opacity:0.3;fill:#360B48;}
	.st788{fill:#F88755;}
	.st789{fill:#FFA665;}
	.st790{fill:#11092A;}
	.st791{fill:#311100;}
	.st792{fill:#10183D;}
	.st793{fill:#8B8300;}
	.st794{fill:#7C6F00;}
	.st795{fill:#4E1305;}
	.st796{fill:#E36A50;}
	.st797{fill:#622705;}
	.st798{fill:#D7613D;}
	.st799{opacity:0.5;fill:#5C2E50;}
	.st800{fill:#FFDFB7;}
	.st801{fill:#521408;}
	.st802{opacity:0.3;fill:#B39220;}
	.st803{fill:#A44D3D;}
	.st804{fill:#894005;}
	.st805{fill:#ACA400;}
	.st806{fill:#421800;}
	.st807{opacity:0.5;fill:#B33620;}
	.st808{fill:#C4B800;}
	.st809{fill:#4E2300;}
	.st810{fill:#483A4D;}
	.st811{fill:#35263B;}
	.st812{fill:#34243A;}
	.st813{fill:#B6A900;}
	.st814{fill:#1F0D26;}
	.st815{fill:url(#SVGID_128_);}
	.st816{fill:url(#SVGID_129_);}
	.st817{fill:url(#SVGID_130_);}
	.st818{fill:url(#SVGID_131_);}
	.st819{fill:url(#SVGID_132_);}
	.st820{fill:url(#SVGID_133_);}
	.st821{fill:url(#SVGID_134_);}
	.st822{fill:url(#SVGID_135_);}
	.st823{fill:url(#SVGID_136_);}
	.st824{fill:url(#SVGID_137_);}
	.st825{fill:url(#SVGID_138_);}
	.st826{fill:url(#SVGID_139_);}
	.st827{fill:url(#SVGID_140_);}
	.st828{fill:url(#SVGID_141_);}
	.st829{fill:url(#SVGID_142_);}
	.st830{fill:url(#SVGID_143_);}
	.st831{fill:url(#SVGID_144_);}
	.st832{fill:url(#SVGID_145_);}
	.st833{fill:url(#SVGID_146_);}
	.st834{fill:url(#SVGID_147_);}
	.st835{fill:url(#SVGID_148_);}
	.st836{fill:url(#SVGID_149_);}
	.st837{fill:url(#SVGID_150_);}
	.st838{fill:url(#SVGID_151_);}
	.st839{fill:#144058;}
	.st840{fill:url(#SVGID_152_);}
	.st841{fill:#F4F4F4;}
	.st842{fill:url(#SVGID_153_);}
	.st843{fill:#F0FBFC;}
	.st844{fill:url(#SVGID_154_);}
	.st845{fill:url(#SVGID_155_);}
	.st846{fill:url(#SVGID_156_);}
	.st847{fill:url(#SVGID_157_);}
	.st848{fill:#0A2B3A;}
	.st849{fill:url(#SVGID_158_);}
	.st850{fill:url(#SVGID_159_);}
	.st851{fill:none;stroke:#144058;stroke-width:7.6349;stroke-miterlimit:10;}
	.st852{fill:url(#SVGID_160_);}
	.st853{fill:none;stroke:#26586D;stroke-width:7.6349;stroke-miterlimit:10;}
	.st854{fill:url(#SVGID_161_);}
	.st855{fill:url(#SVGID_162_);}
	.st856{fill:url(#SVGID_163_);}
	.st857{fill:url(#SVGID_164_);}
	.st858{fill:url(#SVGID_165_);}
	.st859{fill:url(#SVGID_166_);}
	.st860{fill:url(#SVGID_167_);}
	.st861{fill:url(#SVGID_168_);}
	.st862{fill:url(#SVGID_169_);}
	.st863{fill:url(#SVGID_170_);}
	.st864{fill:url(#SVGID_171_);}
	.st865{fill:url(#SVGID_172_);}
	.st866{fill:url(#SVGID_173_);}
	.st867{fill:url(#SVGID_174_);}
	.st868{fill:url(#SVGID_175_);}
	.st869{fill:url(#SVGID_176_);}
	.st870{fill:url(#SVGID_177_);}
	.st871{fill:url(#SVGID_178_);}
	.st872{fill:url(#SVGID_179_);}
	.st873{fill:url(#SVGID_180_);}
	.st874{fill:url(#SVGID_181_);}
	.st875{fill:url(#SVGID_182_);}
	.st876{fill:url(#SVGID_183_);}
	.st877{fill:none;stroke:#606060;stroke-width:15.0803;stroke-miterlimit:10;}
	.st878{fill:url(#SVGID_184_);}
	.st879{fill:url(#SVGID_185_);}
	.st880{fill:url(#SVGID_186_);}
	.st881{fill:#103647;}
	.st882{fill:url(#SVGID_187_);}
	.st883{fill:url(#SVGID_188_);}
	.st884{fill:url(#SVGID_189_);}
	.st885{fill:url(#SVGID_190_);}
	.st886{fill:url(#SVGID_191_);}
	.st887{fill:url(#SVGID_192_);}
	.st888{fill:url(#SVGID_193_);}
	.st889{fill:url(#SVGID_194_);}
	.st890{fill:url(#SVGID_195_);}
	.st891{fill:url(#SVGID_196_);}
	.st892{fill:url(#SVGID_197_);}
	.st893{fill:url(#SVGID_198_);}
	.st894{fill:url(#SVGID_199_);}
	.st895{fill:url(#SVGID_200_);}
	.st896{fill:url(#SVGID_201_);}
	.st897{fill:url(#SVGID_202_);}
	.st898{fill:#E1E1E1;}
	.st899{fill:#F5F5F5;}
	.st900{fill:#FF735D;}
	.st901{fill:#FFC19D;}
	.st902{fill:#FF9C6A;}
	.st903{fill:#EBEBF2;}
	.st904{fill:url(#SVGID_203_);}
	.st905{fill:url(#SVGID_204_);}
	.st906{fill:#3D3D89;}
	.st907{fill:url(#SVGID_205_);}
	.st908{fill:url(#SVGID_206_);}
	.st909{fill:url(#SVGID_207_);}
	.st910{fill:#4B4BA0;}
	.st911{fill:url(#SVGID_208_);}
	.st912{fill:url(#SVGID_209_);}
	.st913{opacity:0.15;fill:#FFFFFF;}
	.st914{fill:url(#SVGID_210_);}
	.st915{fill:#FFC700;}
	.st916{fill:#1E9AFF;}
	.st917{fill:url(#SVGID_211_);}
	.st918{fill:#A7C8FF;}
</style>
<g>
	<g>
		<rect x="-19.41" y="-9.04" class="st593" width="739.41" height="614.04"/>
	</g>
</g>
<g>
	<g>
		<path class="st594" d="M567.77,498.57H132.23c-5.58,0-10.15-4.57-10.15-10.15V192.25c0-5.58,4.57-10.15,10.15-10.15h435.55
			c5.58,0,10.15,4.57,10.15,10.15v296.17C577.92,494.01,573.36,498.57,567.77,498.57z"/>
		<path class="st594" d="M75.52,498.57v2.95c0,8.64,7.07,15.7,15.7,15.7h517.55c8.64,0,15.7-7.07,15.7-15.7v-2.95H75.52z"/>
		<rect x="154.45" y="210.72" class="st595" width="392.79" height="262.17"/>
		<path class="st596" d="M384.41,514.73h-68.82c-4.07,0-7.38-3.3-7.38-7.36v-1.91h83.57v1.91
			C391.78,511.43,388.48,514.73,384.41,514.73z M309.5,506.75v0.62c0,3.35,2.73,6.08,6.09,6.08h68.82c3.36,0,6.09-2.73,6.09-6.08
			v-0.62H309.5z"/>
		<g>
			<rect x="263.61" y="82.77" class="st0" width="32.55" height="9.48"/>
			<rect x="321.03" y="82.77" class="st0" width="32.55" height="9.48"/>
			<rect x="392.04" y="82.77" class="st0" width="32.55" height="9.48"/>
			<rect x="248.28" y="96.23" class="st0" width="207.68" height="357.79"/>
			<rect x="240.38" y="454.03" class="st597" width="223.48" height="16.73"/>
			<g>
				<rect x="292.72" y="465.18" class="st0" width="118.79" height="5.58"/>
				<rect x="301.54" y="459.6" class="st0" width="101.16" height="5.58"/>
				<rect x="312.4" y="454.03" class="st0" width="79.43" height="5.58"/>
				<rect x="312.4" y="458.48" class="st598" width="79.43" height="1.12"/>
				<rect x="301.54" y="464.06" class="st598" width="101.16" height="1.12"/>
			</g>
			<rect x="369.16" y="337.81" class="st599" width="86.8" height="57.21"/>
			<rect x="369.16" y="337.81" class="st600" width="1.91" height="57.21"/>
			<rect x="341.52" y="412.74" class="st601" width="21.08" height="41.29"/>
			<rect x="389.13" y="351.36" class="st0" width="36.26" height="43.66"/>
			<rect x="408.31" y="353.73" class="st601" width="15.13" height="39.05"/>
			<rect x="390.97" y="353.73" class="st601" width="15.13" height="39.05"/>
			<polygon class="st598" points="455.96,403.43 248.28,407.21 248.28,402.43 455.96,402.43 			"/>
			<polygon class="st598" points="369.16,342.51 248.28,346.3 248.28,341.52 369.16,341.52 			"/>
			<polygon class="st600" points="455.96,343.3 369.16,348.47 369.16,341.52 455.96,341.52 			"/>
			<g>
				<rect x="378.1" y="386.1" class="st0" width="3.29" height="8.91"/>
				<rect x="416.2" y="386.1" class="st0" width="3.29" height="8.91"/>
				<rect x="454.31" y="386.1" class="st0" width="3.29" height="8.91"/>
				<rect x="435.26" y="386.1" class="st0" width="3.29" height="8.91"/>
				<rect x="397.15" y="386.1" class="st0" width="3.29" height="8.91"/>
			</g>
			<g>
				<rect x="378.1" y="386.1" class="st598" width="3.29" height="1.78"/>
				<rect x="416.2" y="386.1" class="st598" width="3.29" height="1.78"/>
				<rect x="454.31" y="386.1" class="st598" width="3.29" height="1.78"/>
				<rect x="435.26" y="386.1" class="st598" width="3.29" height="1.78"/>
				<rect x="397.15" y="386.1" class="st598" width="3.29" height="1.78"/>
			</g>
			<rect x="242.89" y="395.02" class="st602" width="218.45" height="7.41"/>
			<rect x="369.16" y="384.49" class="st0" width="92.19" height="1.61"/>
			<rect x="315.23" y="402.43" class="st599" width="10.26" height="51.6"/>
			<rect x="378.75" y="402.43" class="st599" width="10.26" height="51.6"/>
			<rect x="315.23" y="402.43" class="st600" width="10.26" height="2.39"/>
			<rect x="378.75" y="402.43" class="st600" width="10.26" height="2.39"/>
			<g>
				<g>
					<g>
						<rect x="261.94" y="423.78" class="st601" width="6.46" height="22.8"/>
						<rect x="261.94" y="414.07" class="st601" width="6.46" height="7.75"/>
					</g>
					<g>
						<rect x="269.72" y="423.78" class="st601" width="21.45" height="22.8"/>
						<rect x="269.72" y="414.07" class="st601" width="21.45" height="7.75"/>
					</g>
					<g>
						<rect x="292.49" y="423.78" class="st601" width="6.46" height="22.8"/>
						<rect x="292.49" y="414.07" class="st601" width="6.46" height="7.75"/>
					</g>
				</g>
				<polygon class="st598" points="260.34,412.74 259.31,412.74 259.31,449.67 300.46,449.67 300.46,448.56 260.34,448.56 				"/>
			</g>
			<g>
				<g>
					<g>
						<rect x="261.94" y="363.23" class="st601" width="6.46" height="22.8"/>
						<rect x="261.94" y="353.52" class="st601" width="6.46" height="7.75"/>
					</g>
					<g>
						<rect x="269.72" y="363.23" class="st601" width="21.45" height="22.8"/>
						<rect x="269.72" y="353.52" class="st601" width="21.45" height="7.75"/>
					</g>
					<g>
						<rect x="292.49" y="363.23" class="st601" width="6.46" height="22.8"/>
						<rect x="292.49" y="353.52" class="st601" width="6.46" height="7.75"/>
					</g>
				</g>
				<polygon class="st598" points="260.34,352.19 259.31,352.19 259.31,389.12 300.46,389.12 300.46,388.01 260.34,388.01 				"/>
			</g>
			<rect x="369.16" y="276.9" class="st599" width="86.8" height="57.21"/>
			<rect x="369.16" y="276.9" class="st600" width="1.91" height="57.21"/>
			<rect x="242.89" y="273.19" class="st602" width="218.45" height="7.41"/>
			<rect x="389.13" y="290.44" class="st0" width="36.26" height="43.66"/>
			<rect x="408.31" y="292.82" class="st601" width="15.13" height="39.05"/>
			<rect x="390.97" y="292.82" class="st601" width="15.13" height="39.05"/>
			<polygon class="st598" points="369.16,281.6 248.28,285.38 248.28,280.6 369.16,280.6 			"/>
			<polygon class="st600" points="455.96,282.39 369.16,287.56 369.16,280.6 455.96,280.6 			"/>
			<g>
				<rect x="378.1" y="325.19" class="st0" width="3.29" height="8.91"/>
				<rect x="416.2" y="325.19" class="st0" width="3.29" height="8.91"/>
				<rect x="454.31" y="325.19" class="st0" width="3.29" height="8.91"/>
				<rect x="435.26" y="325.19" class="st0" width="3.29" height="8.91"/>
				<rect x="397.15" y="325.19" class="st0" width="3.29" height="8.91"/>
			</g>
			<g>
				<rect x="378.1" y="325.19" class="st598" width="3.29" height="1.78"/>
				<rect x="416.2" y="325.19" class="st598" width="3.29" height="1.78"/>
				<rect x="454.31" y="325.19" class="st598" width="3.29" height="1.78"/>
				<rect x="435.26" y="325.19" class="st598" width="3.29" height="1.78"/>
				<rect x="397.15" y="325.19" class="st598" width="3.29" height="1.78"/>
			</g>
			<rect x="369.16" y="323.58" class="st0" width="92.19" height="1.61"/>
			<g>
				<g>
					<g>
						<rect x="261.94" y="302.32" class="st601" width="6.46" height="22.8"/>
						<rect x="261.94" y="292.61" class="st601" width="6.46" height="7.75"/>
					</g>
					<g>
						<rect x="269.72" y="302.32" class="st601" width="21.45" height="22.8"/>
						<rect x="269.72" y="292.61" class="st601" width="21.45" height="7.75"/>
					</g>
					<g>
						<rect x="292.49" y="302.32" class="st601" width="6.46" height="22.8"/>
						<rect x="292.49" y="292.61" class="st601" width="6.46" height="7.75"/>
					</g>
				</g>
				<polygon class="st598" points="260.34,291.28 259.31,291.28 259.31,328.21 300.46,328.21 300.46,327.1 260.34,327.1 				"/>
			</g>
			<rect x="369.16" y="215.98" class="st599" width="86.8" height="57.21"/>
			<rect x="369.16" y="215.98" class="st600" width="1.91" height="57.21"/>
			<rect x="242.89" y="212.28" class="st602" width="218.45" height="7.41"/>
			<rect x="389.13" y="229.53" class="st0" width="36.26" height="43.66"/>
			<rect x="408.31" y="231.9" class="st601" width="15.13" height="39.05"/>
			<rect x="390.97" y="231.9" class="st601" width="15.13" height="39.05"/>
			<polygon class="st598" points="369.16,220.69 248.28,224.47 248.28,219.69 369.16,219.69 			"/>
			<polygon class="st600" points="455.96,221.48 369.16,226.65 369.16,219.69 455.96,219.69 			"/>
			<g>
				<rect x="378.1" y="264.28" class="st0" width="3.29" height="8.91"/>
				<rect x="416.2" y="264.28" class="st0" width="3.29" height="8.91"/>
				<rect x="454.31" y="264.28" class="st0" width="3.29" height="8.91"/>
				<rect x="435.26" y="264.28" class="st0" width="3.29" height="8.91"/>
				<rect x="397.15" y="264.28" class="st0" width="3.29" height="8.91"/>
			</g>
			<g>
				<rect x="378.1" y="264.28" class="st598" width="3.29" height="1.78"/>
				<rect x="416.2" y="264.28" class="st598" width="3.29" height="1.78"/>
				<rect x="454.31" y="264.28" class="st598" width="3.29" height="1.78"/>
				<rect x="435.26" y="264.28" class="st598" width="3.29" height="1.78"/>
				<rect x="397.15" y="264.28" class="st598" width="3.29" height="1.78"/>
			</g>
			<rect x="369.16" y="262.67" class="st0" width="92.19" height="1.61"/>
			<g>
				<g>
					<g>
						<rect x="261.94" y="241.41" class="st601" width="6.46" height="22.8"/>
						<rect x="261.94" y="231.7" class="st601" width="6.46" height="7.75"/>
					</g>
					<g>
						<rect x="269.72" y="241.41" class="st601" width="21.45" height="22.8"/>
						<rect x="269.72" y="231.7" class="st601" width="21.45" height="7.75"/>
					</g>
					<g>
						<rect x="292.49" y="241.41" class="st601" width="6.46" height="22.8"/>
						<rect x="292.49" y="231.7" class="st601" width="6.46" height="7.75"/>
					</g>
				</g>
				<polygon class="st598" points="260.34,230.37 259.31,230.37 259.31,267.3 300.46,267.3 300.46,266.18 260.34,266.18 				"/>
			</g>
			<g>
				<g>
					<g>
						<rect x="318.79" y="363.23" class="st601" width="6.46" height="22.8"/>
						<rect x="318.79" y="353.52" class="st601" width="6.46" height="7.75"/>
					</g>
					<g>
						<rect x="326.57" y="363.23" class="st601" width="21.45" height="22.8"/>
						<rect x="326.57" y="353.52" class="st601" width="21.45" height="7.75"/>
					</g>
					<g>
						<rect x="349.34" y="363.23" class="st601" width="6.46" height="22.8"/>
						<rect x="349.34" y="353.52" class="st601" width="6.46" height="7.75"/>
					</g>
				</g>
				<polygon class="st598" points="317.19,352.19 316.16,352.19 316.16,389.12 357.32,389.12 357.32,388.01 317.19,388.01 				"/>
			</g>
			<g>
				<g>
					<g>
						<rect x="318.79" y="302.32" class="st601" width="6.46" height="22.8"/>
						<rect x="318.79" y="292.61" class="st601" width="6.46" height="7.75"/>
					</g>
					<g>
						<rect x="326.57" y="302.32" class="st601" width="21.45" height="22.8"/>
						<rect x="326.57" y="292.61" class="st601" width="21.45" height="7.75"/>
					</g>
					<g>
						<rect x="349.34" y="302.32" class="st601" width="6.46" height="22.8"/>
						<rect x="349.34" y="292.61" class="st601" width="6.46" height="7.75"/>
					</g>
				</g>
				<polygon class="st598" points="317.19,291.28 316.16,291.28 316.16,328.21 357.32,328.21 357.32,327.1 317.19,327.1 				"/>
			</g>
			<g>
				<g>
					<g>
						<rect x="318.79" y="241.41" class="st601" width="6.46" height="22.8"/>
						<rect x="318.79" y="231.7" class="st601" width="6.46" height="7.75"/>
					</g>
					<g>
						<rect x="326.57" y="241.41" class="st601" width="21.45" height="22.8"/>
						<rect x="326.57" y="231.7" class="st601" width="21.45" height="7.75"/>
					</g>
					<g>
						<rect x="349.34" y="241.41" class="st601" width="6.46" height="22.8"/>
						<rect x="349.34" y="231.7" class="st601" width="6.46" height="7.75"/>
					</g>
				</g>
				<polygon class="st598" points="317.19,230.37 316.16,230.37 316.16,267.3 357.32,267.3 357.32,266.18 317.19,266.18 				"/>
			</g>
			<rect x="369.16" y="155.07" class="st599" width="86.8" height="57.21"/>
			<rect x="369.16" y="155.07" class="st600" width="1.91" height="57.21"/>
			<rect x="242.89" y="151.37" class="st602" width="218.45" height="7.41"/>
			<rect x="389.13" y="168.62" class="st0" width="36.26" height="43.66"/>
			<rect x="408.31" y="170.99" class="st601" width="15.13" height="39.05"/>
			<rect x="390.97" y="170.99" class="st601" width="15.13" height="39.05"/>
			<polygon class="st598" points="369.16,159.78 248.28,163.56 248.28,158.78 369.16,158.78 			"/>
			<polygon class="st600" points="455.96,160.57 369.16,165.74 369.16,158.78 455.96,158.78 			"/>
			<g>
				<rect x="378.1" y="203.37" class="st0" width="3.29" height="8.91"/>
				<rect x="416.2" y="203.37" class="st0" width="3.29" height="8.91"/>
				<rect x="454.31" y="203.37" class="st0" width="3.29" height="8.91"/>
				<rect x="435.26" y="203.37" class="st0" width="3.29" height="8.91"/>
				<rect x="397.15" y="203.37" class="st0" width="3.29" height="8.91"/>
			</g>
			<g>
				<rect x="378.1" y="203.37" class="st598" width="3.29" height="1.78"/>
				<rect x="416.2" y="203.37" class="st598" width="3.29" height="1.78"/>
				<rect x="454.31" y="203.37" class="st598" width="3.29" height="1.78"/>
				<rect x="435.26" y="203.37" class="st598" width="3.29" height="1.78"/>
				<rect x="397.15" y="203.37" class="st598" width="3.29" height="1.78"/>
			</g>
			<rect x="369.16" y="201.76" class="st0" width="92.19" height="1.61"/>
			<g>
				<g>
					<g>
						<rect x="261.94" y="180.5" class="st601" width="6.46" height="22.8"/>
						<rect x="261.94" y="170.79" class="st601" width="6.46" height="7.75"/>
					</g>
					<g>
						<rect x="269.72" y="180.5" class="st601" width="21.45" height="22.8"/>
						<rect x="269.72" y="170.79" class="st601" width="21.45" height="7.75"/>
					</g>
					<g>
						<rect x="292.49" y="180.5" class="st601" width="6.46" height="22.8"/>
						<rect x="292.49" y="170.79" class="st601" width="6.46" height="7.75"/>
					</g>
				</g>
				<polygon class="st598" points="260.34,169.45 259.31,169.45 259.31,206.38 300.46,206.38 300.46,205.27 260.34,205.27 				"/>
			</g>
			<g>
				<g>
					<g>
						<rect x="318.79" y="180.5" class="st601" width="6.46" height="22.8"/>
						<rect x="318.79" y="170.79" class="st601" width="6.46" height="7.75"/>
					</g>
					<g>
						<rect x="326.57" y="180.5" class="st601" width="21.45" height="22.8"/>
						<rect x="326.57" y="170.79" class="st601" width="21.45" height="7.75"/>
					</g>
					<g>
						<rect x="349.34" y="180.5" class="st601" width="6.46" height="22.8"/>
						<rect x="349.34" y="170.79" class="st601" width="6.46" height="7.75"/>
					</g>
				</g>
				<polygon class="st598" points="317.19,169.45 316.16,169.45 316.16,206.38 357.32,206.38 357.32,205.27 317.19,205.27 				"/>
			</g>
			<rect x="369.16" y="94.16" class="st599" width="86.8" height="57.21"/>
			<rect x="369.16" y="94.16" class="st600" width="1.91" height="57.21"/>
			<rect x="242.89" y="90.45" class="st602" width="218.45" height="7.41"/>
			<rect x="389.13" y="107.7" class="st0" width="36.26" height="43.66"/>
			<rect x="408.31" y="110.08" class="st601" width="15.13" height="39.05"/>
			<rect x="390.97" y="110.08" class="st601" width="15.13" height="39.05"/>
			<polygon class="st598" points="369.16,98.86 248.28,102.65 248.28,97.87 369.16,97.87 			"/>
			<polygon class="st600" points="455.96,99.65 369.16,104.82 369.16,97.87 455.96,97.87 			"/>
			<g>
				<rect x="378.1" y="142.45" class="st0" width="3.29" height="8.91"/>
				<rect x="416.2" y="142.45" class="st0" width="3.29" height="8.91"/>
				<rect x="454.31" y="142.45" class="st0" width="3.29" height="8.91"/>
				<rect x="435.26" y="142.45" class="st0" width="3.29" height="8.91"/>
				<rect x="397.15" y="142.45" class="st0" width="3.29" height="8.91"/>
			</g>
			<g>
				<rect x="378.1" y="142.45" class="st598" width="3.29" height="1.78"/>
				<rect x="416.2" y="142.45" class="st598" width="3.29" height="1.78"/>
				<rect x="454.31" y="142.45" class="st598" width="3.29" height="1.78"/>
				<rect x="435.26" y="142.45" class="st598" width="3.29" height="1.78"/>
				<rect x="397.15" y="142.45" class="st598" width="3.29" height="1.78"/>
			</g>
			<rect x="369.16" y="140.84" class="st0" width="92.19" height="1.61"/>
			<g>
				<g>
					<g>
						<rect x="261.94" y="119.58" class="st601" width="6.46" height="22.8"/>
						<rect x="261.94" y="109.87" class="st601" width="6.46" height="7.75"/>
					</g>
					<g>
						<rect x="269.72" y="119.58" class="st601" width="21.45" height="22.8"/>
						<rect x="269.72" y="109.87" class="st601" width="21.45" height="7.75"/>
					</g>
					<g>
						<rect x="292.49" y="119.58" class="st601" width="6.46" height="22.8"/>
						<rect x="292.49" y="109.87" class="st601" width="6.46" height="7.75"/>
					</g>
				</g>
				<polygon class="st598" points="260.34,108.54 259.31,108.54 259.31,145.47 300.46,145.47 300.46,144.36 260.34,144.36 				"/>
			</g>
			<g>
				<g>
					<g>
						<rect x="318.79" y="119.58" class="st601" width="6.46" height="22.8"/>
						<rect x="318.79" y="109.87" class="st601" width="6.46" height="7.75"/>
					</g>
					<g>
						<rect x="326.57" y="119.58" class="st601" width="21.45" height="22.8"/>
						<rect x="326.57" y="109.87" class="st601" width="21.45" height="7.75"/>
					</g>
					<g>
						<rect x="349.34" y="119.58" class="st601" width="6.46" height="22.8"/>
						<rect x="349.34" y="109.87" class="st601" width="6.46" height="7.75"/>
					</g>
				</g>
				<polygon class="st598" points="317.19,108.54 316.16,108.54 316.16,145.47 357.32,145.47 357.32,144.36 317.19,144.36 				"/>
			</g>
			<g>
				<g>
					<g>
						<rect x="401.64" y="423.78" class="st601" width="7.63" height="22.8"/>
						<rect x="401.64" y="414.07" class="st601" width="7.63" height="7.75"/>
					</g>
					<g>
						<rect x="410.83" y="423.78" class="st601" width="25.34" height="22.8"/>
						<rect x="410.83" y="414.07" class="st601" width="25.34" height="7.75"/>
					</g>
					<g>
						<rect x="437.72" y="423.78" class="st601" width="7.63" height="22.8"/>
						<rect x="437.72" y="414.07" class="st601" width="7.63" height="7.75"/>
					</g>
				</g>
				<polygon class="st598" points="399.75,412.74 398.54,412.74 398.54,449.67 447.15,449.67 447.15,448.56 399.75,448.56 				"/>
			</g>
			<g>
				<rect x="339.29" y="412.74" class="st598" width="0.67" height="41.29"/>
				<rect x="364.15" y="412.74" class="st598" width="0.67" height="41.29"/>
			</g>
			<rect x="337.33" y="409.62" class="st599" width="29.45" height="3.12"/>
			<rect x="242.89" y="334.1" class="st602" width="218.45" height="7.41"/>
		</g>
		<g>
			<g>
				<path class="st603" d="M154.62,472.63h38.77c-0.55-2.01-1.95-3.59-3.56-4.3c-1.73-0.77-3.65-0.65-5.43-0.07
					c0.33-0.11,0.77-0.78,0.99-1.06c0.55-0.68,0.99-1.39,1.11-2.33c0.14-1.05-0.13-2.11-0.7-2.93c-0.95-1.38-2.62-1.88-4.11-1.7
					c-0.07,0.01-0.15,0.02-0.22,0.03c-0.29,0.05-0.58,0.13-0.85,0.25c-1.19,0.53-2.25,1.46-3.15,2.48c-0.17,0.19-0.34,0.39-0.49,0.6
					c0,0,2.52-2.39,3.11-4.2c2.19-5.16-2.44-12.64-8.2-10.52c-2.31,1.11-4.2,3.38-5.45,6.06c4.61-7.86-3.03-12.63-5.74-5.56
					c1.68-5.83-0.82-11.93-5.88-8.51c-0.07,0.03-0.14,0.07-0.21,0.1V472.63z"/>
				<path class="st603" d="M154.62,472.63h22.84c-0.32-1.19-1.15-2.11-2.1-2.54c-1.02-0.45-2.15-0.39-3.2-0.04
					c0.53-1.18-0.2-2.78-1.22-3.24c-1.02-0.46-2.17-0.08-3.15,0.5c0.85-0.45,1.48-1.41,1.83-2.48c1.29-3.04-1.44-7.45-4.83-6.2
					c-1.36,0.65-2.48,1.99-3.21,3.57c2.71-4.63-1.78-7.44-3.38-3.28c1.55-4.56-1.45-7.23-3.59-6.2V472.63z"/>
				<path class="st603" d="M178.3,447.73c-0.61,0.63-1.5,0.54-1.5,0.54s0.11-1.1,0.72-1.73c0.61-0.63,1.5-0.54,1.5-0.54
					S178.92,447.1,178.3,447.73z"/>
				<path class="st603" d="M160.68,455.03c-0.46,0.94-1.44,1.22-1.44,1.22s-0.24-1.24,0.21-2.17c0.46-0.94,1.44-1.22,1.44-1.22
					S161.14,454.09,160.68,455.03z"/>
				<path class="st603" d="M176.44,445.24c0.26,1.32-0.35,2.65-0.35,2.65s-1.03-0.82-1.29-2.15c-0.26-1.32,0.35-2.65,0.35-2.65
					S176.18,443.91,176.44,445.24z"/>
			</g>
			<g>
				<polygon class="st604" points="510.83,472.52 509.85,458.43 517.68,449.4 517.2,449.02 512.59,452.95 511.91,449.02 
					511.18,449.21 511.31,454.11 509.43,455.93 508.71,441.54 512.55,436.81 512.12,436.45 508.15,439.61 507.89,432.08 
					506.86,432.08 506.17,441.34 505.17,450.53 500,444.95 499.52,445.27 501.4,448.23 498.12,448.18 498.12,448.73 501.71,449.27 
					505.23,454.77 504.43,472.52 				"/>
				<path class="st603" d="M477.41,421.57c-0.06-1.76,0.07-3.56,0.81-5.16c0.74-1.59,2.19-2.95,3.93-3.2
					c1.01-0.14,2.14,0.14,2.76,0.94c-1.97-2.44-3.77-5.11-4.54-8.14c-0.78-3.03-0.39-6.5,1.64-8.89c1.95-2.3,5.21-3.29,8.2-2.86
					c2.99,0.44,5.69,2.18,7.66,4.46c-0.21-4.71-1.3-9.45-0.44-14.08c0.87-4.63,4.56-9.27,9.29-9.06c3.2,0.14,5.9,2.43,7.94,4.89
					c4.24,5.11,6.85,11.53,7.38,18.14c1.23-1.68,2.48-3.39,4.12-4.67c1.64-1.29,3.76-2.12,5.82-1.78c3.39,0.55,5.55,3.99,6.37,7.31
					c0.88,3.55,0.75,7.34-0.36,10.82c-1.85,5.75-6.18,10.32-10.39,14.67c1.93-0.86,4.37,0.3,5.3,2.19c1.27,2.57,0.06,5.52-1.7,7.56
					c-1.48,1.72-3.45,2.96-5.48,3.97c-11.39,5.69-25.25,4.87-36.74-0.08c-4.27-1.84-7.24-4.88-9.51-8.95
					c-0.01-0.02-0.02-0.03-0.03-0.05C478.09,427.16,477.51,424.35,477.41,421.57z"/>
				<path class="st605" d="M513.99,445.45c0.53-0.61,2.1-0.86,2.07,0.26c0.46-3.46,5.01-2.15,2.88,1.16
					c3.49-3.61,6.59,1.01,2.07,3.07c3.84,0.08,1.7,5.54-1.67,3.16c1.36,0.81,0.49,2.61-0.97,2.37
					C514.46,454.83,510.47,448.63,513.99,445.45z"/>
				<path class="st597" d="M520.81,435.23c0.32-0.92,0.54-1.91,0.4-2.87c-0.14-0.97-0.69-1.91-1.58-2.32
					c-0.51-0.24-1.16-0.27-1.62,0.06c1.44-0.98,2.82-2.12,3.72-3.61c0.9-1.49,1.25-3.39,0.56-4.99c-0.67-1.53-2.24-2.58-3.9-2.82
					c-1.66-0.24-3.38,0.25-4.79,1.16c0.87-2.47,2.21-4.82,2.49-7.42c0.28-2.6-0.94-5.65-3.49-6.29c-1.73-0.43-3.53,0.35-5.01,1.34
					c-3.07,2.04-5.49,5.04-6.83,8.47c-0.38-1.09-0.78-2.2-1.44-3.14c-0.67-0.94-1.66-1.72-2.81-1.87c-1.89-0.25-3.59,1.24-4.56,2.87
					c-1.04,1.75-1.58,3.78-1.54,5.81c0.06,3.35,1.63,6.47,3.17,9.45c-0.89-0.76-2.37-0.54-3.17,0.32c-1.09,1.16-0.92,2.93-0.31,4.29
					c0.51,1.15,1.36,2.12,2.28,2.98c5.14,4.84,12.65,6.61,19.55,5.8c2.56-0.3,4.64-1.44,6.5-3.25c0.01-0.01,0.01-0.01,0.02-0.02
					C519.55,438.1,520.31,436.7,520.81,435.23z"/>
				<path class="st605" d="M533.71,423.43c-0.65,1.18-0.27,2.64-0.27,2.64s1.45-0.45,2.1-1.63c0.65-1.18,0.27-2.64,0.27-2.64
					S534.37,422.25,533.71,423.43z"/>
				<path class="st605" d="M537.63,425.93c-1.86-0.11-3.45,1.24-3.45,1.24s1.42,1.52,3.28,1.63c1.86,0.11,3.45-1.24,3.45-1.24
					S539.49,426.04,537.63,425.93z"/>
				<path class="st605" d="M496.87,449.81c0.67-0.28,0.99-1.02,0.99-1.02s-0.76-0.29-1.42-0.01c-0.67,0.28-0.99,1.02-0.99,1.02
					S496.21,450.09,496.87,449.81z"/>
				<path class="st605" d="M496.06,447.48c0.74,0.66,1.85,0.62,1.85,0.62s-0.09-1.11-0.83-1.77c-0.74-0.66-1.86-0.62-1.86-0.62
					S495.32,446.82,496.06,447.48z"/>
				<path class="st606" d="M497.08,408.75c0.94,0.96,2.46,1.02,2.46,1.02s-0.01-1.51-0.96-2.48c-0.94-0.96-2.46-1.02-2.46-1.02
					S496.13,407.78,497.08,408.75z"/>
				<path class="st606" d="M519.92,416.41c-0.88,0.33-1.33,1.28-1.33,1.28s0.97,0.41,1.85,0.07c0.88-0.33,1.33-1.28,1.33-1.28
					S520.79,416.07,519.92,416.41z"/>
				<path class="st606" d="M500.61,405.74c-0.64,1.74,0.19,3.65,0.19,3.65s1.88-0.91,2.52-2.65c0.64-1.74-0.19-3.65-0.19-3.65
					S501.25,404,500.61,405.74z"/>
				<path class="st606" d="M516.25,453.43c0.34,0.05,0.69,0.05,1,0.01c0.47-0.06,0.93-0.26,1.23-0.62c0.25-0.3,0.39-0.79,0.25-1.18
					c-0.2-0.56-0.94-0.43-1.28-0.85c-0.19-0.23-0.19-0.56-0.15-0.85c0.04-0.29,0.11-0.6,0.04-0.88c-0.07-0.29-0.35-0.55-0.64-0.49
					c-0.22,0.05-0.36,0.26-0.5,0.41c-0.09,0.09-0.2,0.18-0.33,0.17c-0.55-0.01-0.68-0.83-1.26-0.73c-0.6,0.11-0.94,0.73-1.11,1.26
					c-0.29,0.93-0.15,1.94,0.49,2.69C514.57,453.05,515.4,453.31,516.25,453.43z"/>
			</g>
			<g>
				<polygon class="st602" points="190.14,472.52 184.81,472.52 185.82,458.73 189.13,458.73 				"/>
				<rect x="186.6" y="412.88" class="st602" width="1.74" height="59.64"/>
				<polygon class="st602" points="190.22,412.88 184.73,412.88 182.71,402.96 192.24,402.96 				"/>
				<polygon class="st0" points="189.2,411.04 185.75,411.04 184.48,404.8 190.47,404.8 				"/>
				<polygon class="st602" points="190.22,400.44 184.73,400.44 182.71,402.96 192.24,402.96 				"/>
				<path class="st602" d="M190.63,412.88h-6.31c-0.28,0-0.52-0.23-0.52-0.51l0,0c0-0.28,0.23-0.51,0.52-0.51h6.31
					c0.28,0,0.52,0.23,0.52,0.51l0,0C191.15,412.65,190.92,412.88,190.63,412.88z"/>
				<path class="st602" d="M189.2,459.25h-3.44c-0.28,0-0.52-0.23-0.52-0.51l0,0c0-0.28,0.23-0.51,0.52-0.51h3.44
					c0.28,0,0.52,0.23,0.52,0.51l0,0C189.72,459.02,189.49,459.25,189.2,459.25z"/>
				<ellipse class="st602" cx="187.48" cy="400.44" rx="1.5" ry="1.49"/>
			</g>
		</g>
		<g>
			<g>
				<g>
					<path class="st603" d="M419.48,489.81c5.34-16.98,27.24-19.65,34.47-3.26c9.04-2.48,16.31,0.74,22.24,7.34
						c2.91-3.68,9.83-5.12,14.97-2.12c4.14-13.15,21.1-15.22,26.7-2.52c8.49-2.33,14.97,1.82,20.02,9.26H479.8h-10.15h-77.94
						C400.23,491.29,409.23,486.88,419.48,489.81z"/>
				</g>
				<g>
					<path class="st597" d="M440.04,498.39c0,0,6.43-5.79,19.48-4.34c3.71-3.52,8.17-5.1,13.58-3.61
						c4.81-10.91,19.38-9.13,22.93,2.17c6.82-1.95,12.81,0.98,18.48,5.79H440.04z"/>
				</g>
				<g>
					<path class="st597" d="M374.03,498.39c3.62-5.32,9.36-5.35,15.44-3.68c4.01-9.09,18.69-8.62,21.65,0.8
						c10.99-3.77,15.81,2.89,15.81,2.89H374.03z"/>
				</g>
				<g>
					<path class="st605" d="M435.76,472.61c0.69,1.34,2.28,1.89,2.28,1.89s0.48-1.62-0.21-2.95c-0.69-1.34-2.28-1.88-2.28-1.88
						S435.07,471.27,435.76,472.61z"/>
					<path class="st605" d="M440.49,470.55c-1.25,1.65-0.99,3.95-0.99,3.95s2.29-0.37,3.54-2.01c1.25-1.65,0.99-3.95,0.99-3.95
						S441.74,468.9,440.49,470.55z"/>
				</g>
				<g>
					<path class="st606" d="M502.17,488.6c0.39,1.45,1.84,2.32,1.84,2.32s0.8-1.48,0.41-2.93c-0.39-1.45-1.84-2.32-1.84-2.32
						S501.77,487.15,502.17,488.6z"/>
					<path class="st606" d="M507.23,487.57c-1.57,1.35-1.79,3.66-1.79,3.66s2.31,0.12,3.88-1.23c1.57-1.35,1.79-3.66,1.79-3.66
						S508.79,486.23,507.23,487.57z"/>
				</g>
			</g>
			<g>
				<g>
					<path class="st603" d="M203.28,492.23c-3.86-12.25-19.66-14.18-24.87-2.35c-6.52-1.79-11.77,0.54-16.05,5.29
						c-2.1-2.66-7.09-3.7-10.8-1.53c-2.99-9.49-15.23-10.98-19.27-1.82c-6.12-1.68-10.8,1.32-14.45,6.68h41.92h7.32h56.24
						C217.17,493.3,210.68,490.12,203.28,492.23z"/>
				</g>
				<g>
					<path class="st597" d="M188.45,498.43c0,0-4.64-4.17-14.06-3.13c-2.68-2.54-5.9-3.68-9.8-2.61
						c-3.47-7.87-13.98-6.59-16.55,1.56c-4.92-1.41-9.24,0.71-13.33,4.18H188.45z"/>
				</g>
				<g>
					<path class="st597" d="M236.08,498.43c-2.61-3.84-6.76-3.86-11.14-2.66c-2.89-6.56-13.49-6.22-15.62,0.58
						c-7.93-2.72-11.41,2.08-11.41,2.08H236.08z"/>
				</g>
				<g>
					<path class="st605" d="M191.54,479.82c-0.5,0.96-1.65,1.36-1.65,1.36s-0.34-1.17,0.15-2.13c0.5-0.96,1.65-1.36,1.65-1.36
						S192.03,478.86,191.54,479.82z"/>
					<path class="st605" d="M188.12,478.33c0.9,1.19,0.71,2.85,0.71,2.85s-1.65-0.26-2.55-1.45c-0.9-1.19-0.71-2.85-0.71-2.85
						S187.22,477.14,188.12,478.33z"/>
				</g>
				<g>
					<path class="st606" d="M143.62,491.36c-0.28,1.05-1.33,1.67-1.33,1.67s-0.58-1.07-0.3-2.11c0.28-1.05,1.33-1.67,1.33-1.67
						S143.91,490.32,143.62,491.36z"/>
					<path class="st606" d="M139.97,490.62c1.13,0.97,1.29,2.64,1.29,2.64s-1.67,0.09-2.8-0.89c-1.13-0.97-1.29-2.64-1.29-2.64
						S138.84,489.65,139.97,490.62z"/>
				</g>
			</g>
		</g>
		<g>
			<g>
				<path class="st607" d="M260.02,367.33c-1.51,0.02-2.95,0.35-4.26,0.94c-2.75,1.25-5.53-0.02-6.65-1.28
					c-3.05-3.42-7.44-5.58-12.34-5.58c-5.57,0-10.49,2.78-13.52,7.04c-1.64,2.61-4.55,2.36-6.07,2.36c-4.1,0-7.43,3.38-7.43,7.56
					c0,0.01,0,0.01,0,0.02h50.27V367.33z"/>
				<path class="st595" d="M248.12,373.42l-0.46-0.4c2.45-2.9,6.73-4.6,6.91-4.67l0.22,0.58
					C254.75,368.94,250.47,370.64,248.12,373.42z"/>
				<path class="st595" d="M224.4,374.51c-0.01-0.03-1.29-2.82-6.13-3.39l0.07-0.61c5.21,0.61,6.56,3.63,6.62,3.76L224.4,374.51z"/>
			</g>
			<g>
				<path class="st0" d="M154.23,324.99h84.91c-0.38-4.2-3.84-7.48-8.07-7.48c-1.67,0-3.22,0.51-4.51,1.39
					c-1.29,0.78-2.56,0.37-2.97-0.95c-1.55-4.98-6.13-8.58-11.54-8.58c-0.83,0-1.63,0.08-2.41,0.25c-2.84,0.46-4.3-0.85-4.71-2.84
					c-2.17-10.06-10.98-17.58-21.51-17.58c-9.72,0-17.96,6.4-20.89,15.28c-0.83,2.36-3.34,2.44-4.79,1.4
					c-1.08-0.77-2.26-1.4-3.52-1.87V324.99z"/>
				<path class="st595" d="M165.9,315.3c-2.32-4.25-5.06-7.2-8.89-9.57l0.32-0.53c3.92,2.43,6.73,5.45,9.11,9.79L165.9,315.3z"/>
				<path class="st595" d="M199.27,316.99l-0.51-0.33c4.15-6.52,10.25-7.28,10.51-7.31l0.07,0.61
					C209.28,309.97,203.26,310.73,199.27,316.99z"/>
				<path class="st595" d="M191.61,320.03l-0.43-0.43c2.16-2.22,5.03-3.38,7.82-3.18c2.4,0.17,4.49,1.31,5.88,3.21L204.4,320
					c-1.29-1.75-3.22-2.81-5.44-2.96C196.32,316.86,193.64,317.94,191.61,320.03z"/>
			</g>
			<g>
				<path class="st0" d="M546.75,351.42c-1.51,0.02-2.95,0.35-4.26,0.94c-2.75,1.25-5.53-0.02-6.65-1.28
					c-3.05-3.42-7.44-5.58-12.34-5.58c-5.57,0-10.49,2.78-13.52,7.04c-1.64,2.6-4.55,2.36-6.07,2.36c-4.1,0-7.43,3.38-7.43,7.56
					c0,0.01,0,0.01,0,0.02h50.26V351.42z"/>
				<path class="st595" d="M534.84,357.51l-0.46-0.4c2.45-2.9,6.73-4.6,6.91-4.67l0.22,0.58
					C541.47,353.03,537.19,354.73,534.84,357.51z"/>
				<path class="st595" d="M511.12,358.61c-0.01-0.03-1.29-2.82-6.13-3.39l0.07-0.61c5.21,0.61,6.56,3.63,6.62,3.76L511.12,358.61z"
					/>
			</g>
		</g>
	</g>
	<g>
		<path class="st0" d="M480.48,166.05h14.47l-17.78,24.03l31.19-24.03h106.37c4.53,0,8.23-3.7,8.23-8.23v-23.94
			c0-4.53-3.71-8.23-8.23-8.23H480.48c-4.53,0-8.23,3.7-8.23,8.23v23.94C472.25,162.34,475.95,166.05,480.48,166.05z"/>
		<polygon class="st608" points="548.35,134.62 550.8,142.16 558.73,142.16 552.32,146.82 554.77,154.36 548.35,149.7 
			541.94,154.36 544.39,146.82 537.98,142.16 545.9,142.16 		"/>
		<polygon class="st608" points="576.14,134.62 578.59,142.16 586.52,142.16 580.11,146.82 582.56,154.36 576.14,149.7 
			569.73,154.36 572.18,146.82 565.77,142.16 573.69,142.16 		"/>
		<polygon class="st608" points="603.93,134.62 606.38,142.16 614.31,142.16 607.9,146.82 610.35,154.36 603.93,149.7 
			597.52,154.36 599.97,146.82 593.56,142.16 601.48,142.16 		"/>
		<polygon class="st608" points="492.77,134.62 495.22,142.16 503.15,142.16 496.73,146.82 499.18,154.36 492.77,149.7 
			486.36,154.36 488.81,146.82 482.39,142.16 490.32,142.16 		"/>
		<polygon class="st608" points="520.56,134.62 523.01,142.16 530.94,142.16 524.53,146.82 526.98,154.36 520.56,149.7 
			514.15,154.36 516.6,146.82 510.19,142.16 518.11,142.16 		"/>
	</g>
</g>
</svg>
