<?xml version="1.0" encoding="utf-8"?>
<!-- Generator: Adobe Illustrator 24.3.0, SVG Export Plug-In . SVG Version: 6.00 Build 0)  -->
<svg version="1.1" id="Layer_1" xmlns="http://www.w3.org/2000/svg" xmlns:xlink="http://www.w3.org/1999/xlink" x="0px" y="0px"
	 viewBox="0 0 700 600" style="enable-background:new 0 0 700 600;" xml:space="preserve">
<style type="text/css">
	.st0{fill-rule:evenodd;clip-rule:evenodd;fill:#E6E6E6;}
	.st1{fill-rule:evenodd;clip-rule:evenodd;}
	.st2{fill-rule:evenodd;clip-rule:evenodd;fill:#333333;}
	.st3{fill-rule:evenodd;clip-rule:evenodd;fill:#464646;}
	.st4{fill-rule:evenodd;clip-rule:evenodd;fill:#151515;}
	.st5{fill-rule:evenodd;clip-rule:evenodd;fill:url(#SVGID_1_);}
	.st6{filter:url(#Adobe_OpacityMaskFilter);}
	.st7{fill-rule:evenodd;clip-rule:evenodd;fill:#FAFAFA;}
	.st8{mask:url(#SVGID_2_);}
	.st9{fill-rule:evenodd;clip-rule:evenodd;fill:#FFFFFF;}
	.st10{fill-rule:evenodd;clip-rule:evenodd;fill:#FDC00F;}
	.st11{fill-rule:evenodd;clip-rule:evenodd;fill:#131313;}
	.st12{fill-rule:evenodd;clip-rule:evenodd;fill:#C40000;}
	.st13{fill-rule:evenodd;clip-rule:evenodd;fill:url(#SVGID_3_);}
	.st14{fill-rule:evenodd;clip-rule:evenodd;fill:url(#SVGID_4_);}
	.st15{fill-rule:evenodd;clip-rule:evenodd;fill:url(#SVGID_5_);}
	.st16{fill-rule:evenodd;clip-rule:evenodd;fill:url(#SVGID_6_);}
	.st17{fill-rule:evenodd;clip-rule:evenodd;fill:#CACACA;}
	.st18{fill-rule:evenodd;clip-rule:evenodd;fill:url(#SVGID_7_);}
	
		.st19{fill-rule:evenodd;clip-rule:evenodd;fill:#131313;stroke:#000000;stroke-width:2.4001;stroke-linecap:round;stroke-linejoin:round;stroke-miterlimit:22.9256;}
	
		.st20{fill-rule:evenodd;clip-rule:evenodd;fill:#464646;stroke:#000000;stroke-width:2.4001;stroke-linecap:round;stroke-linejoin:round;stroke-miterlimit:22.9256;}
	.st21{fill-rule:evenodd;clip-rule:evenodd;fill:url(#SVGID_8_);}
	.st22{fill-rule:evenodd;clip-rule:evenodd;fill:url(#SVGID_9_);}
	.st23{fill-rule:evenodd;clip-rule:evenodd;fill:url(#SVGID_10_);}
	.st24{fill-rule:evenodd;clip-rule:evenodd;fill:url(#SVGID_11_);}
	.st25{fill-rule:evenodd;clip-rule:evenodd;fill:url(#SVGID_12_);}
	.st26{fill-rule:evenodd;clip-rule:evenodd;fill:url(#SVGID_13_);}
	.st27{fill-rule:evenodd;clip-rule:evenodd;fill:url(#SVGID_14_);}
	.st28{fill-rule:evenodd;clip-rule:evenodd;fill:url(#SVGID_15_);}
	.st29{fill-rule:evenodd;clip-rule:evenodd;fill:url(#SVGID_16_);}
	.st30{fill-rule:evenodd;clip-rule:evenodd;fill:url(#SVGID_17_);}
	.st31{filter:url(#Adobe_OpacityMaskFilter_1_);}
	.st32{fill-rule:evenodd;clip-rule:evenodd;fill:url(#SVGID_19_);}
	.st33{opacity:0.3;mask:url(#SVGID_18_);fill-rule:evenodd;clip-rule:evenodd;}
	.st34{filter:url(#Adobe_OpacityMaskFilter_2_);}
	.st35{fill-rule:evenodd;clip-rule:evenodd;fill:url(#SVGID_21_);}
	.st36{opacity:0.3;mask:url(#SVGID_20_);fill-rule:evenodd;clip-rule:evenodd;}
	.st37{filter:url(#Adobe_OpacityMaskFilter_3_);}
	.st38{fill-rule:evenodd;clip-rule:evenodd;fill:url(#SVGID_23_);}
	.st39{mask:url(#SVGID_22_);fill-rule:evenodd;clip-rule:evenodd;fill:#FFFFFF;}
	.st40{filter:url(#Adobe_OpacityMaskFilter_4_);}
	.st41{fill-rule:evenodd;clip-rule:evenodd;fill:url(#SVGID_25_);}
	.st42{opacity:0.6;mask:url(#SVGID_24_);fill-rule:evenodd;clip-rule:evenodd;fill:#FFFFFF;}
	.st43{filter:url(#Adobe_OpacityMaskFilter_5_);}
	.st44{fill-rule:evenodd;clip-rule:evenodd;fill:url(#SVGID_27_);}
	.st45{opacity:0.6;mask:url(#SVGID_26_);fill-rule:evenodd;clip-rule:evenodd;fill:#FFFFFF;}
	.st46{filter:url(#Adobe_OpacityMaskFilter_6_);}
	.st47{fill-rule:evenodd;clip-rule:evenodd;fill:url(#SVGID_29_);}
	.st48{mask:url(#SVGID_28_);fill-rule:evenodd;clip-rule:evenodd;fill:#FFFFFF;}
	.st49{filter:url(#Adobe_OpacityMaskFilter_7_);}
	.st50{fill-rule:evenodd;clip-rule:evenodd;fill:url(#SVGID_31_);}
	.st51{mask:url(#SVGID_30_);fill-rule:evenodd;clip-rule:evenodd;fill:#FFFFFF;}
	.st52{filter:url(#Adobe_OpacityMaskFilter_8_);}
	.st53{fill-rule:evenodd;clip-rule:evenodd;fill:url(#SVGID_33_);}
	.st54{mask:url(#SVGID_32_);fill-rule:evenodd;clip-rule:evenodd;fill:#FFFFFF;}
	.st55{filter:url(#Adobe_OpacityMaskFilter_9_);}
	.st56{fill-rule:evenodd;clip-rule:evenodd;fill:url(#SVGID_35_);}
	.st57{opacity:0.9;mask:url(#SVGID_34_);fill-rule:evenodd;clip-rule:evenodd;fill:#FFFFFF;}
	.st58{filter:url(#Adobe_OpacityMaskFilter_10_);}
	.st59{fill-rule:evenodd;clip-rule:evenodd;fill:url(#SVGID_37_);}
	.st60{opacity:0.8;mask:url(#SVGID_36_);fill-rule:evenodd;clip-rule:evenodd;fill:#FFFFFF;}
	.st61{fill:#E1E1E1;}
	.st62{fill:#ECECEC;}
	.st63{fill:#FFFFFF;}
	.st64{fill:#FFBF9D;}
	.st65{fill:#FF9A6C;}
	.st66{fill:#1A2E35;}
	.st67{fill:#375A64;}
	.st68{fill:none;stroke:#44555B;stroke-width:0.05;stroke-miterlimit:10;}
	.st69{fill:#FF735D;}
	.st70{opacity:0.3;}
	.st71{fill:#FAFAFA;}
	.st72{opacity:0.4;}
	.st73{opacity:0.81;fill:#E1E2FE;}
	.st74{opacity:0.14;fill:#3E479B;}
	.st75{fill:#F7A9B4;}
	.st76{opacity:0.39;fill:#F7A9B4;}
	.st77{fill:#599AF2;}
	.st78{opacity:0.07;fill:#ECF1F7;}
	.st79{fill:#3E479B;}
	.st80{opacity:0.39;fill:#6D6CD4;}
	.st81{opacity:0.39;fill:#3E479B;}
	.st82{fill:#6161B5;}
	.st83{opacity:0.28;}
	.st84{opacity:0.21;fill:#FFFFFF;}
	.st85{opacity:0.76;fill:#FFFFFF;}
	.st86{opacity:0.58;fill:#3E479B;}
	.st87{fill:none;}
	.st88{fill:#4C65BA;}
	.st89{opacity:0.43;fill:#3E479B;}
	.st90{fill:#F28393;}
	.st91{opacity:0.12;fill:#FFFFFF;}
	.st92{fill:url(#SVGID_38_);}
	.st93{fill:#91B3FA;}
	.st94{fill:#DCE5FE;}
	.st95{fill:#BDD0FB;}
	.st96{fill:url(#SVGID_39_);}
	.st97{opacity:0.73;fill:#FFFFFF;}
	.st98{fill:url(#SVGID_40_);}
	.st99{fill:url(#SVGID_41_);}
	.st100{opacity:0.51;fill:#FFFFFF;}
	.st101{fill:url(#SVGID_42_);}
	.st102{fill:url(#SVGID_43_);}
	.st103{fill:url(#SVGID_44_);}
	.st104{fill:url(#SVGID_45_);}
	.st105{fill:url(#SVGID_46_);}
	.st106{fill:url(#SVGID_47_);}
	.st107{fill:url(#SVGID_48_);}
	.st108{fill:url(#SVGID_49_);}
	.st109{fill:url(#SVGID_50_);}
	.st110{fill:url(#SVGID_51_);}
	.st111{fill:url(#SVGID_52_);}
	.st112{fill:url(#SVGID_53_);}
	.st113{fill:url(#SVGID_54_);}
	.st114{fill:url(#SVGID_55_);}
	.st115{fill:url(#SVGID_56_);}
	.st116{fill:url(#SVGID_57_);}
	.st117{fill:url(#SVGID_58_);}
	.st118{fill:url(#SVGID_59_);}
	.st119{fill:url(#SVGID_60_);}
	.st120{fill:url(#SVGID_61_);}
	.st121{fill:url(#SVGID_62_);}
	.st122{fill:url(#SVGID_63_);}
	.st123{fill:url(#SVGID_64_);}
	.st124{fill:url(#SVGID_65_);}
	.st125{fill:url(#SVGID_66_);}
	.st126{fill:url(#SVGID_67_);}
	.st127{fill:url(#SVGID_68_);}
	.st128{fill:url(#SVGID_69_);}
	.st129{fill:url(#SVGID_70_);}
	.st130{fill:url(#SVGID_71_);}
	.st131{fill:url(#SVGID_72_);}
	.st132{fill:url(#SVGID_73_);}
	.st133{fill:url(#SVGID_74_);}
	.st134{fill:url(#SVGID_75_);}
	.st135{fill:url(#SVGID_76_);}
	.st136{fill:url(#SVGID_77_);}
	.st137{fill:url(#SVGID_78_);}
	.st138{fill:url(#SVGID_79_);}
	.st139{fill:url(#SVGID_80_);}
	.st140{fill:url(#SVGID_81_);}
	.st141{fill:url(#SVGID_82_);}
	.st142{fill:url(#SVGID_83_);}
	.st143{fill:url(#SVGID_84_);}
	.st144{fill:url(#SVGID_85_);}
	.st145{fill:url(#SVGID_86_);}
	.st146{fill:url(#SVGID_87_);}
	.st147{fill:url(#SVGID_88_);}
	.st148{fill:url(#SVGID_89_);}
	.st149{fill:url(#SVGID_90_);}
	.st150{fill:url(#SVGID_91_);}
	.st151{fill:url(#SVGID_92_);}
	.st152{fill:url(#SVGID_93_);}
	.st153{fill:url(#SVGID_94_);}
	.st154{fill:url(#SVGID_95_);}
	.st155{fill:url(#SVGID_96_);}
	.st156{fill:url(#SVGID_97_);}
	.st157{fill:url(#SVGID_98_);}
	.st158{fill:url(#SVGID_99_);}
	.st159{fill:url(#SVGID_100_);}
	.st160{fill:url(#SVGID_101_);}
	.st161{fill:url(#SVGID_102_);}
	.st162{fill:url(#SVGID_103_);}
	.st163{fill:url(#SVGID_104_);}
	.st164{fill:url(#SVGID_105_);}
	.st165{fill:url(#SVGID_106_);}
	.st166{fill:url(#SVGID_107_);}
	.st167{fill:url(#SVGID_108_);}
	.st168{fill:url(#SVGID_109_);}
	.st169{fill:url(#SVGID_110_);}
	.st170{fill:url(#SVGID_111_);}
	.st171{fill:url(#SVGID_112_);}
	.st172{fill:url(#SVGID_113_);}
	.st173{fill:url(#SVGID_114_);}
	.st174{fill:url(#SVGID_115_);}
	.st175{fill:url(#SVGID_116_);}
	.st176{fill:url(#SVGID_117_);}
	.st177{fill:url(#SVGID_118_);}
	.st178{fill:url(#SVGID_119_);}
	.st179{fill:url(#SVGID_120_);}
	.st180{fill:url(#SVGID_121_);}
	.st181{fill:url(#SVGID_122_);}
	.st182{fill:url(#SVGID_123_);}
	.st183{fill:url(#SVGID_124_);}
	.st184{fill:url(#SVGID_125_);}
	.st185{fill:url(#SVGID_126_);}
	.st186{fill:url(#SVGID_127_);}
	.st187{fill:url(#SVGID_128_);}
	.st188{fill:url(#SVGID_129_);}
	.st189{fill:url(#SVGID_130_);}
	.st190{fill:url(#SVGID_131_);}
	.st191{fill:url(#SVGID_132_);}
	.st192{fill:url(#SVGID_133_);}
	.st193{fill:url(#SVGID_134_);}
	.st194{fill:url(#SVGID_135_);}
	.st195{fill:url(#SVGID_136_);}
	.st196{fill:url(#SVGID_137_);}
	.st197{fill:url(#SVGID_138_);}
	.st198{fill:url(#SVGID_139_);}
	.st199{fill:url(#SVGID_140_);}
	.st200{fill:url(#SVGID_141_);}
	.st201{fill:url(#SVGID_142_);}
	.st202{fill:url(#SVGID_143_);}
	.st203{fill:url(#SVGID_144_);}
	.st204{fill:url(#SVGID_145_);}
	.st205{fill:url(#SVGID_146_);}
	.st206{fill:url(#SVGID_147_);}
	.st207{fill:url(#SVGID_148_);}
	.st208{fill:url(#SVGID_149_);}
	.st209{fill:url(#SVGID_150_);}
	.st210{fill:url(#SVGID_151_);}
	.st211{fill:url(#SVGID_152_);}
	.st212{fill:url(#SVGID_153_);}
	.st213{fill:url(#SVGID_154_);}
	.st214{fill:url(#SVGID_155_);}
	.st215{fill:url(#SVGID_156_);}
	.st216{fill:url(#SVGID_157_);}
	.st217{fill:url(#SVGID_158_);}
	.st218{fill:url(#SVGID_159_);}
	.st219{fill:url(#SVGID_160_);}
	.st220{fill:url(#SVGID_161_);}
	.st221{fill:url(#SVGID_162_);}
	.st222{fill:url(#SVGID_163_);}
	.st223{fill:url(#SVGID_164_);}
	.st224{fill:url(#SVGID_165_);}
	.st225{fill:url(#SVGID_166_);}
	.st226{fill:url(#SVGID_167_);}
	.st227{fill:url(#SVGID_168_);}
	.st228{fill:url(#SVGID_169_);}
	.st229{fill:url(#SVGID_170_);}
	.st230{fill:url(#SVGID_171_);}
	.st231{fill:url(#SVGID_172_);}
	.st232{fill:url(#SVGID_173_);}
	.st233{fill:url(#SVGID_174_);}
	.st234{fill:url(#SVGID_175_);}
	.st235{fill:url(#SVGID_176_);}
	.st236{fill:url(#SVGID_177_);}
	.st237{fill:url(#SVGID_178_);}
	.st238{fill:url(#SVGID_179_);}
	.st239{fill:url(#SVGID_180_);}
	.st240{fill:url(#SVGID_181_);}
	.st241{fill:url(#SVGID_182_);}
	.st242{fill:url(#SVGID_183_);}
	.st243{fill:url(#SVGID_184_);}
	.st244{fill:url(#SVGID_185_);}
	.st245{fill:url(#SVGID_186_);}
	.st246{fill:url(#SVGID_187_);}
	.st247{fill:url(#SVGID_188_);}
	.st248{fill:url(#SVGID_189_);}
	.st249{fill:url(#SVGID_190_);}
	.st250{fill:url(#SVGID_191_);}
	.st251{fill:url(#SVGID_192_);}
	.st252{fill:url(#SVGID_193_);}
	.st253{fill:url(#SVGID_194_);}
	.st254{fill:url(#SVGID_195_);}
	.st255{fill:url(#SVGID_196_);}
	.st256{fill:url(#SVGID_197_);}
	.st257{fill:url(#SVGID_198_);}
	.st258{fill:url(#SVGID_199_);}
	.st259{fill:url(#SVGID_200_);}
	.st260{fill:url(#SVGID_201_);}
	.st261{fill:url(#SVGID_202_);}
	.st262{fill:url(#SVGID_203_);}
	.st263{fill:url(#SVGID_204_);}
	.st264{fill:url(#SVGID_205_);}
	.st265{fill:url(#SVGID_206_);}
	.st266{fill:url(#SVGID_207_);}
	.st267{fill:url(#SVGID_208_);}
	.st268{fill:url(#SVGID_209_);}
	.st269{fill:url(#SVGID_210_);}
	.st270{fill:url(#SVGID_211_);}
	.st271{fill:url(#SVGID_212_);}
	.st272{fill:url(#SVGID_213_);}
	.st273{fill:url(#SVGID_214_);}
	.st274{fill:url(#SVGID_215_);}
	.st275{fill:url(#SVGID_216_);}
	.st276{fill:url(#SVGID_217_);}
	.st277{fill:url(#SVGID_218_);}
	.st278{fill:url(#SVGID_219_);}
	.st279{fill:url(#SVGID_220_);}
	.st280{fill:url(#SVGID_221_);}
	.st281{fill:url(#SVGID_222_);}
	.st282{fill:url(#SVGID_223_);}
	.st283{fill:url(#SVGID_224_);}
	.st284{fill:url(#SVGID_225_);}
	.st285{fill:url(#SVGID_226_);}
	.st286{fill:url(#SVGID_227_);}
	.st287{fill:url(#SVGID_228_);}
	.st288{fill:url(#SVGID_229_);}
	.st289{fill:url(#SVGID_230_);}
	.st290{fill:url(#SVGID_231_);}
	.st291{fill:url(#SVGID_232_);}
	.st292{fill:url(#SVGID_233_);}
	.st293{fill:url(#SVGID_234_);}
	.st294{fill:url(#SVGID_235_);}
	.st295{fill:url(#SVGID_236_);}
	.st296{fill:url(#SVGID_237_);}
	.st297{fill:url(#SVGID_238_);}
	.st298{fill:url(#SVGID_239_);}
	.st299{fill:url(#SVGID_240_);}
	.st300{fill:url(#SVGID_241_);}
	.st301{fill:url(#SVGID_242_);}
	.st302{fill:url(#SVGID_243_);}
	.st303{fill:url(#SVGID_244_);}
	.st304{fill:url(#SVGID_245_);}
	.st305{fill:url(#SVGID_246_);}
	.st306{fill:url(#SVGID_247_);}
	.st307{fill:url(#SVGID_248_);}
	.st308{fill:url(#SVGID_249_);}
	.st309{fill:url(#SVGID_250_);}
	.st310{fill:url(#SVGID_251_);}
	.st311{fill:url(#SVGID_252_);}
	.st312{fill:url(#SVGID_253_);}
	.st313{fill:url(#SVGID_254_);}
	.st314{fill:url(#SVGID_255_);}
	.st315{fill:url(#SVGID_256_);}
	.st316{fill:url(#SVGID_257_);}
	.st317{fill:url(#SVGID_258_);}
	.st318{fill:url(#SVGID_259_);}
	.st319{fill:url(#SVGID_260_);}
	.st320{fill:url(#SVGID_261_);}
	.st321{fill:url(#SVGID_262_);}
	.st322{fill:url(#SVGID_263_);}
	.st323{fill:url(#SVGID_264_);}
	.st324{fill:#E8F2FC;stroke:#000000;stroke-width:3;stroke-linecap:round;stroke-linejoin:round;}
	.st325{fill:#FFFFFF;stroke:#000000;stroke-width:3;stroke-linecap:round;stroke-linejoin:round;}
	.st326{fill:#3B94EC;}
	.st327{fill:#D8DBD7;stroke:#010200;stroke-width:3;}
	.st328{opacity:0.17;fill:#010200;}
	.st329{fill:#FFFFFF;stroke:#020500;stroke-width:3;stroke-linecap:round;stroke-linejoin:round;}
	.st330{fill:#F5F5F5;}
	.st331{fill:#D5E3EF;}
	.st332{fill:none;stroke:#000000;stroke-width:3;stroke-linecap:round;stroke-linejoin:round;}
	.st333{fill:#3B94EC;stroke:#000000;stroke-width:3;stroke-linecap:round;stroke-linejoin:round;}
	.st334{fill:#FFFFFF;stroke:#000000;stroke-width:3;}
	.st335{fill:#E8F2FC;}
	.st336{fill:#3381E0;stroke:#000000;stroke-width:3;stroke-linecap:round;stroke-linejoin:round;}
	.st337{fill:#3B94EC;stroke:#010200;stroke-width:3;}
	.st338{fill:#DDDDDD;stroke:#000000;stroke-width:3;stroke-linecap:round;stroke-linejoin:round;}
	.st339{fill:#DDDDDD;}
	.st340{fill:#231F20;}
	.st341{fill:#FFFFFF;stroke:#000000;stroke-width:3;stroke-miterlimit:10;}
	.st342{fill:#FCFCFC;}
	.st343{opacity:0.46;fill:#707070;}
	.st344{fill:#010200;}
	.st345{fill:#3381E0;}
	.st346{fill:none;stroke:#FFFFFF;stroke-width:3;stroke-linecap:round;stroke-miterlimit:10;}
	.st347{fill:#F5F6F6;}
	.st348{fill:#F0F1F1;}
	.st349{fill:#EBECED;}
	.st350{fill:#E6E7E8;}
	.st351{fill:#E1E3E4;}
	.st352{fill:#DCDEDF;}
	.st353{fill:#D8D9DB;}
	.st354{fill:#D3D5D6;}
	.st355{fill:#CED0D2;}
	.st356{fill:#C9CBCD;}
	.st357{fill:#C4C6C9;}
	.st358{fill:#BFC2C4;}
	.st359{fill:#BABDC0;}
	.st360{fill:#B5B8BB;}
	.st361{fill:#B0B4B7;}
	.st362{fill:#ABAFB2;}
	.st363{fill:#A6AAAE;}
	.st364{fill:#A1A6A9;}
	.st365{fill:#9CA1A5;}
	.st366{fill:#979CA0;}
	.st367{fill:#92979C;}
	.st368{fill:#8D9397;}
	.st369{fill:#898E93;}
	.st370{fill:#84898E;}
	.st371{fill:#7F858A;}
	.st372{fill:#7A8085;}
	.st373{fill:#757B81;}
	.st374{fill:#70767C;}
	.st375{fill:#6B7278;}
	.st376{fill:#666D73;}
	.st377{fill:#556570;}
	.st378{fill:#445059;}
	.st379{fill:#A2D1F5;}
	.st380{fill:#EEF2F5;}
	.st381{fill:#404B54;}
	.st382{fill:#93A4B3;}
	.st383{fill:#BAE1FF;}
	.st384{fill:#41AB27;}
	.st385{fill:#D9F7FC;}
	.st386{fill:#005869;}
	.st387{fill:#1EABB0;}
	.st388{fill:#58D7DB;}
	.st389{fill:#004378;}
	.st390{fill:#147275;}
	.st391{fill:#C4EBF5;}
	.st392{fill:#00414D;}
	.st393{filter:url(#Adobe_OpacityMaskFilter_11_);}
	.st394{mask:url(#SVGID_265_);}
	.st395{fill:#DEA676;}
	.st396{fill:#E8B588;}
	.st397{fill:#06263B;}
	.st398{fill:#1A487E;}
	.st399{fill:#00959B;}
	.st400{fill:#091D38;}
	.st401{fill:#0E426F;}
	.st402{fill:#0E4B6F;}
	.st403{opacity:0.3;fill:#0E4B6F;}
	.st404{fill:#6ED5D8;}
	.st405{fill:#AFC4D7;}
	.st406{fill:#003257;}
	.st407{fill:#ABEBED;}
	.st408{fill:#EEA674;}
	.st409{opacity:0.3;fill:#003257;}
	.st410{fill:#008C91;}
	.st411{fill:#00284B;}
	.st412{opacity:0.5;fill:#AFC4D7;}
	.st413{opacity:0.75;fill:#0A3C5F;}
	.st414{fill:#FD9828;}
	.st415{fill:#00AEB5;}
	.st416{fill:#DFF1FC;}
	.st417{fill:#EDF6FC;}
	.st418{fill:#006E76;}
	.st419{fill:#0A3C5F;}
	.st420{fill:#002F54;}
	.st421{fill:#008188;}
	.st422{fill:#00B2B8;}
	.st423{fill:#024851;}
	.st424{fill:#036F76;}
	.st425{fill:#0CAAB0;}
	.st426{fill:#56C9CC;}
	.st427{fill:#CE5B00;}
	.st428{fill:#E57200;}
	.st429{fill:#FD8A00;}
	.st430{fill:#FFAF2F;}
	.st431{fill:#DD8400;}
	.st432{fill:#F9AF00;}
	.st433{fill:#FFD03C;}
	.st434{fill:#20C2C6;}
	.st435{fill:#0C9197;}
	.st436{fill:#7AD9DB;}
	.st437{fill:#006870;}
	.st438{fill:#003741;}
	.st439{fill:#D26900;}
	.st440{fill:#000F1A;}
	.st441{fill:#002040;}
	.st442{fill:#00365A;}
	.st443{fill:#0B5587;}
	.st444{fill:#006C73;}
	.st445{fill:#47C5C9;}
	.st446{fill:#E9FFFF;}
	.st447{fill:#FD8C10;}
	.st448{fill:#D38400;}
	.st449{fill:#F5AF15;}
	.st450{fill:#F4A600;}
	.st451{fill:#FFD633;}
	.st452{fill:#FEC22E;}
	.st453{fill:#3A3F48;}
	.st454{fill:#08848A;}
	.st455{fill:#4D4D47;}
	.st456{fill:#3C4148;}
	.st457{fill:#6A6D73;}
	.st458{fill:#3F4349;}
	.st459{fill:#009DA4;}
	.st460{fill:#3D4148;}
	.st461{fill:#FD7900;}
	.st462{fill:#10979D;}
	.st463{fill:#F48E00;}
	.st464{fill:#1EC0C4;}
	.st465{fill:#1D1D1B;}
	.st466{fill:#FD9A00;}
	.st467{fill:#3B4048;}
	.st468{fill:url(#SVGID_266_);}
	.st469{fill:url(#SVGID_267_);}
	.st470{fill:url(#SVGID_268_);}
	.st471{fill:url(#SVGID_269_);}
	.st472{fill:url(#SVGID_270_);}
	.st473{fill:url(#SVGID_271_);}
	.st474{fill:url(#SVGID_272_);}
	.st475{fill:url(#SVGID_273_);}
	.st476{fill:url(#SVGID_274_);}
	.st477{fill:url(#SVGID_275_);}
	.st478{fill:url(#SVGID_276_);}
	.st479{fill:url(#SVGID_277_);}
	.st480{fill:url(#SVGID_278_);}
	.st481{fill:url(#SVGID_279_);}
	.st482{fill:url(#SVGID_280_);}
	.st483{fill:url(#SVGID_281_);}
	.st484{fill:url(#SVGID_282_);}
	.st485{fill:url(#SVGID_283_);}
	.st486{fill:url(#SVGID_284_);}
	.st487{fill:url(#SVGID_285_);}
	.st488{fill:url(#SVGID_286_);}
	.st489{fill:url(#SVGID_287_);}
	.st490{fill:url(#SVGID_288_);}
	.st491{fill:url(#SVGID_289_);}
	.st492{fill:url(#SVGID_290_);}
	.st493{fill:url(#SVGID_291_);}
	.st494{fill:url(#SVGID_292_);}
	.st495{fill:url(#SVGID_293_);}
	.st496{fill:url(#SVGID_294_);}
	.st497{fill:url(#SVGID_295_);}
	.st498{fill:url(#SVGID_296_);}
	.st499{fill:url(#SVGID_297_);}
	.st500{fill:url(#SVGID_298_);}
	.st501{fill:url(#SVGID_299_);}
	.st502{fill:url(#SVGID_300_);}
	.st503{fill:#7D97F4;}
	.st504{fill:url(#SVGID_301_);}
	.st505{fill:url(#SVGID_302_);}
	.st506{fill:url(#SVGID_303_);}
	.st507{fill:url(#SVGID_304_);}
	.st508{fill:url(#SVGID_305_);}
	.st509{fill:url(#SVGID_306_);}
	.st510{fill:url(#SVGID_307_);}
	.st511{fill:url(#SVGID_308_);}
	.st512{fill:url(#SVGID_309_);}
	.st513{fill:url(#SVGID_310_);}
	.st514{fill:url(#SVGID_311_);}
	.st515{fill:url(#SVGID_312_);}
	.st516{fill:url(#SVGID_313_);}
	.st517{fill:url(#SVGID_314_);}
	.st518{fill:url(#SVGID_315_);}
	.st519{fill:url(#SVGID_316_);}
	.st520{fill:url(#SVGID_317_);}
	.st521{fill:url(#SVGID_318_);}
	.st522{fill:url(#SVGID_319_);}
	.st523{fill:url(#SVGID_320_);}
	.st524{fill:url(#SVGID_321_);}
	.st525{fill:url(#SVGID_322_);}
	.st526{fill:url(#SVGID_323_);}
	.st527{fill:url(#SVGID_324_);}
	.st528{fill:url(#SVGID_325_);}
	.st529{fill:url(#SVGID_326_);}
	.st530{fill:url(#SVGID_327_);}
	.st531{fill:url(#SVGID_328_);}
	.st532{fill:url(#SVGID_329_);}
	.st533{fill:url(#SVGID_330_);}
	.st534{fill:url(#SVGID_331_);}
	.st535{fill:url(#SVGID_332_);}
	.st536{fill:url(#SVGID_333_);}
	.st537{fill:url(#SVGID_334_);}
	.st538{fill:url(#SVGID_335_);}
	.st539{fill:url(#SVGID_336_);}
	.st540{fill:url(#SVGID_337_);}
	.st541{fill:url(#SVGID_338_);}
	.st542{fill:url(#SVGID_339_);}
	.st543{fill:url(#SVGID_340_);}
	.st544{fill:url(#SVGID_341_);}
	.st545{fill:url(#SVGID_342_);}
	.st546{fill:url(#SVGID_343_);}
	.st547{fill:url(#SVGID_344_);}
	.st548{fill:url(#SVGID_345_);}
	.st549{fill:url(#SVGID_346_);}
	.st550{fill:url(#SVGID_347_);}
	.st551{fill:url(#SVGID_348_);}
	.st552{fill:url(#SVGID_349_);}
	.st553{fill:url(#SVGID_350_);}
	.st554{fill:url(#SVGID_351_);}
	.st555{fill:url(#SVGID_352_);}
	.st556{fill:url(#SVGID_353_);}
	.st557{fill:url(#SVGID_354_);}
	.st558{fill:url(#SVGID_355_);}
	.st559{fill:url(#SVGID_356_);}
	.st560{fill:url(#SVGID_357_);}
	.st561{fill:url(#SVGID_358_);}
	.st562{fill:url(#SVGID_359_);}
	.st563{fill:url(#SVGID_360_);}
	.st564{fill:url(#SVGID_361_);}
	.st565{fill:url(#SVGID_362_);}
	.st566{fill:url(#SVGID_363_);}
	.st567{fill:url(#SVGID_364_);}
	.st568{fill:url(#SVGID_365_);}
	.st569{fill:url(#SVGID_366_);}
	.st570{fill:url(#SVGID_367_);}
	.st571{fill:url(#SVGID_368_);}
	.st572{fill:url(#SVGID_369_);}
	.st573{fill:url(#SVGID_370_);}
	.st574{fill:url(#SVGID_371_);}
	.st575{fill:url(#SVGID_372_);}
	.st576{fill:url(#SVGID_373_);}
	.st577{fill:url(#SVGID_374_);}
	.st578{fill:url(#SVGID_375_);}
	.st579{fill:url(#SVGID_376_);}
	.st580{fill:url(#SVGID_377_);}
	.st581{fill:url(#SVGID_378_);}
	.st582{fill:url(#SVGID_379_);}
	.st583{fill:url(#SVGID_380_);}
	.st584{fill:url(#SVGID_381_);}
	.st585{fill:url(#SVGID_382_);}
	.st586{fill:url(#SVGID_383_);}
	.st587{clip-path:url(#SVGID_385_);fill:url(#SVGID_386_);}
	.st588{fill:url(#SVGID_387_);}
	.st589{opacity:0.62;fill:#FFFFFF;}
	.st590{fill:url(#SVGID_388_);}
	.st591{fill:url(#SVGID_389_);}
	.st592{fill:url(#SVGID_390_);}
	.st593{fill:url(#SVGID_391_);}
	.st594{fill:url(#SVGID_392_);}
	.st595{fill:url(#SVGID_393_);}
	.st596{fill:url(#SVGID_394_);}
	.st597{fill:url(#SVGID_395_);}
	.st598{fill:url(#SVGID_396_);}
	.st599{opacity:0.71;fill:#FFFFFF;}
	.st600{opacity:0.75;fill:#FFFFFF;}
	.st601{fill:url(#SVGID_397_);}
	.st602{fill:url(#SVGID_398_);}
	.st603{fill:url(#SVGID_399_);}
	.st604{fill:url(#SVGID_400_);}
	.st605{fill:url(#SVGID_401_);}
	.st606{fill:url(#SVGID_402_);}
	.st607{fill:url(#SVGID_403_);}
	.st608{fill:url(#SVGID_404_);}
	.st609{fill:url(#SVGID_405_);}
	.st610{fill:url(#SVGID_406_);}
	.st611{fill:#5AE4A7;}
	.st612{opacity:0.7;fill:#FFFFFF;}
	.st613{fill:none;stroke:#1A2E35;stroke-linecap:round;stroke-linejoin:round;stroke-miterlimit:10;}
	.st614{fill:none;stroke:#1A2E35;stroke-width:2;stroke-linecap:round;stroke-linejoin:round;stroke-miterlimit:10;}
	.st615{fill:#FFFFFF;stroke:#1A2E35;stroke-linecap:round;stroke-linejoin:round;stroke-miterlimit:10;}
	.st616{fill:#5AE4A7;stroke:#1A2E35;stroke-linecap:round;stroke-linejoin:round;stroke-miterlimit:10;}
	.st617{opacity:0.5;fill:#5AE4A7;}
	.st618{opacity:0.5;}
	.st619{fill:#999999;stroke:#1A2E35;stroke-linecap:round;stroke-linejoin:round;stroke-miterlimit:10;}
	.st620{fill:#BFBFBF;stroke:#1A2E35;stroke-linecap:round;stroke-linejoin:round;stroke-miterlimit:10;}
	.st621{opacity:0.4;clip-path:url(#XMLID_15_);fill:#FFFFFF;}
	.st622{opacity:0.5;clip-path:url(#XMLID_15_);fill-opacity:0.7;}
	.st623{opacity:0.3;clip-path:url(#XMLID_105_);fill-opacity:0.7;}
	.st624{opacity:0.3;clip-path:url(#XMLID_106_);fill-opacity:0.7;}
	.st625{opacity:0.4;clip-path:url(#XMLID_107_);fill:#FFFFFF;}
	.st626{fill:#1A2E35;stroke:#1A2E35;stroke-linecap:round;stroke-linejoin:round;stroke-miterlimit:10;}
	.st627{fill:#757575;stroke:#1A2E35;stroke-linecap:round;stroke-linejoin:round;stroke-miterlimit:10;}
	.st628{opacity:0.5;clip-path:url(#XMLID_108_);fill-opacity:0.7;}
	.st629{opacity:0.3;clip-path:url(#XMLID_108_);fill-opacity:0.7;}
	.st630{opacity:0.4;clip-path:url(#XMLID_109_);fill:#FFFFFF;}
	.st631{opacity:0.4;fill:#FFFFFF;}
	.st632{opacity:0.2;fill:#FFFFFF;}
	.st633{fill:#CDD9FC;}
	.st634{fill:#27326D;}
	.st635{fill:#DDE6E9;}
	.st636{fill:#3B4AA3;}
	.st637{fill:#9BB3FA;}
	.st638{opacity:0.44;fill:#424242;}
	.st639{opacity:0.44;fill:#0540F2;}
	.st640{fill:#3766F5;}
	.st641{fill:#698CF7;}
	.st642{clip-path:url(#SVGID_412_);}
	.st643{fill:#DD2C10;}
	.st644{fill:#0420BF;}
	.st645{fill:#1675F2;}
	.st646{fill:none;stroke:#082A40;stroke-width:0.7247;stroke-linecap:round;stroke-linejoin:round;stroke-miterlimit:10;}
	.st647{fill:#FDBDBE;}
	.st648{fill:#CE1F0D;}
	.st649{fill:#EA9A9E;}
	.st650{fill:#082A40;}
	.st651{fill:#FF4A26;}
	.st652{fill:#FF9226;}
	.st653{opacity:0.2;}
	.st654{fill:none;stroke:#32324C;stroke-width:2;stroke-linecap:round;stroke-linejoin:round;}
	.st655{fill:none;stroke:#32324C;stroke-width:2;stroke-linecap:round;stroke-linejoin:round;stroke-dasharray:10.1974,7.1382;}
	
		.st656{opacity:0.2;fill:none;stroke:#32324C;stroke-width:2;stroke-linecap:round;stroke-linejoin:round;stroke-miterlimit:10;stroke-dasharray:10,7;}
	.st657{opacity:0.1;fill:#32324C;}
	.st658{fill:#2C2C2C;}
	.st659{fill:#DE9D01;}
	.st660{fill:#BF8005;}
	.st661{fill:none;stroke:#FFFFFF;stroke-width:0.75;stroke-miterlimit:10;}
	.st662{fill:#009762;}
	.st663{fill:#E2E2E2;}
	.st664{fill:#FFAF82;}
	.st665{fill:#F88968;}
	.st666{fill:#FFA378;}
	.st667{fill:#32324C;}
	.st668{fill:#00784E;}
	.st669{fill:#920E08;}
	.st670{fill:#F85C66;}
	.st671{fill:url(#SVGID_413_);}
	.st672{fill:url(#SVGID_414_);}
	.st673{fill:#050705;}
	.st674{fill:url(#SVGID_415_);}
	.st675{fill:#373E72;}
	.st676{fill:#397BFF;}
	.st677{opacity:0.2;fill:#344182;}
	.st678{fill:#F9F9F9;}
	.st679{fill:#FD5520;}
	.st680{fill:#F0F0F0;}
	.st681{fill:#E7E7E7;}
	.st682{fill:#007CFF;}
	.st683{opacity:0.3;fill:#1A2E35;}
	.st684{opacity:0.5;fill:#FFFFFF;}
	.st685{fill:#903C38;}
	.st686{fill:#740606;}
	.st687{opacity:0.6;}
	.st688{opacity:0.3;fill:#FFFFFF;}
	.st689{opacity:0.1;}
	.st690{opacity:0.6;fill:#FFFFFF;}
	.st691{clip-path:url(#SVGID_417_);}
	.st692{fill:#E0DFFB;}
	.st693{fill:#C3C2F0;}
	.st694{clip-path:url(#SVGID_419_);}
	.st695{fill:#CCCFDE;}
	.st696{fill:#8C5649;}
	.st697{fill:#454582;}
	.st698{fill:#5F5FA6;}
	.st699{fill:#505096;}
	.st700{fill:#313163;}
	.st701{fill:#6B6BBA;}
	.st702{fill:#3B3B78;}
	.st703{fill:#25254A;}
	.st704{fill:#9191CC;}
	.st705{fill:#7171B3;}
	.st706{fill:#4A4A82;}
	.st707{clip-path:url(#SVGID_421_);}
	.st708{fill:#170F16;}
	.st709{fill:#382536;}
	.st710{fill:#DEDEDE;}
	.st711{fill:#482F45;}
	.st712{fill:#6B4667;}
	.st713{fill:#EBE4DC;}
	.st714{fill:#D98218;}
	.st715{fill:#0D0D36;}
	.st716{fill:#FF8762;}
	.st717{fill:#E0B3A8;}
	.st718{fill:#EC8E1A;}
	.st719{fill:#E0C8A8;}
	.st720{fill:#52483D;}
	.st721{fill:#855780;}
	.st722{fill:#592F25;}
	.st723{fill:#783F31;}
	.st724{fill:#592011;}
	.st725{fill:#632313;}
	.st726{fill:#AB3C21;}
	.st727{fill:#BF654E;}
	.st728{fill:#D6C0A5;}
	.st729{fill:#1A1A4F;}
	.st730{fill:#4D72B0;}
	.st731{opacity:0.81;}
	.st732{fill:#E1E2FE;}
	.st733{fill:#0E100E;}
	.st734{fill:#212122;}
	.st735{fill:#7CA7D9;}
	.st736{fill:#F1CC59;}
	.st737{fill:#F0822A;}
	.st738{clip-path:url(#SVGID_425_);}
	.st739{fill:#F78F8D;}
	.st740{fill:#040156;}
	.st741{fill:#5D4C9B;}
	.st742{fill:#E56868;}
	.st743{fill:#6666DB;}
	.st744{fill:#FA9A3F;}
	.st745{fill:#F9918F;}
	.st746{fill:#FC6868;}
	.st747{fill:#FD918F;}
	.st748{fill:#D4D1C2;}
	.st749{fill:#02DAFF;}
	.st750{fill:#6D4C41;}
	.st751{fill:#FFF3E0;}
	.st752{opacity:0.8;}
	.st753{fill:#F5CBA7;}
	.st754{fill:#FFD54F;}
	.st755{fill:#FFF176;}
	.st756{fill:#FF8CC8;}
	.st757{fill:#FF5722;}
	.st758{fill:#FFA726;}
	.st759{fill:#F4F7FA;}
	.st760{fill:url(#SVGID_426_);}
	.st761{fill:url(#SVGID_427_);}
	.st762{fill:#D8DEE8;}
	.st763{fill:url(#SVGID_428_);}
	.st764{fill:url(#SVGID_429_);}
	.st765{fill:url(#SVGID_430_);}
	.st766{fill:#DE8BDF;}
	.st767{opacity:0.4;fill:#D8DEE8;}
	.st768{fill:url(#SVGID_431_);}
	.st769{fill:url(#SVGID_432_);}
	.st770{fill:url(#SVGID_433_);}
	.st771{fill:url(#SVGID_434_);}
	.st772{fill:url(#SVGID_435_);}
	.st773{fill:url(#SVGID_436_);}
	.st774{fill:url(#SVGID_437_);}
	.st775{fill:url(#SVGID_438_);}
	.st776{fill:url(#SVGID_439_);}
	.st777{fill:#97A6B7;}
	.st778{fill:url(#SVGID_440_);}
	.st779{fill:url(#SVGID_441_);}
	.st780{fill:url(#SVGID_442_);}
	.st781{opacity:0.4;fill:#97A6B7;}
	.st782{fill:url(#SVGID_443_);}
	.st783{fill:url(#SVGID_444_);}
	.st784{fill:url(#SVGID_445_);}
	.st785{fill:url(#SVGID_446_);}
	.st786{fill:url(#SVGID_447_);}
	.st787{opacity:0.2;fill:url(#SVGID_448_);}
	.st788{fill:url(#SVGID_449_);}
	.st789{fill:url(#SVGID_450_);}
	.st790{fill:url(#SVGID_451_);}
	.st791{fill:url(#SVGID_452_);}
	.st792{fill:url(#SVGID_453_);}
	.st793{fill:url(#SVGID_454_);}
	.st794{fill:url(#SVGID_455_);}
	.st795{fill:url(#SVGID_456_);}
	.st796{opacity:0.6;fill:url(#SVGID_457_);}
	.st797{fill:url(#SVGID_458_);}
	.st798{fill:url(#SVGID_459_);}
	.st799{fill:url(#SVGID_460_);}
	.st800{fill:url(#SVGID_461_);}
	.st801{fill:url(#SVGID_462_);}
	.st802{fill:url(#SVGID_463_);}
	.st803{opacity:0.3;fill:url(#SVGID_464_);}
	.st804{fill:url(#SVGID_465_);}
	.st805{fill:url(#SVGID_466_);}
	.st806{fill:url(#SVGID_467_);}
	.st807{fill:url(#SVGID_468_);}
	.st808{fill:url(#SVGID_469_);}
	.st809{fill:url(#SVGID_470_);}
	.st810{opacity:0.3;fill:url(#SVGID_471_);}
	.st811{fill:url(#SVGID_472_);}
	.st812{fill:url(#SVGID_473_);}
	.st813{fill:#EAF4F5;}
	.st814{fill:#62C4BD;}
	.st815{fill:#F29D29;}
	.st816{fill:#EA932A;}
	.st817{opacity:0.05;}
	.st818{fill:#59AFB0;}
	.st819{opacity:0.24;fill:#FFFFFF;}
	.st820{fill:#509B99;}
	.st821{fill:#F8D168;}
	.st822{opacity:0.16;}
	.st823{fill:#FC612B;}
	.st824{fill:#F2F2F2;}
	.st825{opacity:0.26;fill:#FFFFFF;}
	.st826{opacity:0.67;fill:#F2F2F2;}
	.st827{fill:#A4B3FF;}
	.st828{fill:#717FE2;}
	.st829{fill:#D6E0FF;}
	.st830{fill:#230768;}
	.st831{fill:none;stroke:#D6E0FF;stroke-width:2;stroke-linecap:round;stroke-linejoin:round;stroke-miterlimit:10;}
	.st832{fill:none;stroke:#717FE2;stroke-width:2;stroke-linecap:round;stroke-linejoin:round;stroke-miterlimit:10;}
	.st833{fill:#271F53;}
	.st834{opacity:0.06;fill:#271F53;}
	.st835{fill:url(#SVGID_474_);}
	.st836{fill:url(#SVGID_475_);}
	.st837{fill:url(#SVGID_476_);}
	.st838{fill:url(#SVGID_477_);}
	.st839{fill:url(#SVGID_478_);}
	.st840{fill:url(#SVGID_479_);}
	.st841{fill:url(#SVGID_480_);}
	.st842{fill:url(#SVGID_481_);}
	.st843{fill:url(#SVGID_482_);}
	.st844{fill:url(#SVGID_483_);}
	.st845{fill:url(#SVGID_484_);}
	.st846{fill:url(#SVGID_485_);}
	.st847{fill:url(#SVGID_486_);}
	.st848{fill:url(#SVGID_487_);}
	.st849{fill:url(#SVGID_488_);}
	.st850{fill:url(#SVGID_489_);}
	.st851{fill:url(#SVGID_490_);}
	.st852{fill:url(#SVGID_491_);}
	.st853{fill:url(#SVGID_492_);}
	.st854{fill:url(#SVGID_493_);}
	.st855{fill:url(#SVGID_494_);}
	.st856{fill:url(#SVGID_495_);}
	.st857{fill:url(#SVGID_496_);}
	.st858{fill:url(#SVGID_497_);}
	.st859{fill:url(#SVGID_498_);}
	.st860{fill:url(#SVGID_499_);}
	.st861{fill:url(#SVGID_500_);}
	.st862{fill:url(#SVGID_501_);}
	.st863{fill:url(#SVGID_502_);}
	.st864{fill:url(#SVGID_503_);}
	.st865{fill:url(#SVGID_504_);}
	.st866{fill:url(#SVGID_505_);}
	.st867{fill:url(#SVGID_506_);}
	.st868{fill:url(#SVGID_507_);}
	.st869{fill:url(#SVGID_508_);}
	.st870{fill:url(#SVGID_509_);}
	.st871{fill:url(#SVGID_510_);}
	.st872{fill:url(#SVGID_511_);}
	.st873{fill:url(#SVGID_512_);}
	.st874{fill:url(#SVGID_513_);}
	.st875{fill:url(#SVGID_514_);}
	.st876{fill:url(#SVGID_515_);}
	.st877{fill:url(#SVGID_516_);}
	.st878{fill:url(#SVGID_517_);}
	.st879{fill:url(#SVGID_518_);}
	.st880{fill:url(#SVGID_519_);}
	.st881{fill:url(#SVGID_520_);}
	.st882{fill:url(#SVGID_521_);}
	.st883{fill:url(#SVGID_522_);}
	.st884{fill:url(#SVGID_523_);}
	.st885{fill:url(#SVGID_524_);}
	.st886{fill:url(#SVGID_525_);}
	.st887{fill:url(#SVGID_526_);}
	.st888{fill:url(#SVGID_527_);}
	.st889{fill:url(#SVGID_528_);}
	.st890{fill:url(#SVGID_529_);}
	.st891{fill:url(#SVGID_530_);}
	.st892{fill:url(#SVGID_531_);}
	.st893{fill:url(#SVGID_532_);}
	.st894{fill:url(#SVGID_533_);}
	.st895{fill:url(#SVGID_534_);}
	.st896{fill:url(#SVGID_535_);}
	.st897{fill:url(#SVGID_536_);}
	.st898{fill:url(#SVGID_537_);}
	.st899{fill:url(#SVGID_538_);}
	.st900{fill:url(#SVGID_539_);}
	.st901{fill:url(#SVGID_540_);}
	.st902{fill:url(#SVGID_541_);}
	.st903{fill:url(#SVGID_542_);}
	.st904{fill:url(#SVGID_543_);}
	.st905{fill:url(#SVGID_544_);}
	.st906{fill:url(#SVGID_545_);}
	.st907{fill:url(#SVGID_546_);}
	.st908{fill:url(#SVGID_547_);}
	.st909{fill:url(#SVGID_548_);}
	.st910{fill:url(#SVGID_549_);}
	.st911{fill:url(#SVGID_550_);}
	.st912{fill:url(#SVGID_551_);}
	.st913{fill:url(#SVGID_552_);}
	.st914{fill:url(#SVGID_553_);}
	.st915{fill:url(#SVGID_554_);}
	.st916{fill:url(#SVGID_555_);}
	.st917{fill:url(#SVGID_556_);}
	.st918{fill:url(#SVGID_557_);}
	.st919{fill:url(#SVGID_558_);}
	.st920{fill:url(#SVGID_559_);}
	.st921{fill:url(#SVGID_560_);}
	.st922{fill:url(#SVGID_561_);}
	.st923{fill:url(#SVGID_562_);}
	.st924{fill:url(#SVGID_563_);}
	.st925{fill:url(#SVGID_564_);}
	.st926{fill:url(#SVGID_565_);}
	.st927{fill:url(#SVGID_566_);}
	.st928{fill:url(#SVGID_567_);}
	.st929{fill:url(#SVGID_568_);}
	.st930{fill:url(#SVGID_569_);}
	.st931{fill:url(#SVGID_570_);}
	.st932{fill:url(#SVGID_571_);}
	.st933{fill:url(#SVGID_572_);}
	.st934{fill:url(#SVGID_573_);}
	.st935{fill:url(#SVGID_574_);}
	.st936{fill:url(#SVGID_575_);}
	.st937{fill:url(#SVGID_576_);}
	.st938{fill:url(#SVGID_577_);}
	.st939{fill:url(#SVGID_578_);}
	.st940{fill:url(#SVGID_579_);}
	.st941{fill:url(#SVGID_580_);}
	.st942{fill:url(#SVGID_581_);}
	.st943{fill:url(#SVGID_582_);}
	.st944{fill:url(#SVGID_583_);}
	.st945{fill:url(#SVGID_584_);}
	.st946{fill:url(#SVGID_585_);}
	.st947{fill:url(#SVGID_586_);}
	.st948{fill:url(#SVGID_587_);}
	.st949{fill:url(#SVGID_588_);}
	.st950{fill:url(#SVGID_589_);}
	.st951{fill:url(#SVGID_590_);}
	.st952{fill:url(#SVGID_591_);}
	.st953{fill:url(#SVGID_592_);}
	.st954{fill:url(#SVGID_593_);}
	.st955{fill:url(#SVGID_594_);}
	.st956{fill:url(#SVGID_595_);}
	.st957{fill:url(#SVGID_596_);}
	.st958{fill:url(#SVGID_597_);}
	.st959{fill:url(#SVGID_598_);}
	.st960{fill:url(#SVGID_599_);}
	.st961{fill:url(#SVGID_600_);}
	.st962{fill:url(#SVGID_601_);}
	.st963{fill:url(#SVGID_602_);}
	.st964{fill:url(#SVGID_603_);}
	.st965{fill:url(#SVGID_604_);}
	.st966{fill:url(#SVGID_605_);}
	.st967{fill:url(#SVGID_606_);}
	.st968{fill:url(#SVGID_607_);}
	.st969{fill:url(#SVGID_608_);}
	.st970{fill:url(#SVGID_609_);}
	.st971{fill:url(#SVGID_610_);}
	.st972{fill:url(#SVGID_611_);}
	.st973{fill:url(#SVGID_612_);}
	.st974{fill:url(#SVGID_613_);}
	.st975{fill:url(#SVGID_614_);}
	.st976{fill:url(#SVGID_615_);}
	.st977{fill:url(#SVGID_616_);}
	.st978{fill:url(#SVGID_617_);}
	.st979{fill:url(#SVGID_618_);}
	.st980{fill:url(#SVGID_619_);}
	.st981{opacity:0.2;fill-opacity:0.7;}
	.st982{opacity:0.2;clip-path:url(#XMLID_110_);fill-opacity:0.7;}
	.st983{opacity:0.4;clip-path:url(#XMLID_111_);fill:#5AE4A7;}
	.st984{opacity:0.2;clip-path:url(#XMLID_112_);fill-opacity:0.7;}
	.st985{opacity:0.4;fill:#5AE4A7;}
	.st986{opacity:0.6;fill:#5AE4A7;}
	.st987{opacity:0.1;fill:#FFFFFF;}
	.st988{opacity:0.2;fill:#5AE4A7;}
	.st989{fill:#FF4F5B;}
	.st990{fill:url(#SVGID_620_);}
	.st991{opacity:0.54;}
	.st992{opacity:0.19;clip-path:url(#SVGID_622_);}
	.st993{opacity:0.19;clip-path:url(#SVGID_624_);}
	.st994{fill:url(#SVGID_625_);}
	.st995{fill:url(#SVGID_626_);}
	.st996{fill:url(#SVGID_627_);}
	.st997{fill:url(#SVGID_628_);}
	.st998{fill:url(#SVGID_629_);}
	.st999{fill:url(#SVGID_630_);}
	.st1000{fill:url(#SVGID_631_);}
	.st1001{fill:url(#SVGID_632_);}
	.st1002{fill:url(#SVGID_633_);}
	.st1003{fill:url(#SVGID_634_);}
	.st1004{fill:url(#SVGID_635_);}
	.st1005{fill:url(#SVGID_636_);}
	.st1006{fill:url(#SVGID_637_);}
	.st1007{fill:url(#SVGID_638_);}
	.st1008{fill:url(#SVGID_639_);}
	.st1009{fill:url(#SVGID_640_);}
	.st1010{fill:url(#SVGID_641_);}
	.st1011{fill:url(#SVGID_642_);}
	.st1012{fill:url(#SVGID_643_);}
	.st1013{fill:url(#SVGID_644_);}
	.st1014{fill:url(#SVGID_645_);}
	.st1015{fill:url(#SVGID_646_);}
	.st1016{fill:url(#SVGID_647_);}
	.st1017{fill:url(#SVGID_648_);}
	.st1018{fill:url(#SVGID_649_);}
	.st1019{fill:url(#SVGID_650_);}
	.st1020{fill:url(#SVGID_651_);}
	.st1021{fill:url(#SVGID_652_);}
	.st1022{fill:url(#SVGID_653_);}
	.st1023{fill:url(#SVGID_654_);}
	.st1024{fill:url(#SVGID_655_);}
	.st1025{fill:url(#SVGID_656_);}
	.st1026{fill:url(#SVGID_657_);}
	.st1027{fill:url(#SVGID_658_);}
	.st1028{fill:url(#SVGID_659_);}
	.st1029{fill:url(#SVGID_660_);}
	.st1030{fill:url(#SVGID_661_);}
	.st1031{fill:url(#SVGID_662_);}
	.st1032{fill:url(#SVGID_663_);}
	.st1033{fill:url(#SVGID_664_);}
	.st1034{fill:url(#SVGID_665_);}
	.st1035{fill:url(#SVGID_666_);}
	.st1036{fill:url(#SVGID_667_);}
	.st1037{fill:url(#SVGID_668_);}
	.st1038{fill:url(#SVGID_669_);}
	.st1039{fill:url(#SVGID_670_);}
	.st1040{fill:url(#SVGID_671_);}
	.st1041{fill:url(#SVGID_672_);}
	.st1042{fill:url(#SVGID_673_);}
	.st1043{fill:url(#SVGID_674_);}
	.st1044{fill:url(#SVGID_675_);}
	.st1045{fill:url(#SVGID_676_);}
	.st1046{fill:url(#SVGID_677_);}
	.st1047{fill:url(#SVGID_678_);}
	.st1048{fill:url(#SVGID_679_);}
	.st1049{fill:url(#SVGID_680_);}
	.st1050{fill:url(#SVGID_681_);}
	.st1051{fill:url(#SVGID_682_);}
	.st1052{fill:url(#SVGID_683_);}
	.st1053{fill:url(#SVGID_684_);}
	.st1054{fill:url(#SVGID_685_);}
	.st1055{fill:url(#SVGID_686_);}
	.st1056{fill:url(#SVGID_687_);}
	.st1057{fill:url(#SVGID_688_);}
	.st1058{fill:url(#SVGID_689_);}
	.st1059{fill:url(#SVGID_690_);}
	.st1060{fill:url(#SVGID_691_);}
	.st1061{fill:url(#SVGID_692_);}
	.st1062{fill:url(#SVGID_693_);}
	.st1063{fill:url(#SVGID_694_);}
	.st1064{fill:url(#SVGID_695_);}
	.st1065{fill:url(#SVGID_696_);}
	.st1066{fill:url(#SVGID_697_);}
	.st1067{fill:url(#SVGID_698_);}
	.st1068{fill:url(#SVGID_699_);}
	.st1069{fill:url(#SVGID_700_);}
	.st1070{fill:url(#SVGID_701_);}
	.st1071{fill:url(#SVGID_702_);}
	.st1072{fill:url(#SVGID_703_);}
	.st1073{fill:url(#SVGID_704_);}
	.st1074{fill:url(#SVGID_705_);}
	.st1075{fill:url(#SVGID_706_);}
	.st1076{fill:url(#SVGID_707_);}
	.st1077{fill:url(#SVGID_708_);}
	.st1078{fill:url(#SVGID_709_);}
	.st1079{fill:url(#SVGID_710_);}
	.st1080{fill:url(#SVGID_711_);}
	.st1081{fill:url(#SVGID_712_);}
	.st1082{fill:url(#SVGID_713_);}
	.st1083{fill:url(#SVGID_714_);}
	.st1084{fill:url(#SVGID_715_);}
	.st1085{fill:url(#SVGID_716_);}
	.st1086{fill:url(#SVGID_717_);}
	.st1087{fill:url(#SVGID_718_);}
	.st1088{fill:url(#SVGID_719_);}
	.st1089{fill:url(#SVGID_720_);}
	.st1090{fill:url(#SVGID_721_);}
	.st1091{fill:url(#SVGID_722_);}
	.st1092{fill:url(#SVGID_723_);}
	.st1093{fill:url(#SVGID_724_);}
	.st1094{fill:url(#SVGID_725_);}
	.st1095{fill:url(#SVGID_726_);}
	.st1096{fill:url(#SVGID_727_);}
	.st1097{fill:url(#SVGID_728_);}
	.st1098{fill:url(#SVGID_729_);}
	.st1099{fill:url(#SVGID_730_);}
	.st1100{fill:url(#SVGID_731_);}
	.st1101{fill:url(#SVGID_732_);}
	.st1102{fill:url(#SVGID_733_);}
	.st1103{fill:url(#SVGID_734_);}
	.st1104{fill:url(#SVGID_735_);}
	.st1105{fill:url(#SVGID_736_);}
	.st1106{fill:url(#SVGID_737_);}
	.st1107{fill:url(#SVGID_738_);}
	.st1108{fill:url(#SVGID_739_);}
	.st1109{fill:url(#SVGID_740_);}
	.st1110{fill:url(#SVGID_741_);}
	.st1111{fill:url(#SVGID_742_);}
	.st1112{fill:url(#SVGID_743_);}
	.st1113{fill:url(#SVGID_744_);}
	.st1114{fill:url(#SVGID_745_);}
	.st1115{fill:url(#SVGID_746_);}
	.st1116{fill:url(#SVGID_747_);}
	.st1117{fill:url(#SVGID_748_);}
	.st1118{fill:url(#SVGID_749_);}
	.st1119{fill:url(#SVGID_750_);}
	.st1120{fill:url(#SVGID_751_);}
	.st1121{fill:url(#SVGID_752_);}
	.st1122{fill:url(#SVGID_753_);}
	.st1123{fill:url(#SVGID_754_);}
	.st1124{fill:url(#SVGID_755_);}
	.st1125{fill:url(#SVGID_756_);}
	.st1126{fill:url(#SVGID_757_);}
	.st1127{fill:url(#SVGID_758_);}
	.st1128{fill:url(#SVGID_759_);}
	.st1129{fill:url(#SVGID_760_);}
	.st1130{fill:url(#SVGID_761_);}
	.st1131{fill:url(#SVGID_762_);}
	.st1132{fill:url(#SVGID_763_);}
	.st1133{fill:url(#SVGID_764_);}
	.st1134{fill:url(#SVGID_765_);}
	.st1135{fill:url(#SVGID_766_);}
	.st1136{fill:url(#SVGID_767_);}
	.st1137{fill:url(#SVGID_768_);}
	.st1138{fill:url(#SVGID_769_);}
	.st1139{fill:url(#SVGID_770_);}
	.st1140{fill:url(#SVGID_771_);}
	.st1141{fill:url(#SVGID_772_);}
	.st1142{fill:url(#SVGID_773_);}
	.st1143{fill:url(#SVGID_774_);}
	.st1144{fill:url(#SVGID_775_);}
	.st1145{fill:url(#SVGID_776_);}
	.st1146{fill:url(#SVGID_777_);}
	.st1147{fill:url(#SVGID_778_);}
	.st1148{fill:url(#SVGID_779_);}
	.st1149{fill:url(#SVGID_780_);}
	.st1150{fill:url(#SVGID_781_);}
	.st1151{fill:url(#SVGID_782_);}
	.st1152{fill:url(#SVGID_783_);}
	.st1153{fill:url(#SVGID_784_);}
	.st1154{fill:url(#SVGID_785_);}
	.st1155{fill:url(#SVGID_786_);}
	.st1156{fill:url(#SVGID_787_);}
	.st1157{fill:url(#SVGID_788_);}
	.st1158{fill:url(#SVGID_789_);}
	.st1159{fill:url(#SVGID_790_);}
	.st1160{fill:url(#SVGID_791_);}
	.st1161{fill:url(#SVGID_792_);}
	.st1162{fill:url(#SVGID_793_);}
	.st1163{fill:url(#SVGID_794_);}
	.st1164{fill:url(#SVGID_795_);}
	.st1165{fill:url(#SVGID_796_);}
	.st1166{fill:url(#SVGID_797_);}
	.st1167{fill:url(#SVGID_798_);}
	.st1168{fill:url(#SVGID_799_);}
	.st1169{fill:url(#SVGID_800_);}
	.st1170{fill:url(#SVGID_801_);}
	.st1171{fill:url(#SVGID_802_);}
	.st1172{fill:url(#SVGID_803_);}
	.st1173{fill:url(#SVGID_804_);}
	.st1174{fill:url(#SVGID_805_);}
	.st1175{fill:url(#SVGID_806_);}
	.st1176{fill:url(#SVGID_807_);}
	.st1177{fill:url(#SVGID_808_);}
	.st1178{fill:url(#SVGID_809_);}
	.st1179{fill:url(#SVGID_810_);}
	.st1180{fill:url(#SVGID_811_);}
	.st1181{fill:url(#SVGID_812_);}
	.st1182{fill:url(#SVGID_813_);}
	.st1183{fill:url(#SVGID_814_);}
	.st1184{fill:url(#SVGID_815_);}
	.st1185{fill:url(#SVGID_816_);}
	.st1186{fill:url(#SVGID_817_);}
	.st1187{fill:url(#SVGID_818_);}
	.st1188{fill:url(#SVGID_819_);}
	.st1189{fill:url(#SVGID_820_);}
	.st1190{fill:url(#SVGID_821_);}
	.st1191{fill:url(#SVGID_822_);}
	.st1192{fill:url(#SVGID_823_);}
	.st1193{fill:url(#SVGID_824_);}
	.st1194{fill:url(#SVGID_825_);}
	.st1195{fill:url(#SVGID_826_);}
	.st1196{fill:url(#SVGID_827_);}
	.st1197{fill:url(#SVGID_828_);}
	.st1198{fill:url(#SVGID_829_);}
	.st1199{fill:url(#SVGID_830_);}
	.st1200{fill:url(#SVGID_831_);}
	.st1201{fill:url(#SVGID_832_);}
	.st1202{fill:url(#SVGID_833_);}
	.st1203{fill:url(#SVGID_834_);}
	.st1204{fill:url(#SVGID_835_);}
	.st1205{fill:url(#SVGID_836_);}
	.st1206{fill:url(#SVGID_837_);}
	.st1207{fill:url(#SVGID_838_);}
	.st1208{fill:url(#SVGID_839_);}
	.st1209{fill:url(#SVGID_840_);}
	.st1210{fill:url(#SVGID_841_);}
	.st1211{fill:url(#SVGID_842_);}
	.st1212{fill:url(#SVGID_843_);}
	.st1213{fill:url(#SVGID_844_);}
	.st1214{fill:url(#SVGID_845_);}
	.st1215{fill:url(#SVGID_846_);}
	.st1216{fill:url(#SVGID_847_);}
	.st1217{fill:url(#SVGID_848_);}
	.st1218{fill:url(#SVGID_849_);}
	.st1219{fill:url(#SVGID_850_);}
	.st1220{fill:url(#SVGID_851_);}
	.st1221{fill:url(#SVGID_852_);}
	.st1222{fill:url(#SVGID_853_);}
	.st1223{fill:url(#SVGID_854_);}
	.st1224{fill:url(#SVGID_855_);}
	.st1225{fill:url(#SVGID_856_);}
	.st1226{fill:url(#SVGID_857_);}
	.st1227{fill:url(#SVGID_858_);}
	.st1228{fill:url(#SVGID_859_);}
	.st1229{fill:url(#SVGID_860_);}
	.st1230{fill:url(#SVGID_861_);}
	.st1231{fill:url(#SVGID_862_);}
	.st1232{fill:url(#SVGID_863_);}
	.st1233{fill:url(#SVGID_864_);}
	.st1234{fill:url(#SVGID_865_);}
	.st1235{fill:url(#SVGID_866_);}
	.st1236{fill:url(#SVGID_867_);}
	.st1237{fill:url(#SVGID_868_);}
	.st1238{fill:url(#SVGID_869_);}
	.st1239{fill:url(#SVGID_870_);}
	.st1240{fill:url(#SVGID_871_);}
	.st1241{fill:url(#SVGID_872_);}
	.st1242{fill:url(#SVGID_873_);}
	.st1243{fill:url(#SVGID_874_);}
	.st1244{fill:url(#SVGID_875_);}
	.st1245{fill:url(#SVGID_876_);}
	.st1246{fill:url(#SVGID_877_);}
	.st1247{fill:url(#SVGID_878_);}
	.st1248{fill:url(#SVGID_879_);}
	.st1249{fill:url(#SVGID_880_);}
	.st1250{fill:url(#SVGID_881_);}
	.st1251{fill:url(#SVGID_882_);}
	.st1252{fill:url(#SVGID_883_);}
	.st1253{fill:url(#SVGID_884_);}
	.st1254{fill:url(#SVGID_885_);}
	.st1255{fill:url(#SVGID_886_);}
	.st1256{fill:url(#SVGID_887_);}
	.st1257{fill:url(#SVGID_888_);}
	.st1258{fill:url(#SVGID_889_);}
	.st1259{fill:url(#SVGID_890_);}
	.st1260{fill:url(#SVGID_891_);}
	.st1261{fill:url(#SVGID_892_);}
	.st1262{fill:url(#SVGID_893_);}
	.st1263{fill:url(#SVGID_894_);}
	.st1264{fill:url(#SVGID_895_);}
	.st1265{fill:url(#SVGID_896_);}
	.st1266{fill:url(#SVGID_897_);}
	.st1267{fill:url(#SVGID_898_);}
	.st1268{fill:url(#SVGID_899_);}
	.st1269{fill:url(#SVGID_900_);}
	.st1270{fill:url(#SVGID_901_);}
	.st1271{fill:url(#SVGID_902_);}
	.st1272{fill:url(#SVGID_903_);}
	.st1273{fill:url(#SVGID_904_);}
	.st1274{fill:url(#SVGID_905_);}
	.st1275{fill:url(#SVGID_906_);}
	.st1276{fill:url(#SVGID_907_);}
	.st1277{fill:url(#SVGID_908_);}
	.st1278{fill:url(#SVGID_909_);}
	.st1279{fill:url(#SVGID_910_);}
	.st1280{fill:url(#SVGID_911_);}
	.st1281{fill:url(#SVGID_912_);}
	.st1282{fill:url(#SVGID_913_);}
	.st1283{fill:url(#SVGID_914_);}
	.st1284{fill:url(#SVGID_915_);}
	.st1285{fill:url(#SVGID_916_);}
	.st1286{fill:url(#SVGID_917_);}
	.st1287{fill:url(#SVGID_918_);}
	.st1288{fill:url(#SVGID_919_);}
	.st1289{fill:url(#SVGID_920_);}
	.st1290{fill:url(#SVGID_921_);}
	.st1291{fill:url(#SVGID_922_);}
	.st1292{fill:url(#SVGID_923_);}
	.st1293{fill:url(#SVGID_924_);}
	.st1294{fill:url(#SVGID_925_);}
	.st1295{fill:url(#SVGID_926_);}
	.st1296{fill:url(#SVGID_927_);}
	.st1297{fill:url(#SVGID_928_);}
	.st1298{fill:url(#SVGID_929_);}
	.st1299{fill:url(#SVGID_930_);}
	.st1300{fill:url(#SVGID_931_);}
	.st1301{fill:url(#SVGID_932_);}
	.st1302{fill:url(#SVGID_933_);}
	.st1303{fill:url(#SVGID_934_);}
	.st1304{fill:url(#SVGID_935_);}
	.st1305{fill:url(#SVGID_936_);}
	.st1306{fill:url(#SVGID_937_);}
	.st1307{fill:url(#SVGID_938_);}
	.st1308{fill:url(#SVGID_939_);}
	.st1309{fill:url(#SVGID_940_);}
	.st1310{fill:url(#SVGID_941_);}
	.st1311{fill:url(#SVGID_942_);}
	.st1312{fill:url(#SVGID_943_);}
	.st1313{fill:url(#SVGID_944_);}
	.st1314{fill:url(#SVGID_945_);}
	.st1315{fill:url(#SVGID_946_);}
	.st1316{fill:url(#SVGID_947_);}
	.st1317{fill:url(#SVGID_948_);}
	.st1318{fill:url(#SVGID_949_);}
	.st1319{fill:url(#SVGID_950_);}
	.st1320{fill:url(#SVGID_951_);}
	.st1321{fill:url(#SVGID_952_);}
	.st1322{fill:url(#SVGID_953_);}
	.st1323{fill:url(#SVGID_954_);}
	.st1324{fill:url(#SVGID_955_);}
	.st1325{fill:url(#SVGID_956_);}
	.st1326{fill:url(#SVGID_957_);}
	.st1327{fill:url(#SVGID_958_);}
	.st1328{fill:url(#SVGID_959_);}
	.st1329{fill:url(#SVGID_960_);}
	.st1330{fill:url(#SVGID_961_);}
	.st1331{fill:url(#SVGID_962_);}
	.st1332{fill:url(#SVGID_963_);}
	.st1333{fill:url(#SVGID_964_);}
	.st1334{fill:url(#SVGID_965_);}
	.st1335{fill:url(#SVGID_966_);}
	.st1336{fill:url(#SVGID_967_);}
	.st1337{fill:url(#SVGID_968_);}
	.st1338{fill:url(#SVGID_969_);}
	.st1339{fill:url(#SVGID_970_);}
	.st1340{fill:url(#SVGID_971_);}
	.st1341{fill:url(#SVGID_972_);}
	.st1342{fill:url(#SVGID_973_);}
	.st1343{fill:url(#SVGID_974_);}
	.st1344{fill:url(#SVGID_975_);}
	.st1345{fill:url(#SVGID_976_);}
	.st1346{fill:url(#SVGID_977_);}
	.st1347{fill:url(#SVGID_978_);}
	.st1348{fill:url(#SVGID_979_);}
	.st1349{fill:url(#SVGID_980_);}
	.st1350{fill:url(#SVGID_981_);}
	.st1351{fill:url(#SVGID_982_);}
	.st1352{fill:url(#SVGID_983_);}
	.st1353{fill:url(#SVGID_984_);}
	.st1354{fill:url(#SVGID_985_);}
	.st1355{fill:url(#SVGID_986_);}
	.st1356{fill:url(#SVGID_987_);}
	.st1357{fill:url(#SVGID_988_);}
	.st1358{fill:url(#SVGID_989_);}
	.st1359{fill:url(#SVGID_990_);}
	.st1360{fill:url(#SVGID_991_);}
	.st1361{fill:url(#SVGID_992_);}
	.st1362{fill:url(#SVGID_993_);}
	.st1363{fill:url(#SVGID_994_);}
	.st1364{fill:url(#SVGID_995_);}
	.st1365{fill:url(#SVGID_996_);}
	.st1366{fill:url(#SVGID_997_);}
	.st1367{fill:url(#SVGID_998_);}
	.st1368{fill:url(#SVGID_999_);}
	.st1369{fill:url(#SVGID_1000_);}
	.st1370{fill:url(#SVGID_1001_);}
	.st1371{fill:url(#SVGID_1002_);}
	.st1372{fill:url(#SVGID_1003_);}
	.st1373{fill:url(#SVGID_1004_);}
	.st1374{fill:url(#SVGID_1005_);}
	.st1375{fill:url(#SVGID_1006_);}
	.st1376{fill:url(#SVGID_1007_);}
	.st1377{fill:url(#SVGID_1008_);}
	.st1378{fill:url(#SVGID_1009_);}
	.st1379{fill:url(#SVGID_1010_);}
	.st1380{fill:url(#SVGID_1011_);}
	.st1381{fill:url(#SVGID_1012_);}
	.st1382{fill:url(#SVGID_1013_);}
	.st1383{fill:url(#SVGID_1014_);}
	.st1384{fill:url(#SVGID_1015_);}
	.st1385{fill:url(#SVGID_1016_);}
	.st1386{fill:url(#SVGID_1017_);}
	.st1387{fill:url(#SVGID_1018_);}
	.st1388{fill:url(#SVGID_1019_);}
	.st1389{fill:url(#SVGID_1020_);}
	.st1390{fill:url(#SVGID_1021_);}
	.st1391{fill:url(#SVGID_1022_);}
	.st1392{fill:url(#SVGID_1023_);}
	.st1393{fill:url(#SVGID_1024_);}
	.st1394{fill:url(#SVGID_1025_);}
	.st1395{fill:url(#SVGID_1026_);}
	.st1396{fill:url(#SVGID_1027_);}
	.st1397{fill:url(#SVGID_1028_);}
	.st1398{fill:url(#SVGID_1029_);}
	.st1399{fill:url(#SVGID_1030_);}
	.st1400{fill:url(#SVGID_1031_);}
	.st1401{fill:url(#SVGID_1032_);}
	.st1402{fill:url(#SVGID_1033_);}
	.st1403{fill:url(#SVGID_1034_);}
	.st1404{fill:url(#SVGID_1035_);}
	.st1405{fill:url(#SVGID_1036_);}
	.st1406{fill:url(#SVGID_1037_);}
	.st1407{fill:url(#SVGID_1038_);}
	.st1408{fill:url(#SVGID_1039_);}
	.st1409{fill:url(#SVGID_1040_);}
	.st1410{fill:url(#SVGID_1041_);}
	.st1411{fill:url(#SVGID_1042_);}
	.st1412{fill:url(#SVGID_1043_);}
	.st1413{fill:url(#SVGID_1044_);}
	.st1414{fill:url(#SVGID_1045_);}
	.st1415{fill:url(#SVGID_1046_);}
	.st1416{fill:url(#SVGID_1047_);}
	.st1417{fill:url(#SVGID_1048_);}
	.st1418{fill:url(#SVGID_1049_);}
	.st1419{fill:url(#SVGID_1050_);}
	.st1420{fill:url(#SVGID_1051_);}
	.st1421{fill:url(#SVGID_1052_);}
	.st1422{fill:url(#SVGID_1053_);}
	.st1423{fill:url(#SVGID_1054_);}
	.st1424{fill:url(#SVGID_1055_);}
	.st1425{fill:url(#SVGID_1056_);}
	.st1426{fill:url(#SVGID_1057_);}
	.st1427{fill:url(#SVGID_1058_);}
	.st1428{fill:url(#SVGID_1059_);}
	.st1429{fill:url(#SVGID_1060_);}
	.st1430{fill:url(#SVGID_1061_);}
	.st1431{fill:url(#SVGID_1062_);}
	.st1432{fill:url(#SVGID_1063_);}
	.st1433{fill:url(#SVGID_1064_);}
	.st1434{fill:url(#SVGID_1065_);}
	.st1435{fill:url(#SVGID_1066_);}
	.st1436{fill:url(#SVGID_1067_);}
	.st1437{fill:url(#SVGID_1068_);}
	.st1438{fill:url(#SVGID_1069_);}
	.st1439{fill:url(#SVGID_1070_);}
	.st1440{fill:url(#SVGID_1071_);}
	.st1441{fill:url(#SVGID_1072_);}
	.st1442{fill:url(#SVGID_1073_);}
	.st1443{fill:url(#SVGID_1074_);}
	.st1444{fill:url(#SVGID_1075_);}
	.st1445{fill:url(#SVGID_1076_);}
	.st1446{fill:url(#SVGID_1077_);}
	.st1447{fill:url(#SVGID_1078_);}
	.st1448{fill:url(#SVGID_1079_);}
	.st1449{fill:url(#SVGID_1080_);}
	.st1450{fill:url(#SVGID_1081_);}
	.st1451{fill:url(#SVGID_1082_);}
	.st1452{fill:url(#SVGID_1083_);}
	.st1453{fill:url(#SVGID_1084_);}
	.st1454{fill:url(#SVGID_1085_);}
	.st1455{fill:url(#SVGID_1086_);}
	.st1456{fill:url(#SVGID_1087_);}
	.st1457{fill:url(#SVGID_1088_);}
	.st1458{fill:url(#SVGID_1089_);}
	.st1459{fill:url(#SVGID_1090_);}
	.st1460{fill:url(#SVGID_1091_);}
	.st1461{fill:url(#SVGID_1092_);}
	.st1462{fill:url(#SVGID_1093_);}
	.st1463{fill:url(#SVGID_1094_);}
	.st1464{fill:url(#SVGID_1095_);}
	.st1465{fill:url(#SVGID_1096_);}
	.st1466{fill:url(#SVGID_1097_);}
	.st1467{fill:url(#SVGID_1098_);}
	.st1468{fill:url(#SVGID_1099_);}
	.st1469{fill:url(#SVGID_1100_);}
	.st1470{fill:url(#SVGID_1101_);}
	.st1471{fill:url(#SVGID_1102_);}
	.st1472{fill:url(#SVGID_1103_);}
	.st1473{fill:url(#SVGID_1104_);}
	.st1474{fill:url(#SVGID_1105_);}
	.st1475{fill:url(#SVGID_1106_);}
	.st1476{fill:url(#SVGID_1107_);}
	.st1477{fill:url(#SVGID_1108_);}
	.st1478{fill:url(#SVGID_1109_);}
	.st1479{fill:url(#SVGID_1110_);}
	.st1480{fill:url(#SVGID_1111_);}
	.st1481{fill:url(#SVGID_1112_);}
	.st1482{fill:url(#SVGID_1113_);}
	.st1483{fill:url(#SVGID_1114_);}
	.st1484{fill:url(#SVGID_1115_);}
	.st1485{fill:url(#SVGID_1116_);}
	.st1486{fill:url(#SVGID_1117_);}
	.st1487{fill:url(#SVGID_1118_);}
	.st1488{fill:url(#SVGID_1119_);}
	.st1489{fill:url(#SVGID_1120_);}
	.st1490{fill:url(#SVGID_1121_);}
	.st1491{fill:url(#SVGID_1122_);}
	.st1492{fill:url(#SVGID_1123_);}
	.st1493{fill:url(#SVGID_1124_);}
	.st1494{fill:url(#SVGID_1125_);}
	.st1495{fill:url(#SVGID_1126_);}
	.st1496{fill:url(#SVGID_1127_);}
	.st1497{fill:url(#SVGID_1128_);}
	.st1498{fill:url(#SVGID_1129_);}
	.st1499{fill:url(#SVGID_1130_);}
	.st1500{fill:url(#SVGID_1131_);}
	.st1501{fill:url(#SVGID_1132_);}
	.st1502{fill:url(#SVGID_1133_);}
	.st1503{fill:url(#SVGID_1134_);}
	.st1504{fill:url(#SVGID_1135_);}
	.st1505{fill:url(#SVGID_1136_);}
	.st1506{fill:url(#SVGID_1137_);}
	.st1507{fill:url(#SVGID_1138_);}
	.st1508{fill:url(#SVGID_1139_);}
	.st1509{fill:url(#SVGID_1140_);}
	.st1510{fill:url(#SVGID_1141_);}
	.st1511{fill:url(#SVGID_1142_);}
	.st1512{fill:url(#SVGID_1143_);}
	.st1513{fill:url(#SVGID_1144_);}
	.st1514{fill:url(#SVGID_1145_);}
	.st1515{fill:url(#SVGID_1146_);}
	.st1516{fill:url(#SVGID_1147_);}
	.st1517{fill:url(#SVGID_1148_);}
	.st1518{fill:url(#SVGID_1149_);}
	.st1519{fill:url(#SVGID_1150_);}
	.st1520{fill:url(#SVGID_1151_);}
	.st1521{fill:url(#SVGID_1152_);}
	.st1522{fill:url(#SVGID_1153_);}
	.st1523{fill:url(#SVGID_1154_);}
	.st1524{fill:url(#SVGID_1155_);}
	.st1525{fill:url(#SVGID_1156_);}
	.st1526{fill:url(#SVGID_1157_);}
	.st1527{fill:url(#SVGID_1158_);}
	.st1528{fill:url(#SVGID_1159_);}
	.st1529{fill:url(#SVGID_1160_);}
	.st1530{fill:url(#SVGID_1161_);}
	.st1531{fill:url(#SVGID_1162_);}
	.st1532{fill:url(#SVGID_1163_);}
	.st1533{fill:url(#SVGID_1164_);}
	.st1534{fill:url(#SVGID_1165_);}
	.st1535{fill:url(#SVGID_1166_);}
	.st1536{fill:url(#SVGID_1167_);}
	.st1537{fill:url(#SVGID_1168_);}
	.st1538{fill:url(#SVGID_1169_);}
	.st1539{fill:url(#SVGID_1170_);}
	.st1540{fill:url(#SVGID_1171_);}
	.st1541{fill:url(#SVGID_1172_);}
	.st1542{fill:url(#SVGID_1173_);}
	.st1543{fill:url(#SVGID_1174_);}
	.st1544{fill:url(#SVGID_1175_);}
	.st1545{fill:url(#SVGID_1176_);}
	.st1546{fill:url(#SVGID_1177_);}
	.st1547{fill:url(#SVGID_1178_);}
	.st1548{fill:url(#SVGID_1179_);}
	.st1549{fill:url(#SVGID_1180_);}
	.st1550{fill:url(#SVGID_1181_);}
	.st1551{fill:url(#SVGID_1182_);}
	.st1552{fill:url(#SVGID_1183_);}
	.st1553{fill:url(#SVGID_1184_);}
	.st1554{fill:url(#SVGID_1185_);}
	.st1555{fill:url(#SVGID_1186_);}
	.st1556{fill:url(#SVGID_1187_);}
	.st1557{fill:url(#SVGID_1188_);}
	.st1558{fill:url(#SVGID_1189_);}
	.st1559{fill:url(#SVGID_1190_);}
	.st1560{fill:url(#SVGID_1191_);}
	.st1561{fill:url(#SVGID_1192_);}
	.st1562{fill:url(#SVGID_1193_);}
	.st1563{fill:url(#SVGID_1194_);}
	.st1564{fill:url(#SVGID_1195_);}
	.st1565{fill:url(#SVGID_1196_);}
	.st1566{fill:url(#SVGID_1197_);}
	.st1567{fill:url(#SVGID_1198_);}
	.st1568{fill:url(#SVGID_1199_);}
	.st1569{fill:url(#SVGID_1200_);}
	.st1570{fill:url(#SVGID_1201_);}
	.st1571{fill:url(#SVGID_1202_);}
	.st1572{fill:url(#SVGID_1203_);}
	.st1573{fill:url(#SVGID_1204_);}
	.st1574{fill:url(#SVGID_1205_);}
	.st1575{fill:url(#SVGID_1206_);}
	.st1576{fill:url(#SVGID_1207_);}
	.st1577{fill:url(#SVGID_1208_);}
	.st1578{fill:url(#SVGID_1209_);}
	.st1579{fill:url(#SVGID_1210_);}
	.st1580{fill:url(#SVGID_1211_);}
	.st1581{fill:url(#SVGID_1212_);}
	.st1582{fill:url(#SVGID_1213_);}
	.st1583{fill:url(#SVGID_1214_);}
	.st1584{fill:url(#SVGID_1215_);}
	.st1585{fill:url(#SVGID_1216_);}
	.st1586{fill:url(#SVGID_1217_);}
	.st1587{fill:url(#SVGID_1218_);}
	.st1588{fill:url(#SVGID_1219_);}
	.st1589{fill:url(#SVGID_1220_);}
	.st1590{fill:url(#SVGID_1221_);}
	.st1591{fill:url(#SVGID_1222_);}
	.st1592{fill:url(#SVGID_1223_);}
	.st1593{fill:url(#SVGID_1224_);}
	.st1594{fill:url(#SVGID_1225_);}
	.st1595{fill:url(#SVGID_1226_);}
	.st1596{fill:url(#SVGID_1227_);}
	.st1597{fill:url(#SVGID_1228_);}
	.st1598{fill:url(#SVGID_1229_);}
	.st1599{fill:url(#SVGID_1230_);}
	.st1600{fill:url(#SVGID_1231_);}
	.st1601{fill:url(#SVGID_1232_);}
	.st1602{fill:url(#SVGID_1233_);}
	.st1603{fill:url(#SVGID_1234_);}
	.st1604{fill:url(#SVGID_1235_);}
	.st1605{fill:url(#SVGID_1236_);}
	.st1606{fill:url(#SVGID_1237_);}
	.st1607{fill:url(#SVGID_1238_);}
	.st1608{fill:url(#SVGID_1239_);}
	.st1609{fill:url(#SVGID_1240_);}
	.st1610{fill:url(#SVGID_1241_);}
	.st1611{fill:url(#SVGID_1242_);}
	.st1612{fill:url(#SVGID_1243_);}
	.st1613{fill:url(#SVGID_1244_);}
	.st1614{fill:url(#SVGID_1245_);}
	.st1615{fill:url(#SVGID_1246_);}
	.st1616{fill:url(#SVGID_1247_);}
	.st1617{fill:url(#SVGID_1248_);}
	.st1618{fill:url(#SVGID_1249_);}
	.st1619{fill:url(#SVGID_1250_);}
	.st1620{fill:url(#SVGID_1251_);}
	.st1621{fill:url(#SVGID_1252_);}
	.st1622{fill:url(#SVGID_1253_);}
	.st1623{fill:url(#SVGID_1254_);}
	.st1624{fill:url(#SVGID_1255_);}
	.st1625{fill:url(#SVGID_1256_);}
	.st1626{fill:url(#SVGID_1257_);}
	.st1627{fill:url(#SVGID_1258_);}
	.st1628{fill:url(#SVGID_1259_);}
	.st1629{fill:url(#SVGID_1260_);}
	.st1630{fill:url(#SVGID_1261_);}
	.st1631{fill:url(#SVGID_1262_);}
	.st1632{fill:url(#SVGID_1263_);}
	.st1633{fill:url(#SVGID_1264_);}
	.st1634{fill:url(#SVGID_1265_);}
	.st1635{fill:url(#SVGID_1266_);}
	.st1636{fill:url(#SVGID_1267_);}
	.st1637{fill:url(#SVGID_1268_);}
	.st1638{fill:url(#SVGID_1269_);}
	.st1639{fill:url(#SVGID_1270_);}
	.st1640{fill:url(#SVGID_1271_);}
	.st1641{fill:url(#SVGID_1272_);}
	.st1642{fill:url(#SVGID_1273_);}
	.st1643{fill:url(#SVGID_1274_);}
	.st1644{fill:url(#SVGID_1275_);}
	.st1645{fill:url(#SVGID_1276_);}
	.st1646{fill:url(#SVGID_1277_);}
	.st1647{fill:url(#SVGID_1278_);}
	.st1648{fill:url(#SVGID_1279_);}
	.st1649{fill:url(#SVGID_1280_);}
	.st1650{fill:url(#SVGID_1281_);}
	.st1651{fill:url(#SVGID_1282_);}
	.st1652{fill:url(#SVGID_1283_);}
	.st1653{fill:url(#SVGID_1284_);}
	.st1654{fill:url(#SVGID_1285_);}
	.st1655{fill:url(#SVGID_1286_);}
	.st1656{fill:url(#SVGID_1287_);}
	.st1657{fill:url(#SVGID_1288_);}
	.st1658{fill:url(#SVGID_1289_);}
	.st1659{fill:url(#SVGID_1290_);}
	.st1660{fill:url(#SVGID_1291_);}
	.st1661{fill:url(#SVGID_1292_);}
	.st1662{fill:url(#SVGID_1293_);}
	.st1663{fill:url(#SVGID_1294_);}
	.st1664{fill:url(#SVGID_1295_);}
	.st1665{fill:url(#SVGID_1296_);}
	.st1666{fill:url(#SVGID_1297_);}
	.st1667{fill:url(#SVGID_1298_);}
	.st1668{fill:url(#SVGID_1299_);}
	.st1669{fill:url(#SVGID_1300_);}
	.st1670{fill:url(#SVGID_1301_);}
	.st1671{fill:url(#SVGID_1302_);}
	.st1672{fill:url(#SVGID_1303_);}
	.st1673{fill:url(#SVGID_1304_);}
	.st1674{fill:url(#SVGID_1305_);}
	.st1675{fill:url(#SVGID_1306_);}
	.st1676{fill:url(#SVGID_1307_);}
	.st1677{fill:url(#SVGID_1308_);}
	.st1678{fill:url(#SVGID_1309_);}
	.st1679{fill:url(#SVGID_1310_);}
	.st1680{fill:url(#SVGID_1311_);}
	.st1681{fill:url(#SVGID_1312_);}
	.st1682{fill:url(#SVGID_1313_);}
	.st1683{fill:url(#SVGID_1314_);}
	.st1684{fill:url(#SVGID_1315_);}
	.st1685{fill:url(#SVGID_1316_);}
	.st1686{fill:url(#SVGID_1317_);}
	.st1687{fill:url(#SVGID_1318_);}
	.st1688{fill:url(#SVGID_1319_);}
	.st1689{fill:url(#SVGID_1320_);}
	.st1690{fill:url(#SVGID_1321_);}
	.st1691{fill:url(#SVGID_1322_);}
	.st1692{fill:url(#SVGID_1323_);}
	.st1693{fill:url(#SVGID_1324_);}
	.st1694{fill:url(#SVGID_1325_);}
	.st1695{fill:url(#SVGID_1326_);}
	.st1696{fill:url(#SVGID_1327_);}
	.st1697{fill:url(#SVGID_1328_);}
	.st1698{fill:url(#SVGID_1329_);}
	.st1699{fill:url(#SVGID_1330_);}
	.st1700{fill:url(#SVGID_1331_);}
	.st1701{fill:url(#SVGID_1332_);}
	.st1702{fill:url(#SVGID_1333_);}
	.st1703{fill:url(#SVGID_1334_);}
	.st1704{fill:#A0907C;}
	.st1705{fill:url(#SVGID_1335_);}
	.st1706{opacity:0.78;fill:#FFFFFF;}
	.st1707{fill:url(#SVGID_1336_);}
	.st1708{fill:url(#SVGID_1337_);}
	.st1709{fill:url(#SVGID_1338_);}
	.st1710{fill:url(#SVGID_1339_);}
	.st1711{fill:url(#SVGID_1340_);}
	.st1712{fill:url(#SVGID_1341_);}
	.st1713{fill:url(#SVGID_1342_);}
	.st1714{fill:url(#SVGID_1343_);}
	.st1715{fill:url(#SVGID_1344_);}
	.st1716{fill:url(#SVGID_1345_);}
	.st1717{fill:url(#SVGID_1346_);}
	.st1718{fill:url(#SVGID_1347_);}
	.st1719{fill:url(#SVGID_1348_);}
	.st1720{fill:url(#SVGID_1349_);}
	.st1721{fill:url(#SVGID_1350_);}
	.st1722{fill:url(#SVGID_1351_);}
	.st1723{fill:url(#SVGID_1352_);}
	.st1724{fill:url(#SVGID_1353_);}
	.st1725{opacity:0.56;fill:#FFFFFF;}
	.st1726{fill:url(#SVGID_1354_);}
	.st1727{fill:url(#SVGID_1355_);}
	.st1728{fill:url(#SVGID_1356_);}
	.st1729{fill:url(#SVGID_1357_);}
	.st1730{opacity:0.53;}
	.st1731{fill:url(#SVGID_1358_);}
	.st1732{fill:url(#SVGID_1359_);}
	.st1733{opacity:0.67;fill:#FFFFFF;}
	.st1734{fill:url(#SVGID_1360_);}
	.st1735{fill:url(#SVGID_1361_);}
	.st1736{fill:url(#SVGID_1362_);}
	.st1737{fill:url(#SVGID_1363_);}
	.st1738{fill:url(#SVGID_1364_);}
	.st1739{fill:url(#SVGID_1365_);}
	.st1740{fill:url(#SVGID_1366_);}
	.st1741{fill:url(#SVGID_1367_);}
	.st1742{fill:url(#SVGID_1368_);}
	.st1743{fill:url(#SVGID_1369_);}
	.st1744{fill:url(#SVGID_1370_);}
	.st1745{fill:url(#SVGID_1371_);}
	.st1746{fill:url(#SVGID_1372_);}
	.st1747{fill:url(#SVGID_1373_);}
	.st1748{fill:url(#SVGID_1374_);}
	.st1749{fill:url(#SVGID_1375_);}
	.st1750{opacity:0.19;}
	.st1751{fill:url(#SVGID_1376_);}
	.st1752{fill:url(#SVGID_1377_);}
	.st1753{fill:url(#SVGID_1378_);}
	.st1754{fill:url(#SVGID_1379_);}
	.st1755{fill:url(#SVGID_1380_);}
	.st1756{fill:url(#SVGID_1381_);}
	.st1757{fill:url(#SVGID_1382_);}
	.st1758{fill:url(#SVGID_1383_);}
	.st1759{opacity:0.63;fill:url(#SVGID_1384_);}
	.st1760{opacity:0.63;fill:url(#SVGID_1385_);}
	.st1761{opacity:0.63;fill:url(#SVGID_1386_);}
	.st1762{opacity:0.63;fill:url(#SVGID_1387_);}
	.st1763{opacity:0.63;fill:url(#SVGID_1388_);}
	.st1764{opacity:0.63;fill:url(#SVGID_1389_);}
	.st1765{fill:url(#SVGID_1390_);}
	.st1766{fill:url(#SVGID_1391_);}
	.st1767{fill:url(#SVGID_1392_);}
	.st1768{fill:url(#SVGID_1393_);}
	.st1769{fill:url(#SVGID_1394_);}
	.st1770{fill:url(#SVGID_1395_);}
	.st1771{fill:url(#SVGID_1396_);}
	.st1772{fill:url(#SVGID_1397_);}
	.st1773{fill:url(#SVGID_1398_);}
	.st1774{fill:url(#SVGID_1399_);}
	.st1775{fill:url(#SVGID_1400_);}
	.st1776{fill:url(#SVGID_1401_);}
	.st1777{fill:url(#SVGID_1402_);}
	.st1778{fill:url(#SVGID_1403_);}
	.st1779{fill:url(#SVGID_1404_);}
	.st1780{fill:url(#SVGID_1405_);}
	.st1781{fill:url(#SVGID_1406_);}
	.st1782{fill:url(#SVGID_1407_);}
	.st1783{fill:url(#SVGID_1408_);}
	.st1784{fill:url(#SVGID_1409_);}
	.st1785{fill:url(#SVGID_1410_);}
	.st1786{opacity:0.51;}
	.st1787{fill:url(#SVGID_1411_);}
	.st1788{fill:url(#SVGID_1412_);}
	.st1789{fill:url(#SVGID_1413_);}
	.st1790{fill:url(#SVGID_1414_);}
	.st1791{fill:url(#SVGID_1415_);}
	.st1792{fill:url(#SVGID_1416_);}
	.st1793{fill:url(#SVGID_1417_);}
	.st1794{fill:url(#SVGID_1418_);}
	.st1795{fill:url(#SVGID_1419_);}
	.st1796{fill:url(#SVGID_1420_);}
	.st1797{fill:url(#SVGID_1421_);}
	.st1798{fill:url(#SVGID_1422_);}
	.st1799{clip-path:url(#SVGID_1425_);}
	.st1800{fill:url(#SVGID_1426_);}
	.st1801{opacity:0.17;clip-path:url(#SVGID_1425_);fill:url(#SVGID_1427_);}
	.st1802{opacity:0.9;fill:#FFFFFF;}
	.st1803{fill:url(#SVGID_1428_);}
	.st1804{fill:url(#SVGID_1429_);}
	.st1805{fill:url(#SVGID_1430_);}
	.st1806{fill:url(#SVGID_1431_);}
	.st1807{opacity:0.3;fill:url(#SVGID_1432_);}
	.st1808{opacity:0.3;fill:url(#SVGID_1433_);}
	.st1809{fill:url(#SVGID_1434_);}
	.st1810{fill:url(#SVGID_1435_);}
	.st1811{fill:url(#SVGID_1436_);}
	.st1812{fill:url(#SVGID_1437_);}
	.st1813{fill:url(#SVGID_1438_);}
	.st1814{fill:url(#SVGID_1439_);}
	.st1815{fill:url(#SVGID_1440_);}
	.st1816{fill:url(#SVGID_1441_);}
	.st1817{fill:url(#SVGID_1442_);}
	.st1818{fill:url(#SVGID_1443_);}
	.st1819{fill:url(#SVGID_1444_);}
	.st1820{fill:url(#SVGID_1445_);}
	.st1821{fill:url(#SVGID_1446_);}
	.st1822{fill:url(#SVGID_1447_);}
	.st1823{fill:url(#SVGID_1448_);}
	.st1824{fill:url(#SVGID_1449_);}
	.st1825{fill:url(#SVGID_1450_);}
	.st1826{fill:url(#SVGID_1451_);}
	.st1827{fill:url(#SVGID_1452_);}
	.st1828{fill:url(#SVGID_1453_);}
	.st1829{fill:url(#SVGID_1454_);}
	.st1830{fill:url(#SVGID_1455_);}
	.st1831{fill:url(#SVGID_1456_);}
	.st1832{fill:url(#SVGID_1457_);}
	.st1833{fill:url(#SVGID_1458_);}
	.st1834{fill:url(#SVGID_1459_);}
	.st1835{fill:url(#SVGID_1460_);}
	.st1836{fill:url(#SVGID_1461_);}
	.st1837{fill:url(#SVGID_1462_);}
	.st1838{fill:url(#SVGID_1463_);}
	.st1839{fill:url(#SVGID_1464_);}
	.st1840{opacity:0.64;fill:url(#SVGID_1465_);}
	.st1841{opacity:0.64;fill:url(#SVGID_1466_);}
	.st1842{opacity:0.64;fill:url(#SVGID_1467_);}
	.st1843{opacity:0.64;fill:url(#SVGID_1468_);}
	.st1844{fill:#E1F0FA;}
	.st1845{fill:#265173;}
	.st1846{fill:#488DAF;}
	.st1847{fill:#AB4B38;}
	.st1848{fill:#FFB157;}
	.st1849{fill:#CA5C47;}
	.st1850{fill:#008EB0;}
	.st1851{fill:#7FB8DB;}
	.st1852{fill:#DB7D00;}
	.st1853{fill:#F79885;}
	.st1854{fill:#ED9D22;}
	.st1855{fill:#22365B;}
	.st1856{fill:#F2F4FF;}
	.st1857{fill:#A5A3FF;}
	.st1858{fill:#B7BBFF;}
	.st1859{fill:#E3E1FF;}
	.st1860{fill:#E7EAFF;}
	.st1861{fill:#CECFFF;}
	.st1862{fill:#3D3D3D;}
	.st1863{fill:#FF6853;}
	.st1864{fill:#F69CB3;}
	.st1865{fill:#F6C6C0;}
	.st1866{fill:#E0523C;}
	.st1867{fill:#F6CDC1;}
	.st1868{fill:#6584F7;}
	.st1869{fill:#3362C4;}
	.st1870{fill:#FCB271;}
	.st1871{fill:#3F434C;}
	.st1872{fill:#E6B78C;}
	.st1873{fill:#EFE7D0;}
	.st1874{fill:#737861;}
	.st1875{fill:#C99163;}
	.st1876{fill:#FFCBA1;}
	.st1877{fill:#E8E8E8;}
	.st1878{fill:#DA9B1D;}
	.st1879{fill:#D8C48B;}
	.st1880{fill:#ADDBD8;}
	.st1881{fill:#D3EDEF;}
	.st1882{clip-path:url(#SVGID_1470_);}
	.st1883{fill:#F09C72;}
	.st1884{fill:#DFC78F;}
	.st1885{fill:#606060;}
	.st1886{fill:#E8DFE4;}
	.st1887{fill:#93828A;}
	.st1888{fill:#B5B5B5;}
	.st1889{fill:#0A0A0A;}
	.st1890{fill:#DADADA;}
	.st1891{fill:#AAA9A9;}
	.st1892{fill:#898888;}
	.st1893{fill:#212121;}
	.st1894{fill:#191919;}
	.st1895{fill:#656464;}
	.st1896{fill:#C4C2C2;}
	.st1897{fill:#141414;}
	.st1898{fill:#595959;}
	.st1899{fill:#727171;}
	.st1900{fill:#565656;}
	.st1901{fill:#D1D1D1;}
	.st1902{fill:#303030;}
	.st1903{fill:#A0A0A0;}
	.st1904{fill:#050505;}
	.st1905{fill:#2D2D2D;}
	.st1906{fill:#020202;}
	.st1907{fill:#93A397;}
	.st1908{fill:#E2D6C0;}
	.st1909{fill:#5A705D;}
	.st1910{fill:#D3B690;}
	.st1911{fill:#B59978;}
	.st1912{fill:#685D56;}
	.st1913{fill:#F9E8D7;}
	.st1914{fill:#6B7F6F;}
	.st1915{fill:#3B4C3D;}
	.st1916{fill:#FBEBDB;}
	.st1917{fill:#897859;}
	.st1918{fill:#4B464D;}
	.st1919{fill:#242829;}
	.st1920{fill:#453E34;}
	.st1921{fill:#9B8250;}
	.st1922{fill:#DEC292;}
	.st1923{fill:#7A685C;}
	.st1924{fill:#C9B79F;}
	.st1925{fill:#8C796C;}
	.st1926{fill:#BEA27D;}
	.st1927{fill:#B29E86;}
	.st1928{fill:#C6A97F;}
	.st1929{fill:#A08360;}
	.st1930{fill:#C6B6A8;}
	.st1931{fill:#F9EACD;}
	.st1932{fill:#84736A;}
	.st1933{fill:#6D5A4D;}
	.st1934{fill:#5B341A;}
	.st1935{fill:#754827;}
	.st1936{fill:#68401F;}
	.st1937{fill:#BC9E75;}
	.st1938{fill:#D6C8B0;}
	.st1939{fill:#B24A3F;}
	.st1940{fill:#8E2626;}
	.st1941{fill:#469E69;}
	.st1942{fill:#22663E;}
	.st1943{fill:#E2B360;}
	.st1944{fill:#93201D;}
	.st1945{fill:#D3843D;}
	.st1946{fill:#FFDEA5;}
	.st1947{fill:#FFFABD;}
	.st1948{fill:#F9DA55;}
	.st1949{fill:#FFF98D;}
	.st1950{fill:#FFFBA9;}
	.st1951{fill:#F7DC54;}
	.st1952{fill:#8C1919;}
	.st1953{fill:#DB594F;}
	.st1954{fill:#1D5631;}
	.st1955{fill:#FFF35A;}
	.st1956{fill:#9A723F;}
	.st1957{fill:#AA1B0C;}
	.st1958{fill:#002E13;}
	.st1959{fill:#003013;}
	.st1960{fill:#003114;}
	.st1961{fill:#003315;}
	.st1962{fill:#003516;}
	.st1963{fill:#003716;}
	.st1964{fill:#003E19;}
	.st1965{fill:#003F1A;}
	.st1966{fill:#00411B;}
	.st1967{fill:#00431B;}
	.st1968{fill:#00451C;}
	.st1969{fill:#00461D;}
	.st1970{fill:#00481E;}
	.st1971{fill:#004A1E;}
	.st1972{fill:#004C1F;}
	.st1973{fill:#005322;}
	.st1974{fill:#005423;}
	.st1975{fill:#357B52;}
	.st1976{fill:#3D8059;}
	.st1977{fill:#44855F;}
	.st1978{fill:#4B8964;}
	.st1979{fill:#518D6A;}
	.st1980{fill:#619777;}
	.st1981{fill:#659A7B;}
	.st1982{fill:#5C9473;}
	.st1983{fill:#57916E;}
	.st1984{fill:#2B7449;}
	.st1985{fill:#1F6C3E;}
	.st1986{fill:#005121;}
	.st1987{fill:#004F20;}
	.st1988{fill:#004D20;}
	.st1989{fill:#89B29A;}
	.st1990{fill:#F49B42;}
	.st1991{fill:#D15F33;}
	.st1992{fill:#CC6562;}
	.st1993{fill:#003D27;}
	.st1994{fill:#B55058;}
	.st1995{fill:#A81304;}
	.st1996{fill:#932C25;}
	.st1997{fill:#4A84A8;}
	.st1998{fill:#00588E;}
	.st1999{fill:#DD7673;}
	.st2000{fill:#EAD3D3;}
	.st2001{fill:#601818;}
	.st2002{fill:#FFCCCC;}
	.st2003{fill:#770300;}
	.st2004{fill:#9B9B9B;}
	.st2005{fill:#5BB57F;}
	.st2006{fill:#CEA267;}
	.st2007{fill:#C9C9C9;}
	.st2008{fill:#757575;}
	.st2009{fill:#F7F7F7;}
	.st2010{fill:#15256B;}
	.st2011{fill:#EDE6DA;}
	.st2012{fill:#7F746E;}
	.st2013{fill:#F9F2F2;}
	.st2014{fill:#D6C6B0;}
	.st2015{fill:#544943;}
</style>
<g>
	<g>
		<rect x="-8.96" y="-13" class="st63" width="721.96" height="631"/>
	</g>
</g>
<g id="layer2_1_">
	<path id="path14513-6_1_" class="st1856" d="M327.02,32.29c-56.85-0.16-126.94,15.95-172.76,70.25
		c-21.5,25.48-32.27,49.41-36.81,71.54c-26.2,22-41.35,54.44-41.4,88.65c0.04,21.16,5.87,41.9,16.85,59.98
		c-44.85,17.18-74.46,60.22-74.47,108.24c0.05,32.32,13.6,63.15,37.36,85.05c0.75,1.22,1.2,1.88,1.2,1.88L0.31,567.33h699.38
		c0,0-28.21-7.65-52.84-20.71c15.21-13.45,23.93-32.76,23.97-53.06c-0.03-29.26-18.02-55.51-45.31-66.09
		c23.02-22.45,36.01-53.24,36.01-85.4c-0.11-42.29-22.6-81.36-59.12-102.7c7.1-14.67,10.81-30.75,10.86-47.05
		c0-60.06-48.68-108.74-108.74-108.74c-13.49,0-26.87,2.51-39.44,7.41c-15.14-18.51-33.38-30.85-50.57-41.68
		C400.77,40.65,367.2,32.4,327.02,32.29L327.02,32.29z"/>
	<g id="g7216_1_">
		<path id="rect7195_1_" class="st1857" d="M248.34,345.04h35.85c3.85,0,6.97,3.12,6.97,6.97v19.66c0,3.85-3.12,6.97-6.97,6.97
			h-35.85c-3.85,0-6.97-3.12-6.97-6.97v-19.66C241.37,348.16,244.49,345.04,248.34,345.04z"/>
		<path id="rect7197_1_" class="st1857" d="M272.33,341.03h4.77c1.64,0,2.97,1.33,2.97,2.97v6.34c0,1.64-1.33,2.97-2.97,2.97h-4.77
			c-1.64,0-2.97-1.33-2.97-2.97V344C269.36,342.36,270.69,341.03,272.33,341.03z"/>
		<path id="rect7199_1_" class="st1858" d="M265.18,341.03h4.77c1.64,0,2.97,1.33,2.97,2.97v6.34c0,1.64-1.33,2.97-2.97,2.97h-4.77
			c-1.64,0-2.97-1.33-2.97-2.97V344C262.22,342.36,263.55,341.03,265.18,341.03z"/>
		<path id="rect7201_1_" class="st1858" d="M236.5,345.04h35.85c3.85,0,6.97,3.12,6.97,6.97v19.66c0,3.85-3.12,6.97-6.97,6.97H236.5
			c-3.85,0-6.97-3.12-6.97-6.97v-19.66C229.53,348.16,232.65,345.04,236.5,345.04z"/>
		
			<ellipse id="circle7203_1_" transform="matrix(0.9996 -0.0277 0.0277 0.9996 -9.9557 7.2403)" class="st1857" cx="255.93" cy="362.37" rx="11.14" ry="11.14"/>
		
			<ellipse id="circle7205_1_" transform="matrix(0.9969 -0.0792 0.0792 0.9969 -27.9285 20.9811)" class="st1859" cx="250.38" cy="362.37" rx="11.14" ry="11.14"/>
		
			<ellipse id="circle7207_1_" transform="matrix(0.0263 -0.9997 0.9997 0.0263 -122.3688 599.1167)" class="st1856" cx="246.36" cy="362.37" rx="6.78" ry="6.78"/>
	</g>
	<path id="path14515-02_1_" class="st1860" d="M630.41,342.99c-30.68,0.07-57.55,6.45-72.92,24.06
		c-54.64,62.59-44.61,92.94-111.53,97.59c-66.92,4.65-111.47-11.38-136.13,45.66c-20.56,47.56-88.59,27.36-123.02,57.04h512.88
		c0,0-28.21-7.65-52.84-20.71c15.21-13.45,23.93-32.76,23.97-53.06c-0.03-29.26-18.02-55.51-45.31-66.09
		c22.32-21.82,35.2-51.51,35.88-82.71C650.83,343.61,640.42,342.96,630.41,342.99L630.41,342.99z"/>
	<path id="rect1755-4_1_" class="st1861" d="M614.54,243.72h-66.13c-11.55,0-23.41,9.3-26.61,20.85l-40.32,145.92
		c-3.19,11.55,3.54,20.85,15.08,20.85h66.13c11.55,0,23.41-9.3,26.61-20.85l40.32-145.92C632.81,253.02,626.09,243.72,614.54,243.72
		z"/>
	<path id="path1705-11_1_" class="st1858" d="M512.65,407.05l28.39,152.49c0.79,4.24-3.47,7.78-7.78,7.78h-2.62
		c-4.31,0-8.81-3.47-9.67-7.78L476.7,407.05H512.65z"/>
	<path id="rect1757-55_1_" class="st1857" d="M590.62,422.69H466.36c-10.09,0-18.21,8.43-18.21,18.9v2c0,10.47,8.12,18.9,18.21,18.9
		h124.26c10.09,0,18.21-8.43,18.21-18.9v-2C608.84,431.11,600.71,422.69,590.62,422.69z"/>
	<path id="rect7074_1_" class="st1857" d="M323.68,260.21h35.81c2.39,0,4.33,1.94,4.33,4.33v16.24c0,2.39-1.94,4.33-4.33,4.33
		h-35.81c-2.39,0-4.33-1.94-4.33-4.33v-16.24C319.35,262.15,321.29,260.21,323.68,260.21z"/>
	<g id="g7958_1_" transform="matrix(-1,0,0,1,995.12651,-1.0000003e-4)">
		<path id="path4297-9-2_1_" class="st1862" d="M458.42,166.14c0,0-12.43,52.16-30.09,78.88c-17.66,26.72-4.88,46.7,19.52,45.08
			c24.4-1.63,73.19-16.5,73.19-16.5l19.29-6.51c0,0,12.55-20.91-0.46-37.18c-13.01-16.26-13.01-46.01-13.01-46.01
			S472.71,153.01,458.42,166.14L458.42,166.14z"/>
		<path id="path4262-71-0_1_" class="st1863" d="M494.59,234.05c-6.9,0.02-12.4,1.2-12.4,1.2c-10.64,12.77-31.6,20.61-43.37,33.02
			c-8.54,9.36-34.01,54.22-39.27,63.42c-0.31,0.54-0.57,1.07-0.81,1.61l29.15,2.96l12.81-19.2l-9.96,61.58h77.14l17.34-40.78
			c7.6-1.82,12.1-5.66,13.79-10.66l14.53,14.93c0,0,0.69,0.67,0.81,0.53l2.47,4.36l27.68-1.75c-6.22-17.01-14.38-33.48-21.03-48.08
			c-3.21-7.03-9.01-20.17-13.76-25.4c-13.62-15-23.36-20.25-31.22-28.65C513.29,235.68,502.92,234.02,494.59,234.05L494.59,234.05z"
			/>
		<path id="path4242-8-1_1_" class="st1864" d="M523.69,189.66l4.81,12.16C545.42,199.99,537.64,161.61,523.69,189.66z"/>
		<path id="path4248-13-5_1_" class="st1865" d="M484.91,201.82c0,0,1.2,16.54,0.9,23.75c-0.3,7.22-0.15,11.12-0.15,11.12
			l17.63,16.03l9.2-8.59l-4.98-18.57L484.91,201.82z"/>
		<path id="path4250-3-9_1_" class="st1864" d="M484.91,201.82l22.61,23.75l3.76,14.05c-3.66,0.77-7.67,0.62-10.59-2.17
			c-6.92-6.61-9.02-23.45-9.02-23.45L484.91,201.82z"/>
		<path id="path4252-1-6_1_" class="st1865" d="M484.91,201.82c-16.92-1.84-9.14-40.21,4.81-12.16c3.75-6.26,11.59-15.44,7.34-27.53
			c12.6,4.1,23.05,7.28,36.57,3.61C539.01,224.61,509.47,260.4,484.91,201.82L484.91,201.82z"/>
		<path id="path4254-4-7_1_" class="st1864" d="M485.67,193.86c0.08-0.3-0.83-4.66-3.31-7.67c-2.48-3.01-4.59,0.6-4.59,0.6
			s2.26-0.68,3.53,1.43c1.28,2.1-3.01,4.74,0.98,7.29C486.27,198.07,485.67,193.86,485.67,193.86L485.67,193.86z"/>
		<path id="path4256-8-2_1_" class="st63" d="M503.3,252.73l-17.62-17.62l0.07-6.03c-6.16,4.34-6.94,11.17-5.98,14.8l11.16,23.1
			L503.3,252.73z"/>
		<path id="path4258-8-4_1_" class="st63" d="M512.5,244.14l-3.03-11.31c6.44,1.53,12.35,10.55,10.87,16.5
			c-0.48,1.76-4.76,17.08-4.76,17.08l-12.28-13.69L512.5,244.14z"/>
		<path id="path4260-0-9_1_" class="st1862" d="M533.63,168.65c-3.84,14.33-28.4,33.37-42.33,27.23l-1.57-6.22
			c0,0-4.04-8.95-9.01-10.19c-4.97-1.23-22.29-13.33-22.29-13.33s6.1-24.02,21.44-34.59c15.34-10.57,39.24,0.41,53.18,8.89
			c8.02,4.88,6.01,15.01,6.01,15.01c3.6,7.9,9.53,14.41,4.65,23.7c-4.88,9.29-9.83,10.88-9.83,10.88S534.71,178.16,533.63,168.65
			L533.63,168.65z"/>
		<path id="path14884-3-0_1_" class="st1866" d="M525.22,337.86c-6.94,0-15.76-0.69-24.74-15.77c-7.1,7.21-15.65,14.06-32.96,10.69
			l44.83,35.31L525.22,337.86z"/>
		<path id="path4200-9-7_1_" class="st1866" d="M539.01,327.21v-14.42l14.53,29.35L539.01,327.21z"/>
		<path id="path4286-3-2-2_1_" class="st1867" d="M658.51,286.06c-3.54,0.08-19.64,10.39-19.64,10.39
			c-0.33-0.17-0.84-7.51-4.51-4.03c-2.71,2.3-4.73,10.31-4.85,10.6c-0.75,1.83-1.72,4.03-2.5,5.59
			c-17.49,8.62-51.78,27.63-70.19,38.42c3.72,9.14,15.7,13.49,22.95,10.72c21.33-8.43,36.36-23.87,54.39-38.87l14.64-5.53
			c2.15-1.32,7.18-13.99,9.76-18.81c2.5-4.67,3-7.64,0.49-8.39c-0.08-0.02-0.16-0.05-0.25-0.07
			C658.73,286.07,658.62,286.06,658.51,286.06L658.51,286.06z"/>
		<path id="path4290-2-6_1_" class="st63" d="M556.82,347.03l-3.28-4.89l25.59-20.12l1.39,11.5L556.82,347.03z"/>
		<path id="path4231-7-1_1_" class="st1866" d="M440.7,317.06l2.54-9.47l1.67-6.23l-23.6,25.44l11.14,2.99L440.7,317.06z"/>
		<path id="path4286-8-1_1_" class="st1865" d="M411.7,323.17c-8.5,4.42-13.29,18.67-8.08,24.43
			c15.53,16.78,46.12,16.95,66.51,28.22l0.97,2.82h34.91c0.55-0.23,1.06-0.48,1.39-0.93c1.51-2.13-0.71-4.17-5.56-6.3
			c-12.48-7.18-16.22-9.24-25.59-6.85c-17.02-8.36-31.75-18.4-48.37-28.29C420.97,332.15,416.5,326.97,411.7,323.17z"/>
		<path id="path4288-0-1_1_" class="st63" d="M427.89,336.27l4.55-6.48l-34.98-12.15l1.28,15.67L427.89,336.27z"/>
	</g>
	<path id="path1707-6_1_" class="st1858" d="M629.93,407.05l28.39,152.49c0.79,4.24-3.47,7.78-7.78,7.78h-2.62
		c-4.31,0-8.81-3.47-9.67-7.78l-44.27-152.49H629.93z"/>
	<path id="path1785-54_1_" class="st1861" d="M488.77,462.48v80.15c0.05,0,0.11,0,0.16,0h23.78c0.05,0,0.11,0,0.16,0v-80.15H488.77z
		"/>
	<path id="path1787-2_1_" class="st1857" d="M482.92,542.62c-10.09,0-18.21,8.43-18.21,18.9v5.81h72.24v-5.81
		c0-10.47-8.12-18.9-18.21-18.9H482.92z"/>
	<path id="path3756-8_1_" class="st1857" d="M238.62,407.05l-28.39,152.49c-0.79,4.24,3.47,7.78,7.78,7.78h2.62
		c4.31,0,8.81-3.47,9.67-7.78l44.27-152.49H238.62z"/>
	<path id="rect1648-6_1_" class="st1858" d="M115.31,378.64h549.78c4.58,0,8.27,3.69,8.27,8.27v13.02c0,4.58-3.69,8.27-8.27,8.27
		H115.31c-4.58,0-8.27-3.69-8.27-8.27v-13.02C107.04,382.33,110.73,378.64,115.31,378.64z"/>
	<path id="rect1697-32_1_" class="st1857" d="M134.39,407.05L106,559.55c-0.79,4.24,3.47,7.78,7.78,7.78h2.62
		c4.31,0,8.81-3.47,9.67-7.78l44.27-152.49H134.39z"/>
	<path id="path27163_1_" class="st1868" d="M567.91,407.05c2.04,9.4,3.71,25.44-5.59,34.73c-13.72,13.72-96.06,20.84-96.06,20.84
		l11.95,28.96l18.79,45.54h-21.35l-34.78-45.54l-15.52-20.32c-21.26-36.83,24.42-53.48,65.23-64.21H567.91z"/>
	<path id="path27165_1_" class="st1869" d="M440.86,491.59h37.34l18.79,45.54h-21.35L440.86,491.59z"/>
	<g id="g7072_1_" transform="translate(-957.46098)">
		<path id="path51738-1-3_1_" class="st1861" d="M1327.04,443.94c0.92,0.07,1.75,0.33,2.47,0.79c3.94,2.53,3.53,10.19-0.91,17.11
			c-3.53,5.5-8.69,9.05-12.72,8.76c-1.71,2.57-4.59,7.27-7.61,13.81c2.36-1.3,5.26-2.21,8.3-2.58c8.16-1.02,15.25,1.93,15.83,6.57
			l0,0c0.58,4.64-5.57,9.23-13.73,10.25c0,0,0,0,0,0c-6.25,0.77-12.1-0.78-14.61-3.87c-1.5,4.22-2.91,8.89-4.08,13.97
			c1.55-0.53,3.22-0.91,4.91-1.12c8.16-1.02,15.25,1.93,15.83,6.57l0,0c0.58,4.64-5.57,9.23-13.74,10.25c0,0,0,0,0,0
			c-3.39,0.42-6.75,0.17-9.53-0.72c-0.77,7.2-0.99,14.98-0.36,23.26c0.14,1.89-1.28,3.54-3.17,3.69c-1.89,0.14-3.54-1.28-3.69-3.17
			l0,0c-0.75-9.95-0.34-19.23,0.8-27.72c-4.14,0.83-9.7-3.12-13.21-9.4c-4.01-7.18-3.95-14.86,0.14-17.14
			c4.09-2.28,10.65,1.69,14.66,8.88c0,0,0,0,0,0c0.48,0.87,0.92,1.76,1.29,2.66c1.07-4.24,2.28-8.19,3.57-11.84
			c-2.98-1.57-5.88-4.62-7.97-8.36c-4.01-7.18-3.95-14.86,0.14-17.14c4.09-2.28,10.65,1.7,14.66,8.88c0,0,0,0,0,0
			c0.06,0.11,0.11,0.22,0.17,0.33c2.72-5.28,5.12-9.01,6.45-10.96c-0.71-3.64,0.59-8.57,3.41-12.99
			C1317.86,447.2,1323.01,443.65,1327.04,443.94L1327.04,443.94z"/>
		<path id="path51740-5-6_1_" class="st1861" d="M1221.3,443.94c-0.92,0.07-1.75,0.33-2.47,0.79c-3.94,2.53-3.53,10.19,0.91,17.11
			c3.53,5.5,8.69,9.05,12.72,8.76c1.71,2.57,4.59,7.27,7.61,13.81c-2.36-1.3-5.26-2.21-8.3-2.58c-8.16-1.02-15.25,1.93-15.83,6.57v0
			c-0.58,4.64,5.57,9.23,13.74,10.25c0,0,0,0,0,0c6.25,0.77,12.1-0.78,14.61-3.87c1.5,4.22,2.91,8.89,4.08,13.97
			c-1.55-0.53-3.22-0.91-4.91-1.12c-8.16-1.02-15.25,1.93-15.83,6.57l0,0c-0.58,4.64,5.57,9.23,13.74,10.25c0,0,0,0,0,0
			c3.39,0.42,6.75,0.17,9.53-0.72c0.77,7.2,0.99,14.98,0.36,23.26c-0.14,1.89,1.28,3.54,3.17,3.69c1.89,0.14,3.54-1.28,3.69-3.17
			l0,0c0.75-9.95,0.34-19.23-0.8-27.72c4.14,0.83,9.7-3.12,13.21-9.4c4.01-7.18,3.95-14.86-0.14-17.14
			c-4.09-2.28-10.65,1.69-14.66,8.88c0,0,0,0,0,0c-0.48,0.87-0.92,1.76-1.29,2.66c-1.07-4.24-2.28-8.19-3.57-11.84
			c2.98-1.57,5.88-4.62,7.97-8.36c4.01-7.18,3.95-14.86-0.14-17.14c-4.09-2.28-10.65,1.7-14.66,8.88c0,0,0,0,0,0
			c-0.06,0.11-0.11,0.22-0.17,0.33c-2.72-5.28-5.12-9.01-6.45-10.96c0.71-3.64-0.59-8.57-3.41-12.99
			C1230.48,447.2,1225.32,443.65,1221.3,443.94L1221.3,443.94z"/>
		<path id="path51742-9-7_1_" class="st1857" d="M1268.1,413.34c-0.28-0.02-0.57-0.01-0.85,0.02c-4.65,0.52-7.67,7.58-6.75,15.75
			c0.65,5.7,3.1,10.69,6.31,12.81c0.2,1.55,0.41,3.24,0.63,5.07c-0.84-0.56-1.74-1.06-2.67-1.49c-5.84-2.68-11.81-2.16-13.33,1.16v0
			c-1.53,3.32,1.97,8.19,7.81,10.87c0,0,0,0,0,0c3.33,1.53,6.88,2.07,9.57,1.46c0.36,3.31,0.72,6.85,1.08,10.53
			c-0.87-0.59-1.81-1.11-2.79-1.57c-5.84-2.68-11.81-2.16-13.34,1.16c0,0,0,0,0,0c-1.52,3.32,1.97,8.19,7.81,10.87
			c3.25,1.49,6.71,2.04,9.38,1.51c0.31,3.74,0.59,7.57,0.85,11.47c-0.91-0.62-1.89-1.17-2.91-1.65c-5.84-2.68-11.81-2.16-13.33,1.16
			c-1.52,3.32,1.97,8.19,7.81,10.87c3.14,1.44,6.48,2.01,9.12,1.56c0.51,10.71,0.74,21.54,0.47,31.68c-0.07,1.9,1.41,3.49,3.31,3.56
			c1.9,0.07,3.49-1.41,3.56-3.31c0-0.02,0-0.05,0-0.07c0.28-10.54,0.04-21.75-0.49-32.79c2.98,0.28,6.89-1.5,10.08-4.59
			c4.62-4.47,6.3-10.22,3.76-12.85l0,0c-2.54-2.63-8.35-1.14-12.96,3.33c-0.57,0.55-1.11,1.13-1.6,1.74
			c-0.25-3.73-0.53-7.39-0.82-10.97c2.95,0.15,6.73-1.62,9.83-4.61c4.62-4.47,6.3-10.22,3.76-12.85l0,0
			c-2.54-2.63-8.35-1.14-12.96,3.33c-0.62,0.6-1.19,1.24-1.72,1.9c-0.35-3.58-0.7-7.01-1.05-10.23c2.93,0.07,6.61-1.7,9.64-4.62
			c4.62-4.47,6.3-10.22,3.76-12.85l0,0c-2.54-2.63-8.34-1.14-12.96,3.33c0,0,0,0,0,0c-0.66,0.64-1.27,1.32-1.82,2.03
			c-0.2-1.66-0.4-3.2-0.58-4.64c2.88-2.65,4.32-8.26,3.65-14.24C1276.48,419.61,1272.49,413.61,1268.1,413.34L1268.1,413.34z"/>
		<path id="path51736-31-4_1_" class="st1861" d="M1197.29,443.94c0.92,0.07,1.75,0.33,2.47,0.79c3.94,2.53,3.53,10.19-0.91,17.11
			c-3.53,5.5-8.69,9.05-12.72,8.76c-1.71,2.57-4.59,7.27-7.61,13.81c2.36-1.3,5.26-2.21,8.3-2.58c8.16-1.02,15.25,1.93,15.83,6.57
			l0,0c0.58,4.64-5.57,9.23-13.74,10.25h0c-6.25,0.77-12.1-0.78-14.61-3.87c-1.5,4.22-2.91,8.89-4.08,13.97
			c1.55-0.53,3.22-0.91,4.91-1.12c8.16-1.02,15.25,1.93,15.83,6.57l0,0c0.58,4.64-5.57,9.23-13.74,10.25h0
			c-3.39,0.42-6.75,0.17-9.53-0.72c-0.77,7.2-0.99,14.98-0.36,23.26c0.14,1.89-1.28,3.54-3.17,3.69c-1.89,0.14-3.54-1.28-3.69-3.17
			l0,0c-0.75-9.95-0.34-19.23,0.8-27.72c-4.14,0.83-9.7-3.12-13.21-9.4c-4.01-7.18-3.95-14.86,0.14-17.14
			c4.09-2.28,10.65,1.69,14.66,8.88c0,0,0,0,0,0c0.48,0.87,0.92,1.76,1.29,2.66c1.07-4.24,2.28-8.19,3.57-11.84
			c-2.98-1.57-5.88-4.62-7.97-8.36c-4.01-7.18-3.95-14.86,0.14-17.14c4.09-2.28,10.65,1.7,14.66,8.88l0,0
			c0.06,0.11,0.11,0.22,0.17,0.33c2.72-5.28,5.12-9.01,6.45-10.96c-0.71-3.64,0.59-8.57,3.41-12.99
			C1188.11,447.2,1193.27,443.65,1197.29,443.94L1197.29,443.94z"/>
		<path id="ellipse15434-9-3-2_1_" class="st1861" d="M1091.55,443.94c-0.92,0.07-1.75,0.33-2.47,0.79
			c-3.94,2.53-3.53,10.19,0.91,17.11c3.53,5.5,8.69,9.05,12.72,8.76c1.71,2.57,4.59,7.27,7.61,13.81c-2.36-1.3-5.26-2.21-8.3-2.58
			c-8.16-1.02-15.25,1.93-15.83,6.57l0,0c-0.58,4.64,5.57,9.23,13.74,10.25c0,0,0,0,0,0c6.25,0.77,12.1-0.78,14.61-3.87
			c1.5,4.22,2.91,8.89,4.08,13.97c-1.55-0.53-3.22-0.91-4.91-1.12c-8.16-1.02-15.25,1.93-15.83,6.57l0,0
			c-0.58,4.64,5.57,9.23,13.74,10.25l0,0c3.39,0.42,6.75,0.17,9.53-0.72c0.77,7.2,0.99,14.98,0.36,23.26
			c-0.15,1.89,1.26,3.55,3.16,3.7c1.89,0.15,3.55-1.27,3.7-3.16c0-0.01,0-0.01,0-0.02c0.75-9.95,0.34-19.23-0.8-27.72
			c4.14,0.83,9.7-3.12,13.21-9.4c4.01-7.18,3.95-14.86-0.14-17.14c-4.09-2.28-10.65,1.69-14.66,8.88c0,0,0,0,0,0
			c-0.48,0.87-0.92,1.76-1.29,2.66c-1.07-4.24-2.28-8.19-3.57-11.84c2.98-1.57,5.88-4.62,7.97-8.36c4.01-7.18,3.95-14.86-0.14-17.14
			c-4.09-2.28-10.65,1.7-14.66,8.88c0,0,0,0,0,0c-0.06,0.11-0.11,0.22-0.17,0.33c-2.72-5.28-5.12-9.01-6.45-10.96
			c0.71-3.64-0.59-8.57-3.41-12.99C1100.73,447.2,1095.58,443.65,1091.55,443.94L1091.55,443.94z"/>
		<path id="path52403-35-2_1_" class="st1857" d="M1145.1,413.34c-0.28-0.02-0.57-0.01-0.85,0.02c-4.65,0.52-7.67,7.58-6.75,15.75
			c0.65,5.7,3.1,10.69,6.31,12.81c0.2,1.55,0.41,3.24,0.63,5.07c-0.84-0.56-1.74-1.06-2.67-1.49c-5.84-2.68-11.81-2.16-13.34,1.16v0
			c-1.53,3.32,1.97,8.19,7.81,10.87c0,0,0,0,0,0c3.33,1.53,6.88,2.07,9.57,1.46c0.36,3.31,0.72,6.85,1.08,10.53
			c-0.87-0.59-1.81-1.11-2.79-1.57c-5.84-2.68-11.81-2.16-13.34,1.16c0,0,0,0,0,0c-1.53,3.32,1.97,8.19,7.81,10.87
			c3.25,1.49,6.71,2.04,9.38,1.51c0.31,3.74,0.59,7.57,0.85,11.47c-0.91-0.62-1.89-1.17-2.91-1.65c-5.84-2.68-11.81-2.16-13.33,1.16
			c-1.52,3.32,1.97,8.19,7.81,10.87c3.14,1.44,6.48,2.01,9.12,1.56c0.51,10.71,0.74,21.54,0.47,31.68c-0.07,1.9,1.41,3.49,3.3,3.57
			c1.9,0.07,3.49-1.41,3.57-3.3c0-0.03,0-0.05,0-0.08c0.28-10.54,0.04-21.75-0.49-32.79c2.98,0.27,6.89-1.5,10.08-4.59
			c4.62-4.47,6.3-10.22,3.76-12.85c-2.54-2.63-8.35-1.14-12.96,3.33c-0.57,0.55-1.11,1.13-1.6,1.74c-0.25-3.73-0.53-7.39-0.82-10.97
			c2.95,0.15,6.73-1.62,9.83-4.61c4.62-4.47,6.3-10.22,3.76-12.85c0,0,0,0,0,0c-2.54-2.63-8.35-1.14-12.96,3.33
			c-0.62,0.6-1.19,1.24-1.72,1.9c-0.35-3.58-0.7-7.01-1.05-10.23c2.93,0.07,6.61-1.7,9.64-4.62c4.62-4.47,6.3-10.22,3.76-12.85
			c-2.54-2.63-8.34-1.14-12.96,3.33c0,0,0,0,0,0c-0.66,0.64-1.27,1.32-1.82,2.03c-0.2-1.66-0.4-3.2-0.58-4.64
			c2.88-2.65,4.32-8.26,3.65-14.24C1153.48,419.61,1149.49,413.61,1145.1,413.34L1145.1,413.34z"/>
		<path id="rect1084-9-2-1_1_" class="st1861" d="M1104.32,521.67l5.76,35c0.8,5.86,4.76,10.67,10.67,10.67h185.06
			c5.91,0,10.3-4.77,10.67-10.67l5.43-35H1104.32z"/>
		<path id="rect1096-7-55-3_1_" class="st1858" d="M1104.32,521.67l1.32,7.99h215.03l1.24-7.99H1104.32z"/>
		<path id="rect1082-5-04-6_1_" class="st1861" d="M1101.72,500.33h223.08c5.91,0,10.67,4.76,10.67,10.67
			c0,5.91-4.76,10.67-10.67,10.67h-223.08c-5.91,0-10.67-4.76-10.67-10.67C1091.05,505.09,1095.81,500.33,1101.72,500.33
			L1101.72,500.33z"/>
	</g>
	<path id="path27167_1_" class="st1868" d="M490.57,407.05c-17.09,4.5-33.96,11.11-47.49,18.73c-16.47,9.28-27.46,20.57-21.29,37.93
		l-4.45,3.8l-15.51,25.99l-26.52,44.48l-18.15-8.45c0,0,9.38-24.25,20.5-49.99c5.91-13.68,11.52-26.73,14.52-33.96
		c8.63-20.85,43.85-38.53,43.85-38.53H490.57z"/>
	<path id="path27169_1_" class="st1869" d="M377.67,479.55l24.17,13.95l-26.52,44.48l-18.15-8.45
		C357.16,529.54,366.54,505.29,377.67,479.55z"/>
	<path id="path27171_1_" class="st1865" d="M501.85,550.37l-4.86-13.24h-17.57h-3.78l10.37,18.48L501.85,550.37z"/>
	<path id="path27173_1_" class="st63" d="M478.44,542.06l7.3,17.94l15.38-1.43l0.74-8.21l-2.94-8.01L478.44,542.06z"/>
	<path id="path27175_1_" class="st1862" d="M452.2,567.33h56.25l-6.59-16.97c-8.5,12.53-17.37-11.37-23.55-3.91
		c0,0-7.93,10.72-12.59,10.83C456.23,557.29,450.48,558.44,452.2,567.33L452.2,567.33z"/>
	<path id="path27177_1_" class="st1869" d="M490.57,407.05c-13.27,3.49-27.05,7.61-38.88,12.84l11.25-12.84H490.57z"/>
	<path id="path27179_1_" class="st1869" d="M422.95,441.99c-3.38,6.24-4.12,13.41-1.16,21.72l-4.45,3.8l-10.65,17.85
		C402.61,464.49,415.73,448.81,422.95,441.99z"/>
	<path id="path27181_1_" class="st1865" d="M369.02,548.76l6.29-10.78c-6.01-2.91-12.07-5.69-18.15-8.45l-7.34,17.21L369.02,548.76z
		"/>
	<path id="path27183_1_" class="st63" d="M350.42,536.19l-2.82,14.37l14.37,5.65l7.05-7.45l3.16-5.38L350.42,536.19z"/>
	<path id="path27185_1_" class="st1862" d="M314.17,545.23l47.7,22.1l7.15-18.57c-13.23,7.36-9.72-16.45-18.6-12.57
		c0,0-15.26,4.92-19.48,2.92C322.48,534.85,316.64,536.51,314.17,545.23L314.17,545.23z"/>
	<path id="path6361-1_1_" class="st1867" d="M279.98,310.65c1.88,0.58,3.52,1.27,4.56,2.06c4.16,3.15-2.83,10.02-2.83,10.02
		s5.81,5.57,7.8,7.61c1.23,2.01,1.87,4.83-0.23,8.25c-5.7,9.33-24.92,11.02-33.61,3.14c-2.57-2.67-10.78-22.02-10.78-22.02
		l-0.36-0.47l13.02-12.83c2.05,0.71,4.63,0.9,8.62,1.58C266.52,308.06,274.34,308.9,279.98,310.65z"/>
	<path id="path913-0-5-0_1_" class="st1865" d="M137.66,550.75l-1.63-13.24h15.86h3.78l0.33,18.66L137.66,550.75z"/>
	<path id="path6339-9_1_" class="st1868" d="M132.12,116.76c-4.65-0.03-9.29,0.99-15.19,3.25c0,0-19.6,7.47-33.55,12.66
		c-14.58,5.43-29.17,15.49-36.54,29.95c-7.57,14.86-29.58,58.45-29.58,58.45l25.97,12.22l31.12-50.12l22.29-8.08l-2.97,6.41
		L55.1,248.32c-6.13,13.44-10.58,26.65-10.58,42.09l73.85,3.21c18.25-26.8,30.36-44.08,58.02-60.61l7.45,29.87
		c9.75,25.34,38.04,41.12,50.29,52.63l21.08-19.48c0,0-33.21-28.64-36.84-42.22c-1.18-9.49-0.73-17.83,0.26-25.49
		c2.97-22.94,10.78-39.67-6.17-62.29c-13.43-17.82-33.03-36.64-33.03-36.64c-10.76-3.48-20.27-5.83-27.72-8.31
		C143.57,118.37,137.83,116.79,132.12,116.76L132.12,116.76z"/>
	<path id="path883-9-3_1_" class="st1864" d="M233.62,107.76l2.61,12.82C253.21,121.72,252.25,82.58,233.62,107.76z"/>
	<path id="path876-7-88-9_1_" class="st1862" d="M245.64,82.24c0,0,5.27,2.16,7.31,7.86c2.04,5.71-10.69,20.7-10.69,20.7
		L245.64,82.24z"/>
	<path id="path874-7-7-2_1_" class="st1862" d="M200.2,70.67c0,0-7.62-1.81-11.4,7.45c-3.78,9.25,1.4,29.11,1.4,29.11
		c-3.78,12.83-1.26,24.08,12.34,13.94c6.23-5,15.14-37.17,15.14-37.17s20.16,6.93,29.89,1.94c9.74-4.99,22.37-22.85,11.19-28.68
		c-11.18-5.83-15.39,2.12-40.7-3.53C204.85,50.78,197.39,60.71,200.2,70.67L200.2,70.67z"/>
	<path id="path885-8-07_1_" class="st1865" d="M198.45,107.93l-15.38,18.88l4.55,34.15l9.72-5.62l8.03-15.36L198.45,107.93z"/>
	<path id="path887-3-8-2_1_" class="st1864" d="M196.74,108.18l13,30.1l-10.19,12.59c-2.79-4.43-2.67-19.87-0.68-28.93
		L196.74,108.18z"/>
	<path id="path870-4-1-8_1_" class="st1865" d="M193.31,112.97c-16.34-4.76-1.97-41.19,6.86-11.14
		c4.78-5.51,14.11-13.18,12.03-25.83c11.69,6.24,21.43,11.2,35.38,9.94C242.6,144.85,207.26,174.93,193.31,112.97z"/>
	<path id="path894-3-4-3_1_" class="st1864" d="M195.45,105.25c0.13-0.28,0-4.73-1.92-8.13c-1.92-3.39-4.62-0.21-4.62-0.21
		s2.34-0.27,3.23,2.02c0.89,2.3-3.79,4.14-0.31,7.35C195.3,109.5,195.45,105.25,195.45,105.25L195.45,105.25z"/>
	<path id="path881-1-2-10_1_" class="st63" d="M187.63,160.96l-4.55-34.15l4.18-5.08c-7.52,0.49-12.14,2.71-13.21,6.31l-3.64,33.3
		L187.63,160.96z"/>
	<path id="path884-3-21-16_1_" class="st63" d="M197.35,155.34l2.2-4.46l1.89-2.23c4.69,4.66,8.71,9.38,4.34,13.69
		c-1.32,1.26-14.8,16.7-14.8,16.7l-3.35-18.08L197.35,155.34z"/>
	<path id="path17531-2-64_1_" class="st1863" d="M116.72,298.82l33.3,96.89c5.1,13.82,6.98,25.43,6.89,39.84l-0.37,55.48
		l-0.87,46.47h-19.64l-4.88-46.47l-11.61-67.82l-34.7-58.07l-9.4,53.8c-1.4,8.15-2.81,12.98-5.05,19.63l-17.87,53.17l-14.35,45.75
		H20.15l7.45-46.47l11.1-67.82l1.69-69.98l1.19-49.16L116.72,298.82z"/>
	<path id="path935-5-2-5_1_" class="st1866" d="M131.15,491.04h25.39l-0.87,46.47h-19.64L131.15,491.04z"/>
	<path id="path933-4-0_1_" class="st1866" d="M27.6,491.04l24.92,0.72l-14.35,45.75H20.15L27.6,491.04z"/>
	<path id="path925-0-89-7_1_" class="st1866" d="M84.84,365.15l7.27-30.83h7.41l-1.78,52.29L84.84,365.15z"/>
	<path id="path927-1-40_1_" class="st63" d="M118.37,293.62l-1.65,5.2l-75.15,5.26l2.94-13.67L118.37,293.62z"/>
	<path id="path915-1-7-87_1_" class="st63" d="M155.67,543.38l-19.01,0.22l0.99,7.15c0,0,18.25-1.19,18.3-1.4
		C156,549.15,155.67,543.38,155.67,543.38z"/>
	<path id="path929-1-3-3_1_" class="st1862" d="M187.52,567.72h-51.75l1.89-16.97l6.16-1.69c4.2-4.05,11.88-5.04,17.12,0.93
		c0,0,9.59,6.9,14.27,7.02C184.7,557.01,188.24,558.82,187.52,567.72L187.52,567.72z"/>
	<path id="path924-5-2-2_1_" class="st1865" d="M34.46,551.92l3.71-14.41H23.93h-3.78l-2.42,18.66L34.46,551.92z"/>
	<path id="path926-4-32-76_1_" class="st63" d="M19.33,543.38l17.16,0.58l-2.03,7.95c0,0-16.64-2.36-16.68-2.56
		C17.74,549.15,19.33,543.38,19.33,543.38L19.33,543.38z"/>
	<path id="path928-3-77-87_1_" class="st1862" d="M4.22,567.72c-5.54,0,20.88,0,30.56,0l-0.33-15.8l-4.55-2.85
		c-4.2-4.05-10.58-5.68-14.1,0.29C11.25,561.17,3.49,556.27,4.22,567.72z"/>
	<path id="path6359-1_1_" class="st1869" d="M176.39,233.01l14.94-8.89l-7.49,38.77L176.39,233.01z"/>
	<path id="path6363-5_1_" class="st63" d="M241.1,322.62l19.26-18.97l-5.16-7.61l-21.08,19.48L241.1,322.62z"/>
	<path id="path6365-7_1_" class="st1864" d="M244.89,319.71l21.7-11.67l-9.04-1.63l-13.02,12.83L244.89,319.71z"/>
	<path id="rect6434_1_" class="st1861" d="M307.16,260.21h35.81c2.39,0,4.33,1.94,4.33,4.33v16.24c0,2.39-1.94,4.33-4.33,4.33
		h-35.81c-2.39,0-4.33-1.94-4.33-4.33v-16.24C302.83,262.15,304.77,260.21,307.16,260.21z"/>
	<path id="rect6430_1_" class="st1857" d="M311.74,226.16h52.33c5.62,0,10.18,4.56,10.18,10.18v28.69c0,5.62-4.56,10.18-10.18,10.18
		h-52.33c-5.62,0-10.18-4.56-10.18-10.18v-28.69C301.56,230.71,306.12,226.16,311.74,226.16z"/>
	<path id="rect6432_1_" class="st1857" d="M346.74,220.31h6.97c2.39,0,4.33,1.94,4.33,4.33v9.25c0,2.39-1.94,4.33-4.33,4.33h-6.97
		c-2.39,0-4.33-1.94-4.33-4.33v-9.25C342.41,222.25,344.35,220.31,346.74,220.31z"/>
	<path id="rect6428_1_" class="st1858" d="M336.32,220.31h6.97c2.39,0,4.33,1.94,4.33,4.33v9.25c0,2.39-1.94,4.33-4.33,4.33h-6.97
		c-2.39,0-4.33-1.94-4.33-4.33v-9.25C331.99,222.25,333.93,220.31,336.32,220.31z"/>
	<path id="rect6424_1_" class="st1858" d="M294.46,226.16h52.33c5.62,0,10.18,4.56,10.18,10.18v28.69c0,5.62-4.56,10.18-10.18,10.18
		h-52.33c-5.62,0-10.18-4.56-10.18-10.18v-28.69C284.28,230.71,288.84,226.16,294.46,226.16z"/>
	<circle id="circle6426_1_" class="st1857" cx="322.81" cy="251.46" r="16.25"/>
	
		<ellipse id="path6422_1_" transform="matrix(0.1643 -0.9864 0.9864 0.1643 14.9617 520.5757)" class="st1859" cx="314.72" cy="251.46" rx="16.25" ry="16.25"/>
	<path id="path6436_1_" class="st1857" d="M296.54,295.24l-14.78,79.35c-0.41,2.21,1.81,4.05,4.05,4.05h1.36
		c2.24,0,4.59-1.8,5.03-4.05l23.04-79.35H296.54z"/>
	<path id="path6438_1_" class="st1857" d="M367.77,295.24l14.77,79.35c0.41,2.21-1.81,4.05-4.05,4.05h-1.36
		c-2.24,0-4.59-1.8-5.03-4.05l-23.04-79.35H367.77z"/>
	<path id="path6460_1_" class="st1857" d="M339.83,295.24l4,79.35c0.11,2.21-2.36,4.05-4.6,4.05h-1.36c-2.24,0-4.34-1.8-4.48-4.05
		l-12.27-79.35H339.83z"/>
	<path id="rect6442_1_" class="st1857" d="M305.41,285.11h68.34c3.22,0,5.82,2.61,5.82,5.82l0,0c0,3.22-2.61,5.82-5.82,5.82h-68.34
		c-3.22,0-5.82-2.61-5.82-5.82l0,0C299.59,287.72,302.2,285.11,305.41,285.11z"/>
	<path id="rect6440_1_" class="st1858" d="M289.66,285.11H358c3.22,0,5.82,2.61,5.82,5.82l0,0c0,3.22-2.61,5.82-5.82,5.82h-68.34
		c-3.22,0-5.82-2.61-5.82-5.82l0,0C283.83,287.72,286.44,285.11,289.66,285.11z"/>
	<path id="path7117_1_" class="st1857" d="M471.22,360.22h12.43c2.58,0,4.66,2.08,4.66,4.66v9.1c0,2.58-2.08,4.66-4.66,4.66h-12.43
		c-2.58,0-4.66-2.08-4.66-4.66v-9.1C466.56,362.3,468.64,360.22,471.22,360.22z"/>
	<path id="rect7076_1_" class="st1857" d="M468.25,341.98h17.64c2.58,0,4.66,2.08,4.66,4.66v18.63c0,2.58-2.08,4.66-4.66,4.66
		h-17.64c-2.58,0-4.66-2.08-4.66-4.66v-18.63C463.59,344.06,465.67,341.98,468.25,341.98z"/>
	<path id="path7084_1_" class="st1861" d="M464.15,335.56h26.74c2.63,0,4.74,2.11,4.74,4.74v9.57c0,2.63-2.11,4.74-4.74,4.74h-26.74
		c-2.63,0-4.74-2.11-4.74-4.74v-9.57C459.41,337.67,461.53,335.56,464.15,335.56z"/>
	<path id="rect7078_1_" class="st1858" d="M457.2,313.61c-4.79,0-8,3.86-7.19,8.65l2.16,12.82c0.81,4.79,5.32,8.65,10.11,8.65h6.73
		h16.11h6.73c4.79,0,9.3-3.86,10.11-8.65l2.16-12.82c0.81-4.79-2.4-8.65-7.19-8.65h-16.9h-5.94H457.2z"/>
	<path id="path7105_1_" class="st1861" d="M464.15,361.71h26.74c2.63,0,4.74,2.11,4.74,4.74v2.2c0,2.63-2.11,4.74-4.74,4.74h-26.74
		c-2.63,0-4.74-2.11-4.74-4.74v-2.2C459.41,363.82,461.53,361.71,464.15,361.71z"/>
	<path id="path7119_1_" class="st1857" d="M466.56,313.61v0.78c0,2.58,2.08,4.66,4.66,4.66h12.43c2.58,0,4.66-2.08,4.66-4.66v-0.78
		h-8.26h-5.94H466.56z"/>
	<path id="path7124_1_" class="st1859" d="M451.96,333.85l0.21,1.23c0.25,1.48,0.86,2.88,1.71,4.09h46.38
		c0.86-1.22,1.46-2.61,1.71-4.09l0.21-1.23H451.96z"/>
	<path id="rect7138_1_" class="st1858" d="M589.55,316.75h18.71c1.25,0,2.26,1.01,2.26,2.26v8.49c0,1.25-1.01,2.26-2.26,2.26h-18.71
		c-1.25,0-2.26-1.01-2.26-2.26v-8.49C587.29,317.76,588.3,316.75,589.55,316.75z"/>
	<path id="rect7140_1_" class="st1857" d="M580.92,316.75h18.71c1.25,0,2.26,1.01,2.26,2.26v8.49c0,1.25-1.01,2.26-2.26,2.26h-18.71
		c-1.25,0-2.26-1.01-2.26-2.26v-8.49C578.66,317.76,579.67,316.75,580.92,316.75z"/>
	<path id="path7142_1_" class="st1857" d="M575.37,335.06l-7.72,41.47c-0.21,1.15,0.94,2.12,2.12,2.12h0.71
		c1.17,0,2.4-0.94,2.63-2.12l12.04-41.47H575.37z"/>
	<path id="path7144_1_" class="st1857" d="M612.59,335.06l7.72,41.47c0.21,1.15-0.94,2.12-2.12,2.12h-0.71
		c-1.17,0-2.4-0.94-2.63-2.12l-12.04-41.47H612.59z"/>
	<path id="path7146_1_" class="st1857" d="M597.99,335.06l2.09,41.47c0.06,1.15-1.23,2.12-2.4,2.12h-0.71
		c-1.17,0-2.27-0.94-2.34-2.12l-6.41-41.47H597.99z"/>
	<path id="rect7148_1_" class="st1857" d="M580,329.76h35.72c1.68,0,3.04,1.36,3.04,3.04l0,0c0,1.68-1.36,3.04-3.04,3.04H580
		c-1.68,0-3.04-1.36-3.04-3.04l0,0C576.96,331.13,578.32,329.76,580,329.76z"/>
	<path id="rect7150_1_" class="st1858" d="M571.77,329.76h35.72c1.68,0,3.04,1.36,3.04,3.04l0,0c0,1.68-1.36,3.04-3.04,3.04h-35.72
		c-1.68,0-3.04-1.36-3.04-3.04l0,0C568.73,331.13,570.09,329.76,571.77,329.76z"/>
	<circle id="circle7152_1_" class="st1857" cx="591.08" cy="323.54" r="4.31"/>
	<path id="circle7154_1_" class="st1859" d="M588.93,319.24c2.38,0,4.31,1.93,4.31,4.31c0,2.38-1.93,4.31-4.31,4.31
		c-2.38,0-4.31-1.93-4.31-4.31C584.63,321.16,586.55,319.24,588.93,319.24z"/>
	
		<ellipse id="circle7156_1_" transform="matrix(0.1492 -0.9888 0.9888 0.1492 14.1094 519.3136)" class="st1856" cx="308.84" cy="251.46" rx="9.9" ry="9.9"/>
	<path id="rect7165_1_" class="st1857" d="M176.17,345.04h35.85c3.85,0,6.97,3.12,6.97,6.97v19.66c0,3.85-3.12,6.97-6.97,6.97
		h-35.85c-3.85,0-6.97-3.12-6.97-6.97v-19.66C169.19,348.16,172.32,345.04,176.17,345.04z"/>
	<path id="rect7167_1_" class="st1857" d="M200.15,341.03h4.77c1.64,0,2.97,1.33,2.97,2.97v6.34c0,1.64-1.33,2.97-2.97,2.97h-4.77
		c-1.64,0-2.97-1.33-2.97-2.97V344C197.18,342.36,198.51,341.03,200.15,341.03z"/>
	<path id="rect7169_1_" class="st1858" d="M193.01,341.03h4.77c1.64,0,2.97,1.33,2.97,2.97v6.34c0,1.64-1.33,2.97-2.97,2.97h-4.77
		c-1.64,0-2.97-1.33-2.97-2.97V344C190.04,342.36,191.37,341.03,193.01,341.03z"/>
	<path id="rect7171_1_" class="st1858" d="M164.33,345.04h35.85c3.85,0,6.97,3.12,6.97,6.97v19.66c0,3.85-3.12,6.97-6.97,6.97
		h-35.85c-3.85,0-6.97-3.12-6.97-6.97v-19.66C157.35,348.16,160.48,345.04,164.33,345.04z"/>
	
		<ellipse id="circle7173_1_" transform="matrix(0.9996 -0.0277 0.0277 0.9996 -9.9835 5.2378)" class="st1857" cx="183.75" cy="362.37" rx="11.14" ry="11.14"/>
	
		<ellipse id="circle7175_1_" transform="matrix(0.0125 -0.9999 0.9999 0.0125 -186.3611 536.041)" class="st1859" cx="178.21" cy="362.37" rx="11.14" ry="11.14"/>
	
		<ellipse id="circle7177_1_" transform="matrix(0.0263 -0.9997 0.9997 0.0263 -192.6457 526.9673)" class="st1856" cx="174.18" cy="362.37" rx="6.78" ry="6.78"/>
	<path id="path22607-4-8-1_1_" class="st1867" d="M4.3,251.53c1.51-3.38,13.12-18.9,13.12-18.9l0.3-0.51l16.78,7.25
		c0.11,2.16,0.9,4.63,1.77,8.59c-0.5,0.4,2.69,10.35,3.8,15.61c-1.36,5.04-11.62,4.32-11.62,4.32
		C25.48,283.71-4.05,271.03,4.3,251.53L4.3,251.53z"/>
	<path id="path22609-7-1-9_1_" class="st63" d="M13.31,230.21l24.82,10.72l5.12-7.65l-25.97-12.22L13.31,230.21z"/>
	<path id="path22611-5-1-29_1_" class="st1864" d="M17.42,232.63l18.96,15.73l-1.88-8.99l-16.78-7.25L17.42,232.63z"/>
	<path id="path7553_1_" class="st1869" d="M96.64,175.09l28.61-1.57l-49.74,39.42L96.64,175.09z"/>
	<path id="path9486_1_" class="st1861" d="M401.3,75.16h-95.52c-4.92,0-8.88,3.96-8.88,8.88v65.24c0,4.92,3.96,8.88,8.88,8.88h81
		l14.52,14.88c3.44,3.52,8.88,1.46,8.88-3.46V84.04C410.18,79.12,406.22,75.16,401.3,75.16L401.3,75.16z"/>
	<path id="path9488_1_" class="st63" d="M395.31,94.92l-0.09,9.45h-78.71l0.09-9.45H395.31z"/>
	<path id="path9490_1_" class="st63" d="M365.21,124.66l-0.05,9.45h-48.66l0.05-9.45H365.21z"/>
	<path id="path9492_1_" class="st63" d="M395.31,94.92l-0.01,9.45h-15.02l0.01-9.45H395.31z"/>
	<path id="path9494_1_" class="st63" d="M394.43,124.66l-0.01,9.45H379.4l0.01-9.45H394.43z"/>
</g>
</svg>
