<?xml version="1.0" encoding="utf-8"?>
<!-- Generator: Adobe Illustrator 24.3.0, SVG Export Plug-In . SVG Version: 6.00 Build 0)  -->
<svg version="1.1" id="Layer_1" xmlns="http://www.w3.org/2000/svg" xmlns:xlink="http://www.w3.org/1999/xlink" x="0px" y="0px"
	 viewBox="0 0 700 600" style="enable-background:new 0 0 700 600;" xml:space="preserve">
<style type="text/css">
	.st0{fill:#E6E6E6;}
	.st1{opacity:0.2;}
	.st2{fill:#FFFFFF;}
	.st3{clip-path:url(#SVGID_2_);fill:#FFFFFF;}
	.st4{clip-path:url(#SVGID_2_);}
	.st5{opacity:0.8;}
	.st6{fill:#0A1E29;}
	.st7{fill:#E00022;}
	.st8{opacity:0.91;}
	.st9{fill:#0A1C2E;}
	.st10{fill:#787878;}
	.st11{clip-path:url(#SVGID_2_);fill:url(#SVGID_3_);}
	.st12{clip-path:url(#SVGID_2_);fill:url(#SVGID_4_);}
	.st13{clip-path:url(#SVGID_6_);fill:#FFFFFF;}
	.st14{clip-path:url(#SVGID_6_);}
	.st15{fill:#61A600;}
	.st16{clip-path:url(#SVGID_6_);fill:url(#SVGID_7_);}
	.st17{clip-path:url(#SVGID_6_);fill:url(#SVGID_8_);}
	.st18{clip-path:url(#SVGID_10_);fill:#FFFFFF;}
	.st19{clip-path:url(#SVGID_10_);}
	.st20{fill:#009EE0;}
	.st21{fill:#009ADB;}
	.st22{clip-path:url(#SVGID_10_);fill:url(#SVGID_11_);}
	.st23{clip-path:url(#SVGID_10_);fill:url(#SVGID_12_);}
	.st24{fill:#DDD5E1;}
	.st25{fill:#1B0043;}
	.st26{fill:#F4F5FB;}
	.st27{opacity:0.55;fill:#999999;}
	.st28{fill:#EAECF7;}
	.st29{fill:#7E7C79;}
	.st30{fill:#8F7C90;}
	.st31{fill:#B3A1BC;}
	.st32{fill:url(#SVGID_13_);}
	.st33{clip-path:url(#SVGID_15_);fill:url(#SVGID_16_);}
	.st34{fill:url(#SVGID_17_);}
	.st35{opacity:0.75;fill:#1B0043;}
	.st36{fill:url(#SVGID_18_);}
	.st37{opacity:0.55;fill:#F9D433;}
	.st38{opacity:0.5;fill:#FEC94E;}
	.st39{fill:#F9D433;}
	.st40{fill:url(#SVGID_19_);}
	.st41{fill:url(#SVGID_20_);}
	.st42{opacity:0.32;fill:url(#SVGID_21_);}
	.st43{opacity:0.12;fill:#285067;}
	.st44{fill:url(#SVGID_22_);}
	.st45{fill:url(#SVGID_23_);}
	.st46{fill:url(#SVGID_24_);}
	.st47{fill:#F3F3F3;}
	.st48{opacity:0.2;fill:#0B7199;}
	.st49{fill:#004566;}
	.st50{fill:#C2C1AD;}
	.st51{fill:#F2706E;}
	.st52{fill:#D84E4E;}
	.st53{fill:#0B7199;}
	.st54{opacity:0.3;fill:#F3F3F3;}
	.st55{fill:none;stroke:#F3F3F3;stroke-width:11.3861;stroke-miterlimit:10;}
	.st56{fill:#004564;}
	.st57{fill:none;stroke:#004566;stroke-width:2.0093;stroke-miterlimit:10;}
	.st58{fill:none;stroke:#0B7199;stroke-width:3;stroke-miterlimit:10;}
	.st59{fill:none;stroke:#0B7199;stroke-width:15;stroke-miterlimit:10;}
	.st60{fill:none;stroke:#D84E4E;stroke-width:24;stroke-linecap:round;stroke-linejoin:round;stroke-miterlimit:10;}
	.st61{fill:#FFC7AD;}
	.st62{fill:#2D2331;}
	.st63{fill:#3B2E41;}
	.st64{fill:#EBE9EB;}
	.st65{fill:#F7F7F7;}
	.st66{fill:#A26749;}
	.st67{fill:#F3A984;}
	.st68{enable-background:new    ;}
	.st69{fill:#3D3138;}
	.st70{fill:#62515C;}
	.st71{fill:#32272D;}
	.st72{clip-path:url(#SVGID_26_);enable-background:new    ;}
	.st73{fill:#8B91AD;}
	.st74{clip-path:url(#SVGID_28_);enable-background:new    ;}
	.st75{clip-path:url(#SVGID_30_);enable-background:new    ;}
	.st76{fill:#ADB2CC;}
	.st77{clip-path:url(#SVGID_32_);enable-background:new    ;}
	.st78{opacity:0.2;fill:#DDDEFA;}
	.st79{clip-path:url(#SVGID_34_);}
	.st80{fill:#CF2819;}
	.st81{fill:#DCD8D8;}
	.st82{fill:#F74E3E;}
	.st83{clip-path:url(#SVGID_36_);enable-background:new    ;}
	.st84{fill:#FFC400;}
	.st85{clip-path:url(#SVGID_38_);enable-background:new    ;}
	.st86{clip-path:url(#SVGID_40_);enable-background:new    ;}
	.st87{clip-path:url(#SVGID_42_);enable-background:new    ;}
	.st88{clip-path:url(#SVGID_44_);enable-background:new    ;}
	.st89{clip-path:url(#SVGID_46_);enable-background:new    ;}
	.st90{clip-path:url(#SVGID_48_);enable-background:new    ;}
	.st91{fill:#FFD438;}
	.st92{clip-path:url(#SVGID_50_);enable-background:new    ;}
	.st93{clip-path:url(#SVGID_52_);enable-background:new    ;}
	.st94{clip-path:url(#SVGID_54_);enable-background:new    ;}
	.st95{clip-path:url(#SVGID_56_);enable-background:new    ;}
	.st96{clip-path:url(#SVGID_58_);enable-background:new    ;}
	.st97{clip-path:url(#SVGID_60_);enable-background:new    ;}
	.st98{clip-path:url(#SVGID_62_);enable-background:new    ;}
	.st99{clip-path:url(#SVGID_64_);enable-background:new    ;}
	.st100{clip-path:url(#SVGID_66_);enable-background:new    ;}
	.st101{clip-path:url(#SVGID_68_);enable-background:new    ;}
	.st102{clip-path:url(#SVGID_70_);enable-background:new    ;}
	.st103{clip-path:url(#SVGID_72_);enable-background:new    ;}
	.st104{clip-path:url(#SVGID_74_);enable-background:new    ;}
	.st105{clip-path:url(#SVGID_76_);enable-background:new    ;}
	.st106{clip-path:url(#SVGID_78_);enable-background:new    ;}
	.st107{clip-path:url(#SVGID_80_);enable-background:new    ;}
	.st108{clip-path:url(#SVGID_82_);enable-background:new    ;}
	.st109{fill:#DFE8EF;}
	.st110{fill:#F9FBFC;}
	.st111{fill:#112B46;}
	.st112{fill:#BEE1F4;}
	.st113{fill:#AAD5E8;}
	.st114{fill:#47477A;}
	.st115{fill:#56548C;}
	.st116{fill:#EC827D;}
	.st117{fill:#FBD15B;}
	.st118{fill:#F4C34A;}
	.st119{fill:#FFDC83;}
	.st120{fill:#FFC8AF;}
	.st121{fill:#EFA689;}
	.st122{fill:#E5B641;}
	.st123{fill:#FFD3C2;}
	.st124{fill:#EEEEEE;}
	.st125{fill:#F1F2F2;}
	.st126{fill:#606BF1;}
	.st127{fill:#B1B2F3;}
	.st128{fill:#E6C004;}
	.st129{clip-path:url(#SVGID_84_);}
	.st130{fill:#E0B68C;}
	.st131{fill:#FBD1A3;}
	.st132{fill:#754C29;}
	.st133{fill:#363636;}
	.st134{fill:#5B5B5B;}
	.st135{fill:#E6E7E8;}
	.st136{fill:#00A79D;}
	.st137{fill:#029183;}
	.st138{fill:#414042;}
	.st139{fill:#FAB04E;}
	.st140{fill:#A7A9AC;}
	.st141{fill:#808285;}
	.st142{opacity:0.5;}
	.st143{fill:#DDDDDD;}
	.st144{fill:none;stroke:#A6A8AB;stroke-width:0.1872;stroke-miterlimit:10;}
	.st145{clip-path:url(#SVGID_86_);}
	.st146{fill:#555152;}
	.st147{fill:#565253;}
	.st148{fill:#575354;}
	.st149{fill:#585455;}
	.st150{fill:#595556;}
	.st151{fill:#5A5657;}
	.st152{fill:#5B5758;}
	.st153{fill:#5C5859;}
	.st154{fill:#5D595A;}
	.st155{fill:#5E5A5B;}
	.st156{fill:#5F5B5C;}
	.st157{fill:#605C5D;}
	.st158{fill:#615D5E;}
	.st159{fill:#625E5F;}
	.st160{fill:#636061;}
	.st161{fill:#646162;}
	.st162{fill:#656263;}
	.st163{fill:#666364;}
	.st164{fill:#676465;}
	.st165{fill:#686566;}
	.st166{fill:#696667;}
	.st167{fill:#6A6768;}
	.st168{fill:#6B6869;}
	.st169{fill:#6C696A;}
	.st170{fill:#6D6A6B;}
	.st171{fill:#6E6B6C;}
	.st172{fill:#6F6C6D;}
	.st173{fill:#706D6E;}
	.st174{fill:#716E6F;}
	.st175{clip-path:url(#SVGID_88_);}
	.st176{fill:#FAB14E;}
	.st177{fill:#FAB24E;}
	.st178{fill:#FAB34E;}
	.st179{fill:#FAB44E;}
	.st180{fill:#F9B44E;}
	.st181{fill:#F9B54E;}
	.st182{fill:#F9B64E;}
	.st183{fill:#F9B74E;}
	.st184{fill:#F9B84E;}
	.st185{fill:#F9B94E;}
	.st186{fill:#F9BA4E;}
	.st187{fill:#F9BB4E;}
	.st188{fill:#F8BC4E;}
	.st189{fill:#F8BD4E;}
	.st190{fill:#F8BE4E;}
	.st191{fill:#F8BF4E;}
	.st192{fill:#F8C04E;}
	.st193{fill:#F8C14E;}
	.st194{fill:#F8C24E;}
	.st195{fill:#F8C34E;}
	.st196{fill:#F7C44E;}
	.st197{fill:#F7C54E;}
	.st198{fill:#F7C64E;}
	.st199{fill:#F7C74E;}
	.st200{fill:#F7C84E;}
	.st201{fill:#F7C94E;}
	.st202{fill:#F7CA4E;}
	.st203{fill:#F7CB4E;}
	.st204{fill:#F6CC4E;}
	.st205{fill:#F6CD4E;}
	.st206{fill:#F6CF4E;}
	.st207{fill:#F6D04E;}
	.st208{fill:#F6D14E;}
	.st209{fill:#F6D24E;}
	.st210{fill:#F6D34E;}
	.st211{fill:#F5D54E;}
	.st212{fill:#F5D64E;}
	.st213{fill:#F5D74E;}
	.st214{fill:#F5D84D;}
	.st215{fill:#F5DA4D;}
	.st216{fill:#F5DB4D;}
	.st217{fill:#F4DC4D;}
	.st218{fill:#F4DE4D;}
	.st219{fill:#F4DF4D;}
	.st220{fill:#F4E04D;}
	.st221{fill:#F4E24D;}
	.st222{fill:#F4E34D;}
	.st223{fill:#F3E54D;}
	.st224{fill:#F3E64D;}
	.st225{fill:#F3E74D;}
	.st226{fill:#F3E94D;}
	.st227{fill:#F3EA4D;}
	.st228{fill:#F2EC4D;}
	.st229{fill:#F2ED4D;}
	.st230{fill:#F2EF4D;}
	.st231{fill:#F2F04D;}
	.st232{fill:#F2F24D;}
	.st233{fill:#F1F44D;}
	.st234{fill:#F1F54D;}
	.st235{fill:#F1F74D;}
	.st236{fill:#F1F84D;}
	.st237{fill:#F1FA4D;}
	.st238{fill:#F0FC4D;}
	.st239{fill:#F0FD4D;}
	.st240{fill:#F0FF4D;}
	.st241{clip-path:url(#SVGID_90_);}
	.st242{clip-path:url(#SVGID_92_);}
	.st243{clip-path:url(#SVGID_94_);}
	.st244{fill:#595657;}
	.st245{fill:#5A5758;}
	.st246{fill:#5B5859;}
	.st247{fill:#5C595A;}
	.st248{fill:#5D5A5B;}
	.st249{fill:#5E5B5C;}
	.st250{fill:#5F5C5D;}
	.st251{fill:#605D5E;}
	.st252{fill:#615E5F;}
	.st253{fill:#625F60;}
	.st254{fill:#626061;}
	.st255{fill:#636162;}
	.st256{fill:#646263;}
	.st257{fill:#656364;}
	.st258{fill:#666465;}
	.st259{fill:#676566;}
	.st260{fill:#686667;}
	.st261{fill:#696768;}
	.st262{fill:#6A6869;}
	.st263{fill:#6B696A;}
	.st264{fill:#6B6A6B;}
	.st265{fill:#6C6B6C;}
	.st266{fill:#6D6C6D;}
	.st267{fill:#6E6D6E;}
	.st268{fill:#6F6E6F;}
	.st269{fill:#706F70;}
	.st270{fill:#717071;}
	.st271{fill:#727172;}
	.st272{fill:#737273;}
	.st273{fill:#747375;}
	.st274{fill:#747376;}
	.st275{fill:#757477;}
	.st276{fill:#767578;}
	.st277{fill:#777679;}
	.st278{fill:#78777A;}
	.st279{fill:#79787B;}
	.st280{fill:#7A797C;}
	.st281{fill:#7B7A7D;}
	.st282{fill:#7C7B7E;}
	.st283{fill:#7C7C7F;}
	.st284{fill:#7D7D80;}
	.st285{fill:#7E7E81;}
	.st286{fill:#7F7F82;}
	.st287{fill:#808083;}
	.st288{fill:#818184;}
	.st289{fill:#828285;}
	.st290{fill:#838386;}
	.st291{fill:#848487;}
	.st292{fill:#858588;}
	.st293{fill:#858689;}
	.st294{fill:#86878A;}
	.st295{fill:#87888B;}
	.st296{fill:#88898C;}
	.st297{fill:#898A8D;}
	.st298{fill:#8A8B8E;}
	.st299{fill:#8B8C8F;}
	.st300{fill:#8C8D90;}
	.st301{fill:#8D8E91;}
	.st302{fill:#8E8F92;}
	.st303{fill:#8E9093;}
	.st304{fill:#8F9194;}
	.st305{fill:#909295;}
	.st306{fill:#919396;}
	.st307{fill:#929497;}
	.st308{clip-path:url(#SVGID_96_);}
	.st309{clip-path:url(#SVGID_98_);}
	.st310{fill:#404041;}
	.st311{opacity:0.6;}
	.st312{clip-path:url(#SVGID_100_);}
	.st313{fill:#F0FE4D;}
	.st314{fill:#F1FB4D;}
	.st315{fill:#F1F94D;}
	.st316{fill:#F1F64D;}
	.st317{fill:#F2F34D;}
	.st318{fill:#F2F14D;}
	.st319{fill:#F2EE4D;}
	.st320{fill:#F3EB4D;}
	.st321{fill:#F3E84D;}
	.st322{fill:#F3E44D;}
	.st323{fill:#F4E14D;}
	.st324{fill:#F4DD4D;}
	.st325{fill:#F5D94D;}
	.st326{fill:#F5D84E;}
	.st327{fill:#F5D44E;}
	.st328{fill:#F6CE4E;}
	.st329{clip-path:url(#SVGID_102_);}
	.st330{clip-path:url(#SVGID_104_);}
	.st331{fill:#BCBEC0;}
	.st332{fill:#E8FFFF;}
	.st333{fill:#CFF8F7;}
	.st334{opacity:0.3;}
	.st335{fill:#00B9CF;}
	.st336{fill:#0096A9;}
	.st337{clip-path:url(#SVGID_106_);}
	.st338{opacity:0.1;fill:#251477;}
	.st339{opacity:0.1;fill:#FFFFFF;}
	.st340{fill:#FFCAE0;}
	.st341{fill:#89EBF2;}
	.st342{fill:#FF0067;}
	.st343{opacity:0.1;}
	.st344{fill:#251477;}
	.st345{fill:#FF298D;}
	.st346{fill:#009FAD;}
	.st347{fill:#6ACE83;}
	.st348{fill:#7E3818;}
	.st349{fill:#D7F7F8;}
	.st350{fill:#312A52;}
	.st351{fill:none;stroke:#FFFFFF;stroke-width:5;stroke-miterlimit:10;}
	.st352{fill:#48C6C6;}
	.st353{fill:#3386A7;}
	.st354{fill:#55E6E6;}
	.st355{fill:#3E95AB;}
	.st356{fill:#53E6E6;}
	.st357{fill:#317FA0;}
	.st358{fill:#3895BD;}
	.st359{fill:#241F3C;}
	.st360{fill:#28799C;}
	.st361{fill:#5AF2F2;}
	.st362{fill:#2D6691;}
	.st363{fill:#80E1FA;}
	.st364{clip-path:url(#SVGID_108_);}
	.st365{fill:#1DBFBF;}
	.st366{fill:#52468A;}
	.st367{fill:#42D6D6;}
	.st368{fill:#4ED9D9;}
	.st369{fill:#71FCFC;}
	.st370{fill:#389999;}
	.st371{fill:#D5E9FF;}
	.st372{fill:#C2DEFC;}
	.st373{fill:#9DC8FF;}
	.st374{fill:#FFD7B4;}
	.st375{fill:#FFB549;}
	.st376{fill:#7197D5;}
	.st377{fill:#A7C8E6;}
	.st378{fill:#25669C;}
	.st379{fill:none;stroke:#FFB549;stroke-width:1.8014;stroke-linecap:round;stroke-linejoin:round;stroke-miterlimit:10;}
	.st380{fill:#FFE1C5;}
	.st381{opacity:0.5;fill:#FFFFFF;}
	.st382{fill:#0E537E;}
	.st383{fill:none;stroke:#9DC8FF;stroke-width:1.8014;stroke-linecap:round;stroke-linejoin:round;stroke-miterlimit:10;}
	.st384{fill:#F5F5F5;}
	.st385{fill:#E1E1E1;}
	.st386{fill:#2B454E;}
	.st387{fill:#375A64;}
	.st388{fill:#00DFBF;}
	.st389{fill:#ECECEC;}
	.st390{opacity:0.25;}
	.st391{opacity:0.5;fill:#00DFBF;}
	.st392{opacity:0.4;}
	.st393{opacity:0.45;}
	.st394{opacity:0.35;}
	.st395{opacity:0.3;fill:#FFFFFF;}
	.st396{opacity:0.15;}
	.st397{fill:#1A2E35;}
	.st398{fill:#FAFAFA;}
	.st399{opacity:0.55;}
	.st400{opacity:0.7;fill:#FFFFFF;}
	.st401{opacity:0.6;fill:#FFFFFF;}
	.st402{opacity:0.4;fill:#FFFFFF;}
	.st403{fill:#C76668;}
	.st404{fill:#FFAAA8;}
	.st405{fill:#FF9090;}
	.st406{fill:#D7E8EF;}
	.st407{fill:url(#SVGID_109_);}
	.st408{fill:url(#SVGID_110_);}
	.st409{fill:url(#SVGID_111_);}
	.st410{fill:url(#SVGID_112_);}
	.st411{fill:url(#SVGID_113_);}
	.st412{fill:url(#SVGID_114_);}
	.st413{fill:url(#SVGID_115_);}
	.st414{fill:url(#SVGID_116_);}
	.st415{fill:url(#SVGID_117_);}
	.st416{fill:url(#SVGID_118_);}
	.st417{fill:url(#SVGID_119_);}
	.st418{fill:url(#SVGID_120_);}
	.st419{fill:url(#SVGID_121_);}
	.st420{fill:url(#SVGID_122_);}
	.st421{fill:url(#SVGID_123_);}
	.st422{fill:url(#SVGID_124_);}
	.st423{fill:url(#SVGID_125_);}
	.st424{fill:url(#SVGID_126_);}
	.st425{fill:url(#SVGID_127_);}
	.st426{fill:url(#SVGID_128_);}
	.st427{fill:url(#SVGID_129_);}
	.st428{fill:url(#SVGID_130_);}
	.st429{fill:url(#SVGID_131_);}
	.st430{fill:url(#SVGID_132_);}
	.st431{fill:url(#SVGID_133_);}
	.st432{fill:url(#SVGID_134_);}
	.st433{fill:url(#SVGID_135_);}
	.st434{fill:url(#SVGID_136_);}
	.st435{fill:url(#SVGID_137_);}
	.st436{fill:url(#SVGID_138_);}
	.st437{fill:url(#SVGID_139_);}
	.st438{fill:url(#SVGID_140_);}
	.st439{fill:url(#SVGID_141_);}
	.st440{fill:url(#SVGID_142_);}
	.st441{fill:#00204E;}
	.st442{fill:#00457F;}
	.st443{fill:url(#SVGID_143_);}
	.st444{fill:#BDD3DD;}
	.st445{fill:#F6F9FA;}
	.st446{fill:#CBD7E0;}
	.st447{fill:url(#SVGID_144_);}
	.st448{fill:url(#SVGID_145_);}
	.st449{fill:#009DD0;}
	.st450{fill:#9EB7C7;}
	.st451{fill:#F7FAFB;}
	.st452{fill:#E5E7E8;}
	.st453{fill:url(#SVGID_146_);}
	.st454{fill:url(#SVGID_147_);}
	.st455{fill:#FFC8AE;}
	.st456{fill:url(#SVGID_148_);}
	.st457{fill:url(#SVGID_149_);}
	.st458{fill:#28BAAD;}
	.st459{fill:url(#SVGID_150_);}
	.st460{fill:url(#SVGID_151_);}
	.st461{fill:url(#SVGID_152_);}
	.st462{fill:url(#SVGID_153_);}
	.st463{fill:url(#SVGID_154_);}
	.st464{fill:url(#SVGID_155_);}
	.st465{fill:url(#SVGID_156_);}
	.st466{fill:#040D12;}
	.st467{fill:#B2CDD6;}
	.st468{fill:#CEE2E8;}
	.st469{fill:#FFB49B;}
	.st470{fill:#3F3E40;}
	.st471{fill:#ECBD94;}
	.st472{fill:url(#SVGID_157_);}
	.st473{fill:url(#SVGID_158_);}
	.st474{fill:url(#SVGID_159_);}
	.st475{fill:url(#SVGID_160_);}
	.st476{fill:url(#SVGID_161_);}
	.st477{fill:#F2AF08;}
	.st478{fill:url(#SVGID_162_);}
	.st479{fill:url(#SVGID_163_);}
	.st480{fill:url(#SVGID_164_);}
	.st481{fill:url(#SVGID_165_);}
	.st482{fill:url(#SVGID_166_);}
	.st483{fill:url(#SVGID_167_);}
	.st484{fill:url(#SVGID_168_);}
	.st485{fill:#D0D3D4;}
	.st486{fill:url(#SVGID_169_);}
	.st487{opacity:0.45;fill:#FAEEEA;}
	.st488{fill:#FF8E66;}
	.st489{fill:#3F2C25;}
	.st490{fill:#D17546;}
	.st491{fill:#984B28;}
	.st492{fill:#631B13;}
	.st493{fill:#E76140;}
	.st494{fill:none;stroke:#000000;stroke-width:2.1886;stroke-linecap:round;stroke-miterlimit:10;}
	.st495{fill:#2C1F41;}
	.st496{fill:#5E4E74;}
	.st497{fill:#C9AEA4;}
	.st498{fill:#453432;}
	.st499{fill:#A38580;}
	.st500{fill:#F5D9CE;}
	.st501{fill:#FFFAF8;}
	.st502{fill:#E3C4BD;}
	.st503{fill:#D9CED7;}
	.st504{fill:#5D4B48;}
	.st505{fill:none;stroke:#F8F8F8;stroke-width:1.0943;stroke-miterlimit:10;}
	.st506{fill:#F8F8F8;}
	.st507{opacity:0.16;}
	.st508{opacity:0.29;}
	.st509{fill:#D9EDFF;}
	.st510{fill:#4CA9FF;}
	.st511{fill:#04377D;}
	.st512{fill:#0084FF;}
	.st513{fill:#FF9D8A;}
	.st514{fill:#7591B7;}
	.st515{fill:#7F99BD;}
	.st516{fill:#D9E1EB;}
	.st517{fill:#708DB5;}
	.st518{fill:#59AFFF;}
	.st519{fill:#2A5590;}
	.st520{fill:#F5F7FA;}
	.st521{fill:#D4DDE9;}
	.st522{fill:#43699D;}
	.st523{fill:#6987B1;}
	.st524{fill:#B4C3D8;}
	.st525{fill:#5C7DAA;}
	.st526{fill:#8EA5C4;}
	.st527{fill:#CCE6FF;}
	.st528{fill:#FF5E3F;}
	.st529{fill:#54ADFF;}
	.st530{opacity:0.5;fill:#C4E0EE;}
	.st531{fill:#6B9DC2;}
	.st532{fill:#8CACC2;}
	.st533{fill:#6F7F8B;}
	.st534{fill:#4A5B68;}
	.st535{fill:#52616D;}
	.st536{fill:#303F49;}
	.st537{fill:#68909F;}
	.st538{fill:#243038;}
	.st539{fill:#C9DCE4;}
	.st540{fill:#9FBED8;}
	.st541{fill:#6795B9;}
	.st542{fill:#7AA2C1;}
	.st543{fill:#427796;}
	.st544{fill:#235B78;}
	.st545{fill:#C56E17;}
	.st546{fill:#F39837;}
	.st547{fill:none;stroke:#11161E;stroke-width:0.5239;stroke-miterlimit:10;}
	.st548{fill:#A85717;}
	.st549{fill:#904D15;}
	.st550{fill:none;stroke:#C56E17;stroke-width:1.3971;stroke-miterlimit:10;}
	.st551{fill:none;stroke:#F39837;stroke-width:1.3971;stroke-miterlimit:10;}
	.st552{fill:#F49C44;}
	.st553{fill:url(#SVGID_170_);}
	.st554{fill:url(#SVGID_171_);}
	.st555{fill:#6AAFE8;}
	.st556{fill:url(#SVGID_172_);}
	.st557{fill:url(#SVGID_173_);}
	.st558{fill:url(#SVGID_174_);}
	.st559{fill:url(#SVGID_175_);}
	.st560{fill:url(#SVGID_176_);}
	.st561{fill:url(#SVGID_177_);}
	.st562{fill:url(#SVGID_178_);}
	.st563{fill:url(#SVGID_179_);}
	.st564{fill:url(#SVGID_180_);}
	.st565{fill:#1487E3;}
	.st566{fill:#78C2FF;}
	.st567{fill:#FF7E55;}
	.st568{fill:#424773;}
	.st569{fill:#292C47;}
	.st570{fill:#EEA886;}
	.st571{fill:#754836;}
	.st572{fill:#E2D2CA;}
	.st573{fill:#FFCB55;}
	.st574{fill:#A1D4FF;}
	.st575{fill:url(#SVGID_181_);}
	.st576{fill:url(#SVGID_182_);}
	.st577{fill:#4D78EB;}
	.st578{fill:#E0E0E0;}
	.st579{fill:#FF8761;}
	.st580{opacity:0.76;}
	.st581{fill:#4AAFFF;}
	.st582{fill:#1A598C;}
	.st583{fill:#2273B5;}
	.st584{fill:#3788CC;}
	.st585{fill:#414773;}
	.st586{fill:#2D314F;}
	.st587{fill:#2B3B57;}
	.st588{fill:#FFC655;}
	.st589{fill:#353A3D;}
	.st590{fill:#D4D8E8;}
	.st591{fill:#E55353;}
	.st592{fill:#6069A8;}
	.st593{fill:#202338;}
	.st594{fill:#464240;}
	.st595{fill:#EB4747;}
	.st596{fill:#325BB3;}
	.st597{fill:#A77860;}
	.st598{fill:#5E5853;}
	.st599{fill:#91887F;}
	.st600{fill:#EDDAD3;}
	.st601{fill:#6E6760;}
	.st602{fill:#807066;}
	.st603{fill:#CAE7F5;}
	.st604{fill:#A8D4E5;}
	.st605{fill:#E9F8FF;}
	.st606{fill:#A6D6F4;}
	.st607{fill:#181860;}
	.st608{fill:#DADAEF;}
	.st609{fill:#3D5586;}
	.st610{fill:#06063D;}
	.st611{fill:#12295B;}
	.st612{fill:#1C1C70;}
	.st613{fill:#173475;}
	.st614{fill:#284372;}
	.st615{fill:#CECEEF;}
	.st616{fill:#EDEDF9;}
	.st617{fill:#B2B2ED;}
	.st618{fill:#5252BA;}
	.st619{fill:#AAAAF7;}
	.st620{fill:#DCDCF7;}
	.st621{fill:#7676D6;}
	.st622{fill:#CDCDF7;}
	.st623{fill:#6161C9;}
	.st624{fill:#EBEBFC;}
	.st625{fill:#7C7CE0;}
	.st626{fill:#FCFCFC;}
	.st627{fill:#FF6C3C;}
	.st628{fill:#8D8DE0;}
	.st629{fill:#EDEEFC;}
	.st630{fill:#FFD400;}
	.st631{opacity:0.15;fill:#A0A0F9;}
	.st632{opacity:0.41;}
	.st633{fill:#9494ED;}
	.st634{fill:#8181E2;}
	.st635{opacity:0.21;fill:#6F6FEF;}
	.st636{fill:#C0C0FC;}
	.st637{opacity:0.32;}
	.st638{fill:#404066;}
	.st639{fill:#FFDA3E;}
	.st640{fill:#FCDA35;}
	.st641{fill:#FFCC3E;}
	.st642{fill:#FFEE52;}
	.st643{fill:#0F0F59;}
	.st644{fill:#EB8E6C;}
	.st645{fill:#7E5DCE;}
	.st646{fill:#DD8064;}
	.st647{fill:#081C5E;}
	.st648{fill:#0E1647;}
	.st649{fill:#C36252;}
	.st650{fill:#161237;}
	.st651{fill:#23173D;}
	.st652{fill:#FEFDFB;}
	.st653{fill:#7960DC;}
	.st654{fill:#050530;}
	.st655{fill:#6642BC;}
	.st656{fill:#7E6DE2;}
	.st657{fill:#6565A8;}
	.st658{fill:#5D5D9B;}
	.st659{fill:#575793;}
	.st660{fill:#041649;}
	.st661{fill:#145AC1;}
	.st662{fill:#49302A;}
	.st663{fill:#1C2546;}
	.st664{fill:#97BFFF;}
	.st665{fill:#3845B8;}
	.st666{fill:#3888FC;}
	.st667{fill:#4C94FC;}
	.st668{fill:#283AA3;}
	.st669{fill:#B8D5FF;}
	.st670{fill:#243B9B;}
	.st671{fill:#9191F2;}
	.st672{fill:#8686EA;}
	.st673{fill:#3A61C1;}
	.st674{fill:#2B52B2;}
	.st675{fill:#ADADF7;}
	.st676{fill:#4A76CE;}
	.st677{fill:#0D266D;}
	.st678{fill:#D37359;}
	.st679{fill:#B55848;}
	.st680{fill:#E58163;}
	.st681{fill:#F7BF41;}
	.st682{fill:#DD8266;}
	.st683{fill:#4A4A99;}
	.st684{fill:#9696E0;}
	.st685{fill:#6B6BCE;}
	.st686{fill:#614FBF;}
	.st687{fill:#507ED1;}
	.st688{fill:#2968A5;}
	.st689{fill:#7066D1;}
	.st690{fill:#645DC1;}
	.st691{fill:#6659C6;}
	.st692{fill:#669CDD;}
	.st693{fill:#FFC83E;}
	.st694{fill:#FCB81F;}
	.st695{fill:#FFD147;}
	.st696{fill:#05053D;}
	.st697{fill:#FFC639;}
	.st698{fill:#558AD8;}
	.st699{fill:#4373C9;}
	.st700{fill:#543434;}
	.st701{fill:#442138;}
	.st702{fill:#2F40A5;}
	.st703{fill:#0F2251;}
	.st704{fill:#F7B000;}
	.st705{fill:#C1BAB8;}
	.st706{fill:#F9EFEF;}
	.st707{fill:#FCBA15;}
	.st708{fill:#FFC71F;}
	.st709{fill:#D0C4C4;}
	.st710{fill:#FFDF5A;}
	.st711{fill:#7193D8;}
	.st712{fill:#1F2B54;}
	.st713{fill:#B5AFAE;}
	.st714{fill:#0C0C60;}
	.st715{fill:#7575D3;}
	.st716{fill:#2F2F7C;}
	.st717{fill:#090951;}
	.st718{fill:#090949;}
	.st719{fill:#D87150;}
	.st720{fill:#1D5E82;}
	.st721{fill:url(#SVGID_183_);}
	.st722{fill:#91B3FA;}
	.st723{fill:#BDD0FB;}
	.st724{fill:url(#SVGID_184_);}
	.st725{fill:url(#SVGID_185_);}
	.st726{fill:url(#SVGID_186_);}
	.st727{fill:url(#SVGID_187_);}
	.st728{fill:url(#SVGID_188_);}
	.st729{fill:url(#SVGID_189_);}
	.st730{fill:url(#SVGID_190_);}
	.st731{fill:url(#SVGID_191_);}
	.st732{fill:url(#SVGID_192_);}
	.st733{fill:url(#SVGID_193_);}
	.st734{opacity:0.86;}
	.st735{fill:url(#SVGID_194_);}
	.st736{fill:url(#SVGID_195_);}
	.st737{fill:url(#SVGID_196_);}
	.st738{fill:url(#SVGID_197_);}
	.st739{fill:url(#SVGID_198_);}
	.st740{fill:url(#SVGID_199_);}
	.st741{fill:url(#SVGID_200_);}
	.st742{fill:url(#SVGID_201_);}
	.st743{fill:url(#SVGID_202_);}
	.st744{fill:url(#SVGID_203_);}
	.st745{fill:url(#SVGID_204_);}
	.st746{fill:url(#SVGID_205_);}
	.st747{fill:url(#SVGID_206_);}
	.st748{fill:url(#SVGID_207_);}
	.st749{fill:url(#SVGID_208_);}
	.st750{fill:#EBF3FA;}
	.st751{fill:#AFCDFB;}
	.st752{fill:#D5E5FB;}
	.st753{fill:#2E3552;}
	.st754{fill:#FFB93E;}
	.st755{fill:#FFA412;}
	.st756{fill:#E2810E;}
	.st757{fill:#FFEDDC;}
	.st758{fill:#DB6A1D;}
	.st759{fill:#E5C1A1;}
	.st760{fill:#F9DDBF;}
	.st761{fill:#233862;}
	.st762{fill:#E2915A;}
	.st763{fill:#F99746;}
	.st764{fill:#ED7D2B;}
	.st765{fill:#FFB27D;}
	.st766{fill:#2B478B;}
	.st767{fill:#ED975D;}
	.st768{fill:#E9F3FE;}
	.st769{fill:#22407A;}
	.st770{fill:#D9E9F9;}
	.st771{fill:#BA4C43;}
	.st772{fill:#C65447;}
	.st773{fill:#C6DCF7;}
	.st774{fill:#E8E8E8;}
	.st775{fill:#EB3B5A;}
	.st776{fill:#B3B3B3;}
	.st777{fill:#EF3940;}
	.st778{fill:#B7E8B2;}
	.st779{fill:#5B9E55;}
	.st780{fill:#BADC58;}
	.st781{fill:#001414;}
	.st782{fill:#00807C;}
	.st783{opacity:0.65;}
	.st784{fill:#F0F0F0;}
	.st785{fill:#E3E3E3;}
	.st786{fill:none;stroke:#B3B3B3;stroke-width:10;stroke-miterlimit:10;}
	.st787{fill:#45A16A;stroke:#FFFFFF;stroke-miterlimit:10;}
	.st788{fill:#30336B;}
	.st789{fill:url(#SVGID_209_);}
	.st790{fill:#130F40;}
	.st791{fill:#E6F8FF;}
	.st792{fill:#2D3436;}
	.st793{fill:#16419C;}
	.st794{fill:#0E2861;}
	.st795{opacity:0.26;fill:#00C7C4;}
	.st796{opacity:0.53;fill:#FFFFFF;}
	.st797{fill:#EDB87B;}
	.st798{fill:#FBDFBF;}
	.st799{fill:#C49866;}
	.st800{fill:#F7C080;}
	.st801{fill:#303030;}
	.st802{fill:#45A16A;}
	.st803{fill:#95AFC0;}
	.st804{fill:#FBE3C6;}
	.st805{fill:#CFA06C;}
	.st806{fill:#A1A1A1;}
	.st807{fill:url(#SVGID_210_);}
	.st808{fill:url(#SVGID_211_);}
	.st809{fill:#64A4FF;}
	.st810{fill:#BBD070;}
	.st811{fill:#97A43C;}
	.st812{fill:#48753A;}
	.st813{fill:#DBD8E3;}
	.st814{fill:#323657;}
	.st815{fill:#EEA987;}
	.st816{fill:#E8734D;}
	.st817{fill:#C4C1CC;}
	.st818{fill:#EFAA88;}
	.st819{fill:#16202E;}
	.st820{fill:#4DA8F2;}
	.st821{fill:#FFC955;}
	.st822{clip-path:url(#SVGID_213_);fill:#96CBFF;}
	.st823{clip-path:url(#SVGID_213_);fill:#95CAFF;}
	.st824{clip-path:url(#SVGID_213_);fill:#94C9FF;}
	.st825{clip-path:url(#SVGID_213_);fill:#93C9FF;}
	.st826{clip-path:url(#SVGID_213_);fill:#92C8FF;}
	.st827{clip-path:url(#SVGID_213_);fill:#91C7FF;}
	.st828{clip-path:url(#SVGID_213_);fill:#90C6FF;}
	.st829{clip-path:url(#SVGID_213_);fill:#8FC6FF;}
	.st830{clip-path:url(#SVGID_213_);fill:#8EC5FF;}
	.st831{clip-path:url(#SVGID_213_);fill:#8DC4FF;}
	.st832{clip-path:url(#SVGID_213_);fill:#8CC3FF;}
	.st833{clip-path:url(#SVGID_213_);fill:#8BC2FF;}
	.st834{clip-path:url(#SVGID_213_);fill:#8AC2FF;}
	.st835{clip-path:url(#SVGID_213_);fill:#89C1FF;}
	.st836{clip-path:url(#SVGID_213_);fill:#88C0FF;}
	.st837{clip-path:url(#SVGID_213_);fill:#87BFFF;}
	.st838{clip-path:url(#SVGID_213_);fill:#86BFFF;}
	.st839{clip-path:url(#SVGID_213_);fill:#85BEFF;}
	.st840{clip-path:url(#SVGID_213_);fill:#84BDFF;}
	.st841{clip-path:url(#SVGID_213_);fill:#83BCFF;}
	.st842{clip-path:url(#SVGID_213_);fill:#82BBFF;}
	.st843{clip-path:url(#SVGID_213_);fill:#81BBFF;}
	.st844{clip-path:url(#SVGID_213_);fill:#80BAFF;}
	.st845{clip-path:url(#SVGID_213_);fill:#7FB9FF;}
	.st846{clip-path:url(#SVGID_213_);fill:#7EB8FF;}
	.st847{clip-path:url(#SVGID_213_);fill:#7DB7FF;}
	.st848{clip-path:url(#SVGID_213_);fill:#7CB7FF;}
	.st849{clip-path:url(#SVGID_213_);fill:#7BB6FF;}
	.st850{clip-path:url(#SVGID_213_);fill:#7AB5FF;}
	.st851{clip-path:url(#SVGID_213_);fill:#79B4FF;}
	.st852{clip-path:url(#SVGID_213_);fill:#78B4FF;}
	.st853{clip-path:url(#SVGID_213_);fill:#77B3FF;}
	.st854{clip-path:url(#SVGID_213_);fill:#76B2FF;}
	.st855{clip-path:url(#SVGID_213_);fill:#74B1FF;}
	.st856{clip-path:url(#SVGID_213_);fill:#73B0FF;}
	.st857{clip-path:url(#SVGID_213_);fill:#72B0FF;}
	.st858{clip-path:url(#SVGID_213_);fill:#71AFFF;}
	.st859{clip-path:url(#SVGID_213_);fill:#70AEFF;}
	.st860{clip-path:url(#SVGID_213_);fill:#6FADFF;}
	.st861{clip-path:url(#SVGID_213_);fill:#6EADFF;}
	.st862{clip-path:url(#SVGID_213_);fill:#6DACFF;}
	.st863{clip-path:url(#SVGID_213_);fill:#6CABFF;}
	.st864{clip-path:url(#SVGID_213_);fill:#6BAAFF;}
	.st865{clip-path:url(#SVGID_213_);fill:#6AA9FF;}
	.st866{clip-path:url(#SVGID_213_);fill:#69A9FF;}
	.st867{clip-path:url(#SVGID_213_);fill:#68A8FF;}
	.st868{clip-path:url(#SVGID_213_);fill:#67A7FF;}
	.st869{clip-path:url(#SVGID_213_);fill:#66A6FF;}
	.st870{clip-path:url(#SVGID_213_);fill:#65A6FF;}
	.st871{clip-path:url(#SVGID_213_);fill:#64A5FF;}
	.st872{clip-path:url(#SVGID_213_);fill:#63A4FF;}
	.st873{clip-path:url(#SVGID_213_);fill:#62A3FF;}
	.st874{clip-path:url(#SVGID_213_);fill:#61A2FF;}
	.st875{clip-path:url(#SVGID_213_);fill:#60A2FF;}
	.st876{clip-path:url(#SVGID_213_);fill:#5FA1FF;}
	.st877{clip-path:url(#SVGID_213_);fill:#5EA0FF;}
	.st878{clip-path:url(#SVGID_213_);fill:#5D9FFF;}
	.st879{clip-path:url(#SVGID_213_);fill:#5C9EFF;}
	.st880{clip-path:url(#SVGID_213_);fill:#5B9EFF;}
	.st881{clip-path:url(#SVGID_213_);fill:#5A9DFF;}
	.st882{clip-path:url(#SVGID_213_);fill:#599CFF;}
	.st883{clip-path:url(#SVGID_213_);fill:#589BFF;}
	.st884{clip-path:url(#SVGID_213_);fill:#579BFF;}
	.st885{clip-path:url(#SVGID_213_);fill:#569AFF;}
	.st886{clip-path:url(#SVGID_213_);fill:#5599FF;}
	.st887{fill:#CFA345;}
	.st888{fill:#5F8CC9;}
	.st889{fill:#CF8C6C;}
	.st890{fill:#3B3F66;}
	.st891{fill:#555C94;}
	.st892{fill:#354C70;}
	.st893{fill:#DEB135;}
	.st894{fill:#F2C344;}
	.st895{fill:#D9D0C4;}
	.st896{fill:#84BDFF;}
	.st897{fill:#FFD255;}
	.st898{fill:#3C5780;}
	.st899{fill:#C48A6F;}
	.st900{clip-path:url(#SVGID_215_);fill:#96CBFF;}
	.st901{clip-path:url(#SVGID_215_);fill:#95CAFF;}
	.st902{clip-path:url(#SVGID_215_);fill:#94C9FF;}
	.st903{clip-path:url(#SVGID_215_);fill:#93C9FF;}
	.st904{clip-path:url(#SVGID_215_);fill:#92C8FF;}
	.st905{clip-path:url(#SVGID_215_);fill:#91C7FF;}
	.st906{clip-path:url(#SVGID_215_);fill:#90C6FF;}
	.st907{clip-path:url(#SVGID_215_);fill:#8FC6FF;}
	.st908{clip-path:url(#SVGID_215_);fill:#8EC5FF;}
	.st909{clip-path:url(#SVGID_215_);fill:#8DC4FF;}
	.st910{clip-path:url(#SVGID_215_);fill:#8CC3FF;}
	.st911{clip-path:url(#SVGID_215_);fill:#8BC2FF;}
	.st912{clip-path:url(#SVGID_215_);fill:#8AC2FF;}
	.st913{clip-path:url(#SVGID_215_);fill:#89C1FF;}
	.st914{clip-path:url(#SVGID_215_);fill:#88C0FF;}
	.st915{clip-path:url(#SVGID_215_);fill:#87BFFF;}
	.st916{clip-path:url(#SVGID_215_);fill:#86BFFF;}
	.st917{clip-path:url(#SVGID_215_);fill:#85BEFF;}
	.st918{clip-path:url(#SVGID_215_);fill:#84BDFF;}
	.st919{clip-path:url(#SVGID_215_);fill:#83BCFF;}
	.st920{clip-path:url(#SVGID_215_);fill:#82BBFF;}
	.st921{clip-path:url(#SVGID_215_);fill:#81BBFF;}
	.st922{clip-path:url(#SVGID_215_);fill:#80BAFF;}
	.st923{clip-path:url(#SVGID_215_);fill:#7FB9FF;}
	.st924{clip-path:url(#SVGID_215_);fill:#7EB8FF;}
	.st925{clip-path:url(#SVGID_215_);fill:#7DB7FF;}
	.st926{clip-path:url(#SVGID_215_);fill:#7CB7FF;}
	.st927{clip-path:url(#SVGID_215_);fill:#7BB6FF;}
	.st928{clip-path:url(#SVGID_215_);fill:#7AB5FF;}
	.st929{clip-path:url(#SVGID_215_);fill:#79B4FF;}
	.st930{clip-path:url(#SVGID_215_);fill:#78B4FF;}
	.st931{clip-path:url(#SVGID_215_);fill:#77B3FF;}
	.st932{clip-path:url(#SVGID_215_);fill:#76B2FF;}
	.st933{clip-path:url(#SVGID_215_);fill:#74B1FF;}
	.st934{clip-path:url(#SVGID_215_);fill:#73B0FF;}
	.st935{clip-path:url(#SVGID_215_);fill:#72B0FF;}
	.st936{clip-path:url(#SVGID_215_);fill:#71AFFF;}
	.st937{clip-path:url(#SVGID_215_);fill:#70AEFF;}
	.st938{clip-path:url(#SVGID_215_);fill:#6FADFF;}
	.st939{clip-path:url(#SVGID_215_);fill:#6EADFF;}
	.st940{clip-path:url(#SVGID_215_);fill:#6DACFF;}
	.st941{clip-path:url(#SVGID_215_);fill:#6CABFF;}
	.st942{clip-path:url(#SVGID_215_);fill:#6BAAFF;}
	.st943{clip-path:url(#SVGID_215_);fill:#6AA9FF;}
	.st944{clip-path:url(#SVGID_215_);fill:#69A9FF;}
	.st945{clip-path:url(#SVGID_215_);fill:#68A8FF;}
	.st946{clip-path:url(#SVGID_215_);fill:#67A7FF;}
	.st947{clip-path:url(#SVGID_215_);fill:#66A6FF;}
	.st948{clip-path:url(#SVGID_215_);fill:#65A6FF;}
	.st949{clip-path:url(#SVGID_215_);fill:#64A5FF;}
	.st950{clip-path:url(#SVGID_215_);fill:#63A4FF;}
	.st951{clip-path:url(#SVGID_215_);fill:#62A3FF;}
	.st952{clip-path:url(#SVGID_215_);fill:#61A2FF;}
	.st953{clip-path:url(#SVGID_215_);fill:#60A2FF;}
	.st954{clip-path:url(#SVGID_215_);fill:#5FA1FF;}
	.st955{clip-path:url(#SVGID_215_);fill:#5EA0FF;}
	.st956{clip-path:url(#SVGID_215_);fill:#5D9FFF;}
	.st957{clip-path:url(#SVGID_215_);fill:#5C9EFF;}
	.st958{clip-path:url(#SVGID_215_);fill:#5B9EFF;}
	.st959{clip-path:url(#SVGID_215_);fill:#5A9DFF;}
	.st960{clip-path:url(#SVGID_215_);fill:#599CFF;}
	.st961{clip-path:url(#SVGID_215_);fill:#589BFF;}
	.st962{clip-path:url(#SVGID_215_);fill:#579BFF;}
	.st963{clip-path:url(#SVGID_215_);fill:#569AFF;}
	.st964{clip-path:url(#SVGID_215_);fill:#5599FF;}
	.st965{fill:#DB9C7C;}
	.st966{clip-path:url(#SVGID_217_);fill:#96CBFF;}
	.st967{clip-path:url(#SVGID_217_);fill:#95CAFF;}
	.st968{clip-path:url(#SVGID_217_);fill:#94C9FF;}
	.st969{clip-path:url(#SVGID_217_);fill:#93C9FF;}
	.st970{clip-path:url(#SVGID_217_);fill:#92C8FF;}
	.st971{clip-path:url(#SVGID_217_);fill:#91C7FF;}
	.st972{clip-path:url(#SVGID_217_);fill:#90C6FF;}
	.st973{clip-path:url(#SVGID_217_);fill:#8FC6FF;}
	.st974{clip-path:url(#SVGID_217_);fill:#8EC5FF;}
	.st975{clip-path:url(#SVGID_217_);fill:#8DC4FF;}
	.st976{clip-path:url(#SVGID_217_);fill:#8CC3FF;}
	.st977{clip-path:url(#SVGID_217_);fill:#8BC2FF;}
	.st978{clip-path:url(#SVGID_217_);fill:#8AC2FF;}
	.st979{clip-path:url(#SVGID_217_);fill:#89C1FF;}
	.st980{clip-path:url(#SVGID_217_);fill:#88C0FF;}
	.st981{clip-path:url(#SVGID_217_);fill:#87BFFF;}
	.st982{clip-path:url(#SVGID_217_);fill:#86BFFF;}
	.st983{clip-path:url(#SVGID_217_);fill:#85BEFF;}
	.st984{clip-path:url(#SVGID_217_);fill:#84BDFF;}
	.st985{clip-path:url(#SVGID_217_);fill:#83BCFF;}
	.st986{clip-path:url(#SVGID_217_);fill:#82BBFF;}
	.st987{clip-path:url(#SVGID_217_);fill:#81BBFF;}
	.st988{clip-path:url(#SVGID_217_);fill:#80BAFF;}
	.st989{clip-path:url(#SVGID_217_);fill:#7FB9FF;}
	.st990{clip-path:url(#SVGID_217_);fill:#7EB8FF;}
	.st991{clip-path:url(#SVGID_217_);fill:#7DB7FF;}
	.st992{clip-path:url(#SVGID_217_);fill:#7CB7FF;}
	.st993{clip-path:url(#SVGID_217_);fill:#7BB6FF;}
	.st994{clip-path:url(#SVGID_217_);fill:#7AB5FF;}
	.st995{clip-path:url(#SVGID_217_);fill:#79B4FF;}
	.st996{clip-path:url(#SVGID_217_);fill:#78B4FF;}
	.st997{clip-path:url(#SVGID_217_);fill:#77B3FF;}
	.st998{clip-path:url(#SVGID_217_);fill:#76B2FF;}
	.st999{clip-path:url(#SVGID_217_);fill:#74B1FF;}
	.st1000{clip-path:url(#SVGID_217_);fill:#73B0FF;}
	.st1001{clip-path:url(#SVGID_217_);fill:#72B0FF;}
	.st1002{clip-path:url(#SVGID_217_);fill:#71AFFF;}
	.st1003{clip-path:url(#SVGID_217_);fill:#70AEFF;}
	.st1004{clip-path:url(#SVGID_217_);fill:#6FADFF;}
	.st1005{clip-path:url(#SVGID_217_);fill:#6EADFF;}
	.st1006{clip-path:url(#SVGID_217_);fill:#6DACFF;}
	.st1007{clip-path:url(#SVGID_217_);fill:#6CABFF;}
	.st1008{clip-path:url(#SVGID_217_);fill:#6BAAFF;}
	.st1009{clip-path:url(#SVGID_217_);fill:#6AA9FF;}
	.st1010{clip-path:url(#SVGID_217_);fill:#69A9FF;}
	.st1011{clip-path:url(#SVGID_217_);fill:#68A8FF;}
	.st1012{clip-path:url(#SVGID_217_);fill:#67A7FF;}
	.st1013{clip-path:url(#SVGID_217_);fill:#66A6FF;}
	.st1014{clip-path:url(#SVGID_217_);fill:#65A6FF;}
	.st1015{clip-path:url(#SVGID_217_);fill:#64A5FF;}
	.st1016{clip-path:url(#SVGID_217_);fill:#63A4FF;}
	.st1017{clip-path:url(#SVGID_217_);fill:#62A3FF;}
	.st1018{clip-path:url(#SVGID_217_);fill:#61A2FF;}
	.st1019{clip-path:url(#SVGID_217_);fill:#60A2FF;}
	.st1020{clip-path:url(#SVGID_217_);fill:#5FA1FF;}
	.st1021{clip-path:url(#SVGID_217_);fill:#5EA0FF;}
	.st1022{clip-path:url(#SVGID_217_);fill:#5D9FFF;}
	.st1023{clip-path:url(#SVGID_217_);fill:#5C9EFF;}
	.st1024{clip-path:url(#SVGID_217_);fill:#5B9EFF;}
	.st1025{clip-path:url(#SVGID_217_);fill:#5A9DFF;}
	.st1026{clip-path:url(#SVGID_217_);fill:#599CFF;}
	.st1027{clip-path:url(#SVGID_217_);fill:#589BFF;}
	.st1028{clip-path:url(#SVGID_217_);fill:#579BFF;}
	.st1029{clip-path:url(#SVGID_217_);fill:#569AFF;}
	.st1030{clip-path:url(#SVGID_217_);fill:#5599FF;}
	.st1031{fill:#293B57;}
	.st1032{fill:#E3F2FF;}
	.st1033{fill:#EBEBEB;}
	.st1034{fill:#162D40;}
	.st1035{fill:#1D3B54;}
	.st1036{fill:#D1C0BA;}
	.st1037{fill:#FAE6DE;}
	.st1038{fill:#54281A;}
	.st1039{fill:#366E9C;}
	.st1040{fill:#5C544D;}
	.st1041{fill:#3C4145;}
	.st1042{fill:#FCCCA2;}
	.st1043{fill:#63A4FF;}
	.st1044{fill:#F25F54;}
	.st1045{fill:#C98462;}
	.st1046{fill:#DE9D7D;}
	.st1047{fill:#252E3B;}
	.st1048{fill:#88C0FF;}
	.st1049{fill:#5FA0FF;}
	.st1050{fill:#5189DB;}
	.st1051{fill:#C2BEBC;}
	.st1052{fill:#D6D6D6;}
	.st1053{fill:#C2C2C2;}
	.st1054{fill-rule:evenodd;clip-rule:evenodd;fill:#EDE4F1;}
	.st1055{fill-rule:evenodd;clip-rule:evenodd;fill:#D1C6E2;}
	.st1056{fill-rule:evenodd;clip-rule:evenodd;fill:#5A53A2;}
	.st1057{fill-rule:evenodd;clip-rule:evenodd;fill:#D7CCE5;}
	.st1058{fill-rule:evenodd;clip-rule:evenodd;fill:#FFFFFF;}
	.st1059{fill-rule:evenodd;clip-rule:evenodd;fill:#9588C0;}
	.st1060{fill-rule:evenodd;clip-rule:evenodd;fill:#2B2870;}
	.st1061{fill-rule:evenodd;clip-rule:evenodd;fill:#AF9030;}
	.st1062{fill-rule:evenodd;clip-rule:evenodd;fill:#EACB46;}
	.st1063{fill-rule:evenodd;clip-rule:evenodd;fill:#071023;}
	.st1064{fill-rule:evenodd;clip-rule:evenodd;fill:#FAB688;}
	.st1065{fill-rule:evenodd;clip-rule:evenodd;fill:#EC1C24;}
	.st1066{fill-rule:evenodd;clip-rule:evenodd;fill:#C8252C;}
	.st1067{fill-rule:evenodd;clip-rule:evenodd;fill:#ED7D57;}
	.st1068{fill:#F4F7FA;}
	.st1069{fill:url(#SVGID_218_);}
	.st1070{fill:#97A6B7;}
	.st1071{fill:#D8DEE8;}
	.st1072{fill:#BFC8D6;}
	.st1073{opacity:0.3;fill:#D8DEE8;}
	.st1074{fill:url(#SVGID_219_);}
	.st1075{fill:url(#SVGID_220_);}
	.st1076{fill:url(#SVGID_221_);}
	.st1077{fill:url(#SVGID_222_);}
	.st1078{fill:url(#SVGID_223_);}
	.st1079{fill:url(#SVGID_224_);}
	.st1080{fill:url(#SVGID_225_);}
	.st1081{fill:url(#SVGID_226_);}
	.st1082{fill:url(#SVGID_227_);}
	.st1083{fill:url(#SVGID_228_);}
	.st1084{fill:url(#SVGID_229_);}
	.st1085{fill:url(#SVGID_230_);}
	.st1086{fill:url(#SVGID_231_);}
	.st1087{fill:url(#SVGID_232_);}
	.st1088{fill:url(#SVGID_233_);}
	.st1089{fill:url(#SVGID_234_);}
	.st1090{fill:url(#SVGID_235_);}
	.st1091{fill:url(#SVGID_236_);}
	.st1092{fill:url(#SVGID_237_);}
	.st1093{fill:url(#SVGID_238_);}
	.st1094{fill:url(#SVGID_239_);}
	.st1095{opacity:0.3;fill:url(#SVGID_240_);}
	.st1096{fill:url(#SVGID_241_);}
	.st1097{fill:url(#SVGID_242_);}
	.st1098{fill:url(#SVGID_243_);}
	.st1099{fill:url(#SVGID_244_);}
	.st1100{fill:url(#SVGID_245_);}
	.st1101{fill:url(#SVGID_246_);}
	.st1102{fill:url(#SVGID_247_);}
	.st1103{fill:url(#SVGID_248_);}
	.st1104{fill:url(#SVGID_249_);}
	.st1105{fill:url(#SVGID_250_);}
	.st1106{fill:url(#SVGID_251_);}
	.st1107{opacity:0.2;fill:url(#SVGID_252_);}
	.st1108{fill:url(#SVGID_253_);}
	.st1109{opacity:0.2;fill:url(#SVGID_254_);}
	.st1110{fill:url(#SVGID_255_);}
	.st1111{opacity:0.2;fill:url(#SVGID_256_);}
	.st1112{fill:url(#SVGID_257_);}
	.st1113{opacity:0.2;fill:url(#SVGID_258_);}
	.st1114{fill:url(#SVGID_259_);}
	.st1115{opacity:0.2;fill:url(#SVGID_260_);}
	.st1116{fill:url(#SVGID_261_);}
	.st1117{opacity:0.2;fill:url(#SVGID_262_);}
	.st1118{fill:url(#SVGID_263_);}
	.st1119{opacity:0.2;fill:url(#SVGID_264_);}
	.st1120{fill:url(#SVGID_265_);}
	.st1121{opacity:0.2;fill:url(#SVGID_266_);}
	.st1122{fill:url(#SVGID_267_);}
	.st1123{opacity:0.4;fill:#D8DEE8;}
	.st1124{fill:url(#SVGID_268_);}
	.st1125{fill:url(#SVGID_269_);}
	.st1126{fill:#FFBF9D;}
	.st1127{fill:#FF9A6C;}
	.st1128{fill:#FF735D;}
	.st1129{fill:#CAE3FB;}
	.st1130{fill:#E9F5FB;}
	.st1131{fill:#FF5B8A;}
	.st1132{fill:#E2410F;}
	.st1133{fill:#002CAA;}
	.st1134{fill:#007FE2;}
	.st1135{fill:#0066E9;}
	.st1136{fill:#FF550D;}
	.st1137{fill:#002382;}
	.st1138{opacity:0.5;fill:#002382;}
	.st1139{fill:#BFD8F6;}
	.st1140{opacity:0.22;fill:#FFFFFF;}
	.st1141{clip-path:url(#SVGID_273_);}
	.st1142{opacity:0.2;fill:#FFFFFF;}
	.st1143{fill:#5AE4A7;}
	.st1144{fill:none;stroke:#1A2E35;stroke-linecap:round;stroke-linejoin:round;}
	.st1145{fill:none;stroke:#1A2E35;stroke-linecap:round;stroke-linejoin:round;stroke-dasharray:11.0165,11.0165;}
	.st1146{fill:none;stroke:#1A2E35;stroke-linecap:round;stroke-linejoin:round;stroke-dasharray:11.0164,11.0164;}
	.st1147{fill:none;stroke:#1A2E35;stroke-linecap:round;stroke-linejoin:round;stroke-miterlimit:10;}
	.st1148{fill:#FFFFFF;stroke:#1A2E35;stroke-linecap:round;stroke-linejoin:round;stroke-miterlimit:10;}
	.st1149{fill:#1A2E35;stroke:#1A2E35;stroke-linecap:round;stroke-linejoin:round;stroke-miterlimit:10;}
	.st1150{fill:#5AE4A7;stroke:#1A2E35;stroke-linecap:round;stroke-linejoin:round;stroke-miterlimit:10;}
	.st1151{fill:none;stroke:#FFFFFF;stroke-linecap:round;stroke-linejoin:round;stroke-miterlimit:10;}
	.st1152{opacity:0.4;fill:#5AE4A7;}
	.st1153{fill:#7ADCFF;}
	.st1154{fill:#DCF3FB;}
	.st1155{fill:#EFF8FB;}
	.st1156{fill:#B7D9E0;}
	.st1157{fill:#1C3C52;}
	.st1158{fill:#F7EDE9;}
	.st1159{fill:#A5E472;}
	.st1160{fill:url(#SVGID_276_);}
	.st1161{fill:url(#SVGID_277_);}
	.st1162{fill:url(#SVGID_278_);}
	.st1163{fill:url(#SVGID_279_);}
	.st1164{fill:#9FBBFC;}
	.st1165{fill:url(#SVGID_280_);}
	.st1166{fill:#467DFA;}
	.st1167{fill:url(#SVGID_281_);}
	.st1168{fill:url(#SVGID_282_);}
	.st1169{fill:#0E6DBD;}
	.st1170{fill:#06BAEB;}
	.st1171{fill:#FE9658;}
	.st1172{fill:url(#SVGID_283_);}
	.st1173{fill:url(#SVGID_284_);}
	.st1174{fill:url(#SVGID_285_);}
	.st1175{fill:url(#SVGID_286_);}
	.st1176{fill:#00FF00;}
	.st1177{fill:url(#SVGID_287_);}
	.st1178{fill:#E6F3FB;}
	.st1179{fill:url(#SVGID_288_);}
	.st1180{fill:url(#SVGID_289_);}
	.st1181{fill:url(#SVGID_290_);}
	.st1182{fill:url(#SVGID_291_);}
	.st1183{fill:url(#SVGID_292_);}
	.st1184{fill:url(#SVGID_293_);}
	.st1185{fill:url(#SVGID_294_);}
	.st1186{fill:url(#SVGID_295_);}
	.st1187{fill:url(#SVGID_296_);}
	.st1188{fill:url(#SVGID_297_);}
	.st1189{fill:url(#SVGID_298_);}
	.st1190{fill:#BFE9F7;}
	.st1191{fill:none;stroke:#173756;stroke-width:1.0215;stroke-miterlimit:10;}
	.st1192{fill:none;stroke:#173756;stroke-width:1.0215;stroke-miterlimit:10;stroke-dasharray:2.8664,2.8664;}
	.st1193{fill:none;stroke:#173756;stroke-width:1.0215;stroke-miterlimit:10;stroke-dasharray:2.8796,2.8796;}
	.st1194{fill:none;stroke:#173756;stroke-width:1.0215;stroke-miterlimit:10;stroke-dasharray:2.4548,2.4548;}
	.st1195{fill:none;stroke:#173756;stroke-width:1.0215;stroke-miterlimit:10;stroke-dasharray:2.8693,2.8693;}
	.st1196{fill:none;stroke:#173756;stroke-width:1.0215;stroke-miterlimit:10;stroke-dasharray:2.8503,2.8503;}
	.st1197{fill:none;stroke:#173756;stroke-width:1.0215;stroke-miterlimit:10;stroke-dasharray:2.572,2.572;}
	.st1198{fill:none;stroke:#173756;stroke-width:1.0215;stroke-miterlimit:10;stroke-dasharray:3.1644,3.1644;}
	.st1199{fill:none;stroke:#173756;stroke-width:1.0215;stroke-miterlimit:10;stroke-dasharray:2.8689,2.8689;}
	.st1200{fill:none;stroke:#173756;stroke-width:1.0215;stroke-miterlimit:10;stroke-dasharray:2.1836,2.1836;}
	.st1201{fill:none;stroke:#173756;stroke-width:1.0215;stroke-miterlimit:10;stroke-dasharray:2.902,2.902;}
	.st1202{fill:#452C6D;}
	.st1203{fill:#F95B5E;}
	.st1204{fill:#392863;}
	.st1205{fill:#281C4C;}
	.st1206{fill:#4B3577;}
	.st1207{fill:none;stroke:#173756;stroke-width:0.8687;stroke-miterlimit:10;}
	.st1208{fill:none;stroke:#173756;stroke-width:0.8687;stroke-miterlimit:10;stroke-dasharray:2.9483,2.9483;}
	.st1209{fill:#2C1851;}
	.st1210{fill:none;stroke:#173756;stroke-width:0.8687;stroke-miterlimit:10;stroke-dasharray:2.857,2.857;}
	.st1211{fill:#173756;}
	.st1212{fill:#5F88DB;}
	.st1213{fill:#6E9CE5;}
	.st1214{fill:none;stroke:#FFFFFF;stroke-width:1.0215;stroke-miterlimit:10;}
	.st1215{fill:none;stroke:#FFFFFF;stroke-width:1.0215;stroke-miterlimit:10;stroke-dasharray:2.7772,2.7772;}
	.st1216{fill:none;stroke:#FFFFFF;stroke-width:1.0215;stroke-miterlimit:10;stroke-dasharray:2.8151,2.8151;}
	.st1217{fill:#0C253A;}
	.st1218{fill:#122D44;}
	.st1219{fill:#EA3636;}
	.st1220{fill:#FF5C5C;}
	.st1221{fill:#8DC63F;}
	.st1222{fill:#D1D3D4;}
	.st1223{fill:#E5713E;}
	.st1224{fill:#FAAF41;}
	.st1225{opacity:0.95;}
	.st1226{fill:#E3C8FC;}
	.st1227{fill:#F97F40;}
	.st1228{fill:#D3D3D3;}
	.st1229{fill:#8E5D1C;}
	.st1230{fill:url(#SVGID_299_);}
	.st1231{fill:#578ACE;}
	.st1232{fill:#FFFFFF;stroke:#578ACE;stroke-width:2;stroke-linecap:round;stroke-linejoin:round;stroke-miterlimit:10;}
	.st1233{opacity:0.3;fill:#8CB5C7;}
	.st1234{opacity:0.5;fill:#C1C1C1;}
	.st1235{fill:#001733;}
	.st1236{opacity:0.5;fill:#8BBAD9;}
	.st1237{fill:#EAEAEA;}
	.st1238{fill:#FF6716;}
	.st1239{fill:#FFAB00;}
	.st1240{opacity:0.3;fill:#BFC8D6;}
	.st1241{fill:url(#SVGID_300_);}
	.st1242{opacity:0.7;}
	.st1243{opacity:0.35;fill:#FFFFFF;}
	.st1244{fill:url(#SVGID_301_);}
	.st1245{fill:url(#SVGID_302_);}
	.st1246{fill:url(#SVGID_303_);}
	.st1247{fill:url(#SVGID_304_);}
	.st1248{fill:#26264F;}
	.st1249{fill:url(#SVGID_305_);}
	.st1250{fill:url(#SVGID_306_);}
	.st1251{opacity:0.3;fill:url(#SVGID_307_);}
	.st1252{fill:url(#SVGID_308_);}
	.st1253{fill:url(#SVGID_309_);}
	.st1254{fill:url(#SVGID_310_);}
	.st1255{fill:url(#SVGID_311_);}
	.st1256{fill:url(#SVGID_312_);}
	.st1257{fill:url(#SVGID_313_);}
	.st1258{fill:url(#SVGID_314_);}
	.st1259{fill:url(#SVGID_315_);}
	.st1260{opacity:0.3;fill:url(#SVGID_316_);}
	.st1261{fill:url(#SVGID_317_);}
	.st1262{fill:url(#SVGID_318_);}
	.st1263{fill:url(#SVGID_319_);}
	.st1264{fill:url(#SVGID_320_);}
	.st1265{fill:url(#SVGID_321_);}
	.st1266{fill:url(#SVGID_322_);}
	.st1267{fill:url(#SVGID_323_);}
	.st1268{fill:url(#SVGID_324_);}
	.st1269{fill:url(#SVGID_325_);}
	.st1270{fill:url(#SVGID_326_);}
	.st1271{fill:url(#SVGID_327_);}
	.st1272{opacity:0.3;fill:url(#SVGID_328_);}
	.st1273{opacity:0.3;fill:url(#SVGID_329_);}
	.st1274{fill:url(#SVGID_330_);}
	.st1275{fill:url(#SVGID_331_);}
	.st1276{fill:url(#SVGID_332_);}
	.st1277{fill:url(#SVGID_333_);}
	.st1278{fill:url(#SVGID_334_);}
	.st1279{fill:url(#SVGID_335_);}
	.st1280{fill:url(#SVGID_336_);}
	.st1281{fill:url(#SVGID_337_);}
	.st1282{fill:url(#SVGID_338_);}
	.st1283{fill:url(#SVGID_339_);}
	.st1284{fill:url(#SVGID_340_);}
	.st1285{fill:url(#SVGID_341_);}
	.st1286{fill:url(#SVGID_342_);}
	.st1287{fill:url(#SVGID_343_);}
	.st1288{fill:url(#SVGID_344_);}
	.st1289{fill:url(#SVGID_345_);}
	.st1290{fill:url(#SVGID_346_);}
	.st1291{fill:url(#SVGID_347_);}
	.st1292{fill:url(#SVGID_348_);}
	.st1293{fill:url(#SVGID_349_);}
	.st1294{fill:url(#SVGID_350_);}
	.st1295{fill:url(#SVGID_351_);}
	.st1296{fill:url(#SVGID_352_);}
	.st1297{fill:url(#SVGID_353_);}
	.st1298{fill:url(#SVGID_354_);}
	.st1299{fill:url(#SVGID_355_);}
	.st1300{fill:url(#SVGID_356_);}
	.st1301{fill:url(#SVGID_357_);}
	.st1302{opacity:0.3;fill:url(#SVGID_358_);}
	.st1303{opacity:0.3;fill:url(#SVGID_359_);}
	.st1304{fill:url(#SVGID_360_);}
	.st1305{fill:#FE8794;}
	.st1306{fill:url(#SVGID_361_);}
	.st1307{fill:url(#SVGID_362_);}
	.st1308{fill:url(#SVGID_363_);}
	.st1309{fill:url(#SVGID_364_);}
	.st1310{fill:url(#SVGID_365_);}
	.st1311{fill:url(#SVGID_366_);}
	.st1312{opacity:0.3;fill:url(#SVGID_367_);}
	.st1313{fill:url(#SVGID_368_);}
	.st1314{fill:url(#SVGID_369_);}
	.st1315{fill:url(#SVGID_370_);}
	.st1316{fill:url(#SVGID_371_);}
	.st1317{fill:url(#SVGID_372_);}
	.st1318{opacity:0.3;fill:url(#SVGID_373_);}
	.st1319{fill:url(#SVGID_374_);}
	.st1320{fill:#BBC5E9;}
	.st1321{fill:#3D3F70;}
	.st1322{fill:#898FCF;}
	.st1323{fill:#FF8E02;}
	.st1324{clip-path:url(#SVGID_376_);}
	.st1325{fill:#F3A4A3;}
	.st1326{fill:#54589F;}
	.st1327{fill:#F39392;}
	.st1328{fill:#D9E1FF;}
	.st1329{fill:#1E2432;}
	.st1330{fill:#FFC802;}
	.st1331{opacity:0.8;fill:#FFFFFF;}
	.st1332{fill:url(#SVGID_377_);}
	.st1333{fill:url(#SVGID_378_);}
	.st1334{fill:url(#SVGID_379_);}
	.st1335{fill:url(#SVGID_380_);}
	.st1336{fill:url(#SVGID_381_);}
	.st1337{fill:url(#SVGID_382_);}
	.st1338{fill:url(#SVGID_383_);}
	.st1339{fill:url(#SVGID_384_);}
	.st1340{fill:url(#SVGID_385_);}
	.st1341{fill:url(#SVGID_386_);}
	.st1342{fill:url(#SVGID_387_);}
	.st1343{fill:url(#SVGID_388_);}
	.st1344{fill:url(#SVGID_389_);}
	.st1345{opacity:0.55;fill:#3D3F70;}
	.st1346{fill:url(#SVGID_390_);}
	.st1347{fill:url(#SVGID_391_);}
	.st1348{fill:#D54343;}
	.st1349{fill:#BA4A00;}
	.st1350{fill:#CACACA;}
	.st1351{opacity:0.3;fill:#5AE4A7;}
	.st1352{fill:none;stroke:#1A2E35;stroke-miterlimit:10;}
	.st1353{fill:#5AE4A7;stroke:#1A2E35;stroke-miterlimit:10;}
	.st1354{fill:#FFFFFF;stroke:#1A2E35;stroke-miterlimit:10;}
	.st1355{fill:#1A2E35;stroke:#1A2E35;stroke-miterlimit:10;}
	.st1356{fill:none;stroke:#1A2E35;stroke-width:2;stroke-miterlimit:10;}
	.st1357{fill:none;stroke:#1A2E35;stroke-width:6;stroke-miterlimit:10;}
	.st1358{fill:#808080;stroke:#1A2E35;stroke-miterlimit:10;}
	.st1359{fill:none;stroke:#1A2E35;stroke-width:2;stroke-linecap:round;stroke-miterlimit:10;}
	.st1360{fill:none;stroke:#1A2E35;stroke-linecap:round;stroke-miterlimit:10;}
	.st1361{fill:#7A7A7A;}
	.st1362{fill:#8C8C8C;}
	.st1363{fill:none;stroke:#1A2E35;stroke-width:2;stroke-linecap:round;stroke-linejoin:round;stroke-miterlimit:10;}
	.st1364{fill:#FFFFFF;stroke:#1A2E35;stroke-width:2;stroke-linecap:round;stroke-linejoin:round;stroke-miterlimit:10;}
	.st1365{fill:none;stroke:#7A7A7A;stroke-linecap:round;stroke-linejoin:round;stroke-miterlimit:10;}
	.st1366{fill:#A1A1A1;stroke:#1A2E35;stroke-linecap:round;stroke-linejoin:round;stroke-miterlimit:10;}
	.st1367{fill:#525252;stroke:#1A2E35;stroke-linecap:round;stroke-linejoin:round;stroke-miterlimit:10;}
	.st1368{fill:#EFEFF4;}
	.st1369{fill:#D7D9E0;}
	.st1370{fill:#C6C9D3;}
	.st1371{fill:#333435;}
	.st1372{fill:#5C5E61;}
	.st1373{fill:#F3D33F;}
	.st1374{fill:#E5B731;}
	.st1375{opacity:0.86;fill:#FFFFFF;}
	.st1376{fill:#F7E57E;}
	.st1377{fill:#B9BCC5;}
	.st1378{fill:url(#SVGID_392_);}
	.st1379{fill:#48494B;}
	.st1380{fill:url(#SVGID_393_);}
	.st1381{fill:url(#SVGID_394_);}
	.st1382{fill:url(#SVGID_395_);}
	.st1383{fill:url(#SVGID_396_);}
	.st1384{fill:url(#SVGID_397_);}
	.st1385{fill:url(#SVGID_398_);}
	.st1386{fill:#888B8F;}
	.st1387{opacity:0.1;fill:#302B51;}
	.st1388{fill:#1B1730;}
	.st1389{opacity:0.4;fill:#1B1730;}
	.st1390{fill:#DEDEF9;}
	.st1391{fill:none;stroke:#FFFFFF;stroke-width:0.25;stroke-miterlimit:10;}
	.st1392{fill:#302B51;}
	.st1393{fill:#7777E0;}
	.st1394{fill:#FFB261;}
	.st1395{fill:#FF5060;}
	.st1396{fill:#FFD75D;}
	.st1397{opacity:0.1;fill:#1B1730;}
	.st1398{font-family:'Montserrat-ExtraBold';}
	.st1399{font-size:39.9763px;}
	.st1400{opacity:0.05;}
	.st1401{fill:#F13B52;}
	.st1402{fill:#FFBB33;}
	.st1403{opacity:0.2;fill:#1B1730;}
	.st1404{fill:#1194A8;}
	.st1405{fill:#FEAB21;}
	.st1406{fill:#F05749;}
	.st1407{fill:#798583;}
	.st1408{fill:#438AC2;}
	.st1409{fill:#454054;}
	.st1410{fill:#808080;}
	.st1411{fill:#4D4D4D;}
	.st1412{fill:#666666;}
	.st1413{fill:#DEC5E2;}
	.st1414{clip-path:url(#XMLID_46_);fill:#748096;}
	.st1415{clip-path:url(#XMLID_46_);}
	.st1416{fill:none;stroke:#9C9B9B;stroke-width:3.911;stroke-linecap:round;stroke-linejoin:round;stroke-miterlimit:10;}
	.st1417{fill:none;stroke:#9E9C9C;stroke-width:3.911;stroke-linecap:round;stroke-linejoin:round;stroke-miterlimit:10;}
	
		.st1418{clip-path:url(#XMLID_46_);fill:none;stroke:#5B6577;stroke-width:1.5644;stroke-linecap:round;stroke-linejoin:round;stroke-miterlimit:10;}
	.st1419{clip-path:url(#XMLID_46_);fill:#687289;}
	.st1420{fill:#F6EFE1;}
	.st1421{fill:#E8DBC5;}
	.st1422{fill:none;stroke:#6C7983;stroke-width:1.6995;stroke-linecap:round;stroke-linejoin:round;stroke-miterlimit:10;}
	.st1423{fill:#113C47;}
	.st1424{fill:none;stroke:#113C47;stroke-width:0.8498;stroke-linecap:round;stroke-linejoin:round;stroke-miterlimit:10;}
	.st1425{clip-path:url(#XMLID_47_);}
	.st1426{fill:#9C9B9B;}
	.st1427{opacity:0.3;clip-path:url(#XMLID_47_);}
	.st1428{clip-path:url(#XMLID_49_);}
	.st1429{clip-path:url(#XMLID_50_);}
	.st1430{fill:none;stroke:#D1BC86;stroke-linecap:round;stroke-linejoin:round;stroke-miterlimit:10;stroke-dasharray:6;}
	.st1431{opacity:0.5;clip-path:url(#XMLID_50_);}
	.st1432{clip-path:url(#XMLID_50_);fill:none;stroke:#9C9B9B;stroke-width:2;stroke-miterlimit:10;}
	
		.st1433{clip-path:url(#XMLID_50_);fill:none;stroke:#D1BC86;stroke-linecap:round;stroke-linejoin:round;stroke-miterlimit:10;stroke-dasharray:6;}
	.st1434{opacity:0.5;clip-path:url(#XMLID_50_);fill:#9C9B9B;}
	.st1435{fill:#A37855;}
	.st1436{fill:#8E5E3A;}
	.st1437{opacity:0.2;clip-path:url(#XMLID_100_);}
	.st1438{opacity:0.2;clip-path:url(#XMLID_101_);}
	.st1439{clip-path:url(#XMLID_102_);fill:#CD6250;}
	.st1440{clip-path:url(#XMLID_102_);fill:#A1ABB3;}
	.st1441{clip-path:url(#XMLID_102_);fill:none;stroke:#C1C8CE;stroke-width:4;stroke-miterlimit:10;}
	.st1442{clip-path:url(#XMLID_102_);fill:none;stroke:#222221;stroke-width:4;stroke-miterlimit:10;}
	.st1443{clip-path:url(#XMLID_102_);fill:#ECCB8A;}
	.st1444{clip-path:url(#XMLID_102_);fill:none;stroke:#D1762F;stroke-miterlimit:10;}
	.st1445{clip-path:url(#XMLID_102_);fill:#444241;}
	.st1446{opacity:0.5;clip-path:url(#XMLID_102_);}
	.st1447{opacity:0.3;clip-path:url(#XMLID_103_);}
	.st1448{opacity:0.5;clip-path:url(#XMLID_104_);}
	.st1449{opacity:0.3;clip-path:url(#XMLID_105_);}
	.st1450{opacity:0.5;clip-path:url(#XMLID_109_);}
	.st1451{opacity:0.3;clip-path:url(#XMLID_110_);}
	.st1452{opacity:0.5;clip-path:url(#XMLID_111_);}
	.st1453{opacity:0.3;clip-path:url(#XMLID_113_);}
	.st1454{opacity:0.5;clip-path:url(#XMLID_114_);}
	.st1455{opacity:0.3;clip-path:url(#XMLID_115_);}
	.st1456{opacity:0.5;clip-path:url(#XMLID_116_);}
	.st1457{opacity:0.3;clip-path:url(#XMLID_117_);}
	.st1458{clip-path:url(#XMLID_118_);fill:none;stroke:#9C9B9B;stroke-linecap:round;stroke-linejoin:round;stroke-miterlimit:10;}
	.st1459{fill:none;stroke:#222221;stroke-miterlimit:10;}
	.st1460{fill:none;stroke:#7E5279;stroke-miterlimit:10;}
	.st1461{clip-path:url(#XMLID_175_);}
	.st1462{clip-path:url(#XMLID_176_);fill:none;stroke:#61287E;stroke-width:0.9218;stroke-miterlimit:10;}
	.st1463{clip-path:url(#XMLID_177_);fill:#E3B072;}
	.st1464{clip-path:url(#XMLID_178_);}
	.st1465{fill:#563954;}
	.st1466{opacity:0.5;clip-path:url(#XMLID_178_);}
	.st1467{opacity:0.3;clip-path:url(#XMLID_178_);}
	.st1468{clip-path:url(#XMLID_184_);fill:#E3B072;}
	.st1469{clip-path:url(#XMLID_184_);}
	.st1470{clip-path:url(#XMLID_212_);fill:#AA753F;}
	.st1471{fill:#9587C1;}
	.st1472{fill:#675F89;}
	.st1473{fill:none;stroke:#675F89;stroke-miterlimit:10;}
	.st1474{fill:#FF7955;}
	.st1475{fill:#00A3FE;}
	.st1476{fill:#016EB9;}
	.st1477{fill:#EF6343;}
	.st1478{fill:#131F2D;}
	.st1479{fill:#364154;}
	.st1480{fill:#B8C1C9;}
	.st1481{fill:#657285;}
	.st1482{fill:#35488B;}
	.st1483{fill:#E37970;}
	.st1484{fill:#E7F1FD;}
	.st1485{fill:#F4F4F4;}
	.st1486{fill:#D5D6DA;}
	.st1487{fill:#1E1E1E;}
	.st1488{clip-path:url(#SVGID_400_);}
	.st1489{clip-path:url(#SVGID_402_);fill:#FFB000;}
	.st1490{clip-path:url(#SVGID_404_);fill:#FFB000;}
	.st1491{clip-path:url(#SVGID_406_);fill:#FFB000;}
	.st1492{clip-path:url(#SVGID_408_);fill:#FFB000;}
	.st1493{clip-path:url(#SVGID_410_);fill:#FFB000;}
	.st1494{clip-path:url(#SVGID_412_);fill:#FFB000;}
	.st1495{clip-path:url(#SVGID_414_);fill:#FFB000;}
	.st1496{clip-path:url(#SVGID_416_);fill:#FFB000;}
	.st1497{clip-path:url(#SVGID_418_);fill:#FFB000;}
	.st1498{clip-path:url(#SVGID_420_);fill:#FFB000;}
	.st1499{clip-path:url(#SVGID_422_);fill:#FFB000;}
	.st1500{clip-path:url(#SVGID_424_);fill:#FFB000;}
	.st1501{clip-path:url(#SVGID_426_);fill:#FFB000;}
	.st1502{clip-path:url(#SVGID_428_);fill:#FFB000;}
	.st1503{clip-path:url(#SVGID_430_);fill:#FFB000;}
	.st1504{clip-path:url(#SVGID_432_);fill:#FFB000;}
	.st1505{clip-path:url(#SVGID_434_);fill:#FFB000;}
	.st1506{clip-path:url(#SVGID_436_);fill:#FFB000;}
	.st1507{clip-path:url(#SVGID_438_);fill:#FFB000;}
	.st1508{clip-path:url(#SVGID_440_);fill:#FFB000;}
	.st1509{clip-path:url(#SVGID_442_);fill:#FFB000;}
	.st1510{clip-path:url(#SVGID_444_);fill:#FFB000;}
	.st1511{clip-path:url(#SVGID_446_);fill:#FFB000;}
	.st1512{clip-path:url(#SVGID_448_);fill:#FFB000;}
	.st1513{clip-path:url(#SVGID_450_);fill:#FFB000;}
	.st1514{clip-path:url(#SVGID_452_);fill:#FFB000;}
	.st1515{clip-path:url(#SVGID_454_);fill:#FFB000;}
	.st1516{clip-path:url(#SVGID_456_);fill:#FFB000;}
	.st1517{clip-path:url(#SVGID_458_);fill:#FFB000;}
	.st1518{clip-path:url(#SVGID_460_);fill:#FFB000;}
	.st1519{clip-path:url(#SVGID_462_);fill:#FFB000;}
	.st1520{clip-path:url(#SVGID_464_);fill:#FFB000;}
	.st1521{clip-path:url(#SVGID_466_);fill:#FFB000;}
	.st1522{clip-path:url(#SVGID_468_);fill:#FFB000;}
	.st1523{clip-path:url(#SVGID_470_);fill:#FFB000;}
	.st1524{clip-path:url(#SVGID_472_);fill:#FFB000;}
	.st1525{clip-path:url(#SVGID_474_);fill:#FFB000;}
	.st1526{clip-path:url(#SVGID_476_);fill:#FFB000;}
	.st1527{clip-path:url(#SVGID_478_);fill:#FFB000;}
	.st1528{clip-path:url(#SVGID_480_);fill:#FFB000;}
	.st1529{clip-path:url(#SVGID_482_);fill:#FFB000;}
	.st1530{clip-path:url(#SVGID_484_);fill:#FFB000;}
	.st1531{clip-path:url(#SVGID_486_);fill:#FFB000;}
	.st1532{clip-path:url(#SVGID_488_);fill:#FFB000;}
	.st1533{clip-path:url(#SVGID_490_);fill:#FFB000;}
	.st1534{clip-path:url(#SVGID_492_);fill:#FFB000;}
	.st1535{clip-path:url(#SVGID_494_);fill:#FFB000;}
	.st1536{clip-path:url(#SVGID_496_);fill:#FFB000;}
	.st1537{clip-path:url(#SVGID_498_);fill:#FFB000;}
	.st1538{clip-path:url(#SVGID_500_);fill:#FFB000;}
	.st1539{clip-path:url(#SVGID_502_);fill:#FFB000;}
	.st1540{clip-path:url(#SVGID_504_);fill:#FFB000;}
	.st1541{clip-path:url(#SVGID_506_);fill:#FFB000;}
	.st1542{clip-path:url(#SVGID_508_);fill:#FFB000;}
	.st1543{clip-path:url(#SVGID_510_);fill:#FFB000;}
	.st1544{clip-path:url(#SVGID_512_);fill:#FFB000;}
	.st1545{clip-path:url(#SVGID_514_);fill:#FFB000;}
	.st1546{clip-path:url(#SVGID_516_);fill:#FFB000;}
	.st1547{clip-path:url(#SVGID_518_);fill:#FFB000;}
	.st1548{clip-path:url(#SVGID_520_);fill:#FFB000;}
	.st1549{clip-path:url(#SVGID_522_);fill:#FFB000;}
	.st1550{clip-path:url(#SVGID_524_);fill:#FFB000;}
	.st1551{clip-path:url(#SVGID_526_);fill:#FFB000;}
	.st1552{clip-path:url(#SVGID_528_);fill:#FFB000;}
	.st1553{clip-path:url(#SVGID_530_);fill:#FFB000;}
	.st1554{clip-path:url(#SVGID_532_);fill:#FFB000;}
	.st1555{clip-path:url(#SVGID_534_);fill:#FFB000;}
	.st1556{clip-path:url(#SVGID_536_);fill:#FFB000;}
	.st1557{clip-path:url(#SVGID_538_);fill:#FFB000;}
	.st1558{clip-path:url(#SVGID_540_);fill:#FFB000;}
	.st1559{clip-path:url(#SVGID_542_);fill:#FFB000;}
	.st1560{clip-path:url(#SVGID_544_);fill:#FFB000;}
	.st1561{clip-path:url(#SVGID_546_);fill:#FFB000;}
	.st1562{clip-path:url(#SVGID_548_);fill:#FFB000;}
	.st1563{clip-path:url(#SVGID_550_);fill:#FFB000;}
	.st1564{clip-path:url(#SVGID_552_);fill:#FFB000;}
	.st1565{clip-path:url(#SVGID_554_);fill:#FFB000;}
	.st1566{clip-path:url(#SVGID_556_);fill:#FFB000;}
	.st1567{clip-path:url(#SVGID_558_);fill:#FFB000;}
	.st1568{clip-path:url(#SVGID_560_);fill:#FFB000;}
	.st1569{clip-path:url(#SVGID_562_);fill:#FFB000;}
	.st1570{clip-path:url(#SVGID_564_);fill:#FFB000;}
	.st1571{clip-path:url(#SVGID_566_);}
	.st1572{clip-path:url(#SVGID_568_);fill:#FFB000;}
	.st1573{clip-path:url(#SVGID_570_);fill:#FFB000;}
	.st1574{clip-path:url(#SVGID_572_);fill:#FFB000;}
	.st1575{clip-path:url(#SVGID_574_);fill:#FFB000;}
	.st1576{clip-path:url(#SVGID_576_);fill:#FFB000;}
	.st1577{clip-path:url(#SVGID_578_);fill:#FFB000;}
	.st1578{clip-path:url(#SVGID_580_);fill:#FFB000;}
	.st1579{clip-path:url(#SVGID_582_);fill:#FFB000;}
	.st1580{clip-path:url(#SVGID_584_);fill:#FFB000;}
	.st1581{clip-path:url(#SVGID_586_);fill:#FFB000;}
	.st1582{clip-path:url(#SVGID_588_);fill:#FFB000;}
	.st1583{clip-path:url(#SVGID_590_);fill:#FFB000;}
	.st1584{clip-path:url(#SVGID_592_);fill:#FFB000;}
	.st1585{clip-path:url(#SVGID_594_);fill:#FFB000;}
	.st1586{clip-path:url(#SVGID_596_);fill:#FFB000;}
	.st1587{clip-path:url(#SVGID_598_);fill:#FFB000;}
	.st1588{clip-path:url(#SVGID_600_);fill:#FFB000;}
	.st1589{clip-path:url(#SVGID_602_);fill:#FFB000;}
	.st1590{clip-path:url(#SVGID_604_);fill:#FFB000;}
	.st1591{clip-path:url(#SVGID_606_);fill:#FFB000;}
	.st1592{clip-path:url(#SVGID_608_);fill:#FFB000;}
	.st1593{clip-path:url(#SVGID_610_);fill:#FFB000;}
	.st1594{clip-path:url(#SVGID_612_);fill:#FFB000;}
	.st1595{clip-path:url(#SVGID_614_);fill:#FFB000;}
	.st1596{clip-path:url(#SVGID_616_);fill:#FFB000;}
	.st1597{clip-path:url(#SVGID_618_);fill:#FFB000;}
	.st1598{clip-path:url(#SVGID_620_);fill:#FFB000;}
	.st1599{clip-path:url(#SVGID_622_);fill:#FFB000;}
	.st1600{clip-path:url(#SVGID_624_);fill:#FFB000;}
	.st1601{clip-path:url(#SVGID_626_);fill:#FFB000;}
	.st1602{clip-path:url(#SVGID_628_);fill:#FFB000;}
	.st1603{clip-path:url(#SVGID_630_);fill:#FFB000;}
	.st1604{clip-path:url(#SVGID_632_);fill:#FFB000;}
	.st1605{clip-path:url(#SVGID_634_);fill:#FFB000;}
	.st1606{clip-path:url(#SVGID_636_);fill:#FFB000;}
	.st1607{clip-path:url(#SVGID_638_);fill:#FFB000;}
	.st1608{clip-path:url(#SVGID_640_);fill:#FFB000;}
	.st1609{clip-path:url(#SVGID_642_);fill:#FFB000;}
	.st1610{clip-path:url(#SVGID_644_);fill:#FFB000;}
	.st1611{clip-path:url(#SVGID_646_);fill:#FFB000;}
	.st1612{clip-path:url(#SVGID_648_);fill:#FFB000;}
	.st1613{clip-path:url(#SVGID_650_);fill:#FFB000;}
	.st1614{clip-path:url(#SVGID_652_);fill:#FFB000;}
	.st1615{clip-path:url(#SVGID_654_);fill:#FFB000;}
	.st1616{clip-path:url(#SVGID_656_);fill:#FFB000;}
	.st1617{clip-path:url(#SVGID_658_);fill:#FFB000;}
	.st1618{clip-path:url(#SVGID_660_);fill:#FFB000;}
	.st1619{clip-path:url(#SVGID_662_);fill:#FFB000;}
	.st1620{clip-path:url(#SVGID_664_);fill:#FFB000;}
	.st1621{clip-path:url(#SVGID_666_);fill:#FFB000;}
	.st1622{clip-path:url(#SVGID_668_);fill:#FFB000;}
	.st1623{clip-path:url(#SVGID_670_);fill:#FFB000;}
	.st1624{clip-path:url(#SVGID_672_);fill:#FFB000;}
	.st1625{clip-path:url(#SVGID_674_);fill:#FFB000;}
	.st1626{clip-path:url(#SVGID_676_);fill:#FFB000;}
	.st1627{clip-path:url(#SVGID_678_);fill:#FFB000;}
	.st1628{clip-path:url(#SVGID_680_);fill:#FFB000;}
	.st1629{clip-path:url(#SVGID_682_);fill:#FFB000;}
	.st1630{clip-path:url(#SVGID_684_);fill:#FFB000;}
	.st1631{clip-path:url(#SVGID_686_);fill:#FFB000;}
	.st1632{clip-path:url(#SVGID_688_);fill:#FFB000;}
	.st1633{clip-path:url(#SVGID_690_);fill:#FFB000;}
	.st1634{clip-path:url(#SVGID_692_);fill:#FFB000;}
	.st1635{clip-path:url(#SVGID_694_);fill:#FFB000;}
	.st1636{clip-path:url(#SVGID_696_);fill:#FFB000;}
	.st1637{clip-path:url(#SVGID_698_);fill:#FFB000;}
	.st1638{clip-path:url(#SVGID_700_);fill:#FFB000;}
	.st1639{clip-path:url(#SVGID_702_);fill:#FFB000;}
	.st1640{clip-path:url(#SVGID_704_);fill:#FFB000;}
	.st1641{clip-path:url(#SVGID_706_);fill:#FFB000;}
	.st1642{clip-path:url(#SVGID_708_);fill:#FFB000;}
	.st1643{clip-path:url(#SVGID_710_);fill:#FFB000;}
	.st1644{clip-path:url(#SVGID_712_);fill:#FFB000;}
	.st1645{clip-path:url(#SVGID_714_);fill:#FFB000;}
	.st1646{clip-path:url(#SVGID_716_);fill:#FFB000;}
	.st1647{clip-path:url(#SVGID_718_);fill:#FFB000;}
	.st1648{clip-path:url(#SVGID_720_);fill:#FFB000;}
	.st1649{clip-path:url(#SVGID_722_);fill:#FFB000;}
	.st1650{clip-path:url(#SVGID_724_);fill:#FFB000;}
	.st1651{clip-path:url(#SVGID_726_);fill:#FFB000;}
	.st1652{clip-path:url(#SVGID_728_);fill:#FFB000;}
	.st1653{clip-path:url(#SVGID_730_);fill:#FFB000;}
	.st1654{fill:#FFB200;}
	.st1655{fill:none;stroke:#32324C;stroke-width:2;stroke-linecap:round;stroke-linejoin:round;}
	.st1656{fill:none;stroke:#32324C;stroke-width:2;stroke-linecap:round;stroke-linejoin:round;stroke-dasharray:10.1974,7.1382;}
	
		.st1657{opacity:0.2;fill:none;stroke:#32324C;stroke-width:2;stroke-linecap:round;stroke-linejoin:round;stroke-miterlimit:10;stroke-dasharray:10,7;}
	.st1658{opacity:0.1;fill:#32324C;}
	.st1659{fill:#FFAF82;}
	.st1660{fill:#F88968;}
	.st1661{fill:#00784E;}
	.st1662{fill:#050705;}
	.st1663{fill:#DE9D01;}
	.st1664{fill:#BF8005;}
	.st1665{fill:#2C2C2C;}
	.st1666{fill:#009762;}
	.st1667{fill:#E2E2E2;}
	.st1668{fill:#32324C;}
	.st1669{fill:#920E08;}
	.st1670{fill:#F85C66;}
	.st1671{fill:url(#SVGID_731_);}
	.st1672{fill:#FFA378;}
	.st1673{fill:url(#SVGID_732_);}
</style>
<g>
	<path class="st1387" d="M654.68,194.76c-10.18-12.92-23.59-22.58-37.92-30.41c-15.53-8.49-32.72-13.63-47.78-23.17
		c-12.29-7.78-23.23-18.38-28.97-31.75c-4.44-10.35-5.61-21.91-10.4-32.1c-9.47-20.15-31.68-29.97-53.02-30.88
		c-23-0.98-47.68,5.94-68.62,15.09c-23.31,10.18-43.7,24.98-65.96,36.99c-21.59,11.64-45.03,19.16-69.5,21.32
		c-34.94,3.08-69.94-1.12-104.79-3.51c-44.58-3.05-116.43-3.24-134.94,48.24c-7.72,21.47-2.12,46.39,7.03,66.5
		c11.55,25.39,31.18,45.44,43.32,70.25c12.02,24.58,18.63,53.57,4.41,78.52c-11.32,19.86-31.85,32.12-45,50.58
		c-18.78,26.36-23.14,63.48,3.17,86.83c3.95,3.51,13.92,10.58,22.64,14.51c42.2-3.04,152.38-5.2,281.66-5.2
		c120.32,0,224.09,1.88,271.91,4.58c11.43-18.12,20.46-39.82,10.3-60.42c-10.86-22.02-38.72-33.34-41.29-59.78
		c-0.95-9.76,2.17-19.5,6.5-28.3c15.83-32.24,45.56-54.95,62.29-86.8C677.18,262.61,678.75,225.31,654.68,194.76z"/>
	<g>
		<g>
			<rect x="314.95" y="414.79" class="st1388" width="70.1" height="104.23"/>
			<rect x="314.95" y="414.79" class="st1389" width="70.1" height="31.8"/>
			<path class="st1390" d="M592.22,121.54H107.78c-3.42,0-6.2,2.78-6.2,6.2v301.77c0,3.42,2.78,6.2,6.2,6.2h484.44
				c3.42,0,6.2-2.78,6.2-6.2V127.75C598.42,124.33,595.64,121.54,592.22,121.54z"/>
			<path class="st1388" d="M593.47,122.23H106.53c-2.35,0-4.26,1.91-4.26,4.26v304.28c0,2.35,1.91,4.26,4.26,4.26h486.94
				c2.35,0,4.26-1.91,4.26-4.26V126.49C597.73,124.14,595.83,122.23,593.47,122.23z"/>
			<rect x="107.76" y="127.52" class="st1388" width="484.49" height="280.24"/>
			<g>
				<g>
					<rect x="120.15" y="141.43" class="st1391" width="459.71" height="252.43"/>
					<rect x="118.35" y="139.63" class="st2" width="3.59" height="3.59"/>
					<rect x="118.35" y="392.06" class="st2" width="3.59" height="3.59"/>
					<rect x="578.06" y="139.63" class="st2" width="3.59" height="3.59"/>
					<rect x="578.06" y="392.06" class="st2" width="3.59" height="3.59"/>
				</g>
				<path class="st1392" d="M569.98,146.33H130.02c-2.45,0-4.43,1.99-4.43,4.43v232.67c0,2.45,1.99,4.43,4.43,4.43h439.95
					c2.45,0,4.43-1.99,4.43-4.43V150.76C574.41,148.32,572.42,146.33,569.98,146.33z"/>
				<path class="st1393" d="M568.68,146.33H131.32c-3.16,0-5.73,2.56-5.73,5.73v13.64h448.82v-13.64
					C574.41,148.9,571.85,146.33,568.68,146.33z"/>
				<g>
					<circle class="st1394" cx="134.3" cy="157.51" r="2.83"/>
					<path class="st1395" d="M147.91,157.51c0-1.56-1.27-2.83-2.83-2.83c-1.56,0-2.83,1.27-2.83,2.83c0,1.56,1.27,2.83,2.83,2.83
						C146.64,160.34,147.91,159.07,147.91,157.51z"/>
					<circle class="st1390" cx="155.86" cy="157.51" r="2.83"/>
				</g>
			</g>
			<g>
				<rect x="335.21" y="248.08" class="st2" width="199.88" height="127.6"/>
				<rect x="337.43" y="250.3" class="st1390" width="195.44" height="123.15"/>
				<path class="st2" d="M492.83,292.36c-3.55,0-6.6,2.09-8,5.11c-0.19-0.01-0.38-0.02-0.57-0.02c-3.64,0-6.76,2.23-8.07,5.39
					c-0.24-0.03-0.48-0.05-0.73-0.05c-3.34,0-6.04,2.71-6.04,6.04c0,3.34,2.71,6.04,6.04,6.04h34.8c3.31,0,5.99-2.68,5.99-5.99
					c0-3.31-2.68-5.99-5.99-5.99c-0.25,0-0.5,0.02-0.74,0.05c-1.29-3.22-4.43-5.49-8.11-5.49c-0.19,0-0.38,0.01-0.57,0.02
					C499.43,294.45,496.37,292.36,492.83,292.36L492.83,292.36z"/>
				<path class="st1396" d="M486.97,335.64c0-28.62-23.2-51.82-51.82-51.82c-28.62,0-51.82,23.2-51.82,51.82
					C383.33,364.26,486.97,364.26,486.97,335.64z"/>
				<path class="st2" d="M381.03,295.57c-3.55,0-6.6,2.09-8,5.11c-0.19-0.01-0.38-0.02-0.57-0.02c-3.64,0-6.76,2.23-8.07,5.39
					c-0.24-0.03-0.48-0.05-0.73-0.05c-3.34,0-6.04,2.71-6.04,6.04c0,3.34,2.71,6.04,6.04,6.04h34.8c3.31,0,5.99-2.68,5.99-5.99
					c0-3.31-2.68-5.99-5.99-5.99c-0.25,0-0.5,0.02-0.74,0.05c-1.29-3.22-4.43-5.49-8.11-5.49c-0.19,0-0.38,0.01-0.57,0.02
					C387.64,297.66,384.58,295.57,381.03,295.57L381.03,295.57z"/>
				<path class="st2" d="M409.11,266.19c-1.62,0-3.02,0.96-3.66,2.34c-0.09-0.01-0.17-0.01-0.26-0.01c-1.66,0-3.09,1.02-3.69,2.46
					c-0.11-0.01-0.22-0.02-0.33-0.02c-1.52,0-2.76,1.24-2.76,2.76c0,1.52,1.24,2.76,2.76,2.76h15.9c1.51,0,2.74-1.23,2.74-2.74
					c0-1.51-1.23-2.74-2.74-2.74c-0.11,0-0.23,0.01-0.34,0.02c-0.59-1.47-2.02-2.51-3.71-2.51c-0.09,0-0.17,0-0.26,0.01
					C412.13,267.14,410.73,266.19,409.11,266.19L409.11,266.19z"/>
				<path class="st2" d="M445.16,263.07c-0.86,0-1.61,0.51-1.95,1.24c-0.05,0-0.09-0.01-0.14-0.01c-0.89,0-1.64,0.54-1.96,1.31
					c-0.06-0.01-0.12-0.01-0.18-0.01c-0.81,0-1.47,0.66-1.47,1.47c0,0.81,0.66,1.47,1.47,1.47h8.46c0.81,0,1.46-0.65,1.46-1.46
					c0-0.81-0.65-1.46-1.46-1.46c-0.06,0-0.12,0.01-0.18,0.01c-0.31-0.78-1.08-1.34-1.97-1.34c-0.05,0-0.09,0-0.14,0.01
					C446.76,263.58,446.02,263.07,445.16,263.07L445.16,263.07z"/>
				<path class="st2" d="M510.55,271c-0.86,0-1.61,0.51-1.95,1.24c-0.05,0-0.09-0.01-0.14-0.01c-0.89,0-1.64,0.54-1.96,1.31
					c-0.06-0.01-0.12-0.01-0.18-0.01c-0.81,0-1.47,0.66-1.47,1.47c0,0.81,0.66,1.47,1.47,1.47h8.46c0.81,0,1.46-0.65,1.46-1.46
					c0-0.8-0.65-1.46-1.46-1.46c-0.06,0-0.12,0-0.18,0.01c-0.31-0.78-1.08-1.34-1.97-1.34c-0.05,0-0.09,0-0.14,0.01
					C512.15,271.51,511.41,271,510.55,271L510.55,271z"/>
				<path class="st2" d="M358.63,277.44c-0.86,0-1.61,0.51-1.95,1.24c-0.05,0-0.09-0.01-0.14-0.01c-0.89,0-1.64,0.54-1.96,1.31
					c-0.06-0.01-0.12-0.01-0.18-0.01c-0.81,0-1.47,0.66-1.47,1.47c0,0.81,0.66,1.47,1.47,1.47h8.46c0.81,0,1.46-0.65,1.46-1.46
					c0-0.81-0.65-1.46-1.46-1.46c-0.06,0-0.12,0.01-0.18,0.01c-0.31-0.78-1.08-1.34-1.97-1.34c-0.05,0-0.09,0-0.14,0.01
					C360.24,277.95,359.49,277.44,358.63,277.44L358.63,277.44z"/>
				<rect x="337.43" y="335.33" class="st1393" width="195.44" height="38.13"/>
				<rect x="332.28" y="245.61" class="st1391" width="205.74" height="132.54"/>
				<rect x="330.49" y="243.43" class="st2" width="3.59" height="3.59"/>
				<rect x="330.49" y="376.35" class="st2" width="3.59" height="3.59"/>
				<rect x="536.22" y="243.43" class="st2" width="3.59" height="3.59"/>
				<rect x="536.22" y="376.35" class="st2" width="3.59" height="3.59"/>
			</g>
			<g>
				<rect x="335.21" y="182.19" class="st1396" width="53.84" height="54.17"/>
				<rect x="335.21" y="182.19" class="st1397" width="53.84" height="21.12"/>
				<rect x="408.23" y="182.19" class="st1393" width="53.84" height="54.17"/>
				<rect x="481.25" y="182.19" class="st1395" width="53.84" height="54.17"/>
				<rect x="332.28" y="178.88" class="st1391" width="205.74" height="60.74"/>
				<rect x="330.49" y="176.69" class="st2" width="3.59" height="3.59"/>
				<rect x="330.49" y="237.82" class="st2" width="3.59" height="3.59"/>
				<rect x="536.22" y="176.69" class="st2" width="3.59" height="3.59"/>
				<rect x="536.22" y="237.82" class="st2" width="3.59" height="3.59"/>
				<circle class="st2" cx="362.13" cy="203.31" r="13.62"/>
				<path class="st1390" d="M362.16,216.9c3.7,0,7.05-1.48,9.5-3.87c-1.19-4.53-4.99-7.84-9.5-7.84c-4.52,0-8.32,3.32-9.5,7.84
					C355.12,215.42,358.47,216.9,362.16,216.9z"/>
				<path class="st1397" d="M362.16,205.18c-1.38,0-2.68,0.31-3.87,0.87c1.03,0.73,2.42,1.08,3.84,1.08c1.43,0,2.84-0.34,3.87-1.1
					C364.82,205.49,363.53,205.18,362.16,205.18z"/>
				<path class="st1390" d="M368.01,201.1c0-3.25-2.63-5.88-5.88-5.88c-3.25,0-5.88,2.63-5.88,5.88c0,3.25,2.63,5.88,5.88,5.88
					C365.38,206.98,368.01,204.35,368.01,201.1z"/>
				<path class="st1388" d="M366.63,220.57h-21.98c-0.72,0-1.3,0.58-1.3,1.3l0,0c0,0.72,0.58,1.3,1.3,1.3h21.98
					c0.72,0,1.3-0.58,1.3-1.3l0,0C367.93,221.15,367.35,220.57,366.63,220.57z"/>
				<path class="st2" d="M360.33,225.3h-13.35c-0.51,0-0.92,0.41-0.92,0.92l0,0c0,0.51,0.41,0.92,0.92,0.92h13.35
					c0.51,0,0.92-0.41,0.92-0.92l0,0C361.25,225.71,360.84,225.3,360.33,225.3z"/>
				<path class="st2" d="M377.35,225.3h-13.35c-0.51,0-0.92,0.41-0.92,0.92l0,0c0,0.51,0.41,0.92,0.92,0.92h13.35
					c0.51,0,0.92-0.41,0.92-0.92l0,0C378.26,225.71,377.85,225.3,377.35,225.3z"/>
				<path class="st2" d="M348.6,228.33h-4.49c-0.51,0-0.92,0.41-0.92,0.92l0,0c0,0.51,0.41,0.92,0.92,0.92h4.49
					c0.51,0,0.92-0.41,0.92-0.92l0,0C349.51,228.74,349.1,228.33,348.6,228.33z"/>
				<path class="st2" d="M357.94,228.33h-6.38c-0.51,0-0.92,0.41-0.92,0.92l0,0c0,0.51,0.41,0.92,0.92,0.92h6.38
					c0.51,0,0.92-0.41,0.92-0.92l0,0C358.86,228.74,358.45,228.33,357.94,228.33z"/>
				<path class="st2" d="M380.22,228.33h-19.28c-0.51,0-0.92,0.41-0.92,0.92l0,0c0,0.51,0.41,0.92,0.92,0.92h19.28
					c0.51,0,0.92-0.41,0.92-0.92l0,0C381.14,228.74,380.73,228.33,380.22,228.33z"/>
				<path class="st1388" d="M379.68,220.57h-7.42c-0.72,0-1.3,0.58-1.3,1.3l0,0c0,0.72,0.58,1.3,1.3,1.3h7.42
					c0.72,0,1.3-0.58,1.3-1.3l0,0C380.98,221.15,380.4,220.57,379.68,220.57z"/>
				<rect x="408.23" y="182.19" class="st1397" width="53.84" height="21.12"/>
				<circle class="st2" cx="435.15" cy="203.31" r="13.62"/>
				<path class="st1390" d="M435.18,216.9c3.7,0,7.05-1.48,9.5-3.87c-1.19-4.53-4.99-7.84-9.5-7.84c-4.52,0-8.32,3.32-9.5,7.84
					C428.14,215.42,431.49,216.9,435.18,216.9z"/>
				<path class="st1397" d="M435.18,205.18c-1.38,0-2.68,0.31-3.87,0.87c1.03,0.73,2.42,1.08,3.84,1.08c1.43,0,2.84-0.34,3.87-1.1
					C437.84,205.49,436.54,205.18,435.18,205.18z"/>
				<path class="st1390" d="M441.03,201.1c0-3.25-2.63-5.88-5.88-5.88c-3.25,0-5.88,2.63-5.88,5.88c0,3.25,2.63,5.88,5.88,5.88
					C438.39,206.98,441.03,204.35,441.03,201.1z"/>
				<path class="st1388" d="M439.65,220.57h-21.98c-0.72,0-1.3,0.58-1.3,1.3l0,0c0,0.72,0.58,1.3,1.3,1.3h21.98
					c0.72,0,1.3-0.58,1.3-1.3l0,0C440.95,221.15,440.37,220.57,439.65,220.57z"/>
				<path class="st2" d="M433.35,225.3H420c-0.51,0-0.92,0.41-0.92,0.92l0,0c0,0.51,0.41,0.92,0.92,0.92h13.35
					c0.51,0,0.92-0.41,0.92-0.92l0,0C434.27,225.71,433.86,225.3,433.35,225.3z"/>
				<path class="st2" d="M450.37,225.3h-13.35c-0.51,0-0.92,0.41-0.92,0.92l0,0c0,0.51,0.41,0.92,0.92,0.92h13.35
					c0.51,0,0.92-0.41,0.92-0.92l0,0C451.28,225.71,450.87,225.3,450.37,225.3z"/>
				<path class="st2" d="M421.62,228.33h-4.49c-0.51,0-0.92,0.41-0.92,0.92l0,0c0,0.51,0.41,0.92,0.92,0.92h4.49
					c0.51,0,0.92-0.41,0.92-0.92l0,0C422.53,228.74,422.12,228.33,421.62,228.33z"/>
				<path class="st2" d="M430.96,228.33h-6.38c-0.51,0-0.92,0.41-0.92,0.92l0,0c0,0.51,0.41,0.92,0.92,0.92h6.38
					c0.51,0,0.92-0.41,0.92-0.92l0,0C431.88,228.74,431.47,228.33,430.96,228.33z"/>
				<path class="st2" d="M453.24,228.33h-19.28c-0.51,0-0.92,0.41-0.92,0.92l0,0c0,0.51,0.41,0.92,0.92,0.92h19.28
					c0.51,0,0.92-0.41,0.92-0.92l0,0C454.16,228.74,453.75,228.33,453.24,228.33z"/>
				<path class="st1388" d="M452.7,220.57h-7.42c-0.72,0-1.3,0.58-1.3,1.3l0,0c0,0.72,0.58,1.3,1.3,1.3h7.42
					c0.72,0,1.3-0.58,1.3-1.3l0,0C454,221.15,453.42,220.57,452.7,220.57z"/>
				<rect x="481.25" y="182.19" class="st1397" width="53.84" height="21.12"/>
				<circle class="st2" cx="508.17" cy="203.31" r="13.62"/>
				<path class="st1390" d="M508.2,216.9c3.7,0,7.05-1.48,9.5-3.87c-1.19-4.53-4.99-7.84-9.5-7.84c-4.52,0-8.32,3.32-9.5,7.84
					C501.16,215.42,504.5,216.9,508.2,216.9z"/>
				<path class="st1397" d="M508.2,205.18c-1.38,0-2.68,0.31-3.87,0.87c1.03,0.73,2.42,1.08,3.84,1.08c1.43,0,2.84-0.34,3.87-1.1
					C510.86,205.49,509.56,205.18,508.2,205.18z"/>
				<path class="st1390" d="M514.04,201.1c0-3.25-2.63-5.88-5.88-5.88c-3.25,0-5.88,2.63-5.88,5.88c0,3.25,2.63,5.88,5.88,5.88
					C511.41,206.98,514.04,204.35,514.04,201.1z"/>
				<path class="st1388" d="M512.67,220.57h-21.98c-0.72,0-1.3,0.58-1.3,1.3l0,0c0,0.72,0.58,1.3,1.3,1.3h21.98
					c0.72,0,1.3-0.58,1.3-1.3l0,0C513.97,221.15,513.39,220.57,512.67,220.57z"/>
				<path class="st2" d="M506.37,225.3h-13.35c-0.51,0-0.92,0.41-0.92,0.92l0,0c0,0.51,0.41,0.92,0.92,0.92h13.35
					c0.51,0,0.92-0.41,0.92-0.92l0,0C507.29,225.71,506.88,225.3,506.37,225.3z"/>
				<path class="st2" d="M523.38,225.3h-13.35c-0.51,0-0.92,0.41-0.92,0.92l0,0c0,0.51,0.41,0.92,0.92,0.92h13.35
					c0.51,0,0.92-0.41,0.92-0.92l0,0C524.3,225.71,523.89,225.3,523.38,225.3z"/>
				<path class="st2" d="M494.64,228.33h-4.49c-0.51,0-0.92,0.41-0.92,0.92l0,0c0,0.51,0.41,0.92,0.92,0.92h4.49
					c0.51,0,0.92-0.41,0.92-0.92l0,0C495.55,228.74,495.14,228.33,494.64,228.33z"/>
				<path class="st2" d="M503.98,228.33h-6.38c-0.51,0-0.92,0.41-0.92,0.92l0,0c0,0.51,0.41,0.92,0.92,0.92h6.38
					c0.51,0,0.92-0.41,0.92-0.92l0,0C504.9,228.74,504.49,228.33,503.98,228.33z"/>
				<path class="st2" d="M526.26,228.33h-19.28c-0.51,0-0.92,0.41-0.92,0.92l0,0c0,0.51,0.41,0.92,0.92,0.92h19.28
					c0.51,0,0.92-0.41,0.92-0.92l0,0C527.18,228.74,526.77,228.33,526.26,228.33z"/>
				<path class="st1388" d="M525.72,220.57h-7.42c-0.72,0-1.3,0.58-1.3,1.3l0,0c0,0.72,0.58,1.3,1.3,1.3h7.42
					c0.72,0,1.3-0.58,1.3-1.3l0,0C527.02,221.15,526.44,220.57,525.72,220.57z"/>
			</g>
			<g>
				<polygon class="st1390" points="159.87,179.2 159.87,375.68 301.72,375.68 301.72,219.65 261.28,179.2 				"/>
				<polygon class="st2" points="261.28,219.65 301.72,219.65 261.28,179.2 				"/>
				<text transform="matrix(1 0 0 1 184.0453 280.1807)" class="st1392 st1398 st1399">CMS</text>
				<g>
					<path class="st1395" d="M237.34,293.67h-51.43c-1.89,0-3.41,1.53-3.41,3.41l0,0c0,1.89,1.53,3.41,3.41,3.41h51.43
						c1.89,0,3.41-1.53,3.41-3.41l0,0C240.75,295.19,239.22,293.67,237.34,293.67z"/>
					<path class="st1395" d="M275.68,293.67h-24.33c-1.89,0-3.41,1.53-3.41,3.41l0,0c0,1.89,1.53,3.41,3.41,3.41h24.33
						c1.89,0,3.41-1.53,3.41-3.41l0,0C279.1,295.19,277.57,293.67,275.68,293.67z"/>
					<path class="st2" d="M240.6,308.19h-63.85c-0.83,0-1.51,0.67-1.51,1.51l0,0c0,0.83,0.68,1.51,1.51,1.51h63.85
						c0.83,0,1.51-0.68,1.51-1.51l0,0C242.11,308.86,241.43,308.19,240.6,308.19z"/>
					<path class="st2" d="M222.18,316.21h-34.51c-0.83,0-1.51,0.67-1.51,1.51l0,0c0,0.83,0.67,1.51,1.51,1.51h34.51
						c0.83,0,1.51-0.68,1.51-1.51l0,0C223.68,316.89,223.01,316.21,222.18,316.21z"/>
					<path class="st2" d="M269.61,316.21H227.5c-0.83,0-1.51,0.67-1.51,1.51l0,0c0,0.83,0.68,1.51,1.51,1.51h42.11
						c0.83,0,1.51-0.68,1.51-1.51l0,0C271.12,316.89,270.44,316.21,269.61,316.21z"/>
					<path class="st2" d="M222.18,340.44h-34.51c-0.83,0-1.51,0.67-1.51,1.51l0,0c0,0.83,0.67,1.51,1.51,1.51h34.51
						c0.83,0,1.51-0.67,1.51-1.51l0,0C223.68,341.11,223.01,340.44,222.18,340.44z"/>
					<path class="st2" d="M269.61,340.44H227.5c-0.83,0-1.51,0.67-1.51,1.51l0,0c0,0.83,0.68,1.51,1.51,1.51h42.11
						c0.83,0,1.51-0.67,1.51-1.51l0,0C271.12,341.11,270.44,340.44,269.61,340.44z"/>
					<path class="st2" d="M244.88,324.24h-63.85c-0.83,0-1.51,0.68-1.51,1.51l0,0c0,0.83,0.67,1.51,1.51,1.51h63.85
						c0.83,0,1.51-0.67,1.51-1.51l0,0C246.39,324.92,245.72,324.24,244.88,324.24z"/>
					<path class="st2" d="M279.56,324.24h-28.67c-0.83,0-1.51,0.68-1.51,1.51l0,0c0,0.83,0.67,1.51,1.51,1.51h28.67
						c0.83,0,1.51-0.67,1.51-1.51l0,0C281.06,324.92,280.39,324.24,279.56,324.24z"/>
					<path class="st2" d="M224.92,332.27h-30.37c-0.83,0-1.51,0.68-1.51,1.51l0,0c0,0.83,0.67,1.51,1.51,1.51h30.37
						c0.83,0,1.51-0.67,1.51-1.51l0,0C226.43,332.94,225.76,332.27,224.92,332.27z"/>
					<path class="st2" d="M247.87,332.27h-17.35c-0.83,0-1.51,0.68-1.51,1.51l0,0c0,0.83,0.67,1.51,1.51,1.51h17.35
						c0.83,0,1.51-0.67,1.51-1.51l0,0C249.38,332.94,248.71,332.27,247.87,332.27z"/>
					<path class="st2" d="M262.01,332.27h-8.29c-0.83,0-1.51,0.68-1.51,1.51l0,0c0,0.83,0.68,1.51,1.51,1.51h8.29
						c0.83,0,1.51-0.67,1.51-1.51l0,0C263.52,332.94,262.84,332.27,262.01,332.27z"/>
					<path class="st2" d="M231.64,351.82h30.37c0.83,0,1.51-0.67,1.51-1.51l0,0c0-0.83-0.67-1.51-1.51-1.51h-30.37
						c-0.83,0-1.51,0.68-1.51,1.51l0,0C230.13,351.14,230.8,351.82,231.64,351.82z"/>
					<path class="st2" d="M208.69,351.82h17.35c0.83,0,1.51-0.67,1.51-1.51l0,0c0-0.83-0.67-1.51-1.51-1.51h-17.35
						c-0.83,0-1.51,0.68-1.51,1.51l0,0C207.18,351.14,207.86,351.82,208.69,351.82z"/>
					<path class="st2" d="M194.55,351.82h8.29c0.83,0,1.51-0.67,1.51-1.51l0,0c0-0.83-0.68-1.51-1.51-1.51h-8.29
						c-0.83,0-1.51,0.68-1.51,1.51l0,0C193.04,351.14,193.72,351.82,194.55,351.82z"/>
					<path class="st2" d="M284.84,308.19h-37.62c-0.83,0-1.51,0.67-1.51,1.51l0,0c0,0.83,0.67,1.51,1.51,1.51h37.62
						c0.83,0,1.51-0.68,1.51-1.51l0,0C286.34,308.86,285.67,308.19,284.84,308.19z"/>
				</g>
			</g>
			<g class="st1400">
				<polygon class="st2" points="146.58,127.52 107.76,166.35 107.76,407.76 134.1,407.76 414.34,127.52 				"/>
				<polygon class="st2" points="435.66,127.52 155.43,407.76 201.75,407.76 481.98,127.52 				"/>
				<polygon class="st2" points="503.31,127.52 223.07,407.76 490.83,407.76 592.24,306.34 592.24,127.52 				"/>
				<polygon class="st2" points="558.47,407.76 592.24,373.99 592.24,327.67 512.15,407.76 				"/>
			</g>
			<path class="st1393" d="M592.05,127.72v279.85h-484.1V127.72H592.05 M592.24,127.52H107.76v280.24h484.49V127.52L592.24,127.52z"
				/>
			<path class="st2" d="M102.27,429.52c0,3.05,2.47,5.52,5.52,5.52h484.44c3.05,0,5.52-2.47,5.52-5.52v-17.09H102.27V429.52z"/>
			<path class="st1392" d="M447.83,513.29H252.17c-3.16,0-5.73,2.57-5.73,5.73l0,0c0,3.16,2.57,5.73,5.73,5.73h195.67
				c3.16,0,5.73-2.57,5.73-5.73l0,0C453.56,515.86,451,513.29,447.83,513.29z"/>
			<path class="st1393" d="M252.17,513.69h195.67c3.1,0,5.6,2.46,5.71,5.53c0-0.07,0.02-0.13,0.02-0.2c0-3.16-2.57-5.73-5.73-5.73
				H252.17c-3.16,0-5.73,2.57-5.73,5.73c0,0.07,0.02,0.13,0.02,0.2C246.56,516.15,249.07,513.69,252.17,513.69z"/>
			<path class="st1388" d="M447.83,521.88H252.17c-2.67,0-4.89-1.83-5.53-4.29c-0.12,0.46-0.2,0.94-0.2,1.43
				c0,3.16,2.57,5.73,5.73,5.73h195.67c3.16,0,5.73-2.57,5.73-5.73c0-0.5-0.08-0.97-0.2-1.43
				C452.72,520.05,450.5,521.88,447.83,521.88z"/>
			<g>
				<path class="st2" d="M667.07,524.75H32.93c-2.66,0-4.81,2.16-4.81,4.81c0,2.66,2.16,4.81,4.81,4.81h63.83
					c2.66,0,4.81,2.16,4.81,4.81s-2.16,4.81-4.81,4.81h-15.8c-2.66,0-4.81,2.16-4.81,4.81s2.16,4.81,4.81,4.81H590.1
					c2.66,0,4.81-2.16,4.81-4.81s-2.16-4.81-4.81-4.81h-39.33c-2.66,0-4.81-2.16-4.81-4.81s2.16-4.81,4.81-4.81h116.31
					c2.66,0,4.81-2.16,4.81-4.81C671.88,526.91,669.73,524.75,667.07,524.75z"/>
				<path class="st2" d="M622.9,544.01h-15.25c-2.66,0-4.81,2.16-4.81,4.81s2.16,4.81,4.81,4.81h15.25c2.66,0,4.81-2.16,4.81-4.81
					S625.56,544.01,622.9,544.01z"/>
			</g>
		</g>
		<g>
			<g>
				<path class="st2" d="M127.86,323.42c8.92,0,17.12,5.24,20.88,13.34c0.95,2.04,2.99,3.33,5.21,3.33c0.12,0,0.25,0,0.37-0.01
					c0.58-0.04,1.05-0.05,1.48-0.05c9.35,0,17.63,5.61,21.1,14.3c0.88,2.2,3.01,3.61,5.33,3.61c0.23,0,0.47-0.01,0.71-0.04
					c0.67-0.08,1.21-0.12,1.71-0.12c7.61,0,13.79,6.19,13.79,13.79c0,7.61-6.19,13.79-13.79,13.79H71.23
					c-7.69,0-13.95-6.26-13.95-13.95c0-7.69,6.26-13.95,13.95-13.95c0.5,0,1.04,0.04,1.69,0.12c0.23,0.03,0.46,0.04,0.69,0.04
					c2.3,0,4.41-1.38,5.31-3.55c3.53-8.53,11.77-14.04,20.99-14.04c0.43,0,0.9,0.02,1.48,0.05c0.12,0.01,0.25,0.01,0.37,0.01
					c2.22,0,4.26-1.29,5.21-3.33C110.74,328.66,118.94,323.42,127.86,323.42 M127.86,317.68c-11.56,0-21.52,6.83-26.09,16.67
					c-0.61-0.04-1.23-0.07-1.85-0.07c-11.86,0-22.03,7.26-26.3,17.58c-0.78-0.09-1.58-0.16-2.38-0.16c-10.88,0-19.7,8.82-19.7,19.7
					c0,10.88,8.82,19.7,19.7,19.7h113.42c10.79,0,19.54-8.75,19.54-19.54c0-10.79-8.75-19.54-19.54-19.54
					c-0.82,0-1.62,0.07-2.42,0.16c-4.19-10.49-14.44-17.91-26.43-17.91c-0.62,0-1.24,0.03-1.85,0.07
					C149.38,324.51,139.42,317.68,127.86,317.68L127.86,317.68z"/>
				<path class="st2" d="M577.72,193.28c7.22,0,13.86,4.24,16.91,10.8c0.77,1.65,2.42,2.69,4.22,2.69c0.1,0,0.2,0,0.3-0.01
					c0.47-0.03,0.85-0.04,1.2-0.04c7.57,0,14.27,4.54,17.08,11.58c0.71,1.78,2.44,2.93,4.32,2.93c0.19,0,0.38-0.01,0.57-0.04
					c0.54-0.07,0.98-0.1,1.39-0.1c6.16,0,11.17,5.01,11.17,11.17c0,6.16-5.01,11.17-11.17,11.17h-91.84c-6.23,0-11.3-5.07-11.3-11.3
					c0-6.23,5.07-11.3,11.3-11.3c0.4,0,0.84,0.03,1.37,0.09c0.19,0.02,0.37,0.03,0.56,0.03c1.86,0,3.57-1.12,4.3-2.87
					c2.86-6.9,9.53-11.37,17-11.37c0.35,0,0.73,0.01,1.2,0.04c0.1,0.01,0.2,0.01,0.3,0.01c1.8,0,3.45-1.04,4.22-2.69
					C563.86,197.52,570.5,193.28,577.72,193.28 M577.72,188.63c-9.36,0-17.43,5.53-21.13,13.5c-0.5-0.03-1-0.05-1.5-0.05
					c-9.61,0-17.84,5.88-21.3,14.24c-0.63-0.08-1.28-0.13-1.93-0.13c-8.81,0-15.95,7.14-15.95,15.95s7.14,15.95,15.95,15.95h91.84
					c8.74,0,15.82-7.08,15.82-15.82c0-8.74-7.08-15.82-15.82-15.82c-0.66,0-1.31,0.05-1.96,0.13c-3.39-8.5-11.69-14.5-21.4-14.5
					c-0.5,0-1,0.02-1.5,0.05C595.15,194.16,587.08,188.63,577.72,188.63L577.72,188.63z"/>
			</g>
			<g>
				<g>
					<g>
						<path class="st1401" d="M561.33,397.47c-0.3-6.24-1.65-12.34-4.01-18.16l6.73-6.06l-13.06-18.7l-8.01,4.23
							c-4.65-4.22-9.91-7.59-15.67-10.02l0.47-9.03l-22.46-3.99l-2.67,8.64c-6.24,0.31-12.34,1.65-18.16,4.02l-6.06-6.73
							l-18.7,13.06l4.23,8.01c-4.22,4.65-7.59,9.91-10.02,15.67l-9.03-0.47l-3.99,22.46l8.64,2.66c0.31,6.24,1.65,12.34,4.01,18.16
							l-6.73,6.06l13.06,18.7l8-4.23c4.65,4.22,9.91,7.59,15.67,10.02l-0.47,9.03l22.46,3.99l2.67-8.64
							c6.24-0.31,12.34-1.65,18.16-4.01l6.06,6.73l18.7-13.06l-4.23-8.01c4.22-4.65,7.59-9.91,10.02-15.67l9.03,0.47l3.99-22.46
							L561.33,397.47z M544.91,407.12c-3.93,22.13-25.13,36.94-47.27,33.01c-22.13-3.93-36.94-25.13-33.01-47.27
							c3.93-22.13,25.13-36.94,47.27-33.01C534.04,363.78,548.84,384.99,544.91,407.12z"/>
						<path class="st1401" d="M510.95,365.19c-19.19-3.41-37.58,9.43-40.99,28.63c-3.41,19.19,9.43,37.58,28.63,40.99
							c19.19,3.41,37.58-9.43,40.98-28.63C542.99,386.98,530.15,368.6,510.95,365.19z"/>
					</g>
					<g>
						<path class="st1395" d="M559.44,398.92c-0.17-7.06-1.73-13.87-4.45-20.13l6.48-5.83l-11.1-15.9l-7.71,4.07
							c-4.94-4.71-10.8-8.52-17.37-11.1l0.46-8.7l-19.09-3.39l-2.57,8.32c-7.06,0.17-13.87,1.73-20.13,4.45l-5.83-6.48l-15.9,11.1
							l4.07,7.71c-4.71,4.94-8.52,10.8-11.1,17.37l-8.7-0.46l-3.39,19.09l8.32,2.57c0.17,7.06,1.73,13.87,4.45,20.13l-6.48,5.83
							l11.1,15.9l7.71-4.07c4.94,4.71,10.8,8.52,17.37,11.11l-0.46,8.7l19.09,3.39l2.57-8.32c7.06-0.17,13.87-1.73,20.13-4.45
							l5.83,6.48l15.9-11.1l-4.07-7.71c4.71-4.94,8.52-10.8,11.1-17.37l8.7,0.46l3.39-19.09L559.44,398.92z M497.31,442.04
							c-23.22-4.12-38.71-26.29-34.58-49.51c4.12-23.22,26.29-38.71,49.51-34.58c23.22,4.12,38.71,26.29,34.58,49.51
							C542.7,430.68,520.53,446.17,497.31,442.04z"/>
						
							<ellipse transform="matrix(0.1142 -0.9935 0.9935 0.1142 49.7405 855.7748)" class="st1395" cx="504.77" cy="399.99" rx="33.41" ry="33.41"/>
					</g>
				</g>
				<g>
					<path class="st1402" d="M635.88,339.25l5.86-1.99l-3.31-16.07l-6.16,0.49c-1.69-3.6-3.91-6.87-6.61-9.76l2.73-5.54l-13.71-9.02
						l-4,4.7c-3.72-1.34-7.6-2.08-11.57-2.21l-1.99-5.86l-16.07,3.31l0.49,6.16c-3.6,1.69-6.87,3.91-9.76,6.61l-5.54-2.73
						l-9.02,13.71l4.7,4.01c-1.34,3.72-2.08,7.6-2.21,11.57l-5.86,1.98l3.31,16.07l6.16-0.49c1.69,3.6,3.91,6.87,6.61,9.76
						l-2.73,5.54l13.71,9.02l4.01-4.7c3.72,1.34,7.6,2.08,11.57,2.21l1.99,5.86l16.07-3.31l-0.49-6.16c3.6-1.69,6.87-3.91,9.76-6.61
						l5.54,2.73l9.02-13.71l-4.7-4C635.01,347.1,635.75,343.22,635.88,339.25z M618.69,351.57c-7.7,11.7-23.49,14.96-35.19,7.26
						c-5.67-3.73-9.55-9.45-10.92-16.09c-1.37-6.65-0.07-13.43,3.66-19.1c5.75-8.74,16-12.76,25.7-11.04
						c3.29,0.59,6.53,1.83,9.49,3.79C623.13,324.08,626.39,339.86,618.69,351.57z"/>
					<path class="st1396" d="M631.37,351.41c1.76-4.39,2.61-8.99,2.59-13.56l5.53-1.87l-2.62-12.72l-5.82,0.47
						c-1.79-4.2-4.39-8.1-7.74-11.43l2.58-5.23l-10.85-7.14l-3.78,4.44c-4.39-1.76-8.99-2.61-13.56-2.59l-1.87-5.53l-12.72,2.62
						l0.47,5.82c-4.2,1.79-8.1,4.39-11.43,7.74l-5.23-2.58l-7.14,10.85l4.44,3.78c-1.76,4.39-2.61,8.99-2.59,13.56l-5.53,1.87
						l2.62,12.72l5.82-0.47c1.79,4.2,4.39,8.1,7.74,11.43l-2.58,5.23l10.85,7.14l3.78-4.44c4.39,1.76,8.99,2.61,13.56,2.59
						l1.87,5.53l12.72-2.62l-0.47-5.82c4.2-1.79,8.1-4.39,11.43-7.74l5.23,2.58l7.14-10.85L631.37,351.41z M582.43,360.44
						c-12.62-8.3-16.11-25.26-7.81-37.88c8.3-12.62,25.26-16.11,37.88-7.81c12.62,8.3,16.11,25.26,7.81,37.88
						C612,365.25,595.05,368.75,582.43,360.44z"/>
				</g>
			</g>
			<g>
				<g>
					<path class="st1395" d="M289.13,88.28h-76.62c-3.21,0-5.81,2.6-5.81,5.81V149c0,3.21,2.6,5.81,5.81,5.81h76.62
						c3.21,0,5.81-2.6,5.81-5.81V94.09C294.94,90.88,292.34,88.28,289.13,88.28z"/>
					<rect x="210.75" y="101.04" class="st2" width="80.14" height="49.47"/>
					<g>
						<path class="st1393" d="M240.79,122.74l-11.04,3.79l11.04,3.79v6.2l-18.59-6.74v-6.49l18.59-6.74V122.74z"/>
						<path class="st1393" d="M253.38,108.6h7.29l-12.03,34.34h-7.29L253.38,108.6z"/>
						<path class="st1393" d="M279.45,123.29v6.49l-18.59,6.74v-6.2l11.05-3.79l-11.05-3.79v-6.19L279.45,123.29z"/>
					</g>
					<circle class="st1393" cx="229.02" cy="95.61" r="1.85"/>
					<circle class="st2" cx="220.81" cy="95.61" r="1.85"/>
					<circle class="st1394" cx="212.6" cy="95.61" r="1.85"/>
				</g>
				<g>
					<path class="st2" d="M388.33,88.28h-76.62c-3.21,0-5.81,2.6-5.81,5.81V149c0,3.21,2.6,5.81,5.81,5.81h76.62
						c3.21,0,5.81-2.6,5.81-5.81V94.09C394.13,90.88,391.53,88.28,388.33,88.28z"/>
					<rect x="309.95" y="101.04" class="st1392" width="80.14" height="49.47"/>
					<path class="st1393" d="M326.36,95.61c0-1.02,0.83-1.85,1.85-1.85c1.02,0,1.85,0.83,1.85,1.85c0,1.02-0.83,1.85-1.85,1.85
						C327.19,97.46,326.36,96.64,326.36,95.61z"/>
					<circle class="st1395" cx="320.01" cy="95.61" r="1.85"/>
					<circle class="st1394" cx="311.8" cy="95.61" r="1.85"/>
					<path class="st1393" d="M356.5,111.16h-36.46c-1.19,0-2.15,0.96-2.15,2.15l0,0c0,1.19,0.96,2.15,2.15,2.15h36.46
						c1.19,0,2.15-0.96,2.15-2.15l0,0C358.65,112.13,357.68,111.16,356.5,111.16z"/>
					<path class="st2" d="M346.05,119.01h-22.14c-0.84,0-1.52,0.68-1.52,1.52l0,0c0,0.84,0.68,1.52,1.52,1.52h22.14
						c0.84,0,1.52-0.68,1.52-1.52l0,0C347.58,119.7,346.89,119.01,346.05,119.01z"/>
					<path class="st2" d="M374.27,119.01h-22.14c-0.84,0-1.52,0.68-1.52,1.52l0,0c0,0.84,0.68,1.52,1.52,1.52h22.14
						c0.84,0,1.52-0.68,1.52-1.52l0,0C375.79,119.7,375.11,119.01,374.27,119.01z"/>
					<path class="st2" d="M326.59,124.04h-7.45c-0.84,0-1.52,0.68-1.52,1.52l0,0c0,0.84,0.68,1.52,1.52,1.52h7.45
						c0.84,0,1.52-0.68,1.52-1.52l0,0C328.11,124.72,327.43,124.04,326.59,124.04z"/>
					<path class="st2" d="M342.09,124.04H331.5c-0.84,0-1.52,0.68-1.52,1.52l0,0c0,0.84,0.68,1.52,1.52,1.52h10.59
						c0.84,0,1.52-0.68,1.52-1.52l0,0C343.61,124.72,342.93,124.04,342.09,124.04z"/>
					<path class="st2" d="M379.04,124.04h-31.98c-0.84,0-1.52,0.68-1.52,1.52l0,0c0,0.84,0.68,1.52,1.52,1.52h31.98
						c0.84,0,1.52-0.68,1.52-1.52l0,0C380.56,124.72,379.88,124.04,379.04,124.04z"/>
					<path class="st2" d="M352.12,137.88h22.14c0.84,0,1.52-0.68,1.52-1.52l0,0c0-0.84-0.68-1.52-1.52-1.52h-22.14
						c-0.84,0-1.52,0.68-1.52,1.52l0,0C350.6,137.2,351.28,137.88,352.12,137.88z"/>
					<path class="st2" d="M323.91,137.88h22.14c0.84,0,1.52-0.68,1.52-1.52l0,0c0-0.84-0.68-1.52-1.52-1.52h-22.14
						c-0.84,0-1.52,0.68-1.52,1.52l0,0C322.39,137.2,323.07,137.88,323.91,137.88z"/>
					<path class="st2" d="M371.59,132.85h7.45c0.84,0,1.52-0.68,1.52-1.52l0,0c0-0.84-0.68-1.52-1.52-1.52h-7.45
						c-0.84,0-1.52,0.68-1.52,1.52l0,0C370.07,132.17,370.75,132.85,371.59,132.85z"/>
					<path class="st2" d="M356.09,132.85h10.59c0.84,0,1.52-0.68,1.52-1.52l0,0c0-0.84-0.68-1.52-1.52-1.52h-10.59
						c-0.84,0-1.52,0.68-1.52,1.52l0,0C354.57,132.17,355.25,132.85,356.09,132.85z"/>
					<path class="st2" d="M319.14,132.85h31.98c0.84,0,1.52-0.68,1.52-1.52l0,0c0-0.84-0.68-1.52-1.52-1.52h-31.98
						c-0.84,0-1.52,0.68-1.52,1.52l0,0C317.61,132.17,318.3,132.85,319.14,132.85z"/>
					<path class="st1393" d="M378.14,111.16h-13.92c-1.19,0-2.15,0.96-2.15,2.15l0,0c0,1.19,0.96,2.15,2.15,2.15h13.92
						c1.19,0,2.15-0.96,2.15-2.15l0,0C380.29,112.13,379.33,111.16,378.14,111.16z"/>
				</g>
			</g>
			<g>
				<path class="st1393" d="M144.22,218.65l-89.5,83.16c-7.02,6.52-7.42,17.49-0.9,24.51l0,0c6.52,7.02,17.49,7.42,24.51,0.9
					l89.5-83.16c7.02-6.52,7.42-17.49,0.9-24.51l0,0C162.21,212.53,151.24,212.13,144.22,218.65z"/>
				<path class="st1392" d="M147.51,222.83L58.64,305.4c-4.87,4.53-5.15,12.15-0.63,17.02l0,0c4.53,4.87,12.15,5.15,17.02,0.63
					l88.87-82.57c4.87-4.53,5.15-12.15,0.63-17.02l0,0C160,218.58,152.38,218.3,147.51,222.83z"/>
				<path class="st1393" d="M62.78,306L62.78,306c-0.92,0.86-0.97,2.3-0.12,3.22l8.86,9.54c0.86,0.92,2.3,0.97,3.22,0.12l0,0
					c0.92-0.86,0.97-2.3,0.12-3.22L66,306.12C65.14,305.2,63.7,305.15,62.78,306z"/>
				<path class="st1393" d="M77.05,292.74L77.05,292.74c-0.92,0.86-0.97,2.3-0.12,3.22l8.86,9.54c0.86,0.92,2.3,0.97,3.22,0.12l0,0
					c0.92-0.86,0.97-2.3,0.12-3.22l-8.86-9.54C79.41,291.94,77.97,291.88,77.05,292.74z"/>
				<path class="st1393" d="M91.32,279.48L91.32,279.48c-0.92,0.86-0.97,2.3-0.12,3.22l8.86,9.54c0.86,0.92,2.3,0.97,3.22,0.12l0,0
					c0.92-0.86,0.97-2.3,0.12-3.22l-8.86-9.54C93.68,278.68,92.24,278.62,91.32,279.48z"/>
				<path class="st1393" d="M105.59,266.22L105.59,266.22c-0.92,0.86-0.97,2.3-0.12,3.22l8.86,9.54c0.86,0.92,2.3,0.97,3.22,0.12
					l0,0c0.92-0.86,0.97-2.3,0.12-3.22l-8.86-9.54C107.96,265.41,106.51,265.36,105.59,266.22z"/>
				<path class="st1393" d="M119.86,252.96L119.86,252.96c-0.92,0.86-0.97,2.3-0.12,3.22l8.86,9.54c0.86,0.92,2.3,0.97,3.22,0.12
					l0,0c0.92-0.86,0.97-2.3,0.12-3.22l-8.86-9.54C122.23,252.15,120.78,252.1,119.86,252.96z"/>
				<path class="st1393" d="M134.13,239.7L134.13,239.7c-0.92,0.86-0.97,2.3-0.12,3.22l8.86,9.54c0.86,0.92,2.3,0.97,3.22,0.12l0,0
					c0.92-0.86,0.97-2.3,0.12-3.22l-8.86-9.54C136.5,238.89,135.06,238.84,134.13,239.7z"/>
				<path class="st1403" d="M144.22,218.65l-9.83,9.13c1.38,5.72,4.19,11.18,8.48,15.79c4.29,4.62,9.53,7.82,15.13,9.62l9.83-9.13
					c7.02-6.52,7.42-17.49,0.9-24.51C162.21,212.53,151.24,212.13,144.22,218.65z"/>
				<path class="st1393" d="M180.81,230.26l-21.87-23.53l20.21-18.78c-11.14-3.66-23.87-1.32-33.07,7.23
					c-13.46,12.51-14.24,33.56-1.73,47.03c12.51,13.46,33.56,14.24,47.03,1.73c9.19-8.54,12.47-21.07,9.63-32.45L180.81,230.26z"/>
				<g class="st1">
					<path class="st2" d="M116.82,256.21l-28.29,26.28c-0.55,0.51-0.58,1.37-0.07,1.92c0.51,0.55,1.37,0.58,1.92,0.07l28.29-26.28
						c0.55-0.51,0.58-1.37,0.07-1.92C118.23,255.73,117.37,255.7,116.82,256.21z"/>
					<path class="st2" d="M130.98,243.05l-10.26,9.53c-0.55,0.51-0.58,1.37-0.07,1.92c0.51,0.55,1.37,0.58,1.92,0.07l10.26-9.53
						c0.55-0.51,0.58-1.37,0.07-1.92C132.39,242.57,131.53,242.54,130.98,243.05z"/>
				</g>
			</g>
		</g>
	</g>
	<g>
		<g>
			<path class="st1390" d="M223.52,478.89h-34.64c-1.51,0-2.73-1.22-2.73-2.73c0-1.51,1.22-2.73,2.73-2.73h14.81
				c1.51,0,2.73-1.22,2.73-2.73s-1.22-2.73-2.73-2.73h-94.03c-1.51,0-2.73,1.22-2.73,2.73s1.22,2.73,2.73,2.73h25
				c1.51,0,2.73,1.22,2.73,2.73c0,1.51-1.22,2.73-2.73,2.73h-5.17c-1.51,0-2.73,1.22-2.73,2.73s1.22,2.73,2.73,2.73h94.03
				c1.51,0,2.73-1.22,2.73-2.73S225.03,478.89,223.52,478.89z"/>
			<path class="st1390" d="M240.84,478.89h-8.1c-1.51,0-2.73,1.22-2.73,2.73s1.22,2.73,2.73,2.73h8.1c1.51,0,2.73-1.22,2.73-2.73
				S242.35,478.89,240.84,478.89z"/>
		</g>
		<g>
			<path class="st1390" d="M519.7,99.59h34.64c1.51,0,2.73,1.22,2.73,2.73c0,1.51-1.22,2.73-2.73,2.73h-14.81
				c-1.51,0-2.73,1.22-2.73,2.73c0,1.51,1.22,2.73,2.73,2.73h94.03c1.51,0,2.73-1.22,2.73-2.73c0-1.51-1.22-2.73-2.73-2.73h-25
				c-1.51,0-2.73-1.22-2.73-2.73c0-1.51,1.22-2.73,2.73-2.73h5.17c1.51,0,2.73-1.22,2.73-2.73c0-1.51-1.22-2.73-2.73-2.73H519.7
				c-1.51,0-2.73,1.22-2.73,2.73C516.97,98.36,518.19,99.59,519.7,99.59z"/>
			<path class="st1390" d="M627.28,99.59h8.1c1.51,0,2.73-1.22,2.73-2.73c0-1.51-1.22-2.73-2.73-2.73h-8.1
				c-1.51,0-2.73,1.22-2.73,2.73C624.55,98.36,625.77,99.59,627.28,99.59z"/>
			<path class="st1390" d="M501.28,110.51h13.71c1.51,0,2.73-1.22,2.73-2.73s-1.22-2.73-2.73-2.73h-13.71
				c-1.51,0-2.73,1.22-2.73,2.73S499.77,110.51,501.28,110.51z"/>
		</g>
	</g>
</g>
</svg>
