<?xml version="1.0" encoding="utf-8"?>
<!-- Generator: Adobe Illustrator 24.3.0, SVG Export Plug-In . SVG Version: 6.00 Build 0)  -->
<svg version="1.1" id="Layer_1" xmlns="http://www.w3.org/2000/svg" xmlns:xlink="http://www.w3.org/1999/xlink" x="0px" y="0px"
	 viewBox="0 0 700 600" style="enable-background:new 0 0 700 600;" xml:space="preserve">
<style type="text/css">
	.st0{fill:#E6E6E6;}
	.st1{opacity:0.2;}
	.st2{fill:#FFFFFF;}
	.st3{clip-path:url(#SVGID_2_);fill:#FFFFFF;}
	.st4{clip-path:url(#SVGID_2_);}
	.st5{opacity:0.8;}
	.st6{fill:#0A1E29;}
	.st7{fill:#E00022;}
	.st8{opacity:0.91;}
	.st9{fill:#0A1C2E;}
	.st10{fill:#787878;}
	.st11{clip-path:url(#SVGID_2_);fill:url(#SVGID_3_);}
	.st12{clip-path:url(#SVGID_2_);fill:url(#SVGID_4_);}
	.st13{clip-path:url(#SVGID_6_);fill:#FFFFFF;}
	.st14{clip-path:url(#SVGID_6_);}
	.st15{fill:#61A600;}
	.st16{clip-path:url(#SVGID_6_);fill:url(#SVGID_7_);}
	.st17{clip-path:url(#SVGID_6_);fill:url(#SVGID_8_);}
	.st18{clip-path:url(#SVGID_10_);fill:#FFFFFF;}
	.st19{clip-path:url(#SVGID_10_);}
	.st20{fill:#009EE0;}
	.st21{fill:#009ADB;}
	.st22{clip-path:url(#SVGID_10_);fill:url(#SVGID_11_);}
	.st23{clip-path:url(#SVGID_10_);fill:url(#SVGID_12_);}
	.st24{fill:#DDD5E1;}
	.st25{fill:#1B0043;}
	.st26{fill:#F4F5FB;}
	.st27{opacity:0.55;fill:#999999;}
	.st28{fill:#EAECF7;}
	.st29{fill:#7E7C79;}
	.st30{fill:#8F7C90;}
	.st31{fill:#B3A1BC;}
	.st32{fill:url(#SVGID_13_);}
	.st33{clip-path:url(#SVGID_15_);fill:url(#SVGID_16_);}
	.st34{fill:url(#SVGID_17_);}
	.st35{opacity:0.75;fill:#1B0043;}
	.st36{fill:url(#SVGID_18_);}
	.st37{opacity:0.55;fill:#F9D433;}
	.st38{opacity:0.5;fill:#FEC94E;}
	.st39{fill:#F9D433;}
	.st40{fill:url(#SVGID_19_);}
	.st41{fill:url(#SVGID_20_);}
	.st42{opacity:0.32;fill:url(#SVGID_21_);}
	.st43{opacity:0.12;fill:#285067;}
	.st44{fill:url(#SVGID_22_);}
	.st45{fill:url(#SVGID_23_);}
	.st46{fill:url(#SVGID_24_);}
	.st47{fill:#F3F3F3;}
	.st48{opacity:0.2;fill:#0B7199;}
	.st49{fill:#004566;}
	.st50{fill:#C2C1AD;}
	.st51{fill:#F2706E;}
	.st52{fill:#D84E4E;}
	.st53{fill:#0B7199;}
	.st54{opacity:0.3;fill:#F3F3F3;}
	.st55{fill:none;stroke:#F3F3F3;stroke-width:11.3861;stroke-miterlimit:10;}
	.st56{fill:#004564;}
	.st57{fill:none;stroke:#004566;stroke-width:2.0093;stroke-miterlimit:10;}
	.st58{fill:none;stroke:#0B7199;stroke-width:3;stroke-miterlimit:10;}
	.st59{fill:none;stroke:#0B7199;stroke-width:15;stroke-miterlimit:10;}
	.st60{fill:none;stroke:#D84E4E;stroke-width:24;stroke-linecap:round;stroke-linejoin:round;stroke-miterlimit:10;}
	.st61{fill:#FFC7AD;}
	.st62{fill:#2D2331;}
	.st63{fill:#3B2E41;}
	.st64{fill:#EBE9EB;}
	.st65{fill:#F7F7F7;}
	.st66{fill:#A26749;}
	.st67{fill:#F3A984;}
	.st68{enable-background:new    ;}
	.st69{fill:#3D3138;}
	.st70{fill:#62515C;}
	.st71{fill:#32272D;}
	.st72{clip-path:url(#SVGID_26_);enable-background:new    ;}
	.st73{fill:#8B91AD;}
	.st74{clip-path:url(#SVGID_28_);enable-background:new    ;}
	.st75{clip-path:url(#SVGID_30_);enable-background:new    ;}
	.st76{fill:#ADB2CC;}
	.st77{clip-path:url(#SVGID_32_);enable-background:new    ;}
	.st78{opacity:0.2;fill:#DDDEFA;}
	.st79{clip-path:url(#SVGID_34_);}
	.st80{fill:#CF2819;}
	.st81{fill:#DCD8D8;}
	.st82{fill:#F74E3E;}
	.st83{clip-path:url(#SVGID_36_);enable-background:new    ;}
	.st84{fill:#FFC400;}
	.st85{clip-path:url(#SVGID_38_);enable-background:new    ;}
	.st86{clip-path:url(#SVGID_40_);enable-background:new    ;}
	.st87{clip-path:url(#SVGID_42_);enable-background:new    ;}
	.st88{clip-path:url(#SVGID_44_);enable-background:new    ;}
	.st89{clip-path:url(#SVGID_46_);enable-background:new    ;}
	.st90{clip-path:url(#SVGID_48_);enable-background:new    ;}
	.st91{fill:#FFD438;}
	.st92{clip-path:url(#SVGID_50_);enable-background:new    ;}
	.st93{clip-path:url(#SVGID_52_);enable-background:new    ;}
	.st94{clip-path:url(#SVGID_54_);enable-background:new    ;}
	.st95{clip-path:url(#SVGID_56_);enable-background:new    ;}
	.st96{clip-path:url(#SVGID_58_);enable-background:new    ;}
	.st97{clip-path:url(#SVGID_60_);enable-background:new    ;}
	.st98{clip-path:url(#SVGID_62_);enable-background:new    ;}
	.st99{clip-path:url(#SVGID_64_);enable-background:new    ;}
	.st100{clip-path:url(#SVGID_66_);enable-background:new    ;}
	.st101{clip-path:url(#SVGID_68_);enable-background:new    ;}
	.st102{clip-path:url(#SVGID_70_);enable-background:new    ;}
	.st103{clip-path:url(#SVGID_72_);enable-background:new    ;}
	.st104{clip-path:url(#SVGID_74_);enable-background:new    ;}
	.st105{clip-path:url(#SVGID_76_);enable-background:new    ;}
	.st106{clip-path:url(#SVGID_78_);enable-background:new    ;}
	.st107{clip-path:url(#SVGID_80_);enable-background:new    ;}
	.st108{clip-path:url(#SVGID_82_);enable-background:new    ;}
	.st109{fill:#DFE8EF;}
	.st110{fill:#F9FBFC;}
	.st111{fill:#112B46;}
	.st112{fill:#BEE1F4;}
	.st113{fill:#AAD5E8;}
	.st114{fill:#47477A;}
	.st115{fill:#56548C;}
	.st116{fill:#EC827D;}
	.st117{fill:#FBD15B;}
	.st118{fill:#F4C34A;}
	.st119{fill:#FFDC83;}
	.st120{fill:#FFC8AF;}
	.st121{fill:#EFA689;}
	.st122{fill:#E5B641;}
	.st123{fill:#FFD3C2;}
	.st124{fill:#EEEEEE;}
	.st125{fill:#F1F2F2;}
	.st126{fill:#606BF1;}
	.st127{fill:#B1B2F3;}
	.st128{fill:#E6C004;}
	.st129{clip-path:url(#SVGID_84_);}
	.st130{fill:#E0B68C;}
	.st131{fill:#FBD1A3;}
	.st132{fill:#754C29;}
	.st133{fill:#363636;}
	.st134{fill:#5B5B5B;}
	.st135{fill:#E6E7E8;}
	.st136{fill:#00A79D;}
	.st137{fill:#029183;}
	.st138{fill:#414042;}
	.st139{fill:#FAB04E;}
	.st140{fill:#A7A9AC;}
	.st141{fill:#808285;}
	.st142{opacity:0.5;}
	.st143{fill:#DDDDDD;}
	.st144{fill:none;stroke:#A6A8AB;stroke-width:0.1872;stroke-miterlimit:10;}
	.st145{clip-path:url(#SVGID_86_);}
	.st146{fill:#555152;}
	.st147{fill:#565253;}
	.st148{fill:#575354;}
	.st149{fill:#585455;}
	.st150{fill:#595556;}
	.st151{fill:#5A5657;}
	.st152{fill:#5B5758;}
	.st153{fill:#5C5859;}
	.st154{fill:#5D595A;}
	.st155{fill:#5E5A5B;}
	.st156{fill:#5F5B5C;}
	.st157{fill:#605C5D;}
	.st158{fill:#615D5E;}
	.st159{fill:#625E5F;}
	.st160{fill:#636061;}
	.st161{fill:#646162;}
	.st162{fill:#656263;}
	.st163{fill:#666364;}
	.st164{fill:#676465;}
	.st165{fill:#686566;}
	.st166{fill:#696667;}
	.st167{fill:#6A6768;}
	.st168{fill:#6B6869;}
	.st169{fill:#6C696A;}
	.st170{fill:#6D6A6B;}
	.st171{fill:#6E6B6C;}
	.st172{fill:#6F6C6D;}
	.st173{fill:#706D6E;}
	.st174{fill:#716E6F;}
	.st175{clip-path:url(#SVGID_88_);}
	.st176{fill:#FAB14E;}
	.st177{fill:#FAB24E;}
	.st178{fill:#FAB34E;}
	.st179{fill:#FAB44E;}
	.st180{fill:#F9B44E;}
	.st181{fill:#F9B54E;}
	.st182{fill:#F9B64E;}
	.st183{fill:#F9B74E;}
	.st184{fill:#F9B84E;}
	.st185{fill:#F9B94E;}
	.st186{fill:#F9BA4E;}
	.st187{fill:#F9BB4E;}
	.st188{fill:#F8BC4E;}
	.st189{fill:#F8BD4E;}
	.st190{fill:#F8BE4E;}
	.st191{fill:#F8BF4E;}
	.st192{fill:#F8C04E;}
	.st193{fill:#F8C14E;}
	.st194{fill:#F8C24E;}
	.st195{fill:#F8C34E;}
	.st196{fill:#F7C44E;}
	.st197{fill:#F7C54E;}
	.st198{fill:#F7C64E;}
	.st199{fill:#F7C74E;}
	.st200{fill:#F7C84E;}
	.st201{fill:#F7C94E;}
	.st202{fill:#F7CA4E;}
	.st203{fill:#F7CB4E;}
	.st204{fill:#F6CC4E;}
	.st205{fill:#F6CD4E;}
	.st206{fill:#F6CF4E;}
	.st207{fill:#F6D04E;}
	.st208{fill:#F6D14E;}
	.st209{fill:#F6D24E;}
	.st210{fill:#F6D34E;}
	.st211{fill:#F5D54E;}
	.st212{fill:#F5D64E;}
	.st213{fill:#F5D74E;}
	.st214{fill:#F5D84D;}
	.st215{fill:#F5DA4D;}
	.st216{fill:#F5DB4D;}
	.st217{fill:#F4DC4D;}
	.st218{fill:#F4DE4D;}
	.st219{fill:#F4DF4D;}
	.st220{fill:#F4E04D;}
	.st221{fill:#F4E24D;}
	.st222{fill:#F4E34D;}
	.st223{fill:#F3E54D;}
	.st224{fill:#F3E64D;}
	.st225{fill:#F3E74D;}
	.st226{fill:#F3E94D;}
	.st227{fill:#F3EA4D;}
	.st228{fill:#F2EC4D;}
	.st229{fill:#F2ED4D;}
	.st230{fill:#F2EF4D;}
	.st231{fill:#F2F04D;}
	.st232{fill:#F2F24D;}
	.st233{fill:#F1F44D;}
	.st234{fill:#F1F54D;}
	.st235{fill:#F1F74D;}
	.st236{fill:#F1F84D;}
	.st237{fill:#F1FA4D;}
	.st238{fill:#F0FC4D;}
	.st239{fill:#F0FD4D;}
	.st240{fill:#F0FF4D;}
	.st241{clip-path:url(#SVGID_90_);}
	.st242{clip-path:url(#SVGID_92_);}
	.st243{clip-path:url(#SVGID_94_);}
	.st244{fill:#595657;}
	.st245{fill:#5A5758;}
	.st246{fill:#5B5859;}
	.st247{fill:#5C595A;}
	.st248{fill:#5D5A5B;}
	.st249{fill:#5E5B5C;}
	.st250{fill:#5F5C5D;}
	.st251{fill:#605D5E;}
	.st252{fill:#615E5F;}
	.st253{fill:#625F60;}
	.st254{fill:#626061;}
	.st255{fill:#636162;}
	.st256{fill:#646263;}
	.st257{fill:#656364;}
	.st258{fill:#666465;}
	.st259{fill:#676566;}
	.st260{fill:#686667;}
	.st261{fill:#696768;}
	.st262{fill:#6A6869;}
	.st263{fill:#6B696A;}
	.st264{fill:#6B6A6B;}
	.st265{fill:#6C6B6C;}
	.st266{fill:#6D6C6D;}
	.st267{fill:#6E6D6E;}
	.st268{fill:#6F6E6F;}
	.st269{fill:#706F70;}
	.st270{fill:#717071;}
	.st271{fill:#727172;}
	.st272{fill:#737273;}
	.st273{fill:#747375;}
	.st274{fill:#747376;}
	.st275{fill:#757477;}
	.st276{fill:#767578;}
	.st277{fill:#777679;}
	.st278{fill:#78777A;}
	.st279{fill:#79787B;}
	.st280{fill:#7A797C;}
	.st281{fill:#7B7A7D;}
	.st282{fill:#7C7B7E;}
	.st283{fill:#7C7C7F;}
	.st284{fill:#7D7D80;}
	.st285{fill:#7E7E81;}
	.st286{fill:#7F7F82;}
	.st287{fill:#808083;}
	.st288{fill:#818184;}
	.st289{fill:#828285;}
	.st290{fill:#838386;}
	.st291{fill:#848487;}
	.st292{fill:#858588;}
	.st293{fill:#858689;}
	.st294{fill:#86878A;}
	.st295{fill:#87888B;}
	.st296{fill:#88898C;}
	.st297{fill:#898A8D;}
	.st298{fill:#8A8B8E;}
	.st299{fill:#8B8C8F;}
	.st300{fill:#8C8D90;}
	.st301{fill:#8D8E91;}
	.st302{fill:#8E8F92;}
	.st303{fill:#8E9093;}
	.st304{fill:#8F9194;}
	.st305{fill:#909295;}
	.st306{fill:#919396;}
	.st307{fill:#929497;}
	.st308{clip-path:url(#SVGID_96_);}
	.st309{clip-path:url(#SVGID_98_);}
	.st310{fill:#404041;}
	.st311{opacity:0.6;}
	.st312{clip-path:url(#SVGID_100_);}
	.st313{fill:#F0FE4D;}
	.st314{fill:#F1FB4D;}
	.st315{fill:#F1F94D;}
	.st316{fill:#F1F64D;}
	.st317{fill:#F2F34D;}
	.st318{fill:#F2F14D;}
	.st319{fill:#F2EE4D;}
	.st320{fill:#F3EB4D;}
	.st321{fill:#F3E84D;}
	.st322{fill:#F3E44D;}
	.st323{fill:#F4E14D;}
	.st324{fill:#F4DD4D;}
	.st325{fill:#F5D94D;}
	.st326{fill:#F5D84E;}
	.st327{fill:#F5D44E;}
	.st328{fill:#F6CE4E;}
	.st329{clip-path:url(#SVGID_102_);}
	.st330{clip-path:url(#SVGID_104_);}
	.st331{fill:#BCBEC0;}
	.st332{fill:#E8FFFF;}
	.st333{fill:#CFF8F7;}
	.st334{opacity:0.3;}
	.st335{fill:#00B9CF;}
	.st336{fill:#0096A9;}
	.st337{clip-path:url(#SVGID_106_);}
	.st338{opacity:0.1;fill:#251477;}
	.st339{opacity:0.1;fill:#FFFFFF;}
	.st340{fill:#FFCAE0;}
	.st341{fill:#89EBF2;}
	.st342{fill:#FF0067;}
	.st343{opacity:0.1;}
	.st344{fill:#251477;}
	.st345{fill:#FF298D;}
	.st346{fill:#009FAD;}
	.st347{fill:#6ACE83;}
	.st348{fill:#7E3818;}
	.st349{fill:#D7F7F8;}
	.st350{fill:#312A52;}
	.st351{fill:none;stroke:#FFFFFF;stroke-width:5;stroke-miterlimit:10;}
	.st352{fill:#48C6C6;}
	.st353{fill:#3386A7;}
	.st354{fill:#55E6E6;}
	.st355{fill:#3E95AB;}
	.st356{fill:#53E6E6;}
	.st357{fill:#317FA0;}
	.st358{fill:#3895BD;}
	.st359{fill:#241F3C;}
	.st360{fill:#28799C;}
	.st361{fill:#5AF2F2;}
	.st362{fill:#2D6691;}
	.st363{fill:#80E1FA;}
	.st364{clip-path:url(#SVGID_108_);}
	.st365{fill:#1DBFBF;}
	.st366{fill:#52468A;}
	.st367{fill:#42D6D6;}
	.st368{fill:#4ED9D9;}
	.st369{fill:#71FCFC;}
	.st370{fill:#389999;}
	.st371{fill:#D5E9FF;}
	.st372{fill:#C2DEFC;}
	.st373{fill:#9DC8FF;}
	.st374{fill:#FFD7B4;}
	.st375{fill:#FFB549;}
	.st376{fill:#7197D5;}
	.st377{fill:#A7C8E6;}
	.st378{fill:#25669C;}
	.st379{fill:none;stroke:#FFB549;stroke-width:1.8014;stroke-linecap:round;stroke-linejoin:round;stroke-miterlimit:10;}
	.st380{fill:#FFE1C5;}
	.st381{opacity:0.5;fill:#FFFFFF;}
	.st382{fill:#0E537E;}
	.st383{fill:none;stroke:#9DC8FF;stroke-width:1.8014;stroke-linecap:round;stroke-linejoin:round;stroke-miterlimit:10;}
	.st384{fill:#F5F5F5;}
	.st385{fill:#E1E1E1;}
	.st386{fill:#2B454E;}
	.st387{fill:#375A64;}
	.st388{fill:#00DFBF;}
	.st389{fill:#ECECEC;}
	.st390{opacity:0.25;}
	.st391{opacity:0.5;fill:#00DFBF;}
	.st392{opacity:0.4;}
	.st393{opacity:0.45;}
	.st394{opacity:0.35;}
	.st395{opacity:0.3;fill:#FFFFFF;}
	.st396{opacity:0.15;}
	.st397{fill:#1A2E35;}
	.st398{fill:#FAFAFA;}
	.st399{opacity:0.55;}
	.st400{opacity:0.7;fill:#FFFFFF;}
	.st401{opacity:0.6;fill:#FFFFFF;}
	.st402{opacity:0.4;fill:#FFFFFF;}
	.st403{fill:#C76668;}
	.st404{fill:#FFAAA8;}
	.st405{fill:#FF9090;}
	.st406{fill:#D7E8EF;}
	.st407{fill:url(#SVGID_109_);}
	.st408{fill:url(#SVGID_110_);}
	.st409{fill:url(#SVGID_111_);}
	.st410{fill:url(#SVGID_112_);}
	.st411{fill:url(#SVGID_113_);}
	.st412{fill:url(#SVGID_114_);}
	.st413{fill:url(#SVGID_115_);}
	.st414{fill:url(#SVGID_116_);}
	.st415{fill:url(#SVGID_117_);}
	.st416{fill:url(#SVGID_118_);}
	.st417{fill:url(#SVGID_119_);}
	.st418{fill:url(#SVGID_120_);}
	.st419{fill:url(#SVGID_121_);}
	.st420{fill:url(#SVGID_122_);}
	.st421{fill:url(#SVGID_123_);}
	.st422{fill:url(#SVGID_124_);}
	.st423{fill:url(#SVGID_125_);}
	.st424{fill:url(#SVGID_126_);}
	.st425{fill:url(#SVGID_127_);}
	.st426{fill:url(#SVGID_128_);}
	.st427{fill:url(#SVGID_129_);}
	.st428{fill:url(#SVGID_130_);}
	.st429{fill:url(#SVGID_131_);}
	.st430{fill:url(#SVGID_132_);}
	.st431{fill:url(#SVGID_133_);}
	.st432{fill:url(#SVGID_134_);}
	.st433{fill:url(#SVGID_135_);}
	.st434{fill:url(#SVGID_136_);}
	.st435{fill:url(#SVGID_137_);}
	.st436{fill:url(#SVGID_138_);}
	.st437{fill:url(#SVGID_139_);}
	.st438{fill:url(#SVGID_140_);}
	.st439{fill:url(#SVGID_141_);}
	.st440{fill:url(#SVGID_142_);}
	.st441{fill:#00204E;}
	.st442{fill:#00457F;}
	.st443{fill:url(#SVGID_143_);}
	.st444{fill:#BDD3DD;}
	.st445{fill:#F6F9FA;}
	.st446{fill:#CBD7E0;}
	.st447{fill:url(#SVGID_144_);}
	.st448{fill:url(#SVGID_145_);}
	.st449{fill:#009DD0;}
	.st450{fill:#9EB7C7;}
	.st451{fill:#F7FAFB;}
	.st452{fill:#E5E7E8;}
	.st453{fill:url(#SVGID_146_);}
	.st454{fill:url(#SVGID_147_);}
	.st455{fill:#FFC8AE;}
	.st456{fill:url(#SVGID_148_);}
	.st457{fill:url(#SVGID_149_);}
	.st458{fill:#28BAAD;}
	.st459{fill:url(#SVGID_150_);}
	.st460{fill:url(#SVGID_151_);}
	.st461{fill:url(#SVGID_152_);}
	.st462{fill:url(#SVGID_153_);}
	.st463{fill:url(#SVGID_154_);}
	.st464{fill:url(#SVGID_155_);}
	.st465{fill:url(#SVGID_156_);}
	.st466{fill:#040D12;}
	.st467{fill:#B2CDD6;}
	.st468{fill:#CEE2E8;}
	.st469{fill:#FFB49B;}
	.st470{fill:#3F3E40;}
	.st471{fill:#ECBD94;}
	.st472{fill:url(#SVGID_157_);}
	.st473{fill:url(#SVGID_158_);}
	.st474{fill:url(#SVGID_159_);}
	.st475{fill:url(#SVGID_160_);}
	.st476{fill:url(#SVGID_161_);}
	.st477{fill:#F2AF08;}
	.st478{fill:url(#SVGID_162_);}
	.st479{fill:url(#SVGID_163_);}
	.st480{fill:url(#SVGID_164_);}
	.st481{fill:url(#SVGID_165_);}
	.st482{fill:url(#SVGID_166_);}
	.st483{fill:url(#SVGID_167_);}
	.st484{fill:url(#SVGID_168_);}
	.st485{fill:#D0D3D4;}
	.st486{fill:url(#SVGID_169_);}
	.st487{opacity:0.45;fill:#FAEEEA;}
	.st488{fill:#FF8E66;}
	.st489{fill:#3F2C25;}
	.st490{fill:#D17546;}
	.st491{fill:#984B28;}
	.st492{fill:#631B13;}
	.st493{fill:#E76140;}
	.st494{fill:none;stroke:#000000;stroke-width:2.1886;stroke-linecap:round;stroke-miterlimit:10;}
	.st495{fill:#2C1F41;}
	.st496{fill:#5E4E74;}
	.st497{fill:#C9AEA4;}
	.st498{fill:#453432;}
	.st499{fill:#A38580;}
	.st500{fill:#F5D9CE;}
	.st501{fill:#FFFAF8;}
	.st502{fill:#E3C4BD;}
	.st503{fill:#D9CED7;}
	.st504{fill:#5D4B48;}
	.st505{fill:none;stroke:#F8F8F8;stroke-width:1.0943;stroke-miterlimit:10;}
	.st506{fill:#F8F8F8;}
	.st507{opacity:0.16;}
	.st508{opacity:0.29;}
	.st509{fill:#D9EDFF;}
	.st510{fill:#4CA9FF;}
	.st511{fill:#04377D;}
	.st512{fill:#0084FF;}
	.st513{fill:#FF9D8A;}
	.st514{fill:#7591B7;}
	.st515{fill:#7F99BD;}
	.st516{fill:#D9E1EB;}
	.st517{fill:#708DB5;}
	.st518{fill:#59AFFF;}
	.st519{fill:#2A5590;}
	.st520{fill:#F5F7FA;}
	.st521{fill:#D4DDE9;}
	.st522{fill:#43699D;}
	.st523{fill:#6987B1;}
	.st524{fill:#B4C3D8;}
	.st525{fill:#5C7DAA;}
	.st526{fill:#8EA5C4;}
	.st527{fill:#CCE6FF;}
	.st528{fill:#FF5E3F;}
	.st529{fill:#54ADFF;}
	.st530{opacity:0.5;fill:#C4E0EE;}
	.st531{fill:#6B9DC2;}
	.st532{fill:#8CACC2;}
	.st533{fill:#6F7F8B;}
	.st534{fill:#4A5B68;}
	.st535{fill:#52616D;}
	.st536{fill:#303F49;}
	.st537{fill:#68909F;}
	.st538{fill:#243038;}
	.st539{fill:#C9DCE4;}
	.st540{fill:#9FBED8;}
	.st541{fill:#6795B9;}
	.st542{fill:#7AA2C1;}
	.st543{fill:#427796;}
	.st544{fill:#235B78;}
	.st545{fill:#C56E17;}
	.st546{fill:#F39837;}
	.st547{fill:none;stroke:#11161E;stroke-width:0.5239;stroke-miterlimit:10;}
	.st548{fill:#A85717;}
	.st549{fill:#904D15;}
	.st550{fill:none;stroke:#C56E17;stroke-width:1.3971;stroke-miterlimit:10;}
	.st551{fill:none;stroke:#F39837;stroke-width:1.3971;stroke-miterlimit:10;}
	.st552{fill:#F49C44;}
	.st553{fill:url(#SVGID_170_);}
	.st554{fill:url(#SVGID_171_);}
	.st555{fill:#6AAFE8;}
	.st556{fill:url(#SVGID_172_);}
	.st557{fill:url(#SVGID_173_);}
	.st558{fill:url(#SVGID_174_);}
	.st559{fill:url(#SVGID_175_);}
	.st560{fill:url(#SVGID_176_);}
	.st561{fill:url(#SVGID_177_);}
	.st562{fill:url(#SVGID_178_);}
	.st563{fill:url(#SVGID_179_);}
	.st564{fill:url(#SVGID_180_);}
	.st565{fill:#1487E3;}
	.st566{fill:#78C2FF;}
	.st567{fill:#FF7E55;}
	.st568{fill:#424773;}
	.st569{fill:#292C47;}
	.st570{fill:#EEA886;}
	.st571{fill:#754836;}
	.st572{fill:#E2D2CA;}
	.st573{fill:#FFCB55;}
	.st574{fill:#A1D4FF;}
	.st575{fill:url(#SVGID_181_);}
	.st576{fill:url(#SVGID_182_);}
	.st577{fill:#4D78EB;}
	.st578{fill:#E0E0E0;}
	.st579{fill:#FF8761;}
	.st580{opacity:0.76;}
	.st581{fill:#4AAFFF;}
	.st582{fill:#1A598C;}
	.st583{fill:#2273B5;}
	.st584{fill:#3788CC;}
	.st585{fill:#414773;}
	.st586{fill:#2D314F;}
	.st587{fill:#2B3B57;}
	.st588{fill:#FFC655;}
	.st589{fill:#353A3D;}
	.st590{fill:#D4D8E8;}
	.st591{fill:#E55353;}
	.st592{fill:#6069A8;}
	.st593{fill:#202338;}
	.st594{fill:#464240;}
	.st595{fill:#EB4747;}
	.st596{fill:#325BB3;}
	.st597{fill:#A77860;}
	.st598{fill:#5E5853;}
	.st599{fill:#91887F;}
	.st600{fill:#EDDAD3;}
	.st601{fill:#6E6760;}
	.st602{fill:#807066;}
	.st603{fill:#CAE7F5;}
	.st604{fill:#A8D4E5;}
	.st605{fill:#E9F8FF;}
	.st606{fill:#A6D6F4;}
	.st607{fill:#181860;}
	.st608{fill:#DADAEF;}
	.st609{fill:#3D5586;}
	.st610{fill:#06063D;}
	.st611{fill:#12295B;}
	.st612{fill:#1C1C70;}
	.st613{fill:#173475;}
	.st614{fill:#284372;}
	.st615{fill:#CECEEF;}
	.st616{fill:#EDEDF9;}
	.st617{fill:#B2B2ED;}
	.st618{fill:#5252BA;}
	.st619{fill:#AAAAF7;}
	.st620{fill:#DCDCF7;}
	.st621{fill:#7676D6;}
	.st622{fill:#CDCDF7;}
	.st623{fill:#6161C9;}
	.st624{fill:#EBEBFC;}
	.st625{fill:#7C7CE0;}
	.st626{fill:#FCFCFC;}
	.st627{fill:#FF6C3C;}
	.st628{fill:#8D8DE0;}
	.st629{fill:#EDEEFC;}
	.st630{fill:#FFD400;}
	.st631{opacity:0.15;fill:#A0A0F9;}
	.st632{opacity:0.41;}
	.st633{fill:#9494ED;}
	.st634{fill:#8181E2;}
	.st635{opacity:0.21;fill:#6F6FEF;}
	.st636{fill:#C0C0FC;}
	.st637{opacity:0.32;}
	.st638{fill:#404066;}
	.st639{fill:#FFDA3E;}
	.st640{fill:#FCDA35;}
	.st641{fill:#FFCC3E;}
	.st642{fill:#FFEE52;}
	.st643{fill:#0F0F59;}
	.st644{fill:#EB8E6C;}
	.st645{fill:#7E5DCE;}
	.st646{fill:#DD8064;}
	.st647{fill:#081C5E;}
	.st648{fill:#0E1647;}
	.st649{fill:#C36252;}
	.st650{fill:#161237;}
	.st651{fill:#23173D;}
	.st652{fill:#FEFDFB;}
	.st653{fill:#7960DC;}
	.st654{fill:#050530;}
	.st655{fill:#6642BC;}
	.st656{fill:#7E6DE2;}
	.st657{fill:#6565A8;}
	.st658{fill:#5D5D9B;}
	.st659{fill:#575793;}
	.st660{fill:#041649;}
	.st661{fill:#145AC1;}
	.st662{fill:#49302A;}
	.st663{fill:#1C2546;}
	.st664{fill:#97BFFF;}
	.st665{fill:#3845B8;}
	.st666{fill:#3888FC;}
	.st667{fill:#4C94FC;}
	.st668{fill:#283AA3;}
	.st669{fill:#B8D5FF;}
	.st670{fill:#243B9B;}
	.st671{fill:#9191F2;}
	.st672{fill:#8686EA;}
	.st673{fill:#3A61C1;}
	.st674{fill:#2B52B2;}
	.st675{fill:#ADADF7;}
	.st676{fill:#4A76CE;}
	.st677{fill:#0D266D;}
	.st678{fill:#D37359;}
	.st679{fill:#B55848;}
	.st680{fill:#E58163;}
	.st681{fill:#F7BF41;}
	.st682{fill:#DD8266;}
	.st683{fill:#4A4A99;}
	.st684{fill:#9696E0;}
	.st685{fill:#6B6BCE;}
	.st686{fill:#614FBF;}
	.st687{fill:#507ED1;}
	.st688{fill:#2968A5;}
	.st689{fill:#7066D1;}
	.st690{fill:#645DC1;}
	.st691{fill:#6659C6;}
	.st692{fill:#669CDD;}
	.st693{fill:#FFC83E;}
	.st694{fill:#FCB81F;}
	.st695{fill:#FFD147;}
	.st696{fill:#05053D;}
	.st697{fill:#FFC639;}
	.st698{fill:#558AD8;}
	.st699{fill:#4373C9;}
	.st700{fill:#543434;}
	.st701{fill:#442138;}
	.st702{fill:#2F40A5;}
	.st703{fill:#0F2251;}
	.st704{fill:#F7B000;}
	.st705{fill:#C1BAB8;}
	.st706{fill:#F9EFEF;}
	.st707{fill:#FCBA15;}
	.st708{fill:#FFC71F;}
	.st709{fill:#D0C4C4;}
	.st710{fill:#FFDF5A;}
	.st711{fill:#7193D8;}
	.st712{fill:#1F2B54;}
	.st713{fill:#B5AFAE;}
	.st714{fill:#0C0C60;}
	.st715{fill:#7575D3;}
	.st716{fill:#2F2F7C;}
	.st717{fill:#090951;}
	.st718{fill:#090949;}
	.st719{fill:#D87150;}
	.st720{fill:#1D5E82;}
	.st721{fill:url(#SVGID_183_);}
	.st722{fill:#91B3FA;}
	.st723{fill:#BDD0FB;}
	.st724{fill:url(#SVGID_184_);}
	.st725{fill:url(#SVGID_185_);}
	.st726{fill:url(#SVGID_186_);}
	.st727{fill:url(#SVGID_187_);}
	.st728{fill:url(#SVGID_188_);}
	.st729{fill:url(#SVGID_189_);}
	.st730{fill:url(#SVGID_190_);}
	.st731{fill:url(#SVGID_191_);}
	.st732{fill:url(#SVGID_192_);}
	.st733{fill:url(#SVGID_193_);}
	.st734{opacity:0.86;}
	.st735{fill:url(#SVGID_194_);}
	.st736{fill:url(#SVGID_195_);}
	.st737{fill:url(#SVGID_196_);}
	.st738{fill:url(#SVGID_197_);}
	.st739{fill:url(#SVGID_198_);}
	.st740{fill:url(#SVGID_199_);}
	.st741{fill:url(#SVGID_200_);}
	.st742{fill:url(#SVGID_201_);}
	.st743{fill:url(#SVGID_202_);}
	.st744{fill:url(#SVGID_203_);}
	.st745{fill:url(#SVGID_204_);}
	.st746{fill:url(#SVGID_205_);}
	.st747{fill:url(#SVGID_206_);}
	.st748{fill:url(#SVGID_207_);}
	.st749{fill:url(#SVGID_208_);}
	.st750{fill:#EBF3FA;}
	.st751{fill:#AFCDFB;}
	.st752{fill:#D5E5FB;}
	.st753{fill:#2E3552;}
	.st754{fill:#FFB93E;}
	.st755{fill:#FFA412;}
	.st756{fill:#E2810E;}
	.st757{fill:#FFEDDC;}
	.st758{fill:#DB6A1D;}
	.st759{fill:#E5C1A1;}
	.st760{fill:#F9DDBF;}
	.st761{fill:#233862;}
	.st762{fill:#E2915A;}
	.st763{fill:#F99746;}
	.st764{fill:#ED7D2B;}
	.st765{fill:#FFB27D;}
	.st766{fill:#2B478B;}
	.st767{fill:#ED975D;}
	.st768{fill:#E9F3FE;}
	.st769{fill:#22407A;}
	.st770{fill:#D9E9F9;}
	.st771{fill:#BA4C43;}
	.st772{fill:#C65447;}
	.st773{fill:#C6DCF7;}
	.st774{fill:#E8E8E8;}
	.st775{fill:#EB3B5A;}
	.st776{fill:#B3B3B3;}
	.st777{fill:#EF3940;}
	.st778{fill:#B7E8B2;}
	.st779{fill:#5B9E55;}
	.st780{fill:#BADC58;}
	.st781{fill:#001414;}
	.st782{fill:#00807C;}
	.st783{opacity:0.65;}
	.st784{fill:#F0F0F0;}
	.st785{fill:#E3E3E3;}
	.st786{fill:none;stroke:#B3B3B3;stroke-width:10;stroke-miterlimit:10;}
	.st787{fill:#45A16A;stroke:#FFFFFF;stroke-miterlimit:10;}
	.st788{fill:#30336B;}
	.st789{fill:url(#SVGID_209_);}
	.st790{fill:#130F40;}
	.st791{fill:#E6F8FF;}
	.st792{fill:#2D3436;}
	.st793{fill:#16419C;}
	.st794{fill:#0E2861;}
	.st795{opacity:0.26;fill:#00C7C4;}
	.st796{opacity:0.53;fill:#FFFFFF;}
	.st797{fill:#EDB87B;}
	.st798{fill:#FBDFBF;}
	.st799{fill:#C49866;}
	.st800{fill:#F7C080;}
	.st801{fill:#303030;}
	.st802{fill:#45A16A;}
	.st803{fill:#95AFC0;}
	.st804{fill:#FBE3C6;}
	.st805{fill:#CFA06C;}
	.st806{fill:#A1A1A1;}
	.st807{fill:url(#SVGID_210_);}
	.st808{fill:url(#SVGID_211_);}
	.st809{fill:#64A4FF;}
	.st810{fill:#BBD070;}
	.st811{fill:#97A43C;}
	.st812{fill:#48753A;}
	.st813{fill:#DBD8E3;}
	.st814{fill:#323657;}
	.st815{fill:#EEA987;}
	.st816{fill:#E8734D;}
	.st817{fill:#C4C1CC;}
	.st818{fill:#EFAA88;}
	.st819{fill:#16202E;}
	.st820{fill:#4DA8F2;}
	.st821{fill:#FFC955;}
	.st822{clip-path:url(#SVGID_213_);fill:#96CBFF;}
	.st823{clip-path:url(#SVGID_213_);fill:#95CAFF;}
	.st824{clip-path:url(#SVGID_213_);fill:#94C9FF;}
	.st825{clip-path:url(#SVGID_213_);fill:#93C9FF;}
	.st826{clip-path:url(#SVGID_213_);fill:#92C8FF;}
	.st827{clip-path:url(#SVGID_213_);fill:#91C7FF;}
	.st828{clip-path:url(#SVGID_213_);fill:#90C6FF;}
	.st829{clip-path:url(#SVGID_213_);fill:#8FC6FF;}
	.st830{clip-path:url(#SVGID_213_);fill:#8EC5FF;}
	.st831{clip-path:url(#SVGID_213_);fill:#8DC4FF;}
	.st832{clip-path:url(#SVGID_213_);fill:#8CC3FF;}
	.st833{clip-path:url(#SVGID_213_);fill:#8BC2FF;}
	.st834{clip-path:url(#SVGID_213_);fill:#8AC2FF;}
	.st835{clip-path:url(#SVGID_213_);fill:#89C1FF;}
	.st836{clip-path:url(#SVGID_213_);fill:#88C0FF;}
	.st837{clip-path:url(#SVGID_213_);fill:#87BFFF;}
	.st838{clip-path:url(#SVGID_213_);fill:#86BFFF;}
	.st839{clip-path:url(#SVGID_213_);fill:#85BEFF;}
	.st840{clip-path:url(#SVGID_213_);fill:#84BDFF;}
	.st841{clip-path:url(#SVGID_213_);fill:#83BCFF;}
	.st842{clip-path:url(#SVGID_213_);fill:#82BBFF;}
	.st843{clip-path:url(#SVGID_213_);fill:#81BBFF;}
	.st844{clip-path:url(#SVGID_213_);fill:#80BAFF;}
	.st845{clip-path:url(#SVGID_213_);fill:#7FB9FF;}
	.st846{clip-path:url(#SVGID_213_);fill:#7EB8FF;}
	.st847{clip-path:url(#SVGID_213_);fill:#7DB7FF;}
	.st848{clip-path:url(#SVGID_213_);fill:#7CB7FF;}
	.st849{clip-path:url(#SVGID_213_);fill:#7BB6FF;}
	.st850{clip-path:url(#SVGID_213_);fill:#7AB5FF;}
	.st851{clip-path:url(#SVGID_213_);fill:#79B4FF;}
	.st852{clip-path:url(#SVGID_213_);fill:#78B4FF;}
	.st853{clip-path:url(#SVGID_213_);fill:#77B3FF;}
	.st854{clip-path:url(#SVGID_213_);fill:#76B2FF;}
	.st855{clip-path:url(#SVGID_213_);fill:#74B1FF;}
	.st856{clip-path:url(#SVGID_213_);fill:#73B0FF;}
	.st857{clip-path:url(#SVGID_213_);fill:#72B0FF;}
	.st858{clip-path:url(#SVGID_213_);fill:#71AFFF;}
	.st859{clip-path:url(#SVGID_213_);fill:#70AEFF;}
	.st860{clip-path:url(#SVGID_213_);fill:#6FADFF;}
	.st861{clip-path:url(#SVGID_213_);fill:#6EADFF;}
	.st862{clip-path:url(#SVGID_213_);fill:#6DACFF;}
	.st863{clip-path:url(#SVGID_213_);fill:#6CABFF;}
	.st864{clip-path:url(#SVGID_213_);fill:#6BAAFF;}
	.st865{clip-path:url(#SVGID_213_);fill:#6AA9FF;}
	.st866{clip-path:url(#SVGID_213_);fill:#69A9FF;}
	.st867{clip-path:url(#SVGID_213_);fill:#68A8FF;}
	.st868{clip-path:url(#SVGID_213_);fill:#67A7FF;}
	.st869{clip-path:url(#SVGID_213_);fill:#66A6FF;}
	.st870{clip-path:url(#SVGID_213_);fill:#65A6FF;}
	.st871{clip-path:url(#SVGID_213_);fill:#64A5FF;}
	.st872{clip-path:url(#SVGID_213_);fill:#63A4FF;}
	.st873{clip-path:url(#SVGID_213_);fill:#62A3FF;}
	.st874{clip-path:url(#SVGID_213_);fill:#61A2FF;}
	.st875{clip-path:url(#SVGID_213_);fill:#60A2FF;}
	.st876{clip-path:url(#SVGID_213_);fill:#5FA1FF;}
	.st877{clip-path:url(#SVGID_213_);fill:#5EA0FF;}
	.st878{clip-path:url(#SVGID_213_);fill:#5D9FFF;}
	.st879{clip-path:url(#SVGID_213_);fill:#5C9EFF;}
	.st880{clip-path:url(#SVGID_213_);fill:#5B9EFF;}
	.st881{clip-path:url(#SVGID_213_);fill:#5A9DFF;}
	.st882{clip-path:url(#SVGID_213_);fill:#599CFF;}
	.st883{clip-path:url(#SVGID_213_);fill:#589BFF;}
	.st884{clip-path:url(#SVGID_213_);fill:#579BFF;}
	.st885{clip-path:url(#SVGID_213_);fill:#569AFF;}
	.st886{clip-path:url(#SVGID_213_);fill:#5599FF;}
	.st887{fill:#CFA345;}
	.st888{fill:#5F8CC9;}
	.st889{fill:#CF8C6C;}
	.st890{fill:#3B3F66;}
	.st891{fill:#555C94;}
	.st892{fill:#354C70;}
	.st893{fill:#DEB135;}
	.st894{fill:#F2C344;}
	.st895{fill:#D9D0C4;}
	.st896{fill:#84BDFF;}
	.st897{fill:#FFD255;}
	.st898{fill:#3C5780;}
	.st899{fill:#C48A6F;}
	.st900{clip-path:url(#SVGID_215_);fill:#96CBFF;}
	.st901{clip-path:url(#SVGID_215_);fill:#95CAFF;}
	.st902{clip-path:url(#SVGID_215_);fill:#94C9FF;}
	.st903{clip-path:url(#SVGID_215_);fill:#93C9FF;}
	.st904{clip-path:url(#SVGID_215_);fill:#92C8FF;}
	.st905{clip-path:url(#SVGID_215_);fill:#91C7FF;}
	.st906{clip-path:url(#SVGID_215_);fill:#90C6FF;}
	.st907{clip-path:url(#SVGID_215_);fill:#8FC6FF;}
	.st908{clip-path:url(#SVGID_215_);fill:#8EC5FF;}
	.st909{clip-path:url(#SVGID_215_);fill:#8DC4FF;}
	.st910{clip-path:url(#SVGID_215_);fill:#8CC3FF;}
	.st911{clip-path:url(#SVGID_215_);fill:#8BC2FF;}
	.st912{clip-path:url(#SVGID_215_);fill:#8AC2FF;}
	.st913{clip-path:url(#SVGID_215_);fill:#89C1FF;}
	.st914{clip-path:url(#SVGID_215_);fill:#88C0FF;}
	.st915{clip-path:url(#SVGID_215_);fill:#87BFFF;}
	.st916{clip-path:url(#SVGID_215_);fill:#86BFFF;}
	.st917{clip-path:url(#SVGID_215_);fill:#85BEFF;}
	.st918{clip-path:url(#SVGID_215_);fill:#84BDFF;}
	.st919{clip-path:url(#SVGID_215_);fill:#83BCFF;}
	.st920{clip-path:url(#SVGID_215_);fill:#82BBFF;}
	.st921{clip-path:url(#SVGID_215_);fill:#81BBFF;}
	.st922{clip-path:url(#SVGID_215_);fill:#80BAFF;}
	.st923{clip-path:url(#SVGID_215_);fill:#7FB9FF;}
	.st924{clip-path:url(#SVGID_215_);fill:#7EB8FF;}
	.st925{clip-path:url(#SVGID_215_);fill:#7DB7FF;}
	.st926{clip-path:url(#SVGID_215_);fill:#7CB7FF;}
	.st927{clip-path:url(#SVGID_215_);fill:#7BB6FF;}
	.st928{clip-path:url(#SVGID_215_);fill:#7AB5FF;}
	.st929{clip-path:url(#SVGID_215_);fill:#79B4FF;}
	.st930{clip-path:url(#SVGID_215_);fill:#78B4FF;}
	.st931{clip-path:url(#SVGID_215_);fill:#77B3FF;}
	.st932{clip-path:url(#SVGID_215_);fill:#76B2FF;}
	.st933{clip-path:url(#SVGID_215_);fill:#74B1FF;}
	.st934{clip-path:url(#SVGID_215_);fill:#73B0FF;}
	.st935{clip-path:url(#SVGID_215_);fill:#72B0FF;}
	.st936{clip-path:url(#SVGID_215_);fill:#71AFFF;}
	.st937{clip-path:url(#SVGID_215_);fill:#70AEFF;}
	.st938{clip-path:url(#SVGID_215_);fill:#6FADFF;}
	.st939{clip-path:url(#SVGID_215_);fill:#6EADFF;}
	.st940{clip-path:url(#SVGID_215_);fill:#6DACFF;}
	.st941{clip-path:url(#SVGID_215_);fill:#6CABFF;}
	.st942{clip-path:url(#SVGID_215_);fill:#6BAAFF;}
	.st943{clip-path:url(#SVGID_215_);fill:#6AA9FF;}
	.st944{clip-path:url(#SVGID_215_);fill:#69A9FF;}
	.st945{clip-path:url(#SVGID_215_);fill:#68A8FF;}
	.st946{clip-path:url(#SVGID_215_);fill:#67A7FF;}
	.st947{clip-path:url(#SVGID_215_);fill:#66A6FF;}
	.st948{clip-path:url(#SVGID_215_);fill:#65A6FF;}
	.st949{clip-path:url(#SVGID_215_);fill:#64A5FF;}
	.st950{clip-path:url(#SVGID_215_);fill:#63A4FF;}
	.st951{clip-path:url(#SVGID_215_);fill:#62A3FF;}
	.st952{clip-path:url(#SVGID_215_);fill:#61A2FF;}
	.st953{clip-path:url(#SVGID_215_);fill:#60A2FF;}
	.st954{clip-path:url(#SVGID_215_);fill:#5FA1FF;}
	.st955{clip-path:url(#SVGID_215_);fill:#5EA0FF;}
	.st956{clip-path:url(#SVGID_215_);fill:#5D9FFF;}
	.st957{clip-path:url(#SVGID_215_);fill:#5C9EFF;}
	.st958{clip-path:url(#SVGID_215_);fill:#5B9EFF;}
	.st959{clip-path:url(#SVGID_215_);fill:#5A9DFF;}
	.st960{clip-path:url(#SVGID_215_);fill:#599CFF;}
	.st961{clip-path:url(#SVGID_215_);fill:#589BFF;}
	.st962{clip-path:url(#SVGID_215_);fill:#579BFF;}
	.st963{clip-path:url(#SVGID_215_);fill:#569AFF;}
	.st964{clip-path:url(#SVGID_215_);fill:#5599FF;}
	.st965{fill:#DB9C7C;}
	.st966{clip-path:url(#SVGID_217_);fill:#96CBFF;}
	.st967{clip-path:url(#SVGID_217_);fill:#95CAFF;}
	.st968{clip-path:url(#SVGID_217_);fill:#94C9FF;}
	.st969{clip-path:url(#SVGID_217_);fill:#93C9FF;}
	.st970{clip-path:url(#SVGID_217_);fill:#92C8FF;}
	.st971{clip-path:url(#SVGID_217_);fill:#91C7FF;}
	.st972{clip-path:url(#SVGID_217_);fill:#90C6FF;}
	.st973{clip-path:url(#SVGID_217_);fill:#8FC6FF;}
	.st974{clip-path:url(#SVGID_217_);fill:#8EC5FF;}
	.st975{clip-path:url(#SVGID_217_);fill:#8DC4FF;}
	.st976{clip-path:url(#SVGID_217_);fill:#8CC3FF;}
	.st977{clip-path:url(#SVGID_217_);fill:#8BC2FF;}
	.st978{clip-path:url(#SVGID_217_);fill:#8AC2FF;}
	.st979{clip-path:url(#SVGID_217_);fill:#89C1FF;}
	.st980{clip-path:url(#SVGID_217_);fill:#88C0FF;}
	.st981{clip-path:url(#SVGID_217_);fill:#87BFFF;}
	.st982{clip-path:url(#SVGID_217_);fill:#86BFFF;}
	.st983{clip-path:url(#SVGID_217_);fill:#85BEFF;}
	.st984{clip-path:url(#SVGID_217_);fill:#84BDFF;}
	.st985{clip-path:url(#SVGID_217_);fill:#83BCFF;}
	.st986{clip-path:url(#SVGID_217_);fill:#82BBFF;}
	.st987{clip-path:url(#SVGID_217_);fill:#81BBFF;}
	.st988{clip-path:url(#SVGID_217_);fill:#80BAFF;}
	.st989{clip-path:url(#SVGID_217_);fill:#7FB9FF;}
	.st990{clip-path:url(#SVGID_217_);fill:#7EB8FF;}
	.st991{clip-path:url(#SVGID_217_);fill:#7DB7FF;}
	.st992{clip-path:url(#SVGID_217_);fill:#7CB7FF;}
	.st993{clip-path:url(#SVGID_217_);fill:#7BB6FF;}
	.st994{clip-path:url(#SVGID_217_);fill:#7AB5FF;}
	.st995{clip-path:url(#SVGID_217_);fill:#79B4FF;}
	.st996{clip-path:url(#SVGID_217_);fill:#78B4FF;}
	.st997{clip-path:url(#SVGID_217_);fill:#77B3FF;}
	.st998{clip-path:url(#SVGID_217_);fill:#76B2FF;}
	.st999{clip-path:url(#SVGID_217_);fill:#74B1FF;}
	.st1000{clip-path:url(#SVGID_217_);fill:#73B0FF;}
	.st1001{clip-path:url(#SVGID_217_);fill:#72B0FF;}
	.st1002{clip-path:url(#SVGID_217_);fill:#71AFFF;}
	.st1003{clip-path:url(#SVGID_217_);fill:#70AEFF;}
	.st1004{clip-path:url(#SVGID_217_);fill:#6FADFF;}
	.st1005{clip-path:url(#SVGID_217_);fill:#6EADFF;}
	.st1006{clip-path:url(#SVGID_217_);fill:#6DACFF;}
	.st1007{clip-path:url(#SVGID_217_);fill:#6CABFF;}
	.st1008{clip-path:url(#SVGID_217_);fill:#6BAAFF;}
	.st1009{clip-path:url(#SVGID_217_);fill:#6AA9FF;}
	.st1010{clip-path:url(#SVGID_217_);fill:#69A9FF;}
	.st1011{clip-path:url(#SVGID_217_);fill:#68A8FF;}
	.st1012{clip-path:url(#SVGID_217_);fill:#67A7FF;}
	.st1013{clip-path:url(#SVGID_217_);fill:#66A6FF;}
	.st1014{clip-path:url(#SVGID_217_);fill:#65A6FF;}
	.st1015{clip-path:url(#SVGID_217_);fill:#64A5FF;}
	.st1016{clip-path:url(#SVGID_217_);fill:#63A4FF;}
	.st1017{clip-path:url(#SVGID_217_);fill:#62A3FF;}
	.st1018{clip-path:url(#SVGID_217_);fill:#61A2FF;}
	.st1019{clip-path:url(#SVGID_217_);fill:#60A2FF;}
	.st1020{clip-path:url(#SVGID_217_);fill:#5FA1FF;}
	.st1021{clip-path:url(#SVGID_217_);fill:#5EA0FF;}
	.st1022{clip-path:url(#SVGID_217_);fill:#5D9FFF;}
	.st1023{clip-path:url(#SVGID_217_);fill:#5C9EFF;}
	.st1024{clip-path:url(#SVGID_217_);fill:#5B9EFF;}
	.st1025{clip-path:url(#SVGID_217_);fill:#5A9DFF;}
	.st1026{clip-path:url(#SVGID_217_);fill:#599CFF;}
	.st1027{clip-path:url(#SVGID_217_);fill:#589BFF;}
	.st1028{clip-path:url(#SVGID_217_);fill:#579BFF;}
	.st1029{clip-path:url(#SVGID_217_);fill:#569AFF;}
	.st1030{clip-path:url(#SVGID_217_);fill:#5599FF;}
	.st1031{fill:#293B57;}
	.st1032{fill:#E3F2FF;}
	.st1033{fill:#EBEBEB;}
	.st1034{fill:#162D40;}
	.st1035{fill:#1D3B54;}
	.st1036{fill:#D1C0BA;}
	.st1037{fill:#FAE6DE;}
	.st1038{fill:#54281A;}
	.st1039{fill:#366E9C;}
	.st1040{fill:#5C544D;}
	.st1041{fill:#3C4145;}
	.st1042{fill:#FCCCA2;}
	.st1043{fill:#63A4FF;}
	.st1044{fill:#F25F54;}
	.st1045{fill:#C98462;}
	.st1046{fill:#DE9D7D;}
	.st1047{fill:#252E3B;}
	.st1048{fill:#88C0FF;}
	.st1049{fill:#5FA0FF;}
	.st1050{fill:#5189DB;}
	.st1051{fill:#C2BEBC;}
	.st1052{fill:#D6D6D6;}
	.st1053{fill:#C2C2C2;}
</style>
<g>
	<linearGradient id="SVGID_2_" gradientUnits="userSpaceOnUse" x1="656.4958" y1="562.9291" x2="275.7254" y2="229.7553">
		<stop  offset="0" style="stop-color:#DAE3FE"/>
		<stop  offset="1" style="stop-color:#E9EFFD"/>
	</linearGradient>
	<path style="fill:url(#SVGID_2_);" d="M591.78,389.9c-49.21,115.87-180.3,180.78-293.98,163.27
		c-18.5-2.85-69.21-11.34-114.11-51.38c-86.43-77.08-104.92-229.71-35.19-337.27C199.25,86.24,290.22,41.86,376.66,44.08
		c18.62,0.48,89.97,3.42,152.68,55.13c9.21,7.59,29.53,25.64,47.83,54.27C620.16,220.72,623.86,314.38,591.78,389.9z"/>
	<g>
		<path class="st722" d="M130.98,57.04c-0.85-2.65,2.24-4.8,4.46-3.14c22.54,16.95,77.94,69.02,76.73,170.78
			c-1.52,127.67,29.77,170.77,65.51,195.22c0,0-46.31-8.26-79.66-51.81C116.15,261.17,146.01,104.07,130.98,57.04z"/>
		<path class="st2" d="M150.85,94.69c4.1,13.75,7.92,27.56,11.23,41.5c3.38,13.92,6.35,27.93,8.86,42.02
			c2.47,14.1,4.67,28.24,6.26,42.45c1.66,14.2,2.71,28.46,3.71,42.78c1.08,14.31,2.09,28.73,4.58,43.09
			c2.47,14.33,6.69,28.6,13.39,41.67c1.67,3.26,3.41,6.5,5.33,9.6c1.86,3.14,3.85,6.2,5.9,9.23c4.13,6.03,8.67,11.79,13.62,17.19
			c9.92,10.78,21.48,20.04,33.91,27.58c1.31,0.79,3.01,0.38,3.81-0.93c0.78-1.29,0.39-2.95-0.86-3.76l-0.01-0.01
			c-2.97-1.92-5.92-3.87-8.77-5.95c-1.44-1.02-2.84-2.09-4.25-3.14c-1.37-1.1-2.79-2.15-4.12-3.3c-5.42-4.49-10.52-9.35-15.24-14.56
			c-9.47-10.37-17.44-22.21-23.87-34.69c-3.14-6.28-5.82-12.77-7.98-19.46c-2.16-6.68-3.81-13.54-5.07-20.5
			c-2.52-13.93-3.64-28.19-4.82-42.49c-1.2-14.3-2.51-28.66-4.41-42.95c-0.93-7.14-1.99-14.27-3.17-21.38
			c-0.57-3.56-1.21-7.1-1.85-10.64c-0.67-3.54-1.36-7.07-2.07-10.6c-2.89-14.11-6.21-28.12-9.97-42
			c-3.82-13.87-8.02-27.63-12.73-41.21c-0.13-0.39-0.56-0.59-0.95-0.46C150.94,93.9,150.73,94.31,150.85,94.69z"/>
	</g>
	<g>
		<g>
			<path class="st723" d="M150.77,374.61c-1.49,3.85-6.43,4.93-9.42,2.09c-16.53-15.67-59.24-64.2-53.24-142.59
				c5.07-66.2,1.53-102.57-1.23-118.98c-0.58-3.47,3.6-5.66,6.13-3.22C120.9,138.89,204.74,235.13,150.77,374.61z"/>
			<path class="st2" d="M145.18,374.53c-0.09,0.05-0.18,0.1-0.28,0.14c-0.83,0.32-1.76-0.09-2.09-0.92
				c-0.37-0.94-36.57-95.07-33.68-187.43c0.03-0.89,0.77-1.59,1.66-1.56c0.89,0.03,1.59,0.77,1.56,1.66
				c-2.87,91.69,33.1,185.23,33.46,186.16C146.1,373.31,145.82,374.12,145.18,374.53z"/>
		</g>
	</g>
	<g>
		
			<linearGradient id="SVGID_3_" gradientUnits="userSpaceOnUse" x1="-11499.9951" y1="491.8495" x2="-11393.4629" y2="172.2496" gradientTransform="matrix(-1 0 0 1 -11104.2227 0)">
			<stop  offset="0" style="stop-color:#09005D"/>
			<stop  offset="1" style="stop-color:#1A0F91"/>
		</linearGradient>
		<path style="fill:url(#SVGID_3_);" d="M120.7,503.44c0,4.58,3.75,8.33,8.34,8.33h451.07c4.59,0,8.34-3.75,8.34-8.33l3.75-259.22
			c0-4.58-5.4-13.53-15.3-12.86l-440.84-11.41c-5.76-0.15-11.32,2.07-15.4,6.13s-6.31,9.62-6.17,15.37L120.7,503.44z"/>
		<path class="st722" d="M128.93,495.45c0,4.34,3.55,7.89,7.89,7.89h432.41c4.34,0,7.89-3.55,7.89-7.89l3.54-235.32
			c-0.42-14.16-12.83-19.25-20.36-18.95l-422.5-11.34c-4.04-0.11-7.95,1.45-10.82,4.31c-2.86,2.86-4.44,6.77-4.34,10.81
			L128.93,495.45z"/>
		<g>
			<path class="st723" d="M572.45,383.66c-0.01,0-0.01,0-0.02,0c-0.64-0.01-1.15-0.53-1.14-1.17l0.28-19.08
				c0.01-0.63,0.53-1.14,1.16-1.14c0.01,0,0.01,0,0.01,0c0.64,0.01,1.15,0.53,1.15,1.17l-0.28,19.08
				C573.6,383.15,573.08,383.66,572.45,383.66z"/>
			<path class="st723" d="M573.14,336.89c0,0-0.01,0-0.02,0c-0.64-0.01-1.15-0.54-1.14-1.17l1.07-73.09
				c-0.02-4.34-1.34-7.81-3.92-10.28c-4.81-4.61-12.46-4.38-12.78-4.36l-135.04-3.62c-0.64-0.02-1.14-0.55-1.12-1.19
				c0.02-0.64,0.51-1.18,1.19-1.12l134.96,3.62c0.84-0.05,8.98-0.19,14.4,5c3.05,2.92,4.61,6.95,4.63,11.96l-1.07,73.12
				C574.28,336.38,573.77,336.89,573.14,336.89z"/>
		</g>
		<linearGradient id="SVGID_4_" gradientUnits="userSpaceOnUse" x1="364.8244" y1="299.5427" x2="349.5251" y2="529.0317">
			<stop  offset="0" style="stop-color:#09005D"/>
			<stop  offset="1" style="stop-color:#1A0F91"/>
		</linearGradient>
		<path style="fill:url(#SVGID_4_);" d="M89.76,533.3h520.49c3.11,0,5.65-2.54,5.65-5.65v-11.47c0-3.11-2.54-5.65-5.65-5.65H89.76
			c-3.11,0-5.65,2.54-5.65,5.65v11.47C84.1,530.75,86.65,533.3,89.76,533.3z"/>
	</g>
	<g>
		<linearGradient id="SVGID_6_" gradientUnits="userSpaceOnUse" x1="387.6023" y1="219.9136" x2="162.8316" y2="203.5842">
			<stop  offset="0" style="stop-color:#4F52FF"/>
			<stop  offset="1" style="stop-color:#4042E2"/>
		</linearGradient>
		<path style="fill:url(#SVGID_6_);" d="M347.25,121.58c-97.34,3.02-175.64,79.46-178.4,174.32c-0.06,2.09,1.66,3.81,3.8,3.82
			l169.92,0.56c5.86,0.02,10.6-4.63,10.53-10.33l-1.81-164.6C351.26,123.21,349.44,121.51,347.25,121.58z"/>
		<linearGradient id="SVGID_7_" gradientUnits="userSpaceOnUse" x1="208.7726" y1="430.5066" x2="415.2916" y2="308.5165">
			<stop  offset="0" style="stop-color:#E1473D"/>
			<stop  offset="1" style="stop-color:#E9605A"/>
		</linearGradient>
		<path style="fill:url(#SVGID_7_);" d="M170.16,309.31c-0.77,0-1.4,0.61-1.4,1.36c0,0,0,0.01,0,0.01
			c0,99.2,81.67,179.62,182.42,179.62h0.02c1.06,0,1.92-0.85,1.91-1.9l-1.83-168.22c-0.06-5.69-4.76-10.28-10.54-10.3L170.16,309.31
			z"/>
		<linearGradient id="SVGID_8_" gradientUnits="userSpaceOnUse" x1="585.9382" y1="262.7886" x2="325.6272" y2="445.2947">
			<stop  offset="0" style="stop-color:#4F52FF"/>
			<stop  offset="1" style="stop-color:#4042E2"/>
		</linearGradient>
		<path style="fill:url(#SVGID_8_);" d="M358.03,316.73l1.87,169.74c0.02,2.11,1.82,3.79,3.99,3.73
			c98.95-3.04,178.24-82.05,178.43-179.16c-0.2-0.2-0.32-0.31-0.52-0.51l-176.85-0.59C361.1,309.93,357.99,312.98,358.03,316.73z"/>
		<linearGradient id="SVGID_10_" gradientUnits="userSpaceOnUse" x1="336.1758" y1="220.9202" x2="571.5115" y2="199.7879">
			<stop  offset="0" style="stop-color:#E1473D"/>
			<stop  offset="1" style="stop-color:#E9605A"/>
		</linearGradient>
		<path style="fill:url(#SVGID_10_);" d="M530.97,300.9c3.67,0.01,6.63-3.04,6.49-6.71c-3.62-96.01-82.59-172.73-179.48-172.73l0,0
			c-1.06,0-1.92,0.87-1.91,1.93l1.82,169.85c0.04,3.92,3.22,7.07,7.14,7.08L530.97,300.9z"/>
	</g>
	<g>
		<linearGradient id="SVGID_11_" gradientUnits="userSpaceOnUse" x1="273.5432" y1="232.7118" x2="348.4666" y2="376.7954">
			<stop  offset="0" style="stop-color:#4F52FF"/>
			<stop  offset="1" style="stop-color:#4042E2"/>
		</linearGradient>
		<path style="fill:url(#SVGID_11_);" d="M347.41,122.4c-94.78,3.02-171.01,79.46-173.71,174.32c-0.06,2.09,1.62,3.81,3.7,3.82
			l165.44,0.56c5.7,0.02,10.32-4.63,10.26-10.33l-1.76-164.6C351.31,124.04,349.54,122.34,347.41,122.4z"/>
		<linearGradient id="SVGID_12_" gradientUnits="userSpaceOnUse" x1="389.984" y1="285.1208" x2="213.2415" y2="447.4549">
			<stop  offset="0" style="stop-color:#FF928E"/>
			<stop  offset="1" style="stop-color:#FE7062"/>
		</linearGradient>
		<path style="fill:url(#SVGID_12_);" d="M175,310.14c-0.76,0-1.38,0.61-1.38,1.36c0,0,0,0.01,0,0.01
			c0,99.2,80.42,179.61,179.61,179.61h0.02c1.05,0,1.89-0.85,1.88-1.9l-1.8-168.22c-0.06-5.69-4.68-10.28-10.38-10.3L175,310.14z"/>
		<linearGradient id="SVGID_13_" gradientUnits="userSpaceOnUse" x1="453.038" y1="384.4453" x2="448.2352" y2="249.9673">
			<stop  offset="0" style="stop-color:#4F52FF"/>
			<stop  offset="1" style="stop-color:#4042E2"/>
		</linearGradient>
		<path class="st32" d="M362.89,317.56l1.82,169.74c0.02,2.11,1.78,3.79,3.89,3.73c96.41-3.04,173.66-82.05,173.85-179.16
			c-0.2-0.2-0.31-0.31-0.51-0.51l-172.31-0.59C365.88,310.76,362.85,313.81,362.89,317.56z"/>
		<linearGradient id="SVGID_15_" gradientUnits="userSpaceOnUse" x1="600.5706" y1="79.9407" x2="347.9443" y2="301.8291">
			<stop  offset="0" style="stop-color:#FF928E"/>
			<stop  offset="1" style="stop-color:#FE7062"/>
		</linearGradient>
		<path style="fill:url(#SVGID_15_);" d="M535.83,301.73c3.67,0.01,6.63-3.04,6.49-6.71c-3.62-96.01-82.59-172.73-179.48-172.73l0,0
			c-1.06,0-1.92,0.87-1.91,1.93l1.82,169.85c0.04,3.92,3.22,7.07,7.14,7.08L535.83,301.73z"/>
	</g>
	<g class="st734">
		<g>
			<path class="st2" d="M397.77,225.79c0-19.93,16.21-36.15,36.15-36.15c19.93,0,36.15,16.21,36.15,36.15
				c0,19.93-16.21,36.15-36.15,36.15C413.98,261.93,397.77,245.72,397.77,225.79z M400,225.79c0,18.7,15.22,33.92,33.92,33.92
				c18.7,0,33.92-15.22,33.92-33.92c0-18.7-15.22-33.92-33.92-33.92C415.21,191.87,400,207.08,400,225.79z"/>
		</g>
		<path class="st2" d="M444.82,220.22h3.57c0.45,0,0.8-0.65,0.8-1.09v-2.44c0-4.56-3.7-7.96-8.25-7.96h-4.68v-3.61
			c0-0.75-1.03-1.36-2.16-1.36s-2.16,0.61-2.16,1.36v3.61h-4.57c-4.56,0-8.36,3.41-8.36,7.96v4.46c0,4.56,3.81,8.41,8.36,8.41h4.57
			v8.62h-4.57c-1.69,0-3.33-1.6-3.33-3.29v-0.21c0-0.45-0.09-0.81-0.54-0.81h-3.57c-0.45,0-0.91,0.36-0.91,0.81v0.21
			c0,4.56,3.81,7.6,8.36,7.6h4.57v3.97c0,0.75,1.03,1.36,2.16,1.36s2.16-0.61,2.16-1.36v-3.97h4.68c4.56,0,8.25-3.05,8.25-7.6v-2.41
			c0-4.56-3.7-8.66-8.25-8.66h-4.68v-10.78h4.68c1.69,0,3.23,1.96,3.23,3.65v2.44C444.16,219.57,444.37,220.22,444.82,220.22z
			 M440.94,229.56c1.69,0,3.23,1.22,3.23,2.91v2.41c0,1.69-1.54,3.29-3.23,3.29h-4.68v-8.62H440.94z M431.95,223.81h-4.57
			c-1.69,0-3.33-0.98-3.33-2.67v-4.46c0-1.69,1.65-3.65,3.33-3.65h4.57V223.81z"/>
	</g>
	<g>
		<g>
			<path class="st723" d="M316.23,222.81c-0.32,0.53-0.86,0.91-1.49,1.01l-4.43,0.72c-0.89,1.91-2.02,3.69-3.37,5.32l1.25,4.31
				c0.25,0.88-0.08,1.82-0.82,2.34l-5.29,3.73c-0.75,0.53-1.74,0.52-2.48-0.01l-3.64-2.62c-1.99,0.72-4.05,1.18-6.15,1.39
				l-2.16,3.93c-0.45,0.79-1.33,1.23-2.24,1.08l-6.39-1.1c-0.9-0.16-1.6-0.86-1.75-1.76l-0.72-4.43c-1.91-0.9-3.69-2.02-5.32-3.37
				l-4.31,1.25c-0.88,0.25-1.82-0.08-2.34-0.82l-3.73-5.29c-0.53-0.75-0.53-1.75,0.01-2.48l2.62-3.64
				c-0.72-1.99-1.18-4.05-1.39-6.14l-3.93-2.16c-0.8-0.44-1.23-1.34-1.08-2.24l1.1-6.38c0.16-0.9,0.87-1.6,1.77-1.75l4.42-0.72
				c0.89-1.91,2.02-3.69,3.37-5.32l-1.25-4.31c-0.25-0.87,0.08-1.82,0.82-2.34l5.29-3.73c0.75-0.52,1.74-0.52,2.48,0.01l3.64,2.62
				c1.99-0.72,4.05-1.18,6.15-1.39l2.16-3.93c0.44-0.79,1.34-1.23,2.24-1.07l6.38,1.1c0.9,0.16,1.6,0.87,1.75,1.77l0.72,4.42
				c1.91,0.89,3.69,2.02,5.32,3.37l4.31-1.25c0.87-0.25,1.81,0.08,2.34,0.82l3.74,5.3c0.52,0.74,0.52,1.73-0.01,2.48l-2.63,3.64
				c0.72,1.99,1.18,4.05,1.39,6.14l3.93,2.16c0.8,0.44,1.23,1.34,1.08,2.23l-1.1,6.39C316.45,222.34,316.36,222.59,316.23,222.81z
				 M307.94,221.49l5.37-0.87l0.8-4.63l-4.77-2.62l-0.06-0.93c-0.14-2.37-0.66-4.69-1.56-6.9l-0.35-0.87l3.18-4.42l-2.71-3.84
				l-5.23,1.52l-0.7-0.62c-1.78-1.58-3.79-2.86-5.98-3.78l-0.86-0.37l-0.87-5.37l-4.63-0.8l-2.62,4.77l-0.93,0.06
				c-2.37,0.14-4.69,0.66-6.9,1.56l-0.87,0.35l-4.42-3.18l-3.84,2.71l1.52,5.23l-0.62,0.7c-1.58,1.78-2.86,3.79-3.78,5.98
				l-0.37,0.86l-5.37,0.87l-0.8,4.63l4.77,2.62l0.06,0.93c0.14,2.37,0.66,4.69,1.56,6.9l0.35,0.87l-3.18,4.42l2.71,3.84l5.23-1.52
				l0.7,0.62c1.78,1.58,3.79,2.86,5.98,3.78l0.86,0.37l0.87,5.37l4.63,0.8l2.62-4.77l0.93-0.06c2.37-0.14,4.69-0.66,6.9-1.56
				l0.87-0.35l4.42,3.18l3.84-2.71l-1.52-5.23l0.62-0.7c1.58-1.78,2.86-3.79,3.78-5.98L307.94,221.49z M284.68,241.29
				C284.68,241.3,284.68,241.3,284.68,241.29L284.68,241.29z M294.08,186.91C294.08,186.91,294.08,186.91,294.08,186.91
				L294.08,186.91z M290.02,186.21L290.02,186.21L290.02,186.21L290.02,186.21z M263.61,227.98L263.61,227.98L263.61,227.98z
				 M269.76,192.39L269.76,192.39C269.76,192.39,269.76,192.39,269.76,192.39z M260.51,207.03
				C260.51,207.03,260.51,207.03,260.51,207.03L260.51,207.03z M302.12,222.74c-1.23,2.05-2.88,3.84-4.89,5.26
				c-3.78,2.67-8.38,3.7-12.94,2.92c-4.56-0.79-8.54-3.3-11.21-7.09c-2.67-3.78-3.7-8.38-2.91-12.94c0.79-4.56,3.3-8.54,7.09-11.21
				c3.78-2.67,8.38-3.7,12.94-2.92c1.22,0.21,2.41,0.55,3.55,1.01c0.87,0.35,1.29,1.34,0.94,2.2c-0.35,0.87-1.34,1.29-2.2,0.94
				c-0.91-0.37-1.87-0.64-2.86-0.81c-3.67-0.63-7.37,0.2-10.41,2.35c-3.04,2.15-5.07,5.35-5.7,9.02c-0.63,3.67,0.2,7.37,2.35,10.41
				c2.15,3.04,5.35,5.07,9.02,5.7c3.67,0.63,7.37-0.2,10.41-2.35c3.04-2.15,5.07-5.35,5.7-9.02c0.43-2.49,0.18-5.05-0.73-7.39
				c-0.34-0.87,0.1-1.85,0.97-2.19c0.87-0.34,1.85,0.1,2.19,0.97c1.13,2.91,1.44,6.09,0.91,9.19
				C303.95,218.93,303.2,220.94,302.12,222.74z"/>
			<path class="st723" d="M293.75,217.56c-1.2,2.01-3.32,3.42-5.83,3.62c-4.09,0.31-7.68-2.76-7.99-6.86
				c-0.15-1.98,0.48-3.91,1.77-5.42c1.3-1.51,3.1-2.42,5.08-2.58l0,0c1.98-0.15,3.91,0.48,5.42,1.77c1.51,1.3,2.42,3.1,2.58,5.08
				C294.9,214.78,294.51,216.29,293.75,217.56z M283.86,211.68c-0.43,0.71-0.62,1.54-0.56,2.39c0.17,2.23,2.12,3.91,4.36,3.74
				c2.23-0.17,3.91-2.12,3.74-4.36c-0.08-1.08-0.58-2.07-1.4-2.77c-0.82-0.71-1.87-1.05-2.95-0.97l0,0
				c-1.08,0.08-2.07,0.58-2.77,1.4C284.12,211.29,283.98,211.48,283.86,211.68z"/>
		</g>
		<g>
			<path class="st723" d="M262.86,254.9c-0.03,0.05-0.06,0.1-0.1,0.15l-1.92,2.46c-0.38,0.5-1.05,0.7-1.65,0.49l-1.82-0.62
				c-0.72,0.52-1.5,0.96-2.32,1.32l-0.4,1.88c-0.13,0.62-0.64,1.09-1.27,1.17l-3.09,0.38c-0.63,0.08-1.24-0.25-1.52-0.82l-0.84-1.72
				c-0.88-0.14-1.74-0.38-2.57-0.71l-1.61,1.05c-0.53,0.35-1.22,0.32-1.72-0.07l-2.46-1.91c-0.5-0.39-0.7-1.05-0.49-1.65l0.62-1.82
				c-0.52-0.72-0.96-1.5-1.32-2.32l-1.88-0.4c-0.62-0.13-1.09-0.64-1.16-1.27l-0.38-3.09c-0.08-0.64,0.26-1.25,0.83-1.52l1.71-0.84
				c0.14-0.88,0.38-1.74,0.71-2.57l-1.05-1.61c-0.35-0.54-0.31-1.22,0.08-1.73l1.91-2.45c0.39-0.5,1.05-0.7,1.65-0.49l1.82,0.62
				c0.72-0.52,1.5-0.96,2.32-1.32l0.4-1.88c0.13-0.62,0.64-1.08,1.26-1.16l3.1-0.39c0.63-0.08,1.24,0.25,1.52,0.82l0.84,1.72
				c0.88,0.14,1.74,0.38,2.57,0.71l1.61-1.05c0.54-0.34,1.22-0.31,1.72,0.07l2.46,1.92c0.5,0.39,0.7,1.05,0.49,1.65l-0.62,1.82
				c0.52,0.72,0.96,1.5,1.31,2.31l1.88,0.4c0.62,0.13,1.08,0.64,1.16,1.27l0.38,3.1c0.08,0.63-0.25,1.24-0.82,1.52l-1.72,0.84
				c-0.14,0.88-0.38,1.74-0.71,2.57l1.05,1.61C263.14,253.8,263.15,254.41,262.86,254.9z M260.7,254.71
				C260.7,254.71,260.7,254.71,260.7,254.71L260.7,254.71z M259.3,255.35l0.99-1.27l-1.39-2.13l0.29-0.64
				c0.46-1,0.75-2.05,0.87-3.14l0.07-0.7l2.28-1.12l-0.2-1.6l-2.49-0.53l-0.24-0.66c-0.38-1.02-0.92-1.98-1.61-2.83l-0.44-0.55
				l0.82-2.41l-1.27-0.99l-2.13,1.39l-0.64-0.29c-1-0.46-2.05-0.75-3.14-0.87l-0.7-0.07l-1.12-2.28l-1.6,0.2l-0.53,2.49l-0.66,0.24
				c-1.03,0.38-1.98,0.92-2.83,1.61l-0.55,0.44l-2.41-0.82l-0.99,1.27l1.39,2.13l-0.29,0.64c-0.46,0.99-0.75,2.05-0.87,3.14
				l-0.07,0.7l-2.29,1.12l0.2,1.6l2.49,0.53l0.24,0.66c0.38,1.02,0.92,1.98,1.61,2.83l0.44,0.55l-0.82,2.41l1.27,0.99l2.13-1.39
				l0.64,0.29c1,0.46,2.05,0.75,3.14,0.87l0.7,0.07l1.12,2.28l1.6-0.2l0.53-2.49l0.66-0.24c1.03-0.38,1.98-0.92,2.83-1.61l0.55-0.44
				L259.3,255.35z M258.83,255.95L258.83,255.95C258.84,255.94,258.83,255.94,258.83,255.95z M252.17,260.04L252.17,260.04
				L252.17,260.04z M251.06,260.18L251.06,260.18L251.06,260.18z M249.98,259.6l0.01,0C249.99,259.6,249.98,259.6,249.98,259.6z
				 M242.37,257.79L242.37,257.79C242.38,257.78,242.37,257.79,242.37,257.79z M248.94,233.99
				C248.94,233.99,248.94,233.99,248.94,233.99L248.94,233.99z M246.58,233.87L246.58,233.87L246.58,233.87z M236.91,248.15
				c0.01,0,0.01,0,0.01-0.01L236.91,248.15z M239.25,240.69C239.25,240.69,239.25,240.68,239.25,240.69L239.25,240.69z
				 M257.52,251.64c-0.19,0.31-0.39,0.61-0.62,0.91c-1.44,1.85-3.52,3.03-5.85,3.32c-4.81,0.6-9.21-2.83-9.81-7.64
				c-0.29-2.33,0.34-4.63,1.79-6.49c1.44-1.85,3.52-3.03,5.85-3.32c0.62-0.08,1.25-0.09,1.87-0.03c0.7,0.06,1.21,0.68,1.15,1.38
				c-0.06,0.7-0.68,1.21-1.38,1.15c-0.44-0.04-0.89-0.03-1.33,0.02c-1.66,0.21-3.13,1.04-4.16,2.36c-1.03,1.32-1.48,2.95-1.27,4.61
				c0.43,3.42,3.55,5.86,6.97,5.43c1.66-0.21,3.13-1.04,4.16-2.36c1.03-1.32,1.48-2.95,1.27-4.61c-0.14-1.12-0.58-2.19-1.27-3.07
				c-0.43-0.55-0.33-1.35,0.22-1.78c0.55-0.43,1.35-0.33,1.78,0.22c0.98,1.25,1.6,2.74,1.79,4.33
				C258.93,248.02,258.52,249.97,257.52,251.64z"/>
		</g>
	</g>
	<g class="st734">
		<g>
			<path class="st2" d="M228.22,383.3c0-19.93,16.21-36.15,36.15-36.15c19.93,0,36.15,16.21,36.15,36.15
				c0,19.93-16.21,36.15-36.15,36.15C244.44,419.44,228.22,403.23,228.22,383.3z M230.45,383.3c0,18.7,15.22,33.92,33.92,33.92
				c18.7,0,33.92-15.22,33.92-33.92c0-18.7-15.22-33.92-33.92-33.92C245.67,349.38,230.45,364.6,230.45,383.3z"/>
		</g>
		<path class="st2" d="M274.73,370.11c0,5.34-4.33,11.11-9.67,11.11c-5.34,0-9.67-5.77-9.67-11.11c0-5.34,4.33-9.13,9.67-9.13
			C270.4,360.98,274.73,364.76,274.73,370.11z"/>
		<path class="st2" d="M253.06,401.78h23.61c2.49,0,4.69-1.61,5.44-3.97l1.27-3.97c0.93-2.91-0.58-6.06-3.45-7.1
			c-9.61-3.51-19.54-3.06-29.72,0.32c-2.85,0.95-4.43,4-3.65,6.9l0.98,3.61C248.22,400.05,250.48,401.78,253.06,401.78z"/>
	</g>
	<g>
		<g>
			<path class="st723" d="M423.17,396.86l-16.06-0.35v-22.63c0-0.76,0.63-1.36,1.39-1.34l13.69,0.51c0.55,0.02,0.98,0.47,0.98,1.01
				V396.86z"/>
			<path class="st723" d="M445.25,397.32l-16.06-0.33v-34.17c0-0.6,0.5-1.07,1.09-1.05l14.01,0.6c0.53,0.02,0.95,0.46,0.95,0.99
				V397.32z"/>
			<path class="st723" d="M466.66,397.78l-15.39-0.33v-43.29c0-0.81,0.68-1.45,1.48-1.41l12.76,0.65c0.64,0.03,1.14,0.56,1.14,1.2
				V397.78z"/>
		</g>
		<path class="st723" d="M468.64,407.71l-64.2-0.93c-0.37-0.01-0.67-0.31-0.67-0.68v-4.03c0-0.38,0.31-0.69,0.69-0.68l64.2,1.15
			c0.37,0.01,0.67,0.31,0.67,0.68v3.82C469.33,407.41,469.02,407.72,468.64,407.71z"/>
	</g>
	<g>
		<path class="st2" d="M262.08,498.86c-0.2,0-0.4-0.02-0.61-0.06c-24.93-5.33-50.95-21.61-73.27-45.82
			c-22.45-24.36-38.28-53.73-44.57-82.69c-0.34-1.56,0.65-3.09,2.2-3.43c1.56-0.34,3.09,0.65,3.43,2.2
			c6.08,27.98,21.42,56.39,43.18,80.01c21.51,23.35,46.46,39,70.24,44.09c1.56,0.33,2.55,1.86,2.22,3.42
			C264.6,497.93,263.41,498.86,262.08,498.86z"/>
		<path class="st2" d="M139.49,395.79c-0.17,0-0.35-0.02-0.53-0.05c-1.57-0.29-2.6-1.79-2.31-3.36l5.62-30.45
			c0.23-1.22,1.2-2.16,2.43-2.33c1.23-0.17,2.43,0.46,2.98,1.56c3.51,7.03,8.6,12.82,15.12,17.22c1.32,0.89,1.67,2.68,0.78,4
			c-0.89,1.32-2.68,1.67-4,0.78c-5.15-3.47-9.51-7.72-13.02-12.68l-4.23,22.95C142.06,394.82,140.85,395.79,139.49,395.79z"/>
	</g>
	<g>
		<path class="st2" d="M539.96,182.69c-1.01,0-1.99-0.53-2.52-1.47c-13.99-24.98-36.95-47.68-64.66-63.91
			c-27.39-16.04-55.82-23.73-80.05-21.65c-1.59,0.14-2.98-1.04-3.12-2.62c-0.14-1.59,1.04-2.98,2.62-3.12
			c25.4-2.19,55.04,5.78,83.46,22.42c28.58,16.74,52.3,40.2,66.78,66.06c0.78,1.39,0.28,3.14-1.11,3.92
			C540.92,182.57,540.44,182.69,539.96,182.69z"/>
		<path class="st2" d="M543.35,189.19c-0.77,0-1.53-0.31-2.09-0.9c-5.41-5.7-11.97-9.75-19.49-12.05c-1.52-0.47-2.38-2.08-1.91-3.6
			c0.47-1.52,2.08-2.38,3.6-1.91c5.94,1.82,11.35,4.61,16.16,8.33l-2.65-23.18c-0.18-1.58,0.95-3.01,2.54-3.19
			c1.58-0.17,3.01,0.95,3.19,2.54l3.52,30.76c0.14,1.23-0.52,2.41-1.64,2.94C544.18,189.1,543.76,189.19,543.35,189.19z"/>
	</g>
	<g>
		
			<linearGradient id="SVGID_16_" gradientUnits="userSpaceOnUse" x1="-78.939" y1="287.9733" x2="-63.8325" y2="325.8677" gradientTransform="matrix(1 0 0 1 536.9744 0)">
			<stop  offset="0" style="stop-color:#09005D"/>
			<stop  offset="1" style="stop-color:#1A0F91"/>
		</linearGradient>
		<path style="fill:url(#SVGID_16_);" d="M466.99,308.36c0,0,5.09,2.48,6.03,5.32c0.75,2.28,6.38,2.58,6.94,7.07
			c0.29,2.32,2,4.18,4.31,4.53c5.75,0.88,14.61,3.87,16.03,13.85c1.08,7.62-2.8,10.51-6.88,11.51c-3,0.73-4.99,3.65-4.38,6.67
			c0.58,2.9-0.29,6.25-5.31,8.9c-11.26,5.94-22.5-14.08-22.5-14.08l-2.3-34.95L466.99,308.36z"/>
		
			<linearGradient id="SVGID_17_" gradientUnits="userSpaceOnUse" x1="-579.2943" y1="1688.6576" x2="-551.3863" y2="1752.1547" gradientTransform="matrix(0.9776 -0.2106 0.2106 0.9776 633.2012 -1455.9779)">
			<stop  offset="0" style="stop-color:#FEBBBA"/>
			<stop  offset="1" style="stop-color:#FF928E"/>
		</linearGradient>
		<path class="st34" d="M405.73,300.07c0,0,22.48,35.56,49.21,42.43c0,0-5.21,14.84-9.23,16.53c0,0-32.89-27.44-41.34-53.91
			L405.73,300.07z"/>
		<linearGradient id="SVGID_18_" gradientUnits="userSpaceOnUse" x1="501.3233" y1="556.1562" x2="546.1517" y2="493.3966">
			<stop  offset="0" style="stop-color:#4F52FF"/>
			<stop  offset="1" style="stop-color:#4042E2"/>
		</linearGradient>
		<path class="st36" d="M513.27,527.5l0.73,5.99c0.14,1.14,1.03,2.03,2.17,2.16c1.92,0.22,5,0.44,8.02,0.13
			c1.32-0.14,2.18-1.48,1.78-2.75c-0.73-2.31-2.08-5.78-4.02-7.83h-6.64C514.08,525.21,513.13,526.29,513.27,527.5z"/>
		
			<linearGradient id="SVGID_19_" gradientUnits="userSpaceOnUse" x1="-77.8438" y1="581.0917" x2="-59.4097" y2="365.6424" gradientTransform="matrix(1 0 0 1 536.9744 0)">
			<stop  offset="0" style="stop-color:#FEBBBA"/>
			<stop  offset="1" style="stop-color:#FF928E"/>
		</linearGradient>
		<path class="st40" d="M461.23,457.34l-1.12,6.6c0,0,3.76,38.04,4.42,53.26c0.1,2.39-0.51,4.74-1.76,6.78l-6.53,10.6l16.6-9.79
			l0.33-2.03l-2.72-3.74l3.56-42.62c0.21-2.5-0.31-5.01-1.49-7.23l-3.43-6.45L461.23,457.34z"/>
		<linearGradient id="SVGID_20_" gradientUnits="userSpaceOnUse" x1="476.226" y1="510.1735" x2="449.3291" y2="562.2596">
			<stop  offset="0" style="stop-color:#4F52FF"/>
			<stop  offset="1" style="stop-color:#4042E2"/>
		</linearGradient>
		<path class="st41" d="M455.15,536.11h5.3c0.99,0,1.93-0.46,2.53-1.24c1.65-2.15,5.07-6.33,6.71-6.44c2.2-0.15,1.92,7.68,1.92,7.68
			h1.23l1.56-9.73c0.39-2.45-0.82-4.87-3.02-6.02c0,0-0.5,3.72-3.23,5.37c-2.73,1.65-11.11,7.54-11.11,7.54s-1.03-0.15-2.15,0.06
			C453.21,533.64,453.45,536.11,455.15,536.11z"/>
		
			<linearGradient id="SVGID_21_" gradientUnits="userSpaceOnUse" x1="-40.7624" y1="584.2975" x2="-22.3234" y2="368.7916" gradientTransform="matrix(1 0 0 1 536.9744 0)">
			<stop  offset="0" style="stop-color:#FEBBBA"/>
			<stop  offset="1" style="stop-color:#FF928E"/>
		</linearGradient>
		<path style="fill:url(#SVGID_21_);" d="M483.96,460.47c0,0,22,41.73,25.5,51.26c3.5,9.53,4.72,17.48,4.77,18.23
			c0.07,1.18,1.54,2.3,5.57,2.3c2.08,0,3.1-0.83,3.6-1.64c0.43-0.69,0.45-1.55,0.09-2.28c-1.27-2.58-5.31-10.81-6.81-14.54
			c-1.79-4.46-5.63-24.66-7.73-31.68c-2.11-7.02-4.49-14.64-13.66-21.66C495.29,460.47,488.99,454.3,483.96,460.47z"/>
		<linearGradient id="SVGID_22_" gradientUnits="userSpaceOnUse" x1="526.4334" y1="251.8229" x2="486.0901" y2="320.9829">
			<stop  offset="0" style="stop-color:#FF928E"/>
			<stop  offset="1" style="stop-color:#FE7062"/>
		</linearGradient>
		<path class="st44" d="M470.07,392.09c-5.68-24.05,8.7-37.65,8.7-37.65c-9.07-8.71-25.6-12.67-25.6-12.67s-15.77,11.53-13.9,20.56
			c1.1,5.29,11.09,31.69,11.09,31.69S459.59,398.38,470.07,392.09z"/>
		
			<linearGradient id="SVGID_23_" gradientUnits="userSpaceOnUse" x1="-44.4247" y1="396.5199" x2="-90.5126" y2="470.2605" gradientTransform="matrix(1 0 0 1 536.9744 0)">
			<stop  offset="0" style="stop-color:#09005D"/>
			<stop  offset="1" style="stop-color:#1A0F91"/>
		</linearGradient>
		<path class="st45" d="M482.65,403.99c-2.31-6.96-12.58-11.91-12.58-11.91c-10.48,6.29-19.71,1.92-19.71,1.92
			s-2.07,7.92-0.64,15.28c1.43,7.36,10.4,54.65,10.4,54.65c14.13,2.86,35.87-2.88,35.87-2.88
			C486.98,445.07,484.96,410.95,482.65,403.99z"/>
		
			<linearGradient id="SVGID_24_" gradientUnits="userSpaceOnUse" x1="-79.8655" y1="368.7232" x2="-76.4027" y2="343.3903" gradientTransform="matrix(1 0 0 1 536.9744 0)">
			<stop  offset="0" style="stop-color:#FEBBBA"/>
			<stop  offset="1" style="stop-color:#FF928E"/>
		</linearGradient>
		<path class="st46" d="M463.48,325.87l4.61,20.73c0.44,1.83-1.22,1.53-3.07,1.18c-3.02-0.57-6.92-1.74-8.22-4.1
			c-0.13-0.24-0.2-0.51-0.24-0.78l-1.98-14.37c-0.16-1.14,0.46-2.25,1.51-2.71l3.83-1.7C461.39,323.47,463.1,324.31,463.48,325.87z"
			/>
		
			<linearGradient id="SVGID_26_" gradientUnits="userSpaceOnUse" x1="-65.5936" y1="381.0681" x2="-42.5905" y2="381.0681" gradientTransform="matrix(1 0 0 1 536.9744 0)">
			<stop  offset="0" style="stop-color:#FEBBBA"/>
			<stop  offset="1" style="stop-color:#FF928E"/>
		</linearGradient>
		<path style="fill:url(#SVGID_26_);" d="M478.77,354.44c0,0,32.21,23.04,4.12,47.25c0,0-1.07,1.21-3.18,1.84
			c-1.06,0.32-4.21,2.7-5.81,3.94c-0.51,0.4-1.25,0.26-1.6-0.29c-0.27-0.43-0.3-0.97-0.08-1.43l3.99-8.43
			c1.11-1.03,2.8-1.11,3.99-0.17c0.76,0.6,1.87,0.35,2.3-0.52c2.17-4.42,6.27-17.43-10.51-32.12c-0.63-0.55-0.79-1.47-0.4-2.21
			C472.77,360.03,475.47,355.53,478.77,354.44z"/>
		<g>
			
				<linearGradient id="SVGID_28_" gradientUnits="userSpaceOnUse" x1="-507.7907" y1="1604.3864" x2="-477.5764" y2="1550.615" gradientTransform="matrix(0.9809 -0.1943 0.1943 0.9809 637.3027 -1334.1914)">
				<stop  offset="0" style="stop-color:#FEBBBA"/>
				<stop  offset="1" style="stop-color:#FF928E"/>
			</linearGradient>
			<path style="fill:url(#SVGID_28_);" d="M454.64,306.98c0,0-4.91,3.33-7.02,11.79c-2.11,8.47,1.32,11.51,4.84,11.32
				c3.52-0.19,8.61-1.27,13.03-7.35C469.9,316.67,461.08,302.92,454.64,306.98z"/>
			
				<linearGradient id="SVGID_30_" gradientUnits="userSpaceOnUse" x1="-501.2929" y1="1557.5601" x2="-486.1857" y2="1595.4561" gradientTransform="matrix(0.9809 -0.1943 0.1943 0.9809 637.3027 -1334.1914)">
				<stop  offset="0" style="stop-color:#09005D"/>
				<stop  offset="1" style="stop-color:#1A0F91"/>
			</linearGradient>
			<path style="fill:url(#SVGID_30_);" d="M461.03,319.33c0,0,1.8-12.13-8.27-10.28l-2.04,2.12c0,0-4.93-5.55,0.53-9.75
				c5.46-4.2,13.03-3.12,17.22,4.52c4.19,7.64,5.71,13.01,2.2,17.76c-3.51,4.75-6.15,0.68-6.15,0.68s1.61-4.11,0.27-5.87
				c-1.34-1.76-3.06,1.03-3.06,1.03L461.03,319.33z"/>
			
				<linearGradient id="SVGID_32_" gradientUnits="userSpaceOnUse" x1="-501.3593" y1="1608.0007" x2="-471.1451" y2="1554.2294" gradientTransform="matrix(0.9809 -0.1943 0.1943 0.9809 637.3027 -1334.1914)">
				<stop  offset="0" style="stop-color:#FEBBBA"/>
				<stop  offset="1" style="stop-color:#FF928E"/>
			</linearGradient>
			<path style="fill:url(#SVGID_32_);" d="M462.41,320.37c0,0,0.89-6.24,4.08-4.46c3.19,1.78-1.15,5.83-2.89,7.21L462.41,320.37z"/>
		</g>
		<g>
			
				<linearGradient id="SVGID_34_" gradientUnits="userSpaceOnUse" x1="-584.8094" y1="1691.0817" x2="-556.9015" y2="1754.5786" gradientTransform="matrix(0.9776 -0.2106 0.2106 0.9776 633.2012 -1455.9779)">
				<stop  offset="0" style="stop-color:#FEBBBA"/>
				<stop  offset="1" style="stop-color:#FF928E"/>
			</linearGradient>
			<path style="fill:url(#SVGID_34_);" d="M405.88,307.39c-0.07,0.73,2.66,1.24,3.53-1.89c-0.24-1.36-0.66-7.3-1.7-8.23
				c-5.54-4.92-15.43-10.45-15.43-10.45c-1.11,1.69,0.34,2.8,0.34,2.8l4.93,3.33c-0.51,1.71-1.27,3.21-1.35,5.16
				c-0.06,1.47,0.48,2.92,1.46,4.04c0.98,1.12,2.3,2.57,3.5,3.67C403.41,307.9,405.88,307.39,405.88,307.39z"/>
			
				<linearGradient id="SVGID_36_" gradientUnits="userSpaceOnUse" x1="-13294.8711" y1="299.891" x2="-13287.3564" y2="299.891" gradientTransform="matrix(-1 0 0 1 -12888.459 0)">
				<stop  offset="0" style="stop-color:#FEBBBA"/>
				<stop  offset="1" style="stop-color:#FF928E"/>
			</linearGradient>
			<path style="fill:url(#SVGID_36_);" d="M403.2,304.97l0.75-0.31c-0.1-0.24-2.47-6-3.61-7.2c-0.44-0.45-0.65-0.84-0.63-1.16
				c0.01-0.17,0.09-0.34,0.25-0.51l3.99,2.14l1.76,2.76l0.69-0.44l-1.88-2.94l-4.68-2.5l-0.21,0.17c-0.47,0.39-0.72,0.8-0.75,1.27
				c-0.03,0.56,0.24,1.14,0.85,1.77C400.61,298.93,402.53,303.34,403.2,304.97z"/>
		</g>
	</g>
</g>
</svg>
