<?xml version="1.0" encoding="utf-8"?>
<!-- Generator: Adobe Illustrator 24.3.0, SVG Export Plug-In . SVG Version: 6.00 Build 0)  -->
<svg version="1.1" id="Layer_1" xmlns="http://www.w3.org/2000/svg" xmlns:xlink="http://www.w3.org/1999/xlink" x="0px" y="0px"
	 viewBox="0 0 700 600" style="enable-background:new 0 0 700 600;" xml:space="preserve">
<style type="text/css">
	.st0{fill-rule:evenodd;clip-rule:evenodd;fill:#E6E6E6;}
	.st1{fill-rule:evenodd;clip-rule:evenodd;}
	.st2{fill-rule:evenodd;clip-rule:evenodd;fill:#333333;}
	.st3{fill-rule:evenodd;clip-rule:evenodd;fill:#464646;}
	.st4{fill-rule:evenodd;clip-rule:evenodd;fill:#151515;}
	.st5{fill-rule:evenodd;clip-rule:evenodd;fill:url(#SVGID_1_);}
	.st6{filter:url(#Adobe_OpacityMaskFilter);}
	.st7{fill-rule:evenodd;clip-rule:evenodd;fill:#FAFAFA;}
	.st8{mask:url(#SVGID_2_);}
	.st9{fill-rule:evenodd;clip-rule:evenodd;fill:#FFFFFF;}
	.st10{fill-rule:evenodd;clip-rule:evenodd;fill:#FDC00F;}
	.st11{fill-rule:evenodd;clip-rule:evenodd;fill:#131313;}
	.st12{fill-rule:evenodd;clip-rule:evenodd;fill:#C40000;}
	.st13{fill-rule:evenodd;clip-rule:evenodd;fill:url(#SVGID_3_);}
	.st14{fill-rule:evenodd;clip-rule:evenodd;fill:url(#SVGID_4_);}
	.st15{fill-rule:evenodd;clip-rule:evenodd;fill:url(#SVGID_5_);}
	.st16{fill-rule:evenodd;clip-rule:evenodd;fill:url(#SVGID_6_);}
	.st17{fill-rule:evenodd;clip-rule:evenodd;fill:#CACACA;}
	.st18{fill-rule:evenodd;clip-rule:evenodd;fill:url(#SVGID_7_);}
	
		.st19{fill-rule:evenodd;clip-rule:evenodd;fill:#131313;stroke:#000000;stroke-width:2.4001;stroke-linecap:round;stroke-linejoin:round;stroke-miterlimit:22.9256;}
	
		.st20{fill-rule:evenodd;clip-rule:evenodd;fill:#464646;stroke:#000000;stroke-width:2.4001;stroke-linecap:round;stroke-linejoin:round;stroke-miterlimit:22.9256;}
	.st21{fill-rule:evenodd;clip-rule:evenodd;fill:url(#SVGID_8_);}
	.st22{fill-rule:evenodd;clip-rule:evenodd;fill:url(#SVGID_9_);}
	.st23{fill-rule:evenodd;clip-rule:evenodd;fill:url(#SVGID_10_);}
	.st24{fill-rule:evenodd;clip-rule:evenodd;fill:url(#SVGID_11_);}
	.st25{fill-rule:evenodd;clip-rule:evenodd;fill:url(#SVGID_12_);}
	.st26{fill-rule:evenodd;clip-rule:evenodd;fill:url(#SVGID_13_);}
	.st27{fill-rule:evenodd;clip-rule:evenodd;fill:url(#SVGID_14_);}
	.st28{fill-rule:evenodd;clip-rule:evenodd;fill:url(#SVGID_15_);}
	.st29{fill-rule:evenodd;clip-rule:evenodd;fill:url(#SVGID_16_);}
	.st30{fill-rule:evenodd;clip-rule:evenodd;fill:url(#SVGID_17_);}
	.st31{filter:url(#Adobe_OpacityMaskFilter_1_);}
	.st32{fill-rule:evenodd;clip-rule:evenodd;fill:url(#SVGID_19_);}
	.st33{opacity:0.3;mask:url(#SVGID_18_);fill-rule:evenodd;clip-rule:evenodd;}
	.st34{filter:url(#Adobe_OpacityMaskFilter_2_);}
	.st35{fill-rule:evenodd;clip-rule:evenodd;fill:url(#SVGID_21_);}
	.st36{opacity:0.3;mask:url(#SVGID_20_);fill-rule:evenodd;clip-rule:evenodd;}
	.st37{filter:url(#Adobe_OpacityMaskFilter_3_);}
	.st38{fill-rule:evenodd;clip-rule:evenodd;fill:url(#SVGID_23_);}
	.st39{mask:url(#SVGID_22_);fill-rule:evenodd;clip-rule:evenodd;fill:#FFFFFF;}
	.st40{filter:url(#Adobe_OpacityMaskFilter_4_);}
	.st41{fill-rule:evenodd;clip-rule:evenodd;fill:url(#SVGID_25_);}
	.st42{opacity:0.6;mask:url(#SVGID_24_);fill-rule:evenodd;clip-rule:evenodd;fill:#FFFFFF;}
	.st43{filter:url(#Adobe_OpacityMaskFilter_5_);}
	.st44{fill-rule:evenodd;clip-rule:evenodd;fill:url(#SVGID_27_);}
	.st45{opacity:0.6;mask:url(#SVGID_26_);fill-rule:evenodd;clip-rule:evenodd;fill:#FFFFFF;}
	.st46{filter:url(#Adobe_OpacityMaskFilter_6_);}
	.st47{fill-rule:evenodd;clip-rule:evenodd;fill:url(#SVGID_29_);}
	.st48{mask:url(#SVGID_28_);fill-rule:evenodd;clip-rule:evenodd;fill:#FFFFFF;}
	.st49{filter:url(#Adobe_OpacityMaskFilter_7_);}
	.st50{fill-rule:evenodd;clip-rule:evenodd;fill:url(#SVGID_31_);}
	.st51{mask:url(#SVGID_30_);fill-rule:evenodd;clip-rule:evenodd;fill:#FFFFFF;}
	.st52{filter:url(#Adobe_OpacityMaskFilter_8_);}
	.st53{fill-rule:evenodd;clip-rule:evenodd;fill:url(#SVGID_33_);}
	.st54{mask:url(#SVGID_32_);fill-rule:evenodd;clip-rule:evenodd;fill:#FFFFFF;}
	.st55{filter:url(#Adobe_OpacityMaskFilter_9_);}
	.st56{fill-rule:evenodd;clip-rule:evenodd;fill:url(#SVGID_35_);}
	.st57{opacity:0.9;mask:url(#SVGID_34_);fill-rule:evenodd;clip-rule:evenodd;fill:#FFFFFF;}
	.st58{filter:url(#Adobe_OpacityMaskFilter_10_);}
	.st59{fill-rule:evenodd;clip-rule:evenodd;fill:url(#SVGID_37_);}
	.st60{opacity:0.8;mask:url(#SVGID_36_);fill-rule:evenodd;clip-rule:evenodd;fill:#FFFFFF;}
	.st61{fill:#E1E1E1;}
	.st62{fill:#ECECEC;}
	.st63{fill:#FFFFFF;}
	.st64{fill:#FFBF9D;}
	.st65{fill:#FF9A6C;}
	.st66{fill:#1A2E35;}
	.st67{fill:#375A64;}
	.st68{fill:none;stroke:#44555B;stroke-width:0.05;stroke-miterlimit:10;}
	.st69{fill:#FF735D;}
	.st70{opacity:0.3;}
	.st71{fill:#FAFAFA;}
	.st72{opacity:0.4;}
	.st73{opacity:0.58;fill:#3E479B;}
	.st74{opacity:0.81;fill:#E1E2FE;}
	.st75{opacity:0.14;fill:#3E479B;}
	.st76{fill:#F7A9B4;}
	.st77{opacity:0.39;fill:#F7A9B4;}
	.st78{fill:#599AF2;}
	.st79{opacity:0.07;fill:#ECF1F7;}
	.st80{fill:#3E479B;}
	.st81{opacity:0.39;fill:#6D6CD4;}
	.st82{opacity:0.39;fill:#3E479B;}
	.st83{fill:#6161B5;}
	.st84{opacity:0.28;}
	.st85{opacity:0.21;fill:#FFFFFF;}
	.st86{opacity:0.76;fill:#FFFFFF;}
	.st87{fill:none;}
	.st88{fill:#4C65BA;}
	.st89{opacity:0.43;fill:#3E479B;}
	.st90{fill:#F28393;}
	.st91{opacity:0.12;fill:#FFFFFF;}
	.st92{fill:url(#SVGID_38_);}
	.st93{fill:#91B3FA;}
	.st94{fill:#DCE5FE;}
	.st95{fill:#BDD0FB;}
	.st96{fill:url(#SVGID_39_);}
	.st97{opacity:0.73;fill:#FFFFFF;}
	.st98{fill:url(#SVGID_40_);}
	.st99{fill:url(#SVGID_41_);}
	.st100{opacity:0.51;fill:#FFFFFF;}
	.st101{fill:url(#SVGID_42_);}
	.st102{fill:url(#SVGID_43_);}
	.st103{fill:url(#SVGID_44_);}
	.st104{fill:url(#SVGID_45_);}
	.st105{fill:url(#SVGID_46_);}
	.st106{fill:url(#SVGID_47_);}
	.st107{fill:url(#SVGID_48_);}
	.st108{fill:url(#SVGID_49_);}
	.st109{fill:url(#SVGID_50_);}
	.st110{fill:url(#SVGID_51_);}
	.st111{fill:url(#SVGID_52_);}
	.st112{fill:url(#SVGID_53_);}
	.st113{fill:url(#SVGID_54_);}
	.st114{fill:url(#SVGID_55_);}
	.st115{fill:url(#SVGID_56_);}
	.st116{fill:url(#SVGID_57_);}
	.st117{fill:url(#SVGID_58_);}
	.st118{fill:url(#SVGID_59_);}
	.st119{fill:url(#SVGID_60_);}
	.st120{fill:url(#SVGID_61_);}
	.st121{fill:url(#SVGID_62_);}
	.st122{fill:url(#SVGID_63_);}
	.st123{fill:url(#SVGID_64_);}
	.st124{fill:url(#SVGID_65_);}
	.st125{fill:url(#SVGID_66_);}
	.st126{fill:url(#SVGID_67_);}
	.st127{fill:url(#SVGID_68_);}
	.st128{fill:url(#SVGID_69_);}
	.st129{fill:url(#SVGID_70_);}
	.st130{fill:url(#SVGID_71_);}
	.st131{fill:url(#SVGID_72_);}
	.st132{fill:url(#SVGID_73_);}
	.st133{fill:url(#SVGID_74_);}
	.st134{fill:url(#SVGID_75_);}
	.st135{fill:url(#SVGID_76_);}
	.st136{fill:url(#SVGID_77_);}
	.st137{fill:url(#SVGID_78_);}
	.st138{fill:url(#SVGID_79_);}
	.st139{fill:url(#SVGID_80_);}
	.st140{fill:url(#SVGID_81_);}
	.st141{fill:url(#SVGID_82_);}
	.st142{fill:url(#SVGID_83_);}
	.st143{fill:url(#SVGID_84_);}
	.st144{fill:url(#SVGID_85_);}
	.st145{fill:url(#SVGID_86_);}
	.st146{fill:url(#SVGID_87_);}
	.st147{fill:url(#SVGID_88_);}
	.st148{fill:url(#SVGID_89_);}
	.st149{fill:url(#SVGID_90_);}
	.st150{fill:url(#SVGID_91_);}
	.st151{fill:url(#SVGID_92_);}
	.st152{fill:url(#SVGID_93_);}
	.st153{fill:url(#SVGID_94_);}
	.st154{fill:url(#SVGID_95_);}
	.st155{fill:url(#SVGID_96_);}
	.st156{fill:url(#SVGID_97_);}
	.st157{fill:url(#SVGID_98_);}
	.st158{fill:url(#SVGID_99_);}
	.st159{fill:url(#SVGID_100_);}
	.st160{fill:url(#SVGID_101_);}
	.st161{fill:url(#SVGID_102_);}
	.st162{fill:url(#SVGID_103_);}
	.st163{fill:url(#SVGID_104_);}
	.st164{fill:url(#SVGID_105_);}
	.st165{fill:url(#SVGID_106_);}
	.st166{fill:url(#SVGID_107_);}
	.st167{fill:url(#SVGID_108_);}
	.st168{fill:url(#SVGID_109_);}
	.st169{fill:url(#SVGID_110_);}
	.st170{fill:url(#SVGID_111_);}
	.st171{fill:url(#SVGID_112_);}
	.st172{fill:url(#SVGID_113_);}
	.st173{fill:url(#SVGID_114_);}
	.st174{fill:url(#SVGID_115_);}
	.st175{fill:url(#SVGID_116_);}
	.st176{fill:url(#SVGID_117_);}
	.st177{fill:url(#SVGID_118_);}
	.st178{fill:url(#SVGID_119_);}
	.st179{fill:url(#SVGID_120_);}
	.st180{fill:url(#SVGID_121_);}
	.st181{fill:url(#SVGID_122_);}
	.st182{fill:url(#SVGID_123_);}
	.st183{fill:url(#SVGID_124_);}
	.st184{fill:url(#SVGID_125_);}
	.st185{fill:url(#SVGID_126_);}
	.st186{fill:url(#SVGID_127_);}
	.st187{fill:url(#SVGID_128_);}
	.st188{fill:url(#SVGID_129_);}
	.st189{fill:url(#SVGID_130_);}
	.st190{fill:url(#SVGID_131_);}
	.st191{fill:url(#SVGID_132_);}
	.st192{fill:url(#SVGID_133_);}
	.st193{fill:url(#SVGID_134_);}
	.st194{fill:url(#SVGID_135_);}
	.st195{fill:url(#SVGID_136_);}
	.st196{fill:url(#SVGID_137_);}
	.st197{fill:url(#SVGID_138_);}
	.st198{fill:url(#SVGID_139_);}
	.st199{fill:url(#SVGID_140_);}
	.st200{fill:url(#SVGID_141_);}
	.st201{fill:url(#SVGID_142_);}
	.st202{fill:url(#SVGID_143_);}
	.st203{fill:url(#SVGID_144_);}
	.st204{fill:url(#SVGID_145_);}
	.st205{fill:url(#SVGID_146_);}
	.st206{fill:url(#SVGID_147_);}
	.st207{fill:url(#SVGID_148_);}
	.st208{fill:url(#SVGID_149_);}
	.st209{fill:url(#SVGID_150_);}
	.st210{fill:url(#SVGID_151_);}
	.st211{fill:url(#SVGID_152_);}
	.st212{fill:url(#SVGID_153_);}
	.st213{fill:url(#SVGID_154_);}
	.st214{fill:url(#SVGID_155_);}
	.st215{fill:url(#SVGID_156_);}
	.st216{fill:url(#SVGID_157_);}
	.st217{fill:url(#SVGID_158_);}
	.st218{fill:url(#SVGID_159_);}
	.st219{fill:url(#SVGID_160_);}
	.st220{fill:url(#SVGID_161_);}
	.st221{fill:url(#SVGID_162_);}
	.st222{fill:url(#SVGID_163_);}
	.st223{fill:url(#SVGID_164_);}
	.st224{fill:url(#SVGID_165_);}
	.st225{fill:url(#SVGID_166_);}
	.st226{fill:url(#SVGID_167_);}
	.st227{fill:url(#SVGID_168_);}
	.st228{fill:url(#SVGID_169_);}
	.st229{fill:url(#SVGID_170_);}
	.st230{fill:url(#SVGID_171_);}
	.st231{fill:url(#SVGID_172_);}
	.st232{fill:url(#SVGID_173_);}
	.st233{fill:url(#SVGID_174_);}
	.st234{fill:url(#SVGID_175_);}
	.st235{fill:url(#SVGID_176_);}
	.st236{fill:url(#SVGID_177_);}
	.st237{fill:url(#SVGID_178_);}
	.st238{fill:url(#SVGID_179_);}
	.st239{fill:url(#SVGID_180_);}
	.st240{fill:url(#SVGID_181_);}
	.st241{fill:url(#SVGID_182_);}
	.st242{fill:url(#SVGID_183_);}
	.st243{fill:url(#SVGID_184_);}
	.st244{fill:url(#SVGID_185_);}
	.st245{fill:url(#SVGID_186_);}
	.st246{fill:url(#SVGID_187_);}
	.st247{fill:url(#SVGID_188_);}
	.st248{fill:url(#SVGID_189_);}
	.st249{fill:url(#SVGID_190_);}
	.st250{fill:url(#SVGID_191_);}
	.st251{fill:url(#SVGID_192_);}
	.st252{fill:url(#SVGID_193_);}
	.st253{fill:url(#SVGID_194_);}
	.st254{fill:url(#SVGID_195_);}
	.st255{fill:url(#SVGID_196_);}
	.st256{fill:url(#SVGID_197_);}
	.st257{fill:url(#SVGID_198_);}
	.st258{fill:url(#SVGID_199_);}
	.st259{fill:url(#SVGID_200_);}
	.st260{fill:url(#SVGID_201_);}
	.st261{fill:url(#SVGID_202_);}
	.st262{fill:url(#SVGID_203_);}
	.st263{fill:url(#SVGID_204_);}
	.st264{fill:url(#SVGID_205_);}
	.st265{fill:url(#SVGID_206_);}
	.st266{fill:url(#SVGID_207_);}
	.st267{fill:url(#SVGID_208_);}
	.st268{fill:url(#SVGID_209_);}
	.st269{fill:url(#SVGID_210_);}
	.st270{fill:url(#SVGID_211_);}
	.st271{fill:url(#SVGID_212_);}
	.st272{fill:url(#SVGID_213_);}
	.st273{fill:url(#SVGID_214_);}
	.st274{fill:url(#SVGID_215_);}
	.st275{fill:url(#SVGID_216_);}
	.st276{fill:url(#SVGID_217_);}
	.st277{fill:url(#SVGID_218_);}
	.st278{fill:url(#SVGID_219_);}
	.st279{fill:url(#SVGID_220_);}
	.st280{fill:url(#SVGID_221_);}
	.st281{fill:url(#SVGID_222_);}
	.st282{fill:url(#SVGID_223_);}
	.st283{fill:url(#SVGID_224_);}
	.st284{fill:url(#SVGID_225_);}
	.st285{fill:url(#SVGID_226_);}
	.st286{fill:url(#SVGID_227_);}
	.st287{fill:url(#SVGID_228_);}
	.st288{fill:url(#SVGID_229_);}
	.st289{fill:url(#SVGID_230_);}
	.st290{fill:url(#SVGID_231_);}
	.st291{fill:url(#SVGID_232_);}
	.st292{fill:url(#SVGID_233_);}
	.st293{fill:url(#SVGID_234_);}
	.st294{fill:url(#SVGID_235_);}
	.st295{fill:url(#SVGID_236_);}
	.st296{fill:url(#SVGID_237_);}
	.st297{fill:url(#SVGID_238_);}
	.st298{fill:url(#SVGID_239_);}
	.st299{fill:url(#SVGID_240_);}
	.st300{fill:url(#SVGID_241_);}
	.st301{fill:url(#SVGID_242_);}
	.st302{fill:url(#SVGID_243_);}
	.st303{fill:url(#SVGID_244_);}
	.st304{fill:url(#SVGID_245_);}
	.st305{fill:url(#SVGID_246_);}
	.st306{fill:url(#SVGID_247_);}
	.st307{fill:url(#SVGID_248_);}
	.st308{fill:url(#SVGID_249_);}
	.st309{fill:url(#SVGID_250_);}
	.st310{fill:url(#SVGID_251_);}
	.st311{fill:url(#SVGID_252_);}
	.st312{fill:url(#SVGID_253_);}
	.st313{fill:url(#SVGID_254_);}
	.st314{fill:url(#SVGID_255_);}
	.st315{fill:url(#SVGID_256_);}
	.st316{fill:url(#SVGID_257_);}
	.st317{fill:url(#SVGID_258_);}
	.st318{fill:url(#SVGID_259_);}
	.st319{fill:url(#SVGID_260_);}
	.st320{fill:url(#SVGID_261_);}
	.st321{fill:url(#SVGID_262_);}
	.st322{fill:url(#SVGID_263_);}
	.st323{fill:url(#SVGID_264_);}
	.st324{fill:#E8F2FC;stroke:#000000;stroke-width:3;stroke-linecap:round;stroke-linejoin:round;}
	.st325{fill:#FFFFFF;stroke:#000000;stroke-width:3;stroke-linecap:round;stroke-linejoin:round;}
	.st326{fill:#3B94EC;}
	.st327{fill:#D8DBD7;stroke:#010200;stroke-width:3;}
	.st328{opacity:0.17;fill:#010200;}
	.st329{fill:#FFFFFF;stroke:#020500;stroke-width:3;stroke-linecap:round;stroke-linejoin:round;}
	.st330{fill:#F5F5F5;}
	.st331{fill:#D5E3EF;}
	.st332{fill:none;stroke:#000000;stroke-width:3;stroke-linecap:round;stroke-linejoin:round;}
	.st333{fill:#3B94EC;stroke:#000000;stroke-width:3;stroke-linecap:round;stroke-linejoin:round;}
	.st334{fill:#FFFFFF;stroke:#000000;stroke-width:3;}
	.st335{fill:#E8F2FC;}
	.st336{fill:#3381E0;stroke:#000000;stroke-width:3;stroke-linecap:round;stroke-linejoin:round;}
	.st337{fill:#3B94EC;stroke:#010200;stroke-width:3;}
	.st338{fill:#DDDDDD;stroke:#000000;stroke-width:3;stroke-linecap:round;stroke-linejoin:round;}
	.st339{fill:#DDDDDD;}
	.st340{fill:#231F20;}
	.st341{fill:#FFFFFF;stroke:#000000;stroke-width:3;stroke-miterlimit:10;}
	.st342{fill:#FCFCFC;}
	.st343{opacity:0.46;fill:#707070;}
	.st344{fill:#010200;}
	.st345{fill:#3381E0;}
	.st346{fill:none;stroke:#FFFFFF;stroke-width:3;stroke-linecap:round;stroke-miterlimit:10;}
	.st347{fill:#F5F6F6;}
	.st348{fill:#F0F1F1;}
	.st349{fill:#EBECED;}
	.st350{fill:#E6E7E8;}
	.st351{fill:#E1E3E4;}
	.st352{fill:#DCDEDF;}
	.st353{fill:#D8D9DB;}
	.st354{fill:#D3D5D6;}
	.st355{fill:#CED0D2;}
	.st356{fill:#C9CBCD;}
	.st357{fill:#C4C6C9;}
	.st358{fill:#BFC2C4;}
	.st359{fill:#BABDC0;}
	.st360{fill:#B5B8BB;}
	.st361{fill:#B0B4B7;}
	.st362{fill:#ABAFB2;}
	.st363{fill:#A6AAAE;}
	.st364{fill:#A1A6A9;}
	.st365{fill:#9CA1A5;}
	.st366{fill:#979CA0;}
	.st367{fill:#92979C;}
	.st368{fill:#8D9397;}
	.st369{fill:#898E93;}
	.st370{fill:#84898E;}
	.st371{fill:#7F858A;}
	.st372{fill:#7A8085;}
	.st373{fill:#757B81;}
	.st374{fill:#70767C;}
	.st375{fill:#6B7278;}
	.st376{fill:#666D73;}
	.st377{fill:#556570;}
	.st378{fill:#445059;}
	.st379{fill:#A2D1F5;}
	.st380{fill:#EEF2F5;}
	.st381{fill:#404B54;}
	.st382{fill:#93A4B3;}
	.st383{fill:#BAE1FF;}
	.st384{fill:#41AB27;}
	.st385{fill:#D9F7FC;}
	.st386{fill:#005869;}
	.st387{fill:#1EABB0;}
	.st388{fill:#58D7DB;}
	.st389{fill:#004378;}
	.st390{fill:#147275;}
	.st391{fill:#C4EBF5;}
	.st392{fill:#00414D;}
	.st393{filter:url(#Adobe_OpacityMaskFilter_11_);}
	.st394{mask:url(#SVGID_265_);}
	.st395{fill:#DEA676;}
	.st396{fill:#E8B588;}
	.st397{fill:#06263B;}
	.st398{fill:#1A487E;}
	.st399{fill:#00959B;}
	.st400{fill:#091D38;}
	.st401{fill:#0E426F;}
	.st402{fill:#0E4B6F;}
	.st403{opacity:0.3;fill:#0E4B6F;}
	.st404{fill:#6ED5D8;}
	.st405{fill:#AFC4D7;}
	.st406{fill:#003257;}
	.st407{fill:#ABEBED;}
	.st408{fill:#EEA674;}
	.st409{opacity:0.3;fill:#003257;}
	.st410{fill:#008C91;}
	.st411{fill:#00284B;}
	.st412{opacity:0.5;fill:#AFC4D7;}
	.st413{opacity:0.75;fill:#0A3C5F;}
	.st414{fill:#FD9828;}
	.st415{fill:#00AEB5;}
	.st416{fill:#DFF1FC;}
	.st417{fill:#EDF6FC;}
	.st418{fill:#006E76;}
	.st419{fill:#0A3C5F;}
	.st420{fill:#002F54;}
	.st421{fill:#008188;}
	.st422{fill:#00B2B8;}
	.st423{fill:#024851;}
	.st424{fill:#036F76;}
	.st425{fill:#0CAAB0;}
	.st426{fill:#56C9CC;}
	.st427{fill:#CE5B00;}
	.st428{fill:#E57200;}
	.st429{fill:#FD8A00;}
	.st430{fill:#FFAF2F;}
	.st431{fill:#DD8400;}
	.st432{fill:#F9AF00;}
	.st433{fill:#FFD03C;}
	.st434{fill:#20C2C6;}
	.st435{fill:#0C9197;}
	.st436{fill:#7AD9DB;}
	.st437{fill:#006870;}
	.st438{fill:#003741;}
	.st439{fill:#D26900;}
	.st440{fill:#000F1A;}
	.st441{fill:#002040;}
	.st442{fill:#00365A;}
	.st443{fill:#0B5587;}
	.st444{fill:#006C73;}
	.st445{fill:#47C5C9;}
	.st446{fill:#E9FFFF;}
	.st447{fill:#FD8C10;}
	.st448{fill:#D38400;}
	.st449{fill:#F5AF15;}
	.st450{fill:#F4A600;}
	.st451{fill:#FFD633;}
	.st452{fill:#FEC22E;}
	.st453{fill:#3A3F48;}
	.st454{fill:#08848A;}
	.st455{fill:#4D4D47;}
	.st456{fill:#3C4148;}
	.st457{fill:#6A6D73;}
	.st458{fill:#3F4349;}
	.st459{fill:#009DA4;}
	.st460{fill:#3D4148;}
	.st461{fill:#FD7900;}
	.st462{fill:#10979D;}
	.st463{fill:#F48E00;}
	.st464{fill:#1EC0C4;}
	.st465{fill:#1D1D1B;}
	.st466{fill:#FD9A00;}
	.st467{fill:#3B4048;}
	.st468{fill:url(#SVGID_266_);}
	.st469{fill:url(#SVGID_267_);}
	.st470{fill:url(#SVGID_268_);}
	.st471{fill:url(#SVGID_269_);}
	.st472{fill:url(#SVGID_270_);}
	.st473{fill:url(#SVGID_271_);}
	.st474{fill:url(#SVGID_272_);}
	.st475{fill:url(#SVGID_273_);}
	.st476{fill:url(#SVGID_274_);}
	.st477{fill:url(#SVGID_275_);}
	.st478{fill:url(#SVGID_276_);}
	.st479{fill:url(#SVGID_277_);}
	.st480{fill:url(#SVGID_278_);}
	.st481{fill:url(#SVGID_279_);}
	.st482{fill:url(#SVGID_280_);}
	.st483{fill:url(#SVGID_281_);}
	.st484{fill:url(#SVGID_282_);}
	.st485{fill:url(#SVGID_283_);}
	.st486{fill:url(#SVGID_284_);}
	.st487{fill:url(#SVGID_285_);}
	.st488{fill:url(#SVGID_286_);}
	.st489{fill:url(#SVGID_287_);}
	.st490{fill:url(#SVGID_288_);}
	.st491{fill:url(#SVGID_289_);}
	.st492{fill:url(#SVGID_290_);}
	.st493{fill:url(#SVGID_291_);}
	.st494{fill:url(#SVGID_292_);}
	.st495{fill:url(#SVGID_293_);}
	.st496{fill:url(#SVGID_294_);}
	.st497{fill:url(#SVGID_295_);}
	.st498{fill:url(#SVGID_296_);}
	.st499{fill:url(#SVGID_297_);}
	.st500{fill:url(#SVGID_298_);}
	.st501{fill:url(#SVGID_299_);}
	.st502{fill:url(#SVGID_300_);}
	.st503{fill:#7D97F4;}
	.st504{fill:url(#SVGID_301_);}
	.st505{fill:url(#SVGID_302_);}
	.st506{fill:url(#SVGID_303_);}
	.st507{fill:url(#SVGID_304_);}
	.st508{fill:url(#SVGID_305_);}
	.st509{fill:url(#SVGID_306_);}
	.st510{fill:url(#SVGID_307_);}
	.st511{fill:url(#SVGID_308_);}
	.st512{fill:url(#SVGID_309_);}
	.st513{fill:url(#SVGID_310_);}
	.st514{fill:url(#SVGID_311_);}
	.st515{fill:url(#SVGID_312_);}
	.st516{fill:url(#SVGID_313_);}
	.st517{fill:url(#SVGID_314_);}
	.st518{fill:url(#SVGID_315_);}
	.st519{fill:url(#SVGID_316_);}
	.st520{fill:url(#SVGID_317_);}
	.st521{fill:url(#SVGID_318_);}
	.st522{fill:url(#SVGID_319_);}
	.st523{fill:url(#SVGID_320_);}
	.st524{fill:url(#SVGID_321_);}
	.st525{fill:url(#SVGID_322_);}
	.st526{fill:url(#SVGID_323_);}
	.st527{fill:url(#SVGID_324_);}
	.st528{fill:url(#SVGID_325_);}
	.st529{fill:url(#SVGID_326_);}
	.st530{fill:url(#SVGID_327_);}
	.st531{fill:url(#SVGID_328_);}
	.st532{fill:url(#SVGID_329_);}
	.st533{fill:url(#SVGID_330_);}
	.st534{fill:url(#SVGID_331_);}
	.st535{fill:url(#SVGID_332_);}
	.st536{fill:url(#SVGID_333_);}
	.st537{fill:url(#SVGID_334_);}
	.st538{fill:url(#SVGID_335_);}
	.st539{fill:url(#SVGID_336_);}
	.st540{fill:url(#SVGID_337_);}
	.st541{fill:url(#SVGID_338_);}
	.st542{fill:url(#SVGID_339_);}
	.st543{fill:url(#SVGID_340_);}
	.st544{fill:url(#SVGID_341_);}
	.st545{fill:url(#SVGID_342_);}
	.st546{fill:url(#SVGID_343_);}
	.st547{fill:url(#SVGID_344_);}
	.st548{fill:url(#SVGID_345_);}
	.st549{fill:url(#SVGID_346_);}
	.st550{fill:url(#SVGID_347_);}
	.st551{fill:url(#SVGID_348_);}
	.st552{fill:url(#SVGID_349_);}
	.st553{fill:url(#SVGID_350_);}
	.st554{fill:url(#SVGID_351_);}
	.st555{fill:url(#SVGID_352_);}
	.st556{fill:url(#SVGID_353_);}
	.st557{fill:url(#SVGID_354_);}
	.st558{fill:url(#SVGID_355_);}
	.st559{fill:url(#SVGID_356_);}
	.st560{fill:url(#SVGID_357_);}
	.st561{fill:url(#SVGID_358_);}
	.st562{fill:url(#SVGID_359_);}
	.st563{fill:url(#SVGID_360_);}
	.st564{fill:url(#SVGID_361_);}
	.st565{fill:url(#SVGID_362_);}
	.st566{fill:url(#SVGID_363_);}
	.st567{fill:url(#SVGID_364_);}
	.st568{fill:url(#SVGID_365_);}
	.st569{fill:url(#SVGID_366_);}
	.st570{fill:url(#SVGID_367_);}
	.st571{fill:url(#SVGID_368_);}
	.st572{fill:url(#SVGID_369_);}
	.st573{fill:url(#SVGID_370_);}
	.st574{fill:url(#SVGID_371_);}
	.st575{fill:url(#SVGID_372_);}
	.st576{fill:url(#SVGID_373_);}
	.st577{fill:url(#SVGID_374_);}
	.st578{fill:url(#SVGID_375_);}
	.st579{fill:url(#SVGID_376_);}
	.st580{fill:url(#SVGID_377_);}
	.st581{fill:url(#SVGID_378_);}
	.st582{fill:url(#SVGID_379_);}
	.st583{fill:url(#SVGID_380_);}
	.st584{fill:url(#SVGID_381_);}
	.st585{fill:url(#SVGID_382_);}
	.st586{fill:url(#SVGID_383_);}
	.st587{clip-path:url(#SVGID_385_);fill:url(#SVGID_386_);}
	.st588{fill:url(#SVGID_387_);}
	.st589{opacity:0.62;fill:#FFFFFF;}
	.st590{fill:url(#SVGID_388_);}
	.st591{fill:url(#SVGID_389_);}
	.st592{fill:url(#SVGID_390_);}
	.st593{fill:url(#SVGID_391_);}
	.st594{fill:url(#SVGID_392_);}
	.st595{fill:url(#SVGID_393_);}
	.st596{fill:url(#SVGID_394_);}
	.st597{fill:url(#SVGID_395_);}
	.st598{fill:url(#SVGID_396_);}
	.st599{opacity:0.71;fill:#FFFFFF;}
	.st600{opacity:0.75;fill:#FFFFFF;}
	.st601{fill:url(#SVGID_397_);}
	.st602{fill:url(#SVGID_398_);}
	.st603{fill:url(#SVGID_399_);}
	.st604{fill:url(#SVGID_400_);}
	.st605{fill:url(#SVGID_401_);}
	.st606{fill:url(#SVGID_402_);}
	.st607{fill:url(#SVGID_403_);}
	.st608{fill:url(#SVGID_404_);}
	.st609{fill:url(#SVGID_405_);}
	.st610{fill:url(#SVGID_406_);}
	.st611{fill:#5AE4A7;}
	.st612{opacity:0.7;fill:#FFFFFF;}
	.st613{fill:none;stroke:#1A2E35;stroke-linecap:round;stroke-linejoin:round;stroke-miterlimit:10;}
	.st614{fill:none;stroke:#1A2E35;stroke-width:2;stroke-linecap:round;stroke-linejoin:round;stroke-miterlimit:10;}
	.st615{fill:#FFFFFF;stroke:#1A2E35;stroke-linecap:round;stroke-linejoin:round;stroke-miterlimit:10;}
	.st616{fill:#5AE4A7;stroke:#1A2E35;stroke-linecap:round;stroke-linejoin:round;stroke-miterlimit:10;}
	.st617{opacity:0.5;fill:#5AE4A7;}
	.st618{opacity:0.5;}
	.st619{fill:#999999;stroke:#1A2E35;stroke-linecap:round;stroke-linejoin:round;stroke-miterlimit:10;}
	.st620{fill:#BFBFBF;stroke:#1A2E35;stroke-linecap:round;stroke-linejoin:round;stroke-miterlimit:10;}
	.st621{opacity:0.4;clip-path:url(#XMLID_11_);fill:#FFFFFF;}
	.st622{opacity:0.5;clip-path:url(#XMLID_11_);fill-opacity:0.7;}
	.st623{opacity:0.3;clip-path:url(#XMLID_12_);fill-opacity:0.7;}
	.st624{opacity:0.3;clip-path:url(#XMLID_13_);fill-opacity:0.7;}
	.st625{opacity:0.4;clip-path:url(#XMLID_14_);fill:#FFFFFF;}
	.st626{fill:#1A2E35;stroke:#1A2E35;stroke-linecap:round;stroke-linejoin:round;stroke-miterlimit:10;}
	.st627{fill:#757575;stroke:#1A2E35;stroke-linecap:round;stroke-linejoin:round;stroke-miterlimit:10;}
	.st628{opacity:0.5;clip-path:url(#XMLID_15_);fill-opacity:0.7;}
	.st629{opacity:0.3;clip-path:url(#XMLID_15_);fill-opacity:0.7;}
	.st630{opacity:0.4;clip-path:url(#XMLID_16_);fill:#FFFFFF;}
	.st631{opacity:0.4;fill:#FFFFFF;}
	.st632{opacity:0.2;fill:#FFFFFF;}
	.st633{fill:#CDD9FC;}
	.st634{fill:#27326D;}
	.st635{fill:#DDE6E9;}
	.st636{fill:#3B4AA3;}
	.st637{fill:#9BB3FA;}
	.st638{opacity:0.44;fill:#424242;}
	.st639{opacity:0.44;fill:#0540F2;}
	.st640{fill:#3766F5;}
	.st641{fill:#698CF7;}
	.st642{clip-path:url(#SVGID_412_);}
	.st643{fill:#DD2C10;}
	.st644{fill:#0420BF;}
	.st645{fill:#1675F2;}
	.st646{fill:none;stroke:#082A40;stroke-width:0.7247;stroke-linecap:round;stroke-linejoin:round;stroke-miterlimit:10;}
	.st647{fill:#FDBDBE;}
	.st648{fill:#CE1F0D;}
	.st649{fill:#EA9A9E;}
	.st650{fill:#082A40;}
	.st651{fill:#FF4A26;}
	.st652{fill:#FF9226;}
</style>
<g>
	<g>
		<g>
			<g>
				<path class="st74" d="M76.64,156.11c-1.99,22.39,5.56,45.45-0.75,67.62c-7.56,26.54-29.43,46.42-38.34,72.48
					c-13.17,38.5-12.54,81.65,3.46,119.17c7.71,18.08,18.97,34.89,34.35,46.51c23.71,17.92,54.78,21.85,84,19.57
					c43.48-3.38,89.37-22.21,133.09-17.07c24.13,2.83,31.49,28.95,43.95,46.17c14.09,19.48,33.29,34.78,54.5,44.97
					c39.08,18.76,85.98,20.54,125.93,3.52c42.64-18.16,79.81-62.51,77.37-112.67c-1.13-23.2-10.42-46.25-6.12-69.05
					c5.4-28.61,26.96-54.69,42.58-78c17.25-25.75,27.7-56.45,29.75-87.78c0.02-0.36,0.05-0.71,0.07-1.07
					c3.2-54.04-30.88-103.33-82.31-120.24c0,0-109.42-35.99-109.42-35.99C357.73,17.75,246.8,18.96,144.71,72.54
					c-22.09,11.6-58.06,46.15-65.47,69.97C77.85,147.01,77.05,151.55,76.64,156.11z"/>
			</g>
		</g>
	</g>
	<g>
		<g>
			<path class="st75" d="M528.99,517.15L357.61,415.54c-1.38-0.82-1.83-2.6-1.02-3.97l138.35-233.34c0.82-1.38,2.6-1.83,3.97-1.02
				l171.38,101.61c1.38,0.82,1.83,2.6,1.02,3.97L532.96,516.13C532.15,517.51,530.37,517.97,528.99,517.15z"/>
			<path class="st76" d="M524.54,507.8L353.16,406.19c-1.38-0.82-1.83-2.6-1.02-3.97l138.35-233.34c0.82-1.38,2.6-1.83,3.97-1.02
				l171.38,101.61c1.38,0.82,1.83,2.6,1.02,3.97L528.51,506.78C527.7,508.16,525.92,508.62,524.54,507.8z"/>
		</g>
		<g>
			<path class="st75" d="M573.77,504.94l-195.93-36.12c-1.57-0.29-2.62-1.8-2.33-3.38l49.18-266.78c0.29-1.57,1.8-2.62,3.38-2.33
				l195.93,36.12c1.57,0.29,2.62,1.8,2.33,3.38l-49.18,266.78C576.86,504.19,575.34,505.23,573.77,504.94z"/>
			
				<rect x="358.19" y="240.62" transform="matrix(0.1813 -0.9834 0.9834 0.1813 69.2295 769.4321)" class="st63" width="277.07" height="205.03"/>
			<path class="st77" d="M569.58,497.44l-195.93-36.12c-1.57-0.29-2.62-1.8-2.33-3.38l49.18-266.78c0.29-1.57,1.8-2.62,3.38-2.33
				l195.93,36.12c1.57,0.29,2.62,1.8,2.33,3.38l-49.18,266.78C572.67,496.69,571.16,497.73,569.58,497.44z"/>
			<path class="st63" d="M592.14,257.58c-0.09,0-0.19-0.01-0.29-0.03l-49.05-9.04c-0.85-0.16-1.41-0.97-1.26-1.82
				c0.16-0.85,0.96-1.41,1.82-1.26l49.05,9.04c0.85,0.16,1.41,0.97,1.26,1.82C593.54,257.05,592.89,257.58,592.14,257.58z"/>
			<path class="st63" d="M589.26,273.25c-0.09,0-0.19-0.01-0.29-0.03l-49.05-9.04c-0.85-0.16-1.41-0.97-1.26-1.82
				c0.16-0.85,0.97-1.41,1.82-1.26l49.05,9.04c0.85,0.16,1.41,0.97,1.26,1.82C590.66,272.72,590,273.25,589.26,273.25z"/>
			<path class="st63" d="M586.12,290.28c-0.09,0-0.19-0.01-0.29-0.03l-49.05-9.04c-0.85-0.16-1.41-0.97-1.26-1.82
				c0.16-0.85,0.96-1.41,1.82-1.26l49.05,9.04c0.85,0.16,1.41,0.97,1.26,1.82C587.52,289.75,586.86,290.28,586.12,290.28z"/>
			<g>
				<path class="st75" d="M510.24,304.76l-84.03-15.49c-1.71-0.31-2.83-1.95-2.52-3.66l16.66-90.37c0.31-1.71,1.95-2.83,3.66-2.52
					l84.03,15.49c1.7,0.31,2.83,1.95,2.52,3.66l-16.66,90.37C513.58,303.94,511.94,305.07,510.24,304.76z"/>
				<path class="st78" d="M507.15,299.51l-80.11-14.77c-1.71-0.31-2.83-1.95-2.52-3.66l15.77-85.56c0.31-1.71,1.95-2.83,3.66-2.52
					l80.11,14.77c1.71,0.31,2.83,1.95,2.52,3.66l-15.77,85.56C510.49,298.7,508.85,299.82,507.15,299.51z"/>
				<path class="st79" d="M525.09,219.51L438.8,203.6l1.51-8.16c0.31-1.65,1.89-2.75,3.55-2.44l80.4,14.82
					c1.6,0.29,2.65,1.83,2.36,3.42L525.09,219.51z"/>
				<path class="st80" d="M462.94,246.15c-0.61,0-1.22-0.06-1.84-0.17l-1.19-0.22c-6.34-1.17-10.55-7.28-9.39-13.63l3.01-16.35
					c0.24-1.28,1.47-2.12,2.74-1.88c1.28,0.23,2.12,1.46,1.89,2.74l-3.01,16.35c-0.7,3.8,1.82,7.46,5.62,8.15l1.19,0.22
					c2.95,0.55,5.79-1.41,6.34-4.37l7.63-41.38c0.56-3.05-1.46-5.98-4.5-6.54l-2.04-0.38c-3.25-0.6-6.35,1.55-6.95,4.78l-0.19,1.02
					c-0.24,1.28-1.48,2.12-2.74,1.89c-1.28-0.23-2.12-1.46-1.89-2.74l0.19-1.02c1.07-5.78,6.64-9.62,12.42-8.55l2.04,0.38
					c5.59,1.03,9.31,6.42,8.28,12.01l-7.63,41.38C472.01,242.73,467.74,246.15,462.94,246.15z"/>
				<path class="st63" d="M471.1,211.4c-0.05,0-0.09,0-0.14-0.01l-31.31-5.77c-0.43-0.08-0.71-0.49-0.63-0.91
					c0.08-0.43,0.48-0.71,0.91-0.63l31.31,5.77c0.43,0.08,0.71,0.49,0.63,0.91C471.8,211.14,471.47,211.4,471.1,211.4z"/>
			</g>
			<g>
				<path class="st63" d="M566.83,373.26c-0.09,0-0.19-0.01-0.29-0.03L416.68,345.6c-0.85-0.16-1.41-0.97-1.26-1.82
					c0.16-0.85,0.96-1.42,1.82-1.26l149.86,27.63c0.85,0.16,1.41,0.97,1.26,1.82C568.23,372.73,567.57,373.26,566.83,373.26z"/>
				<path class="st63" d="M556.12,431.38c-0.09,0-0.19-0.01-0.29-0.03l-149.87-27.62c-0.85-0.16-1.41-0.97-1.26-1.82
					c0.16-0.85,0.96-1.42,1.82-1.26l149.87,27.62c0.85,0.16,1.41,0.97,1.26,1.82C557.52,430.86,556.86,431.38,556.12,431.38z"/>
				<path class="st63" d="M482.45,387.75c-0.09,0-0.19-0.01-0.29-0.03l-70.85-13.06c-0.85-0.16-1.41-0.97-1.26-1.82
					c0.16-0.85,0.96-1.42,1.82-1.26l70.85,13.06c0.85,0.16,1.41,0.97,1.26,1.82C483.85,387.23,483.19,387.75,482.45,387.75z"/>
				<path class="st63" d="M492.22,334.8c-0.09,0-0.19-0.01-0.29-0.03l-70.85-13.06c-0.85-0.16-1.41-0.97-1.26-1.82
					c0.16-0.85,0.97-1.41,1.82-1.26l70.85,13.06c0.85,0.16,1.41,0.97,1.26,1.82C493.61,334.27,492.96,334.8,492.22,334.8z"/>
				<path class="st63" d="M561.52,402.09c-0.09,0-0.19-0.01-0.29-0.03l-67.5-12.44c-0.85-0.16-1.41-0.97-1.26-1.82
					c0.16-0.85,0.96-1.42,1.82-1.26l67.5,12.44c0.85,0.16,1.41,0.97,1.26,1.82C562.91,401.57,562.26,402.09,561.52,402.09z"/>
			</g>
		</g>
	</g>
	<g>
		<path class="st63" d="M203.82,59.69h199.92c4.03,0,7.29,3.26,7.29,7.29v294.46c0,13.89-11.26,25.15-25.15,25.15H247.07
			c-29.6,0-53.6-24-53.6-53.6V70.04C193.48,64.33,198.11,59.69,203.82,59.69z"/>
		<path class="st81" d="M196.02,59.69h211.11c2.16,0,3.91,1.75,3.91,3.91v299.01c0,13.24-10.74,23.98-23.98,23.98H242.31
			c-26.97,0-48.83-21.86-48.83-48.83V62.24C193.48,60.83,194.61,59.69,196.02,59.69z"/>
		<path class="st82" d="M214.53,59.69h193.42c1.71,0,3.09,1.38,3.09,3.09v300.65c0,12.79-10.37,23.16-23.16,23.16H260.81
			c-26.52,0-48.01-21.5-48.01-48.01V61.42C212.8,60.47,213.57,59.69,214.53,59.69z"/>
		<g>
			<path class="st83" d="M243.16,386.54v0.06H417.9c20.11,0,36.42-16.3,36.42-36.42v-13.83H277.6v13.83
				C277.6,369.63,262.35,385.51,243.16,386.54z"/>
		</g>
		<g class="st84">
			<path class="st80" d="M266.33,386.54v0.06H421.9c17.91,0,32.42-16.3,32.42-36.42v-13.83H296.99v13.83
				C296.99,369.63,283.41,385.51,266.33,386.54z"/>
		</g>
		<g>
			<path class="st63" d="M378.01,298.67H252.37c-0.87,0-1.57-0.7-1.57-1.57c0-0.86,0.7-1.57,1.57-1.57h125.64
				c0.87,0,1.57,0.7,1.57,1.57C379.58,297.97,378.88,298.67,378.01,298.67z"/>
			<path class="st63" d="M380.65,245.77H250.02c-0.87,0-1.57-0.7-1.57-1.57c0-0.86,0.7-1.57,1.57-1.57h130.63
				c0.87,0,1.57,0.7,1.57,1.57C382.22,245.06,381.51,245.77,380.65,245.77z"/>
			<path class="st63" d="M315.19,272.19h-66.75c-0.86,0-1.57-0.7-1.57-1.57c0-0.87,0.7-1.57,1.57-1.57h66.75
				c0.86,0,1.57,0.7,1.57,1.57C316.76,271.49,316.06,272.19,315.19,272.19z"/>
			<path class="st63" d="M310.13,272.19H253.5c-0.87,0-1.57-0.7-1.57-1.57c0-0.87,0.7-1.57,1.57-1.57h56.63
				c0.87,0,1.57,0.7,1.57,1.57C311.7,271.49,311,272.19,310.13,272.19z"/>
			<path class="st63" d="M336.92,189.2h-85.99c-0.86,0-1.57-0.7-1.57-1.57c0-0.87,0.7-1.57,1.57-1.57h85.99
				c0.87,0,1.57,0.7,1.57,1.57C338.48,188.5,337.78,189.2,336.92,189.2z"/>
			<path class="st63" d="M376.78,189.2h-26.19c-0.87,0-1.57-0.7-1.57-1.57c0-0.87,0.7-1.57,1.57-1.57h26.19
				c0.87,0,1.57,0.7,1.57,1.57C378.35,188.5,377.65,189.2,376.78,189.2z"/>
			<path class="st63" d="M380.65,215.63h-93.11c-0.86,0-1.57-0.7-1.57-1.57c0-0.86,0.7-1.57,1.57-1.57h93.11
				c0.87,0,1.57,0.7,1.57,1.57C382.22,214.93,381.51,215.63,380.65,215.63z"/>
			<path class="st63" d="M278.34,215.63h-28.32c-0.87,0-1.57-0.7-1.57-1.57c0-0.86,0.7-1.57,1.57-1.57h28.32
				c0.86,0,1.57,0.7,1.57,1.57C279.91,214.93,279.2,215.63,278.34,215.63z"/>
			<path class="st63" d="M378.01,166.82H252.37c-0.87,0-1.57-0.7-1.57-1.57c0-0.87,0.7-1.57,1.57-1.57h125.64
				c0.87,0,1.57,0.7,1.57,1.57C379.58,166.12,378.88,166.82,378.01,166.82z"/>
			<path class="st63" d="M378.01,113.92H252.37c-0.87,0-1.57-0.7-1.57-1.57s0.7-1.57,1.57-1.57h125.64c0.87,0,1.57,0.7,1.57,1.57
				S378.88,113.92,378.01,113.92z"/>
			<path class="st63" d="M298.48,140.35h-47.55c-0.86,0-1.57-0.7-1.57-1.57c0-0.86,0.7-1.57,1.57-1.57h47.55
				c0.86,0,1.57,0.7,1.57,1.57C300.05,139.65,299.35,140.35,298.48,140.35z"/>
			<path class="st63" d="M377.06,140.35h-56.63c-0.87,0-1.57-0.7-1.57-1.57c0-0.86,0.7-1.57,1.57-1.57h56.63
				c0.87,0,1.57,0.7,1.57,1.57C378.62,139.65,377.92,140.35,377.06,140.35z"/>
		</g>
	</g>
	<g>
		<g>
			<g>
				
					<ellipse transform="matrix(0.7071 -0.7071 0.7071 0.7071 -39.7043 410.7055)" class="st85" cx="475.91" cy="253.28" rx="99.13" ry="99.13"/>
			</g>
			<g>
				<path class="st86" d="M398.23,260.4c-3.46,0-6.26-2.81-6.26-6.26c0-50.01,40.68-90.69,90.69-90.69c3.46,0,6.26,2.81,6.26,6.26
					c0,3.46-2.81,6.26-6.26,6.26c-43.1,0-78.16,35.06-78.16,78.16C404.5,257.6,401.69,260.4,398.23,260.4z"/>
			</g>
			<path class="st73" d="M475.91,355.54c-56.39,0-102.26-45.88-102.26-102.26c0-56.39,45.88-102.26,102.26-102.26
				c56.39,0,102.26,45.88,102.26,102.26C578.18,309.67,532.3,355.54,475.91,355.54z M475.91,157.28c-52.93,0-96,43.06-96,96
				s43.06,96,96,96s96-43.06,96-96S528.85,157.28,475.91,157.28z"/>
			<g>
				<g>
					<circle class="st87" cx="475.91" cy="253.28" r="99.13"/>
					<g>
						<path class="st80" d="M567.03,324.31c0.15-0.15,0.31-0.26,0.47-0.38c15.1-19.54,24.1-44.04,24.1-70.64
							c0-63.89-51.79-115.68-115.68-115.68s-115.68,51.79-115.68,115.68c0,63.89,51.79,115.68,115.68,115.68
							c26.5,0,50.88-8.94,70.39-23.92l13.38-13.38L567.03,324.31z M475.91,352.41c-54.75,0-99.13-44.38-99.13-99.13
							c0-54.75,44.38-99.13,99.13-99.13s99.13,44.38,99.13,99.13C575.04,308.03,530.66,352.41,475.91,352.41z"/>
						<path class="st80" d="M475.91,370.53c-64.65,0-117.25-52.6-117.25-117.25c0-64.65,52.6-117.25,117.25-117.25
							c64.65,0,117.25,52.6,117.25,117.25c0,26.16-8.44,50.92-24.42,71.6l-0.29,0.29c-0.15,0.12-0.24,0.17-0.3,0.24l-20.89,20.87
							C526.61,362.14,501.94,370.53,475.91,370.53z M475.91,139.17c-62.92,0-114.11,51.19-114.11,114.11s51.19,114.11,114.11,114.11
							c25.29,0,49.27-8.14,69.35-23.54l20.66-20.66c0.15-0.15,0.3-0.28,0.46-0.4c15.47-20.09,23.64-44.13,23.64-69.52
							C590.03,190.36,538.84,139.17,475.91,139.17z M475.91,353.98c-55.53,0-100.7-45.17-100.7-100.7s45.17-100.7,100.7-100.7
							s100.7,45.17,100.7,100.7S531.44,353.98,475.91,353.98z M475.91,155.72c-53.8,0-97.56,43.77-97.56,97.56
							c0,53.8,43.77,97.56,97.56,97.56c53.8,0,97.56-43.77,97.56-97.56C573.48,199.48,529.71,155.72,475.91,155.72z"/>
					</g>
					<path class="st88" d="M564.17,342.39l-4.49-4.49c-1.73-1.73-1.73-4.53,0-6.25l-13.38,13.38l-0.22,0.22
						c-1.73,1.73-1.73,4.53,0,6.25l5.45,5.45C553.32,353.94,558.58,348.05,564.17,342.39z"/>
					<path class="st88" d="M559.68,331.65c-1.73,1.73-1.73,4.53,0,6.25l4.49,4.49c5.41-5.47,11.12-10.7,14.33-12.87l-5.21-5.21
						c-1.58-1.58-4.05-1.7-5.78-0.38c-0.16,0.12-0.32,0.24-0.47,0.38L559.68,331.65z"/>
					<path class="st89" d="M559.68,331.65c-1.73,1.73-1.73,4.53,0,6.25l4.49,4.49c5.41-5.47,11.12-10.7,14.33-12.87l-5.21-5.21
						c-1.58-1.58-4.05-1.7-5.78-0.38c-0.16,0.12-0.32,0.24-0.47,0.38L559.68,331.65z"/>
					<path class="st78" d="M662.43,410.9l-81.46-82.35c-0.29-0.3-1.19,0.1-2.47,0.97c-3.2,2.17-8.92,7.4-14.33,12.87
						c-5.59,5.66-10.85,11.55-12.64,14.56c-0.58,0.98-0.81,1.66-0.55,1.92l81.46,82.35c8.28,8.37,21.71,8.37,29.99,0
						C670.71,432.85,670.71,419.28,662.43,410.9z"/>
				</g>
				<g>
					<g>
						<path class="st75" d="M662.43,410.9l-81.46-82.35c-1.1-1.11-10.38,7.21-18.35,15.43c-6.78,6.99,91.53,105.61,99.81,97.24l0,0
							C670.71,432.85,670.71,419.28,662.43,410.9z"/>
					</g>
				</g>
			</g>
		</g>
		<g>
			<g>
				<path class="st63" d="M361.61,308.66H93.84c-15.64,0-28.33-12.68-28.33-28.33v0c0-15.64,12.68-28.33,28.33-28.33h267.78
					c15.64,0,28.33,12.68,28.33,28.33v0C389.94,295.98,377.26,308.66,361.61,308.66z"/>
				<path class="st78" d="M361.61,308.66h-43.55l-0.21-56.65h43.76c15.64,0,28.33,12.68,28.33,28.33v0
					C389.94,295.98,377.26,308.66,361.61,308.66z"/>
				<g>
					<path class="st63" d="M350.59,290.26c-6.83,0-12.39-5.56-12.39-12.39c0-6.83,5.56-12.39,12.39-12.39
						c6.83,0,12.39,5.56,12.39,12.39c0,3.31-1.29,6.42-3.63,8.76C357.01,288.97,353.9,290.26,350.59,290.26z M350.59,268.61
						c-5.1,0-9.26,4.15-9.26,9.26c0,5.1,4.15,9.26,9.26,9.26c2.47,0,4.8-0.96,6.55-2.71c1.75-1.75,2.71-4.07,2.71-6.55
						C359.85,272.77,355.69,268.61,350.59,268.61z"/>
					<path class="st63" d="M368.02,296.97c-0.4,0-0.8-0.15-1.11-0.46l-9.83-9.83c-0.61-0.61-0.61-1.6,0-2.21
						c0.61-0.61,1.6-0.61,2.22,0l9.83,9.83c0.61,0.61,0.61,1.6,0,2.21C368.82,296.82,368.42,296.97,368.02,296.97z"/>
				</g>
			</g>
		</g>
	</g>
	<g>
		<path class="st90" d="M365.43,367.19H232.14c-9.33,0-16.89-7.56-16.89-16.89v-11.08c0-9.36-7.59-16.95-16.95-16.95h-61.56
			c-9.36,0-16.95,7.59-16.95,16.95v43.76v50.3v81.88c0,8.72,7.07,15.79,15.79,15.79h229.85c8.72,0,15.79-7.07,15.79-15.79V382.98
			C381.22,374.26,374.15,367.19,365.43,367.19z"/>
		<path class="st90" d="M350.74,367.19H217.46c-9.33,0-16.89-7.56-16.89-16.89v-11.08c0-9.36-7.59-16.95-16.95-16.95h-61.56
			c-9.36,0-16.95,7.59-16.95,16.95v43.76v50.3v81.88c0,8.72,7.07,15.79,15.79,15.79h229.85c8.72,0,15.79-7.07,15.79-15.79V382.98
			C366.53,374.26,359.46,367.19,350.74,367.19z"/>
		<path class="st91" d="M350.74,367.19H217.46c-9.33,0-16.89-7.56-16.89-16.89v-11.08c0-9.36-7.59-16.95-16.95-16.95h-61.56
			c-9.36,0-16.95,7.59-16.95,16.95v43.76v50.3v81.88c0,8.72,7.07,15.79,15.79,15.79h229.85c8.72,0,15.79-7.07,15.79-15.79V382.98
			C366.53,374.26,359.46,367.19,350.74,367.19z"/>
		<path class="st91" d="M316.94,367.19H201.99c-8.04,0-14.57-7.56-14.57-16.89v-11.08c0-9.36-6.54-16.95-14.62-16.95h-53.09
			c-8.07,0-14.62,7.59-14.62,16.95v43.76v50.3v81.88c0,8.72,6.1,15.79,13.62,15.79h198.22c7.52,0,13.62-7.07,13.62-15.79V382.98
			C330.55,374.26,324.46,367.19,316.94,367.19z"/>
		<path class="st63" d="M117.42,384.78c-0.86,0-1.57-0.7-1.57-1.57v-38.43c0-5.95,4.84-10.8,10.79-10.8h45.37
			c0.86,0,1.57,0.7,1.57,1.57c0,0.87-0.7,1.57-1.57,1.57h-45.37c-4.22,0-7.66,3.44-7.66,7.66v38.43
			C118.98,384.08,118.28,384.78,117.42,384.78z"/>
	</g>
</g>
</svg>
